<?xml version="1.0" encoding="UTF-8" standalone="no"?>
<!-- Created with Inkscape (http://www.inkscape.org/) -->

<svg
   xmlns:dc="http://purl.org/dc/elements/1.1/"
   xmlns:cc="http://creativecommons.org/ns#"
   xmlns:rdf="http://www.w3.org/1999/02/22-rdf-syntax-ns#"
   xmlns:svg="http://www.w3.org/2000/svg"
   xmlns="http://www.w3.org/2000/svg"
   xmlns:xlink="http://www.w3.org/1999/xlink"
   xmlns:sodipodi="http://sodipodi.sourceforge.net/DTD/sodipodi-0.dtd"
   xmlns:inkscape="http://www.inkscape.org/namespaces/inkscape"
   id="svg2"
   version="1.1"
   inkscape:version="0.92.2 (5c3e80d, 2017-08-06)"
   width="2481"
   height="3503"
   sodipodi:docname="Pepper-and-Carrot_by-David-Revoy_E17P04.svg"
   inkscape:export-filename="E:\Users\jamesmichael\Downloads\Compressed\eps\peppercarrot_ep17_translation-master\peppercarrot_ep17_translation-master\ph\Pepper-and-Carrot_by-David-Revoy_E17P04.png"
   inkscape:export-xdpi="98.181801"
   inkscape:export-ydpi="98.181801">
  <metadata
     id="metadata8">
    <rdf:RDF>
      <cc:Work
         rdf:about="">
        <dc:format>image/svg+xml</dc:format>
        <dc:type
           rdf:resource="http://purl.org/dc/dcmitype/StillImage" />
        <dc:title />
      </cc:Work>
    </rdf:RDF>
  </metadata>
  <defs
     id="defs6">
    <filter
       style="color-interpolation-filters:sRGB"
       id="filter4375-4-1-1-1-9-5"
       inkscape:label="deevad outline effect">
      <feFlood
         id="feFlood4377-7-9-0-8-1-7"
         flood-opacity="1"
         flood-color="rgb(0,0,0)"
         result="flood" />
      <feComposite
         id="feComposite4379-3-8-8-2-77-4"
         in2="SourceGraphic"
         in="flood"
         operator="in"
         result="composite1" />
      <feMorphology
         id="feMorphology4393-1-0-49-8-9-3"
         operator="dilate"
         radius="1.3999999999999999"
         result="result3" />
      <feComposite
         id="feComposite4385-9-5-7-0-8-8"
         in2="result3"
         in="SourceGraphic"
         operator="over"
         result="composite2" />
    </filter>
    <filter
       style="color-interpolation-filters:sRGB"
       id="filter4375-4-1-1-1-9-5-3"
       inkscape:label="deevad outline effect">
      <feFlood
         id="feFlood4377-7-9-0-8-1-7-7"
         flood-opacity="1"
         flood-color="rgb(0,0,0)"
         result="flood" />
      <feComposite
         id="feComposite4379-3-8-8-2-77-4-5"
         in2="SourceGraphic"
         in="flood"
         operator="in"
         result="composite1" />
      <feMorphology
         id="feMorphology4393-1-0-49-8-9-3-4"
         operator="dilate"
         radius="1.3999999999999999"
         result="result3" />
      <feComposite
         id="feComposite4385-9-5-7-0-8-8-3"
         in2="result3"
         in="SourceGraphic"
         operator="over"
         result="composite2" />
    </filter>
  </defs>
  <sodipodi:namedview
     pagecolor="#ffffff"
     bordercolor="#666666"
     borderopacity="1"
     objecttolerance="10"
     gridtolerance="10"
     guidetolerance="10"
     inkscape:pageopacity="0"
     inkscape:pageshadow="2"
     inkscape:window-width="1366"
     inkscape:window-height="705"
     id="namedview4"
     showgrid="false"
     inkscape:zoom="0.26152142"
     inkscape:cx="1076.3507"
     inkscape:cy="742.50391"
     inkscape:window-x="-8"
     inkscape:window-y="-8"
     inkscape:window-maximized="1"
     inkscape:current-layer="layer1"
     inkscape:snap-text-baseline="true" />
  <g
     inkscape:groupmode="layer"
     id="layer2"
     inkscape:label="artwork"
     sodipodi:insensitive="true">
    <image
       sodipodi:absref="E:\Users\jamesmichael\Downloads\Compressed\eps\peppercarrot_ep17_translation-master\peppercarrot_ep17_translation-master\ph\../gfx_Pepper-and-Carrot_by-David-Revoy_E17P04.png"
       xlink:href="../gfx_Pepper-and-Carrot_by-David-Revoy_E17P04.png"
       width="2481"
       height="3503"
       id="image10"
       x="0"
       y="0" />
  </g>
  <g
     inkscape:groupmode="layer"
     id="layer3"
     inkscape:label="speechbubbles">
    <path
       style="color:#000000;display:inline;overflow:visible;visibility:visible;fill:#ffffff;fill-opacity:1;fill-rule:nonzero;stroke:none;stroke-width:1.13802004px;marker:none;enable-background:accumulate"
       d="M 157.64761,251.60397 C 152.37217,158.62283 164.86719,45.333071 332.48403,72.201631 492.29518,97.818941 482.31381,133.0351 484.00596,251.08585 485.78879,375.46342 420.56318,435.69094 306.0564,423.76787 238.95312,416.78072 172.0862,410.16631 157.64761,251.60397 Z"
       id="path5026"
       inkscape:connector-curvature="0"
       sodipodi:nodetypes="csssc" />
    <path
       style="color:#000000;display:inline;overflow:visible;visibility:visible;fill:#ffffff;fill-opacity:1;fill-rule:nonzero;stroke:none;stroke-width:1px;marker:none;enable-background:accumulate"
       d="m 398.82667,289.74253 c 14.3116,13.119 28.6233,30.4122 29.8159,34.5864 1.1926,4.1742 -10.1374,27.4306 -5.9632,32.2012 4.1742,4.7705 19.6785,5.3668 21.4675,8.9448 1.7889,3.5779 -3.5779,22.0637 0,25.6416 3.5779,3.5779 28.6232,13.119 29.8159,16.1006 1.1926,2.9816 7.7521,19.0822 19.6784,31.6048 -11.33,-31.6048 -7.7521,-38.1643 -11.9263,-42.9348 -4.1742,-4.7706 -20.8711,-8.9448 -23.2564,-14.3117 -2.3853,-5.3668 2.3853,-23.2564 -2.3853,-28.0269 -4.7705,-4.7705 -16.1006,-6.5595 -16.1006,-6.5595 4.1743,-4.7706 22.0638,-32.7975 2.3853,-60.8244 -19.6785,-28.027 -43.5312,3.5779 -43.5312,3.5779 z"
       id="path5050"
       inkscape:connector-curvature="0" />
    <path
       style="color:#000000;display:inline;overflow:visible;visibility:visible;fill:#ffffff;fill-opacity:1;fill-rule:nonzero;stroke:none;stroke-width:1.22962809px;marker:none;enable-background:accumulate"
       d="m 833.18018,2160.8006 c 31.87228,-58.1134 291.08292,-99.1251 348.99762,33.6011 81.2939,186.3053 24.3845,402.6143 -25.2076,465.1145 -49.592,62.5005 -226.18782,59.8232 -289.33471,-7.5455 -63.14701,-67.3688 -91.41975,-101.4188 -90.58736,-282.2695 0.33975,-73.8125 24.25977,-150.787 56.13205,-208.9006 z"
       id="path4040"
       inkscape:connector-curvature="0"
       sodipodi:nodetypes="zssssz" />
    <path
       style="color:#000000;display:inline;overflow:visible;visibility:visible;fill:#ffffff;fill-opacity:1;fill-rule:nonzero;stroke:none;stroke-width:1.09323454px;marker:none;enable-background:accumulate"
       d="m 1955.3457,2938.0095 c -5.7024,-76.3711 9.5039,-279.2319 126.404,-262.5255 116.8998,16.7058 135.9081,112.1697 138.7593,140.809 2.8512,28.639 27.5617,190.9278 -63.6772,233.8868 -91.2391,42.9586 -172.9738,-2.3869 -201.4861,-112.1703 z"
       id="path3525"
       inkscape:connector-curvature="0" />
    <path
       style="color:#000000;display:inline;overflow:visible;visibility:visible;fill:#ffffff;fill-opacity:1;fill-rule:nonzero;stroke:none;stroke-width:1.19046748px;marker:none;enable-background:accumulate"
       d="m 2073.9251,3023.1826 c 34.1708,-61.9115 156.4298,-47.3806 203.8141,1.1768 47.3839,48.5568 38.4361,107.2255 39.5786,133.4754 1.1422,26.2497 -9.9132,145.9396 -36.1629,166.4443 -26.2493,20.504 -98.9494,23.4224 -124.1545,20.3197 -25.2051,-3.1028 -89.9825,-33.8415 -107.2493,-72.7956 -39.956,-90.1405 -9.9968,-186.7089 24.174,-248.6206 z"
       id="path3330"
       inkscape:connector-curvature="0"
       sodipodi:nodetypes="zsssssz" />
    <path
       style="fill:#ffffff;stroke:none"
       d="m 1923.3752,2862.4603 c 2.7209,23.3812 5.5497,38.0232 15.3787,40.1539 9.8287,2.1307 13.5006,5.1828 26.2212,-2.7646 12.7206,-7.9476 17.2198,-18.2536 31.2881,-22.5385 8.0133,-2.4407 32.2563,36.9919 28.2024,58.6024 -4.054,21.6106 36.5944,-14.8588 36.5944,-14.8588 0,0 -3.6849,-35.7197 -6.4866,-40.7731 -2.8019,-5.0534 -12.5588,-44.1064 -43.0632,-34.9203 -30.5045,9.1862 -45.8465,44.3092 -59.252,44.8133 -13.4053,0.5042 -28.036,-9.8328 -28.883,-27.7143 z"
       id="path3137"
       inkscape:connector-curvature="0"
       sodipodi:nodetypes="cscssccssc" />
    <text
       xml:space="preserve"
       style="font-style:normal;font-variant:normal;font-weight:normal;font-stretch:normal;line-height:0%;font-family:Lavi;-inkscape-font-specification:Lavi;letter-spacing:0px;word-spacing:0px;opacity:0.75;fill:#000000;fill-opacity:1;stroke:#000000;stroke-width:0.99339968;stroke-miterlimit:4;stroke-dasharray:none;stroke-opacity:1;filter:url(#filter4375-4-1-1-1-9-5)"
       x="787.65729"
       y="1584.5073"
       id="text4580-6"
       transform="matrix(0.2990777,-0.24739358,0.06701223,0.4604507,203.67479,2312.8617)"
       inkscape:transform-center-x="-16.219953"
       inkscape:transform-center-y="17.127952"><tspan
         sodipodi:role="line"
         id="tspan4582-1"
         x="787.65729"
         y="1584.5073"
         style="font-size:70px;line-height:1.25;fill:#000000;stroke:#000000;stroke-width:0.99339968;stroke-miterlimit:4;stroke-dasharray:none"><tspan
           style="font-size:93.14950562px;fill:#000000;stroke:#000000;stroke-width:0.99339968;stroke-miterlimit:4;stroke-dasharray:none"
           id="tspan4315">Aah!</tspan><tspan
           style="font-size:114.73223114px;fill:#000000;stroke:#000000;stroke-width:0.99339968;stroke-miterlimit:4;stroke-dasharray:none"
           id="tspan4313">!</tspan></tspan></text>
    <text
       xml:space="preserve"
       style="font-style:normal;font-variant:normal;font-weight:normal;font-stretch:normal;line-height:0%;font-family:Lavi;-inkscape-font-specification:Lavi;letter-spacing:0px;word-spacing:0px;opacity:0.75;fill:#000000;fill-opacity:1;stroke:#000000;stroke-width:0.99236238;stroke-miterlimit:4;stroke-dasharray:none;stroke-opacity:1;filter:url(#filter4375-4-1-1-1-9-5-3)"
       x="787.65729"
       y="1584.5073"
       id="text4580-6-8"
       transform="matrix(0.23908707,-0.30307499,0.17626921,0.41105241,41.200019,2415.101)"><tspan
         sodipodi:role="line"
         id="tspan4582-1-6"
         x="787.65729"
         y="1584.5073"
         style="font-size:70px;line-height:1.25;fill:#000000"><tspan
           style="font-size:93.14950562px"
           id="tspan4315-2">Wah!</tspan><tspan
           style="font-size:114.73223114px"
           id="tspan4313-2">!</tspan></tspan></text>
    <path
       style="fill:#ffffff;stroke:none;stroke-width:0.96782923"
       d="m 409.86721,1458.6588 c -9.16362,-196.1247 41.65736,-233.4433 62.45053,-237.7186 16.12568,-3.3154 61.82323,3.3066 105.76909,3.3066 43.94602,0 153.08012,11.7109 171.53068,13.7035 60.92715,6.5796 69.46294,95.9221 70.88049,178.1415 1.41764,82.2193 -6.64985,147.0911 -32.16679,197.3361 -25.51698,50.2454 -184.72741,63.0247 -194.65069,58.4569 -9.92317,-4.5679 -141.76084,-36.5415 -150.26644,-50.2451 -8.50565,-13.7032 -32.12925,-62.4908 -33.54687,-162.9809 z"
       id="path3278"
       inkscape:connector-curvature="0"
       sodipodi:nodetypes="csssssssc" />
    <path
       style="color:#000000;display:inline;overflow:visible;visibility:visible;fill:#ffffff;fill-opacity:1;fill-rule:nonzero;stroke:none;stroke-width:1px;marker:none;enable-background:accumulate"
       d="m 1213.73,1364.8622 c -32.1706,-31.7914 -89.2723,-67.9667 -115.2651,-105.1095 l -7.2388,31.2558 c -16.3886,-8.2235 -26.7524,-22.755 -38.6224,-36.7639 l 0.3254,26.0613 c -38.4338,-19.8866 -64.08508,-37.8556 -95.07008,-63.9296 l -53.24144,31.1951 c 73.2942,6.0218 128.19492,51.6307 166.04482,79.2925 l 4.6482,-24.4623 c 12.0642,8.612 23.7954,17.7246 34.0403,29.0731 l 3.0485,-31.2067 z"
       id="path4032"
       inkscape:connector-curvature="0"
       sodipodi:nodetypes="cccccccccccc" />
  </g>
  <g
     inkscape:groupmode="layer"
     id="layer1"
     inkscape:label="txt">
    <text
       xml:space="preserve"
       style="font-style:normal;font-variant:normal;font-weight:normal;font-stretch:normal;line-height:0%;font-family:Lavi;-inkscape-font-specification:Lavi;text-align:center;letter-spacing:0px;word-spacing:0px;text-anchor:middle;fill:#000000;fill-opacity:1;stroke:none"
       x="993.99786"
       y="2261.2388"
       id="text4246-6"><tspan
         sodipodi:role="line"
         style="font-size:45px;line-height:1.25"
         x="1001.908"
         y="2261.2388"
         id="tspan4892">Pero mas </tspan><tspan
         sodipodi:role="line"
         style="font-size:45px;line-height:1.25"
         x="1001.908"
         y="2317.4888"
         id="tspan4900">maganda parin </tspan><tspan
         sodipodi:role="line"
         style="font-size:45px;line-height:1.25"
         x="1001.908"
         y="2373.7388"
         id="tspan4910">kung tinuruan </tspan><tspan
         sodipodi:role="line"
         style="font-size:45px;line-height:1.25"
         x="1001.908"
         y="2429.9888"
         id="tspan4902">man lang ako </tspan><tspan
         sodipodi:role="line"
         style="font-size:45px;line-height:1.25"
         x="1001.908"
         y="2486.2388"
         id="tspan4916">ng matinong </tspan><tspan
         sodipodi:role="line"
         style="font-size:45px;line-height:1.25"
         x="1001.908"
         y="2542.4888"
         id="tspan4920">attack spell </tspan><tspan
         sodipodi:role="line"
         style="font-size:45px;line-height:1.25"
         x="993.99786"
         y="2598.7388"
         id="tspan4922">diba... ?</tspan><tspan
         sodipodi:role="line"
         style="font-size:45px;line-height:1.25"
         x="993.99786"
         y="2617.2722"
         id="tspan3427" /><tspan
         sodipodi:role="line"
         style="font-size:45px;line-height:1.25"
         x="993.99786"
         y="2617.2722"
         id="tspan4924" /></text>
    <text
       xml:space="preserve"
       style="font-style:normal;font-variant:normal;font-weight:normal;font-stretch:normal;line-height:0%;font-family:Lavi;-inkscape-font-specification:Lavi;text-align:center;letter-spacing:0px;word-spacing:0px;text-anchor:middle;fill:#000000;fill-opacity:1;stroke:none"
       x="2090.3149"
       y="2810.1982"
       id="text4246-6-2"><tspan
         sodipodi:role="line"
         style="font-size:45px;line-height:1.25"
         x="2090.3149"
         y="2810.1982"
         id="tspan4269-3">Hay...</tspan><tspan
         sodipodi:role="line"
         style="font-size:45px;line-height:1.25"
         x="2090.3149"
         y="2866.4482"
         id="tspan4885">Walang bag</tspan><tspan
         sodipodi:role="line"
         style="font-size:45px;line-height:1.25"
         x="2098.2251"
         y="2922.6982"
         id="tspan3431">walang </tspan><tspan
         sodipodi:role="line"
         style="font-size:45px;line-height:1.25"
         x="2090.3149"
         y="2978.9482"
         id="tspan4934">walis,</tspan><tspan
         sodipodi:role="line"
         style="font-size:45px;line-height:1.25"
         x="2098.2251"
         y="3035.1982"
         id="tspan4321"> </tspan></text>
    <text
       xml:space="preserve"
       style="font-style:normal;font-variant:normal;font-weight:normal;font-stretch:normal;line-height:0%;font-family:Lavi;-inkscape-font-specification:Lavi;text-align:center;letter-spacing:0px;word-spacing:0px;text-anchor:middle;fill:#000000;fill-opacity:1;stroke:none"
       x="2172.4675"
       y="3129.1448"
       id="text4246-6-2-4"><tspan
         sodipodi:role="line"
         style="font-size:45px;line-height:1.25"
         x="2180.3777"
         y="3129.1448"
         id="tspan4875">Matagal </tspan><tspan
         sodipodi:role="line"
         style="font-size:45px;line-height:1.25"
         x="2180.3777"
         y="3185.3948"
         id="tspan4881">-tagal na </tspan><tspan
         sodipodi:role="line"
         style="font-size:45px;line-height:1.25"
         x="2172.4675"
         y="3241.6448"
         id="tspan4877">lakaran to...</tspan></text>
    <flowRoot
       xml:space="preserve"
       id="flowRoot4799"
       style="font-style:normal;font-variant:normal;font-weight:normal;font-stretch:normal;font-size:40px;line-height:1.25;font-family:Lavi;-inkscape-font-specification:Lavi;text-align:center;letter-spacing:0px;word-spacing:0px;text-anchor:middle;fill:#000000;fill-opacity:1;stroke:none"
       transform="translate(-86.035018,-273.40017)"><flowRegion
         id="flowRegion4801"
         style="font-style:normal;font-variant:normal;font-weight:normal;font-stretch:normal;font-family:Lavi;-inkscape-font-specification:Lavi;text-align:center;text-anchor:middle"><rect
           id="rect4803"
           width="231.33861"
           height="319.28552"
           x="292.51907"
           y="407.65125"
           style="font-style:normal;font-variant:normal;font-weight:normal;font-stretch:normal;font-family:Lavi;-inkscape-font-specification:Lavi;text-align:center;text-anchor:middle" /></flowRegion><flowPara
         id="flowPara4805" /><flowPara
         id="flowPara4807">H'wag ka magpanic,</flowPara><flowPara
         id="flowPara4809">Carrot...</flowPara></flowRoot>    <flowRoot
       xml:space="preserve"
       id="flowRoot4811"
       style="font-style:normal;font-variant:normal;font-weight:normal;font-stretch:normal;font-size:40px;line-height:1.25;font-family:Lavi;-inkscape-font-specification:Lavi;text-align:center;letter-spacing:0px;word-spacing:0px;text-anchor:middle;fill:#000000;fill-opacity:1;stroke:none"
       transform="matrix(1.1857448,0,0,1.1857448,-39.637459,-497.70909)"><flowRegion
         id="flowRegion4813"
         style="font-style:normal;font-variant:normal;font-weight:normal;font-stretch:normal;font-family:Lavi;-inkscape-font-specification:Lavi;text-align:center;text-anchor:middle"><rect
           id="rect4815"
           width="689.474"
           height="262.27057"
           x="335.27365"
           y="1326.425"
           style="font-style:normal;font-variant:normal;font-weight:normal;font-stretch:normal;font-family:Lavi;-inkscape-font-specification:Lavi;text-align:center;text-anchor:middle" /></flowRegion><flowPara
         id="flowPara4831"
         style="stroke:#000000">&quot;Ipakita mo sa kanila ang nagbabadyang sumpong...</flowPara><flowPara
         id="flowPara4827" /></flowRoot>    <flowRoot
       transform="matrix(1.1857448,0,0,1.1857448,63.107697,-362.5181)"
       style="font-style:normal;font-variant:normal;font-weight:normal;font-stretch:normal;font-size:40px;line-height:1.25;font-family:Lavi;-inkscape-font-specification:Lavi;text-align:center;letter-spacing:0px;word-spacing:0px;text-anchor:middle;fill:#000000;fill-opacity:1;stroke:none;stroke-width:4.12061691;stroke-miterlimit:4;stroke-dasharray:none"
       id="flowRoot4849"
       xml:space="preserve"><flowRegion
         style="font-style:normal;font-variant:normal;font-weight:normal;font-stretch:normal;font-family:Lavi;-inkscape-font-specification:Lavi;text-align:center;text-anchor:middle;stroke-width:4.12061691;stroke-miterlimit:4;stroke-dasharray:none"
         id="flowRegion4839"><rect
           style="font-style:normal;font-variant:normal;font-weight:normal;font-stretch:normal;font-family:Lavi;-inkscape-font-specification:Lavi;text-align:center;text-anchor:middle;stroke-width:4.12061691;stroke-miterlimit:4;stroke-dasharray:none"
           y="1326.425"
           x="335.27365"
           height="397.01273"
           width="267.62384"
           id="rect4837" /></flowRegion><flowPara
         style="stroke:#000000;stroke-width:4.12061691;stroke-miterlimit:4;stroke-dasharray:none"
         id="flowPara4841" /><flowPara
         id="flowPara4843">kahit isang dosenang sumpa pa yan,</flowPara><flowPara
         id="flowPara4845">masisindak sa isang matalim na <flowSpan
   style="stroke:#000000;stroke-width:4.12061691;stroke-miterlimit:4;stroke-dasharray:none"
   id="flowSpan4856">ISUG</flowSpan>&quot;</flowPara><flowPara
         id="flowPara4847" /></flowRoot>    <text
       xml:space="preserve"
       style="font-style:normal;font-weight:normal;font-size:40px;line-height:1.25;font-family:sans-serif;letter-spacing:0px;word-spacing:0px;fill:#000000;fill-opacity:1;stroke:none"
       x="1624.9957"
       y="1453.5046"
       id="text4860"><tspan
         sodipodi:role="line"
         id="tspan4858"
         x="1624.9957"
         y="1453.5046" /></text>
    <text
       xml:space="preserve"
       style="font-style:normal;font-weight:normal;font-size:40px;line-height:1.25;font-family:sans-serif;letter-spacing:0px;word-spacing:0px;fill:#000000;fill-opacity:1;stroke:none"
       x="543.46777"
       y="317.90033"
       id="text4928"><tspan
         sodipodi:role="line"
         id="tspan4926"
         x="543.46777"
         y="317.90033" /></text>
    <text
       xml:space="preserve"
       style="font-style:normal;font-weight:normal;font-size:40px;line-height:1.25;font-family:sans-serif;letter-spacing:0px;word-spacing:0px;fill:#000000;fill-opacity:1;stroke:none"
       x="1085.9531"
       y="1767.0045"
       id="text4932"><tspan
         sodipodi:role="line"
         id="tspan4930"
         x="1085.9531"
         y="1767.0045" /></text>
    <flowRoot
       xml:space="preserve"
       id="flowRoot4821"
       style="fill:black;fill-opacity:1;stroke:none;font-family:sans-serif;font-style:normal;font-weight:normal;font-size:40px;line-height:1.25;letter-spacing:0px;word-spacing:0px"><flowRegion
         id="flowRegion4823"><rect
           id="rect4825"
           width="64.048172"
           height="47.497982"
           x="322.15347"
           y="170.87624" /></flowRegion><flowPara
         id="flowPara4828" /></flowRoot>  </g>
</svg>
