<?xml version="1.0" encoding="UTF-8" standalone="no"?>
<!-- Created with Inkscape (http://www.inkscape.org/) -->

<svg
   id="svg2"
   version="1.1"
   inkscape:version="1.3 (1:1.3+202307231459+0e150ed6c4)"
   width="2481"
   height="3503"
   sodipodi:docname="E36P10.svg"
   xmlns:inkscape="http://www.inkscape.org/namespaces/inkscape"
   xmlns:sodipodi="http://sodipodi.sourceforge.net/DTD/sodipodi-0.dtd"
   xmlns:xlink="http://www.w3.org/1999/xlink"
   xmlns="http://www.w3.org/2000/svg"
   xmlns:svg="http://www.w3.org/2000/svg"
   xmlns:rdf="http://www.w3.org/1999/02/22-rdf-syntax-ns#"
   xmlns:cc="http://creativecommons.org/ns#"
   xmlns:dc="http://purl.org/dc/elements/1.1/">
  <metadata
     id="metadata8">
    <rdf:RDF>
      <cc:Work
         rdf:about="">
        <dc:format>image/svg+xml</dc:format>
        <dc:type
           rdf:resource="http://purl.org/dc/dcmitype/StillImage" />
        <dc:title />
      </cc:Work>
    </rdf:RDF>
  </metadata>
  <defs
     id="defs6">
    <filter
       style="color-interpolation-filters:sRGB"
       id="filter4375-4-1-1-1-9-6-9-2-1-5-4"
       inkscape:label="deevad outline effect"
       x="-0.025218471"
       y="-0.068702346"
       width="1.0504369"
       height="1.1374047">
      <feFlood
         id="feFlood4377-7-9-0-8-1-0-2-2-06-5-3"
         flood-opacity="1"
         flood-color="rgb(0,0,0)"
         result="flood" />
      <feComposite
         id="feComposite4379-3-8-8-2-77-6-0-8-3-8-64"
         in2="SourceGraphic"
         in="flood"
         operator="in"
         result="composite1" />
      <feMorphology
         id="feMorphology4393-1-0-49-8-9-2-2-9-2-7-3"
         operator="dilate"
         radius="4"
         result="result3" />
      <feComposite
         id="feComposite4385-9-5-7-0-8-6-3-7-0-1-1"
         in2="result3"
         in="SourceGraphic"
         operator="over"
         result="composite2" />
    </filter>
  </defs>
  <sodipodi:namedview
     pagecolor="#1e1e1e"
     bordercolor="#111111"
     borderopacity="1"
     objecttolerance="10"
     gridtolerance="10"
     guidetolerance="10"
     inkscape:pageopacity="0"
     inkscape:pageshadow="2"
     inkscape:window-width="1920"
     inkscape:window-height="997"
     id="namedview4"
     showgrid="false"
     inkscape:zoom="0.3732132"
     inkscape:cx="1181.6302"
     inkscape:cy="2869.6734"
     inkscape:window-x="0"
     inkscape:window-y="0"
     inkscape:window-maximized="1"
     inkscape:current-layer="layer4"
     inkscape:pagecheckerboard="0"
     inkscape:snap-global="false"
     inkscape:showpageshadow="0"
     inkscape:deskcolor="#1e1e1e" />
  <g
     inkscape:groupmode="layer"
     id="layer2"
     inkscape:label="artwork"
     sodipodi:insensitive="true">
    <image
       xlink:href="../gfx_Pepper-and-Carrot_by-David-Revoy_E36P10.png"
       y="0"
       x="0"
       id="image10"
       height="3503"
       width="2481" />
  </g>
  <g
     inkscape:groupmode="layer"
     id="layer4"
     inkscape:label="speechbubbles-thoughts"
     style="display:inline;opacity:0.620856;mix-blend-mode:multiply">
    <rect
       style="color:#000000;clip-rule:nonzero;display:inline;overflow:visible;visibility:visible;isolation:auto;mix-blend-mode:normal;color-interpolation:sRGB;color-interpolation-filters:linearRGB;solid-color:#000000;solid-opacity:1;fill:#755300;fill-opacity:1;fill-rule:nonzero;stroke:none;stroke-width:1.66048;stroke-linecap:butt;stroke-linejoin:miter;stroke-miterlimit:4;stroke-dasharray:none;stroke-dashoffset:0;stroke-opacity:1;marker:none;color-rendering:auto;image-rendering:auto;shape-rendering:auto;text-rendering:auto;enable-background:accumulate"
       id="rect4632-8-6-1-3-6-7-1-2"
       width="371.37607"
       height="130.10451"
       x="123.89362"
       y="2570.2031"
       ry="40"
       rx="49.219711" />
    <rect
       style="color:#000000;clip-rule:nonzero;display:inline;overflow:visible;visibility:visible;opacity:1;isolation:auto;mix-blend-mode:normal;color-interpolation:sRGB;color-interpolation-filters:linearRGB;solid-color:#000000;solid-opacity:1;fill:#755300;fill-opacity:1;fill-rule:nonzero;stroke:none;stroke-width:2.3578;stroke-linecap:butt;stroke-linejoin:miter;stroke-miterlimit:4;stroke-dasharray:none;stroke-dashoffset:0;stroke-opacity:1;marker:none;color-rendering:auto;image-rendering:auto;shape-rendering:auto;text-rendering:auto;enable-background:accumulate"
       id="rect4632-8-6-1-3-6-7-1-2-2"
       width="629.68036"
       height="154.72061"
       x="211.60721"
       y="2684.3567"
       ry="39.999996"
       rx="41.818081" />
    <rect
       style="color:#000000;clip-rule:nonzero;display:inline;overflow:visible;visibility:visible;opacity:1;isolation:auto;mix-blend-mode:normal;color-interpolation:sRGB;color-interpolation-filters:linearRGB;solid-color:#000000;solid-opacity:1;fill:#755300;fill-opacity:1;fill-rule:nonzero;stroke:none;stroke-width:2.03793;stroke-linecap:butt;stroke-linejoin:miter;stroke-miterlimit:4;stroke-dasharray:none;stroke-dashoffset:0;stroke-opacity:1;marker:none;color-rendering:auto;image-rendering:auto;shape-rendering:auto;text-rendering:auto;enable-background:accumulate"
       id="rect4632-8-6-1-3-6-7-1-2-2-8"
       width="489.92786"
       height="148.55797"
       x="518.00671"
       y="2973.1814"
       ry="34.439716"
       rx="33.959297" />
    <rect
       style="color:#000000;clip-rule:nonzero;display:inline;overflow:visible;visibility:visible;opacity:1;isolation:auto;mix-blend-mode:normal;color-interpolation:sRGB;color-interpolation-filters:linearRGB;solid-color:#000000;solid-opacity:1;fill:#755300;fill-opacity:1;fill-rule:nonzero;stroke:none;stroke-width:2.06832;stroke-linecap:butt;stroke-linejoin:miter;stroke-miterlimit:4;stroke-dasharray:none;stroke-dashoffset:0;stroke-opacity:1;marker:none;color-rendering:auto;image-rendering:auto;shape-rendering:auto;text-rendering:auto;enable-background:accumulate"
       id="rect4632-8-6-1-3-6-7-1-2-2-8-9"
       width="465.07831"
       height="161.19519"
       x="647.89618"
       y="3219.7405"
       ry="39.999996"
       rx="42.806919" />
    <rect
       style="color:#000000;clip-rule:nonzero;display:inline;overflow:visible;visibility:visible;isolation:auto;mix-blend-mode:normal;color-interpolation:sRGB;color-interpolation-filters:linearRGB;solid-color:#000000;solid-opacity:1;fill:#755300;fill-opacity:1;fill-rule:nonzero;stroke:none;stroke-width:1.89004;stroke-linecap:butt;stroke-linejoin:miter;stroke-miterlimit:4;stroke-dasharray:none;stroke-dashoffset:0;stroke-opacity:1;marker:none;color-rendering:auto;image-rendering:auto;shape-rendering:auto;text-rendering:auto;enable-background:accumulate"
       id="rect4632-8-6-1-3-6-7-1-2-2-8-9-9"
       width="388.35651"
       height="161.19519"
       x="370.89807"
       y="3095.9185"
       ry="39.999996"
       rx="31.378321" />
    <rect
       style="color:#000000;clip-rule:nonzero;display:inline;overflow:visible;visibility:visible;opacity:1;isolation:auto;mix-blend-mode:normal;color-interpolation:sRGB;color-interpolation-filters:linearRGB;solid-color:#000000;solid-opacity:1;fill:#755300;fill-opacity:1;fill-rule:nonzero;stroke:none;stroke-width:1.14815;stroke-linecap:butt;stroke-linejoin:miter;stroke-miterlimit:4;stroke-dasharray:none;stroke-dashoffset:0;stroke-opacity:1;marker:none;color-rendering:auto;image-rendering:auto;shape-rendering:auto;text-rendering:auto;enable-background:accumulate"
       id="rect4632-8-6-1-3-6-7-1-2-2-8-9-7"
       width="191.76936"
       height="120.46292"
       x="2065.0508"
       y="2554.6343"
       ry="39.999996"
       rx="28.819773" />
    <rect
       style="color:#000000;clip-rule:nonzero;display:inline;overflow:visible;visibility:visible;isolation:auto;mix-blend-mode:normal;color-interpolation:sRGB;color-interpolation-filters:linearRGB;solid-color:#000000;solid-opacity:1;fill:#755300;fill-opacity:1;fill-rule:nonzero;stroke:none;stroke-width:2.73036;stroke-linecap:butt;stroke-linejoin:miter;stroke-miterlimit:4;stroke-dasharray:none;stroke-dashoffset:0;stroke-opacity:1;marker:none;color-rendering:auto;image-rendering:auto;shape-rendering:auto;text-rendering:auto;enable-background:accumulate"
       id="rect4632-8-6-1-3-6-7-1-2-2-5"
       width="804.9386"
       height="162.30347"
       x="125.98061"
       y="2823.7839"
       ry="39.999996"
       rx="41.76152" />
  </g>
  <g
     inkscape:groupmode="layer"
     id="layer3"
     inkscape:label="speechbubbles"
     style="display:inline">
    <path
       style="display:inline;fill:#ffbebe;stroke:none;stroke-width:1.04581;fill-opacity:1"
       d="m 625.8283,320.34782 c -38.45538,0.66989 -76.8561,8.65697 -110.81916,23.86545 -19.05559,10.29864 -30.39206,28.66156 -32.83263,47.26671 -2.29834,15.13005 -4.16802,30.68344 -0.3608,45.75431 3.60943,14.00615 12.47162,26.98255 25.07486,36.669 16.83806,13.39041 39.15985,21.06545 61.87258,24.10737 29.2471,4.41394 59.0697,4.46335 88.56921,6.97996 41.45329,2.75711 83.48427,3.72828 124.59951,-2.39069 26.24332,-3.47035 53.04298,-7.77687 76.37965,-18.95435 19.1666,-9.41493 33.79641,-25.67509 37.57424,-44.17861 2.95758,-14.23417 3.57851,-28.83694 1.73187,-43.20593 -0.8541,-6.50014 -2.17344,-13.0752 -5.85292,-18.9246 -6.16446,-10.62434 -16.76145,-19.11076 -28.9906,-24.82313 -23.45929,-12.14058 -50.17924,-19.21264 -77.16443,-23.35596 -36.62196,-5.10446 -73.95025,-3.12682 -110.75037,-6.71692 -16.29742,-1.26372 -32.65102,-2.32159 -49.03101,-2.09261 z"
       id="path3280-8-3"
       inkscape:connector-curvature="0"
       sodipodi:nodetypes="csssc" />
    <path
       style="display:inline;fill:#ffbebe;fill-rule:evenodd;stroke:none;stroke-width:0.785286px;stroke-linecap:butt;stroke-linejoin:miter;stroke-opacity:1;fill-opacity:1"
       d="m 549.49612,239.2656 c 19.75482,16.65285 18.63729,25.91315 -4.24465,27.46563 21.10135,9.2378 15.52355,13.63064 3.72305,16.89258 28.04026,18.71989 23.16322,23.26373 1.38152,26.24037 37.39655,10.54786 27.34887,38.52399 16.62702,52.30628 19.33882,-18.53919 11.84392,-9.08092 9.10137,22.06462 13.01757,-35.63303 33.6196,-1.21793 31.88356,26.67671 10.43729,-22.32392 20.44282,-30.29717 29.95178,-21.77594 23.92285,-19.38852 26.63258,10.72065 36.19864,24.83148 9.04601,-23.53224 18.45298,-23.32949 27.97455,-15.55841 6.92409,-9.64617 13.47495,-24.03098 22.97707,-0.93025 6.76085,-19.49934 10.97318,-4.80312 15.96885,-0.61536 -4.82796,-11.91082 7.74563,-13.89679 40.33596,-4.4685 -11.95281,-7.16207 -9.49532,-14.8075 9.97,-23.02339 -24.43016,-22.92527 -13.30838,-55.42326 8.174,-54.34861 -37.43578,-8.63761 -10.4063,-23.94864 11.72568,-38.9944 -34.02417,6.33293 -42.57243,4.85278 -41.25417,-24.50192 -38.77444,19.19361 -27.25217,5.69974 -25.9473,-3.12486 -28.77236,19.70176 -39.43456,0.49845 -38.16446,-14.78882 -30.60239,32.1157 -42.99521,0.68221 -51.64148,-18.87098 -12.27001,38.73602 -21.77441,22.48226 -31.26753,6.00173 -5.83741,33.16555 -11.5013,22.84752 -17.16891,13.43902 -3.65813,14.20432 -11.73128,17.70549 -25.75687,6.77524 9.07669,12.74385 1.71078,14.12635 -30.54768,-1.69222 z"
       id="path4289-9"
       inkscape:connector-curvature="0"
       sodipodi:nodetypes="cccccccccccccccccccccccc" />
    <path
       style="color:#000000;display:inline;overflow:visible;visibility:visible;fill:#ffbebe;fill-opacity:1;fill-rule:nonzero;stroke:none;stroke-width:1px;marker:none;enable-background:accumulate"
       d="m 440.59106,538.57742 c 49.22188,-23.08946 94.45166,-50.05947 99.80873,-89.83498 7.57243,-56.22565 0.63966,-31.22207 0.63966,-31.22207 l 27.96352,47.69077 c 4.62884,0.12169 -9.29495,48.77421 -128.41191,73.36628 z"
       id="path3072-12"
       inkscape:connector-curvature="0"
       sodipodi:nodetypes="csccc" />
    <path
       style="color:#000000;display:inline;overflow:visible;visibility:visible;fill:#d5faff;fill-opacity:1;fill-rule:nonzero;stroke:none;stroke-width:1.13247px;marker:none;enable-background:accumulate"
       d="m 1380.9103,2074.3069 c 26.081,-15.9133 212.109,-31.1535 264.912,9.7582 44.0741,34.1483 41.2461,101.0469 0.8805,126.1906 -41.1233,25.6145 -197.839,16.5675 -258.4102,4.301 -57.039,-11.5509 -56.0068,-39.4713 -54.4512,-88.1384 0.6352,-19.862 20.9881,-36.1992 47.0689,-52.1114 z"
       id="path4040-4-5-3-6"
       inkscape:connector-curvature="0"
       sodipodi:nodetypes="zssssz" />
    <path
       style="color:#000000;display:inline;overflow:visible;visibility:visible;fill:#ffbebe;fill-opacity:1;fill-rule:nonzero;stroke:none;stroke-width:1.50593px;marker:none;enable-background:accumulate"
       d="m 194.22257,1964.6444 c 39.21712,-18.7137 318.94194,-36.6356 398.34042,11.4753 66.27275,40.1574 62.02052,118.8284 1.32406,148.3967 -61.83626,30.122 -297.48497,19.483 -388.56409,5.0578 -85.76776,-13.5834 -84.21584,-46.4171 -81.87653,-103.6484 0.95486,-23.3571 31.55903,-42.5691 70.77614,-61.2814 z"
       id="path4040-4-5-3-6-3"
       inkscape:connector-curvature="0"
       sodipodi:nodetypes="zssssz" />
    <path
       style="color:#000000;display:inline;overflow:visible;visibility:visible;fill:#ffbebe;fill-opacity:1;fill-rule:nonzero;stroke:none;stroke-width:1.01292px;marker:none;enable-background:accumulate"
       d="m 347.99106,2112.1555 c 25.91939,-12.8099 210.79516,-25.078 263.27122,7.8553 43.80102,27.4888 40.9906,81.3412 0.8751,101.5814 -40.86881,20.6194 -196.61382,13.3367 -256.80985,3.4623 -56.68565,-9.2983 -55.65996,-31.7738 -54.11386,-70.9501 0.6311,-15.9886 20.85801,-29.1398 46.77739,-41.9489 z"
       id="path4040-4-5-3-6-3-6"
       inkscape:connector-curvature="0"
       sodipodi:nodetypes="zssssz" />
    <path
       style="color:#000000;display:inline;overflow:visible;visibility:visible;fill:#ffbebe;fill-opacity:1;fill-rule:nonzero;stroke:none;stroke-width:0.922522px;marker:none;enable-background:accumulate"
       d="m 562.6738,2181.0684 c -32.75507,0.8502 -66.00138,1.3809 -97.77119,9.8543 -16.34197,4.4539 -30.51097,13.7633 -44.37013,22.7845 -6.60883,4.8776 -11.10632,12.4008 -11.4719,20.3992 -1.91966,12.5873 -0.135,26.3662 8.2124,36.7075 8.63391,11.0769 22.08732,17.6321 35.55929,21.9559 19.78535,6.0713 40.73815,7.1771 61.36592,8.0595 22.26797,0.7145 44.54821,1.0564 66.81525,1.7895 34.51968,0.4193 69.367,-0.3957 103.22748,-7.3574 14.57336,-3.718 28.4977,-12.329 35.26279,-25.475 9.97194,-18.2114 6.59992,-42.0835 -8.10665,-57.1466 -11.95476,-13.4318 -29.71085,-21.1585 -47.7424,-24.009 -33.10474,-6.9703 -67.21672,-7.6152 -100.98086,-7.5624 z"
       id="path4040-4-5-3-6-3-6-1"
       inkscape:connector-curvature="0"
       sodipodi:nodetypes="zssssz" />
    <path
       style="fill:#ffbebe;fill-rule:evenodd;stroke:none;stroke-width:1.23112px;stroke-linecap:butt;stroke-linejoin:miter;stroke-opacity:1;fill-opacity:1"
       d="m 671.22824,2216.5417 c 30.81017,10.9719 65.5513,12.8626 95.53082,-2.3686 6.91277,-3.7854 13.98702,-7.8894 19.53663,-13.9705 9.55095,-13.1271 8.3002,-31.9356 3.6088,-47.0699 -2.47333,-9.7672 -8.23095,-17.695 -14.42732,-24.7806 -5.53037,-6.2982 -9.50646,-14.4957 -9.64918,-23.5416 -2.52216,-27.3222 16.33446,-51.9853 36.82341,-65.3242 14.85421,-9.2909 28.45318,-12.6062 45.26225,-13.4483 19.50231,-0.8061 38.3877,0.3868 57.29171,5.5859 -29.74945,-3.2744 -61.22343,-2.4811 -88.61276,12.6226 -15.29847,8.5293 -29.67526,21.9893 -35.21396,40.896 -2.71242,9.1687 -3.11267,20.4223 2.14402,28.4972 9.65302,12.1063 20.76534,24.3643 23.80835,40.985 7.46998,26.2244 -1.50243,58.3941 -23.10007,72.2383 -26.39622,18.9829 -57.66765,26.1047 -88.17459,30.9573 -18.25074,2.323 -36.71696,2.5507 -54.99747,0.5137 -1.97356,-10.1661 -8.09967,-19.5018 -7.05367,-30.2563 1.66287,-7.7832 9.7677,-6.0009 14.96932,-7.1626 7.4179,-1.4578 14.83582,-2.9155 22.25371,-4.3734 z"
       id="path895"
       inkscape:connector-curvature="0"
       sodipodi:nodetypes="csscccccccccccccccc" />
    <path
       style="fill:#d5faff;fill-rule:evenodd;stroke:none;stroke-width:1px;stroke-linecap:butt;stroke-linejoin:miter;stroke-opacity:1;fill-opacity:1"
       d="m 1355.1074,2023.6623 c 57.2014,6.1035 72.5186,15.7188 59.4739,86.4698 -12.28,66.6033 42.1191,12.5346 42.1191,12.5346 0,0 10.9032,-118.6048 -101.593,-99.0044 z"
       id="path914"
       inkscape:connector-curvature="0"
       sodipodi:nodetypes="cscc" />
  </g>
  <g
     inkscape:groupmode="layer"
     id="layer1"
     inkscape:label="txt">
    <text
       id="text4246-4-2-7"
       y="314.90601"
       x="676.08679"
       style="font-style:normal;font-variant:normal;font-weight:normal;font-stretch:normal;line-height:0%;font-family:Lavi;-inkscape-font-specification:Lavi;text-align:center;letter-spacing:0px;word-spacing:0px;text-anchor:middle;fill:#000000;fill-opacity:1;stroke:none"
       xml:space="preserve"><tspan
         y="314.90601"
         x="676.08679"
         style="font-style:normal;font-variant:normal;font-weight:bold;font-stretch:normal;font-size:45px;line-height:1.25;font-family:Lavi;-inkscape-font-specification:'Lavi Bold';fill:#000000"
         sodipodi:role="line"
         id="tspan6753">Šičimi!</tspan></text>
    <text
       id="text4246-4-2-7-3"
       y="406.19336"
       x="688.84338"
       style="font-style:normal;font-variant:normal;font-weight:normal;font-stretch:normal;line-height:0%;font-family:Lavi;-inkscape-font-specification:Lavi;text-align:center;letter-spacing:0px;word-spacing:0px;text-anchor:middle;fill:#000000;fill-opacity:1;stroke:none"
       xml:space="preserve"><tspan
         y="406.19336"
         x="688.84338"
         style="font-size:45px;line-height:1.25;fill:#000000"
         sodipodi:role="line"
         id="tspan452">Hvala duhovom, da</tspan><tspan
         y="462.44336"
         x="688.84338"
         style="font-size:45px;line-height:1.25;fill:#000000"
         sodipodi:role="line"
         id="tspan458">si živa in zdrava.</tspan></text>
    <text
       xml:space="preserve"
       style="font-style:normal;font-variant:normal;font-weight:normal;font-stretch:normal;line-height:0%;font-family:Lavi;-inkscape-font-specification:Lavi;letter-spacing:0px;word-spacing:0px;display:inline;opacity:0.806184;fill:#ffffff;fill-opacity:1;stroke:#ffffff;stroke-width:1.6559;stroke-miterlimit:4;stroke-dasharray:none;stroke-opacity:1;filter:url(#filter4375-4-1-1-1-9-6-9-2-1-5-4)"
       x="787.65729"
       y="1584.5073"
       id="text4580-1-7-3-6-91"
       transform="matrix(0.51191251,-0.23315541,-0.09450659,0.8056594,2005.4699,-10.015837)"><tspan
         sodipodi:role="line"
         id="tspan4582-8-5-6-1-0"
         x="787.65729"
         y="1584.5073"
         style="font-size:70px;line-height:1.25;letter-spacing:2.96623px;fill:#ffffff;stroke:#ffffff;stroke-width:1.6559;stroke-miterlimit:4;stroke-dasharray:none;stroke-opacity:1">zgrab</tspan></text>
    <text
       id="text4246-4-2-7-3-7"
       y="2003.0791"
       x="383.90411"
       style="font-style:normal;font-variant:normal;font-weight:normal;font-stretch:normal;font-size:42px;line-height:0%;font-family:Lavi;-inkscape-font-specification:Lavi;text-align:center;letter-spacing:0px;word-spacing:0px;text-anchor:middle;fill:#000000;fill-opacity:1;stroke:none"
       xml:space="preserve"><tspan
         y="2003.0791"
         x="383.90411"
         style="font-size:42px;line-height:1.25;fill:#000000"
         sodipodi:role="line"
         id="tspan22118">Hudo me je</tspan><tspan
         y="2055.5789"
         x="383.90411"
         style="font-size:42px;line-height:1.25;fill:#000000"
         sodipodi:role="line"
         id="tspan465">zaskrbelo, ko sem slišala,</tspan><tspan
         y="2108.0789"
         x="383.90411"
         style="font-size:42px;line-height:1.25;fill:#000000"
         sodipodi:role="line"
         id="tspan467">da so te zaprli!</tspan></text>
    <text
       id="text4246-4-2-7-3-7-2"
       y="2182.6697"
       x="471.91486"
       style="font-style:normal;font-variant:normal;font-weight:normal;font-stretch:normal;font-size:42px;line-height:0%;font-family:Lavi;-inkscape-font-specification:Lavi;text-align:center;letter-spacing:0px;word-spacing:0px;text-anchor:middle;fill:#000000;fill-opacity:1;stroke:none"
       xml:space="preserve"><tspan
         y="2182.6697"
         x="471.91486"
         style="font-size:42px;line-height:1.25;fill:#000000"
         sodipodi:role="line"
         id="tspan33034">In ta spopad!</tspan></text>
    <text
       id="text4246-4-2-7-3-7-2-7"
       y="2259.3706"
       x="567.14069"
       style="font-style:normal;font-variant:normal;font-weight:normal;font-stretch:normal;font-size:42px;line-height:0%;font-family:Lavi;-inkscape-font-specification:Lavi;text-align:center;letter-spacing:0px;word-spacing:0px;text-anchor:middle;fill:#000000;fill-opacity:1;stroke:none"
       xml:space="preserve"><tspan
         y="2259.3706"
         x="567.14069"
         style="font-size:42px;line-height:1.25;fill:#000000"
         sodipodi:role="line"
         id="tspan33034-0">Kakšen kaos!</tspan></text>
    <text
       id="text4246-4-2-7-3-7-2-7-9"
       y="2125.2004"
       x="1507.3191"
       style="font-style:normal;font-variant:normal;font-weight:normal;font-stretch:normal;font-size:42px;line-height:0%;font-family:Lavi;-inkscape-font-specification:Lavi;text-align:center;letter-spacing:0px;word-spacing:0px;text-anchor:middle;fill:#000000;fill-opacity:1;stroke:none"
       xml:space="preserve"><tspan
         y="2125.2004"
         x="1507.3191"
         style="font-size:42px;line-height:1.25;fill:#000000"
         sodipodi:role="line"
         id="tspan1523">Toreja, tako</tspan><tspan
         y="2177.7004"
         x="1507.3191"
         style="font-size:42px;line-height:1.25;fill:#000000"
         sodipodi:role="line"
         id="tspan9353">lepo te je videti.</tspan></text>
    <text
       id="text4246-4-2-7-3-7-2-7-9-6"
       y="2647.7126"
       x="312.38132"
       style="font-style:normal;font-variant:normal;font-weight:normal;font-stretch:normal;font-size:45px;line-height:0%;font-family:Lavi;-inkscape-font-specification:Lavi;text-align:center;letter-spacing:0px;word-spacing:0px;text-anchor:middle;fill:#ffffff;fill-opacity:1;stroke:none"
       xml:space="preserve"><tspan
         y="2647.7126"
         x="312.38132"
         style="font-size:45px;line-height:1.25;fill:#ffffff"
         sodipodi:role="line"
         id="tspan44806-6">Sveta nebesa!</tspan></text>
    <text
       id="text4246-4-2-7-3-7-2-7-9-6-2"
       y="2749.2766"
       x="532.29663"
       style="font-style:normal;font-variant:normal;font-weight:normal;font-stretch:normal;font-size:45px;line-height:0%;font-family:Lavi;-inkscape-font-specification:Lavi;text-align:center;letter-spacing:0px;word-spacing:0px;text-anchor:middle;fill:#ffffff;fill-opacity:1;stroke:none"
       xml:space="preserve"><tspan
         y="2749.2766"
         x="532.29663"
         style="font-size:45px;line-height:1.25;fill:#ffffff"
         sodipodi:role="line"
         id="tspan99161">Se pravi sta zmajska letalka</tspan><tspan
         y="2805.5266"
         x="532.29663"
         style="font-size:45px;line-height:1.25;fill:#ffffff"
         sodipodi:role="line"
         id="tspan471">in Šičimi v razmerju …</tspan></text>
    <text
       id="text4246-4-2-7-3-7-2-7-9-6-2-3"
       y="2888.7424"
       x="537.16333"
       style="font-style:normal;font-variant:normal;font-weight:normal;font-stretch:normal;font-size:45px;line-height:0%;font-family:Lavi;-inkscape-font-specification:Lavi;text-align:center;letter-spacing:0px;word-spacing:0px;text-anchor:middle;fill:#ffffff;fill-opacity:1;stroke:none"
       xml:space="preserve"><tspan
         y="2888.7424"
         x="537.16333"
         style="font-size:45px;line-height:1.25;fill:#ffffff"
         sodipodi:role="line"
         id="tspan90723">Ne morem si predstavljati, kaj bi se</tspan><tspan
         y="2944.9924"
         x="537.16333"
         style="font-size:45px;line-height:1.25;fill:#ffffff"
         sodipodi:role="line"
         id="tspan481">zgodilo, če bi se je znebila v tisti jami.</tspan></text>
    <text
       id="text4246-4-2-7-3-7-2-7-9-6-2-1"
       y="3028.2588"
       x="767.71271"
       style="font-style:normal;font-variant:normal;font-weight:normal;font-stretch:normal;font-size:45px;line-height:0%;font-family:Lavi;-inkscape-font-specification:Lavi;text-align:center;letter-spacing:0px;word-spacing:0px;text-anchor:middle;fill:#ffffff;fill-opacity:1;stroke:none"
       xml:space="preserve"><tspan
         y="3028.2588"
         x="767.71271"
         style="font-size:45px;line-height:1.25;fill:#ffffff"
         sodipodi:role="line"
         id="tspan114356">In ta vojska mi je</tspan><tspan
         y="3084.5088"
         x="767.71271"
         style="font-size:45px;line-height:1.25;fill:#ffffff"
         sodipodi:role="line"
         id="tspan552">nedvomno sledila sem.</tspan></text>
    <text
       id="text4246-4-2-7-3-7-2-7-9-6-2-1-3"
       y="3164.1304"
       x="567.22113"
       style="font-style:normal;font-variant:normal;font-weight:normal;font-stretch:normal;font-size:45px;line-height:0%;font-family:Lavi;-inkscape-font-specification:Lavi;text-align:center;letter-spacing:0px;word-spacing:0px;text-anchor:middle;fill:#ffffff;fill-opacity:1;stroke:none"
       xml:space="preserve"><tspan
         y="3164.1304"
         x="567.22113"
         style="font-size:45px;line-height:1.25;fill:#ffffff"
         sodipodi:role="line"
         id="tspan108598">Brez njih zdaj ne</tspan><tspan
         y="3220.3804"
         x="567.22113"
         style="font-size:45px;line-height:1.25;fill:#ffffff"
         sodipodi:role="line"
         id="tspan556">bi bili svobodni.</tspan></text>
    <text
       id="text4246-4-2-7-3-7-2-7-9-6-2-1-0"
       y="3287.1182"
       x="879.04901"
       style="font-style:normal;font-variant:normal;font-weight:normal;font-stretch:normal;font-size:45px;line-height:0%;font-family:Lavi;-inkscape-font-specification:Lavi;text-align:center;letter-spacing:0px;word-spacing:0px;text-anchor:middle;fill:#ffffff;fill-opacity:1;stroke:none"
       xml:space="preserve"><tspan
         y="3287.1182"
         x="879.04901"
         style="font-size:45px;line-height:1.25;fill:#ffffff"
         sodipodi:role="line"
         id="tspan115882">Kot da je vse to med</tspan><tspan
         y="3343.3682"
         x="879.04901"
         style="font-size:45px;line-height:1.25;fill:#ffffff"
         sodipodi:role="line"
         id="tspan562">seboj povezano …</tspan></text>
    <text
       id="text4246-4-2-7-3-7-2-7-9-6-2-1-0-5"
       y="2484.1968"
       x="2723.7483"
       style="font-style:normal;font-variant:normal;font-weight:normal;font-stretch:normal;font-size:59.7016px;line-height:0%;font-family:Lavi;-inkscape-font-specification:Lavi;text-align:center;letter-spacing:0px;word-spacing:0px;text-anchor:middle;fill:#ffffff;fill-opacity:1;stroke:none;stroke-width:1.3267"
       xml:space="preserve"
       transform="matrix(0.94173851,0,-0.16320243,1.0618659,0,0)"
       inkscape:transform-center-x="-14.71405"
       inkscape:transform-center-y="32.044829"><tspan
         y="2484.1968"
         x="2723.7483"
         style="font-style:normal;font-variant:normal;font-weight:bold;font-stretch:normal;font-size:59.7016px;line-height:1.25;font-family:Lavi;-inkscape-font-specification:'Lavi Bold';fill:#ffffff;stroke-width:1.3267"
         sodipodi:role="line"
         id="tspan62935-2">O!</tspan></text>
  </g>
</svg>
