<?xml version="1.0" encoding="UTF-8" standalone="no"?>
<!-- Created with Inkscape (http://www.inkscape.org/) -->

<svg
   id="svg2"
   version="1.1"
   inkscape:version="1.2.2 (b0a8486541, 2022-12-01)"
   width="2481"
   height="3503"
   sodipodi:docname="E06P04.svg"
   viewBox="0 0 2481 3503"
   inkscape:export-filename="/home/hsc/graphics/Projekte/peppercarrot/ep006-potion-contest/peppercarrot_ep06_translation/de_helmar/Pepper-and-Carrot_by-David-Revoy_E06P04.png"
   inkscape:export-xdpi="72"
   inkscape:export-ydpi="72"
   xmlns:inkscape="http://www.inkscape.org/namespaces/inkscape"
   xmlns:sodipodi="http://sodipodi.sourceforge.net/DTD/sodipodi-0.dtd"
   xmlns:xlink="http://www.w3.org/1999/xlink"
   xmlns="http://www.w3.org/2000/svg"
   xmlns:svg="http://www.w3.org/2000/svg"
   xmlns:rdf="http://www.w3.org/1999/02/22-rdf-syntax-ns#"
   xmlns:cc="http://creativecommons.org/ns#"
   xmlns:dc="http://purl.org/dc/elements/1.1/">
  <metadata
     id="metadata8">
    <rdf:RDF>
      <cc:Work
         rdf:about="">
        <dc:format>image/svg+xml</dc:format>
        <dc:type
           rdf:resource="http://purl.org/dc/dcmitype/StillImage" />
        <dc:title />
      </cc:Work>
    </rdf:RDF>
  </metadata>
  <defs
     id="defs6">
    <filter
       id="filter4375-4"
       inkscape:label="deevad outline effect"
       style="color-interpolation-filters:sRGB"
       x="-0.023175602"
       y="-0.11740334"
       width="1.0463512"
       height="1.2348067">
      <feFlood
         id="feFlood4377-7"
         flood-opacity="1"
         flood-color="rgb(0,0,0)"
         result="flood" />
      <feComposite
         id="feComposite4379-3"
         in2="SourceGraphic"
         in="flood"
         operator="in"
         result="composite1" />
      <feMorphology
         id="feMorphology4393-1"
         operator="dilate"
         radius="4"
         result="result3" />
      <feComposite
         id="feComposite4385-9"
         in2="result3"
         in="SourceGraphic"
         operator="over"
         result="composite2" />
    </filter>
    <filter
       id="filter4375-4-1"
       inkscape:label="deevad outline effect"
       style="color-interpolation-filters:sRGB"
       x="-0.023175602"
       y="-0.11740334"
       width="1.0463512"
       height="1.2348067">
      <feFlood
         id="feFlood4377-7-9"
         flood-opacity="1"
         flood-color="rgb(0,0,0)"
         result="flood" />
      <feComposite
         id="feComposite4379-3-8"
         in2="SourceGraphic"
         in="flood"
         operator="in"
         result="composite1" />
      <feMorphology
         id="feMorphology4393-1-0"
         operator="dilate"
         radius="4"
         result="result3" />
      <feComposite
         id="feComposite4385-9-5"
         in2="result3"
         in="SourceGraphic"
         operator="over"
         result="composite2" />
    </filter>
    <filter
       id="filter4375-4-1-4"
       inkscape:label="deevad outline effect"
       style="color-interpolation-filters:sRGB"
       x="-0.023175602"
       y="-0.11740334"
       width="1.0463512"
       height="1.2348067">
      <feFlood
         id="feFlood4377-7-9-7"
         flood-opacity="1"
         flood-color="rgb(0,0,0)"
         result="flood" />
      <feComposite
         id="feComposite4379-3-8-1"
         in2="SourceGraphic"
         in="flood"
         operator="in"
         result="composite1" />
      <feMorphology
         id="feMorphology4393-1-0-6"
         operator="dilate"
         radius="4"
         result="result3" />
      <feComposite
         id="feComposite4385-9-5-9"
         in2="result3"
         in="SourceGraphic"
         operator="over"
         result="composite2" />
    </filter>
    <filter
       id="filter4375-4-1-7"
       inkscape:label="deevad outline effect"
       style="color-interpolation-filters:sRGB"
       x="-0.023175602"
       y="-0.11740334"
       width="1.0463512"
       height="1.2348067">
      <feFlood
         id="feFlood4377-7-9-2"
         flood-opacity="1"
         flood-color="rgb(0,0,0)"
         result="flood" />
      <feComposite
         id="feComposite4379-3-8-5"
         in2="SourceGraphic"
         in="flood"
         operator="in"
         result="composite1" />
      <feMorphology
         id="feMorphology4393-1-0-4"
         operator="dilate"
         radius="4"
         result="result3" />
      <feComposite
         id="feComposite4385-9-5-2"
         in2="result3"
         in="SourceGraphic"
         operator="over"
         result="composite2" />
    </filter>
    <filter
       id="filter4375-4-1-1"
       inkscape:label="deevad outline effect"
       style="color-interpolation-filters:sRGB"
       x="-0.023175602"
       y="-0.11740334"
       width="1.0463512"
       height="1.2348067">
      <feFlood
         id="feFlood4377-7-9-0"
         flood-opacity="1"
         flood-color="rgb(0,0,0)"
         result="flood" />
      <feComposite
         id="feComposite4379-3-8-8"
         in2="SourceGraphic"
         in="flood"
         operator="in"
         result="composite1" />
      <feMorphology
         id="feMorphology4393-1-0-49"
         operator="dilate"
         radius="4"
         result="result3" />
      <feComposite
         id="feComposite4385-9-5-7"
         in2="result3"
         in="SourceGraphic"
         operator="over"
         result="composite2" />
    </filter>
    <filter
       id="filter4375-4-1-40"
       inkscape:label="deevad outline effect"
       style="color-interpolation-filters:sRGB"
       x="-0.023175602"
       y="-0.11740334"
       width="1.0463512"
       height="1.2348067">
      <feFlood
         id="feFlood4377-7-9-5"
         flood-opacity="1"
         flood-color="rgb(0,0,0)"
         result="flood" />
      <feComposite
         id="feComposite4379-3-8-7"
         in2="SourceGraphic"
         in="flood"
         operator="in"
         result="composite1" />
      <feMorphology
         id="feMorphology4393-1-0-7"
         operator="dilate"
         radius="4"
         result="result3" />
      <feComposite
         id="feComposite4385-9-5-5"
         in2="result3"
         in="SourceGraphic"
         operator="over"
         result="composite2" />
    </filter>
    <filter
       id="filter4375-4-1-40-7"
       inkscape:label="deevad outline effect"
       style="color-interpolation-filters:sRGB"
       x="-0.023175602"
       y="-0.11740334"
       width="1.0463512"
       height="1.2348067">
      <feFlood
         id="feFlood4377-7-9-5-6"
         flood-opacity="1"
         flood-color="rgb(0,0,0)"
         result="flood" />
      <feComposite
         id="feComposite4379-3-8-7-8"
         in2="SourceGraphic"
         in="flood"
         operator="in"
         result="composite1" />
      <feMorphology
         id="feMorphology4393-1-0-7-9"
         operator="dilate"
         radius="4"
         result="result3" />
      <feComposite
         id="feComposite4385-9-5-5-3"
         in2="result3"
         in="SourceGraphic"
         operator="over"
         result="composite2" />
    </filter>
    <filter
       id="filter4375-4-1-1-1"
       inkscape:label="deevad outline effect"
       style="color-interpolation-filters:sRGB"
       x="-0.023175602"
       y="-0.11740334"
       width="1.0463512"
       height="1.2348067">
      <feFlood
         id="feFlood4377-7-9-0-8"
         flood-opacity="1"
         flood-color="rgb(0,0,0)"
         result="flood" />
      <feComposite
         id="feComposite4379-3-8-8-2"
         in2="SourceGraphic"
         in="flood"
         operator="in"
         result="composite1" />
      <feMorphology
         id="feMorphology4393-1-0-49-8"
         operator="dilate"
         radius="4"
         result="result3" />
      <feComposite
         id="feComposite4385-9-5-7-0"
         in2="result3"
         in="SourceGraphic"
         operator="over"
         result="composite2" />
    </filter>
    <filter
       id="filter4375-4-1-7-8"
       inkscape:label="deevad outline effect"
       style="color-interpolation-filters:sRGB"
       x="-0.023175602"
       y="-0.11740334"
       width="1.0463512"
       height="1.2348067">
      <feFlood
         id="feFlood4377-7-9-2-5"
         flood-opacity="1"
         flood-color="rgb(0,0,0)"
         result="flood" />
      <feComposite
         id="feComposite4379-3-8-5-8"
         in2="SourceGraphic"
         in="flood"
         operator="in"
         result="composite1" />
      <feMorphology
         id="feMorphology4393-1-0-4-9"
         operator="dilate"
         radius="4"
         result="result3" />
      <feComposite
         id="feComposite4385-9-5-2-2"
         in2="result3"
         in="SourceGraphic"
         operator="over"
         result="composite2" />
    </filter>
    <filter
       id="filter4375-4-1-7-3"
       inkscape:label="deevad outline effect"
       style="color-interpolation-filters:sRGB"
       x="-0.023175602"
       y="-0.11740334"
       width="1.0463512"
       height="1.2348067">
      <feFlood
         id="feFlood4377-7-9-2-4"
         flood-opacity="1"
         flood-color="rgb(0,0,0)"
         result="flood" />
      <feComposite
         id="feComposite4379-3-8-5-4"
         in2="SourceGraphic"
         in="flood"
         operator="in"
         result="composite1" />
      <feMorphology
         id="feMorphology4393-1-0-4-5"
         operator="dilate"
         radius="4"
         result="result3" />
      <feComposite
         id="feComposite4385-9-5-2-1"
         in2="result3"
         in="SourceGraphic"
         operator="over"
         result="composite2" />
    </filter>
    <filter
       id="filter4375-4-1-7-3-3"
       inkscape:label="deevad outline effect"
       style="color-interpolation-filters:sRGB"
       x="-0.023175602"
       y="-0.11740334"
       width="1.0463512"
       height="1.2348067">
      <feFlood
         id="feFlood4377-7-9-2-4-4"
         flood-opacity="1"
         flood-color="rgb(0,0,0)"
         result="flood" />
      <feComposite
         id="feComposite4379-3-8-5-4-7"
         in2="SourceGraphic"
         in="flood"
         operator="in"
         result="composite1" />
      <feMorphology
         id="feMorphology4393-1-0-4-5-4"
         operator="dilate"
         radius="4"
         result="result3" />
      <feComposite
         id="feComposite4385-9-5-2-1-3"
         in2="result3"
         in="SourceGraphic"
         operator="over"
         result="composite2" />
    </filter>
    <filter
       id="filter4375-4-1-7-3-7"
       inkscape:label="deevad outline effect"
       style="color-interpolation-filters:sRGB"
       x="-0.023175602"
       y="-0.11740334"
       width="1.0463512"
       height="1.2348067">
      <feFlood
         id="feFlood4377-7-9-2-4-1"
         flood-opacity="1"
         flood-color="rgb(0,0,0)"
         result="flood" />
      <feComposite
         id="feComposite4379-3-8-5-4-75"
         in2="SourceGraphic"
         in="flood"
         operator="in"
         result="composite1" />
      <feMorphology
         id="feMorphology4393-1-0-4-5-8"
         operator="dilate"
         radius="4"
         result="result3" />
      <feComposite
         id="feComposite4385-9-5-2-1-5"
         in2="result3"
         in="SourceGraphic"
         operator="over"
         result="composite2" />
    </filter>
    <filter
       id="filter4375-4-1-1-1-1"
       inkscape:label="deevad outline effect"
       style="color-interpolation-filters:sRGB"
       x="-0.023175602"
       y="-0.11740334"
       width="1.0463512"
       height="1.2348067">
      <feFlood
         id="feFlood4377-7-9-0-8-5"
         flood-opacity="1"
         flood-color="rgb(0,0,0)"
         result="flood" />
      <feComposite
         id="feComposite4379-3-8-8-2-7"
         in2="SourceGraphic"
         in="flood"
         operator="in"
         result="composite1" />
      <feMorphology
         id="feMorphology4393-1-0-49-8-7"
         operator="dilate"
         radius="4"
         result="result3" />
      <feComposite
         id="feComposite4385-9-5-7-0-3"
         in2="result3"
         in="SourceGraphic"
         operator="over"
         result="composite2" />
    </filter>
    <filter
       id="filter4375-4-1-1-1-8"
       inkscape:label="deevad outline effect"
       style="color-interpolation-filters:sRGB"
       x="-0.023175602"
       y="-0.11740334"
       width="1.0463512"
       height="1.2348067">
      <feFlood
         id="feFlood4377-7-9-0-8-4"
         flood-opacity="1"
         flood-color="rgb(0,0,0)"
         result="flood" />
      <feComposite
         id="feComposite4379-3-8-8-2-6"
         in2="SourceGraphic"
         in="flood"
         operator="in"
         result="composite1" />
      <feMorphology
         id="feMorphology4393-1-0-49-8-2"
         operator="dilate"
         radius="4"
         result="result3" />
      <feComposite
         id="feComposite4385-9-5-7-0-33"
         in2="result3"
         in="SourceGraphic"
         operator="over"
         result="composite2" />
    </filter>
    <filter
       id="filter4375-4-1-1-7"
       inkscape:label="deevad outline effect"
       style="color-interpolation-filters:sRGB">
      <feFlood
         id="feFlood4377-7-9-0-6"
         flood-opacity="1"
         flood-color="rgb(0,0,0)"
         result="flood" />
      <feComposite
         id="feComposite4379-3-8-8-6"
         in2="SourceGraphic"
         in="flood"
         operator="in"
         result="composite1" />
      <feMorphology
         id="feMorphology4393-1-0-49-4"
         operator="dilate"
         radius="4"
         result="result3" />
      <feComposite
         id="feComposite4385-9-5-7-4"
         in2="result3"
         in="SourceGraphic"
         operator="over"
         result="composite2" />
    </filter>
    <filter
       id="filter4375-4-1-1-7-3"
       inkscape:label="deevad outline effect"
       style="color-interpolation-filters:sRGB">
      <feFlood
         id="feFlood4377-7-9-0-6-8"
         flood-opacity="1"
         flood-color="rgb(0,0,0)"
         result="flood" />
      <feComposite
         id="feComposite4379-3-8-8-6-8"
         in2="SourceGraphic"
         in="flood"
         operator="in"
         result="composite1" />
      <feMorphology
         id="feMorphology4393-1-0-49-4-0"
         operator="dilate"
         radius="4"
         result="result3" />
      <feComposite
         id="feComposite4385-9-5-7-4-7"
         in2="result3"
         in="SourceGraphic"
         operator="over"
         result="composite2" />
    </filter>
  </defs>
  <sodipodi:namedview
     pagecolor="#ffffff"
     bordercolor="#666666"
     borderopacity="1"
     objecttolerance="10"
     gridtolerance="10"
     guidetolerance="10"
     inkscape:pageopacity="0"
     inkscape:pageshadow="2"
     inkscape:window-width="1888"
     inkscape:window-height="1144"
     id="namedview4"
     showgrid="false"
     inkscape:zoom="0.40227146"
     inkscape:cx="1270.2865"
     inkscape:cy="1426.8972"
     inkscape:window-x="32"
     inkscape:window-y="0"
     inkscape:window-maximized="1"
     inkscape:current-layer="layer1"
     showguides="true"
     inkscape:guide-bbox="true"
     inkscape:document-units="px"
     inkscape:showpageshadow="0"
     inkscape:pagecheckerboard="0"
     inkscape:deskcolor="#d1d1d1">
    <sodipodi:guide
       orientation="0,1"
       position="262.49999,3074.9998"
       id="guide3937"
       inkscape:locked="false" />
  </sodipodi:namedview>
  <g
     inkscape:groupmode="layer"
     id="layer2"
     inkscape:label="artwork"
     sodipodi:insensitive="true"
     style="display:inline">
    <image
       xlink:href="../gfx_Pepper-and-Carrot_by-David-Revoy_E06P04.png"
       width="2481"
       height="3503"
       id="image10"
       x="0"
       y="0" />
  </g>
  <g
     inkscape:groupmode="layer"
     id="layer3"
     inkscape:label="speechbubbles" />
  <g
     inkscape:groupmode="layer"
     id="layer1"
     inkscape:label="txt">
    <flowRoot
       xml:space="preserve"
       id="flowRoot2987-7-9-9-7-0-3-4-1-8"
       style="font-style:normal;font-variant:normal;font-weight:normal;font-stretch:normal;line-height:0.01%;font-family:Lavi;-inkscape-font-specification:Lavi;letter-spacing:0px;word-spacing:0px;fill:#000000;fill-opacity:1;stroke:#000000;stroke-width:0.992362;stroke-miterlimit:4;stroke-dasharray:none;stroke-opacity:1;filter:url(#filter4375-4-1-1-1-1)"
       transform="matrix(0.97473736,-0.59368706,0,2.2063487,2102.1852,2649.9138)"><flowRegion
         id="flowRegion2989-4-5-8-7-41-7-62-2-0"
         style="stroke-width:5.40286"><rect
           id="rect2991-45-1-3-3-8-0-4-6-1"
           width="319.66232"
           height="56.089447"
           x="120.55251"
           y="265.53046"
           style="font-style:normal;font-variant:normal;font-weight:normal;font-stretch:normal;font-family:Lavi;-inkscape-font-specification:Lavi;fill:#000000;fill-opacity:1;stroke:#000000;stroke-width:0.99236238;stroke-miterlimit:4;stroke-dasharray:none;stroke-opacity:1" /></flowRegion><flowPara
         id="flowPara2995-4-1-5-0-7-2-6-4-3"
         style="font-weight:normal;font-size:48px;line-height:1.25;-inkscape-font-specification:Lavi;letter-spacing:7.06853px;fill:#ffffff;fill-opacity:1;stroke:#ffffff;stroke-width:0.992362;stroke-linejoin:miter;stroke-miterlimit:4;stroke-dasharray:none;stroke-opacity:1">Klatsch</flowPara></flowRoot>
    <path
       inkscape:connector-curvature="0"
       id="path5208-3-6"
       d="m 1496.2938,2196.4246 c 22.7984,-6.2071 53.9035,-14.714 84.2447,-14.0584 30.3413,0.6559 56.9309,9.067 78.4147,35.3288 24.8122,36.6399 50.2795,13.081 19.3552,-14.4214 -31.5522,-38.569 -72.4984,-50.884 -107.764,-51.6462 -35.2657,-0.7622 -67.8477,8.6184 -90.5081,14.7877 -55.1405,6.4013 -216.3127,102.3392 16.2575,30.0095 z"
       style="color:#000000;font-style:normal;font-variant:normal;font-weight:normal;font-stretch:normal;font-size:medium;line-height:normal;font-family:Sans;-inkscape-font-specification:Sans;text-indent:0;text-align:start;text-decoration:none;text-decoration-line:none;letter-spacing:normal;word-spacing:normal;text-transform:none;direction:ltr;block-progression:tb;writing-mode:lr-tb;baseline-shift:baseline;text-anchor:start;display:inline;overflow:visible;visibility:visible;fill:#ffffff;fill-opacity:1;fill-rule:nonzero;stroke:none;stroke-width:31.89999962;marker:none;enable-background:accumulate"
       sodipodi:nodetypes="csccscc" />
    <path
       inkscape:connector-curvature="0"
       id="path5208-3"
       d="m 945.68212,2343.1577 c 18.48539,-23.8118 53.55747,-56.3505 80.77608,-76.2754 27.2189,-19.925 58.3035,-23.7585 85.149,-3.827 32.8568,31.3448 40.4068,-10.6167 4.7881,-25.7165 -39.4266,-29.2719 -79.5138,-17.4646 -111.1501,5.694 -31.63624,23.1588 -57.90475,57.8622 -76.27818,81.53 -47.23693,46.2294 -169.21228,273.3942 16.7151,18.5949 z"
       style="color:#000000;font-style:normal;font-variant:normal;font-weight:normal;font-stretch:normal;font-size:medium;line-height:normal;font-family:Sans;-inkscape-font-specification:Sans;text-indent:0;text-align:start;text-decoration:none;text-decoration-line:none;letter-spacing:normal;word-spacing:normal;text-transform:none;direction:ltr;block-progression:tb;writing-mode:lr-tb;baseline-shift:baseline;text-anchor:start;display:inline;overflow:visible;visibility:visible;fill:#ffffff;fill-opacity:1;fill-rule:nonzero;stroke:none;stroke-width:31.89999962;marker:none;enable-background:accumulate"
       sodipodi:nodetypes="csccscc" />
    <path
       style="color:#000000;display:inline;overflow:visible;visibility:visible;fill:#ffffff;fill-opacity:1;fill-rule:nonzero;stroke:none;stroke-width:1px;marker:none;enable-background:accumulate"
       d="m 806.94707,2632.6585 c -72.27695,-6.9235 -178.28301,-29.4248 -198.76159,-71.8309 -20.47843,-42.4062 -15.65997,-95.1976 26.50162,-118.5643 42.16146,-23.3667 114.43841,-43.2716 177.07845,-35.4828 62.64002,7.789 144.55391,36.3482 163.82776,76.1581 19.27386,39.81 1.20459,124.6225 -79.50458,141.0655 -80.70931,16.4432 -89.14166,8.6544 -89.14166,8.6544 z"
       id="path3970"
       inkscape:connector-curvature="0" />
    <path
       style="color:#000000;display:inline;overflow:visible;visibility:visible;fill:#ffffff;fill-opacity:1;fill-rule:nonzero;stroke:none;stroke-width:1px;marker:none;enable-background:accumulate"
       d="m 901.03102,2091.2128 c -1.84703,26.9409 -9.88688,52.8977 -22.41937,71.7737 -10.59406,16.0795 -25.39767,25.3267 -40.24526,24.3082 -19.58439,-1.0733 -37.5715,-15.9638 -53.11499,-33.4618 -11.59129,-12.2928 -23.47548,-24.6703 -36.86391,-31.7267 -5.18531,-2.4084 -11.53021,-4.7873 -16.28954,0.6338 -2.84549,3.6271 -3.84412,10.1591 -3.13814,15.5104 9.43448,15.8621 18.86899,31.7242 28.30351,47.5864 21.89013,12.4319 44.7188,21.3748 67.96167,24.6781 17.41851,2.1213 35.85099,1.2426 51.75225,-11.2318 11.57383,-8.8982 20.17349,-25.9155 23.40192,-45.2702 3.61716,-20.4382 2.83845,-42.0962 0.65186,-62.8001 z"
       id="path4048"
       inkscape:connector-curvature="0" />
    <path
       style="color:#000000;display:inline;overflow:visible;visibility:visible;fill:#ffffff;fill-opacity:1;fill-rule:nonzero;stroke:none;stroke-width:1px;marker:none;enable-background:accumulate"
       d="m 422.14519,2128.1831 c 55.87111,-64.0285 346.61159,-69.7955 383.69099,-21.7142 37.07941,48.0814 67.71016,165.9579 16.12151,204.7332 -51.58876,38.7751 -369.18172,54.2852 -403.03681,-3.1021 -33.85509,-57.3874 -52.64688,-115.8885 3.22431,-179.9169 z"
       id="path4008-8"
       inkscape:connector-curvature="0"
       sodipodi:nodetypes="zsssz" />
    <path
       inkscape:connector-curvature="0"
       id="path5208"
       d="m 698.83755,1782.6244 c -29.35548,-11.9054 -69.44188,-28.1159 -100.30159,-51.5254 -30.85959,-23.4098 -50.68956,-50.5737 -48.79257,-89.0376 7.99925,-49.7764 -40.09716,-48.9694 -33.34663,-2.3422 -2.78576,56.4898 28.33791,97.7794 64.20609,124.9883 35.86804,27.2089 78.29042,43.7908 107.46823,55.6241 63.07215,36.101 318.52062,76.0964 10.76647,-37.7072 z"
       style="color:#000000;font-style:normal;font-variant:normal;font-weight:normal;font-stretch:normal;font-size:medium;line-height:normal;font-family:Sans;-inkscape-font-specification:Sans;text-indent:0;text-align:start;text-decoration:none;text-decoration-line:none;letter-spacing:normal;word-spacing:normal;text-transform:none;direction:ltr;block-progression:tb;writing-mode:lr-tb;baseline-shift:baseline;text-anchor:start;display:inline;overflow:visible;visibility:visible;fill:#ffffff;fill-opacity:1;fill-rule:nonzero;stroke:none;stroke-width:31.89999962;marker:none;enable-background:accumulate"
       sodipodi:nodetypes="csccscc" />
    <path
       style="color:#000000;display:inline;overflow:visible;visibility:visible;fill:#ffffff;fill-opacity:1;fill-rule:nonzero;stroke:none;stroke-width:1px;marker:none;enable-background:accumulate"
       d="m 1380.0517,1873.7848 c -51.4287,53.2544 -122.847,86.2056 -196.5922,91.7894 -66.3698,5.5593 -134.5787,-7.1349 -193.71546,-38.0251 -20.55354,-11.2495 -40.41416,-24.3883 -56.97689,-41.0648 -7.72516,-5.7683 -11.15252,-20.1711 1.14374,-22.7742 7.61944,-2.4443 15.70855,-1.6736 23.11764,0.9973 8.89759,2.5266 17.79518,5.0533 26.69277,7.5799 47.7086,34.5502 102.6963,59.4803 160.5544,70.9329 54.6408,10.4359 113.0432,5.712 163.41,-18.8692 26.6854,-12.7368 50.9952,-30.187 72.366,-50.5662 z"
       id="path3541"
       inkscape:connector-curvature="0" />
    <path
       style="fill:#ffffff;fill-opacity:1;stroke:none;stroke-width:15.39999962;stroke-linecap:round;stroke-linejoin:miter;stroke-miterlimit:4;stroke-dasharray:15.4, 15.4;stroke-dashoffset:0;stroke-opacity:1"
       d="m 618.07091,1856.4745 c -6.60214,-72.3198 34.31919,-68.5892 69.04501,-83.2365 37.76667,-15.9298 356.62698,-19.5067 391.65978,20.1712 34.8689,39.4921 60.8938,109.1115 -45.5769,140.7788 -106.47073,31.6672 -290.7175,20.9763 -320.38882,13.9642 -28.04129,-6.6269 -84.68073,-34.7706 -94.73907,-91.6777 z"
       id="path3659-7"
       inkscape:connector-curvature="0"
       sodipodi:nodetypes="cssssc" />
    <path
       style="fill:#ffffff;fill-opacity:1;stroke:none"
       d="m 177.21437,1685.0399 c -6.13236,-90.2333 31.87721,-85.5787 64.13212,-103.854 35.07938,-19.8756 331.25123,-24.3384 363.79132,25.1675 32.38781,49.2743 56.56091,136.1383 -42.33387,175.6495 -98.89489,39.5111 -270.03159,26.1721 -297.59165,17.4231 -26.04601,-8.2684 -78.65528,-43.3833 -87.99792,-114.3861 z"
       id="path3659"
       inkscape:connector-curvature="0"
       sodipodi:nodetypes="cssssc" />
    <path
       style="color:#000000;display:inline;overflow:visible;visibility:visible;fill:#ffffff;fill-opacity:1;fill-rule:nonzero;stroke:none;stroke-width:1px;marker:none;enable-background:accumulate"
       d="m 1748.2356,156.06366 c 14.4686,-109.724836 76.967,-110.015726 292.643,-105.570426 215.6762,4.445302 354.2189,12.960958 372.3361,20.926134 32.5551,14.312783 12.8361,114.164622 -9.2845,197.515422 -22.1209,83.3508 -120.0956,138.27119 -331.624,131.60319 -211.5286,-6.6682 -170.045,11.30895 -247.1042,-39.39738 -114.8914,-75.60049 -91.435,-95.35208 -76.9664,-205.07694 z"
       id="path4530-7-6-0"
       inkscape:connector-curvature="0"
       sodipodi:nodetypes="zsssssz" />
    <path
       style="color:#000000;display:inline;overflow:visible;visibility:visible;fill:#ffffff;fill-opacity:1;fill-rule:nonzero;stroke:none;stroke-width:1px;marker:none;enable-background:accumulate"
       d="m 1232.801,185.33984 c 11.5059,-118.430087 61.2065,-118.744055 232.7182,-113.946079 171.5119,4.797979 281.6851,13.989242 296.0923,22.586351 25.8888,15.448318 10.2077,123.222108 -7.3832,213.185718 -17.5912,89.9636 -95.5035,149.24121 -263.717,142.04419 -168.2136,-7.19724 -135.2247,12.20617 -196.5044,-42.52305 -91.365,-81.59841 -72.7117,-102.91703 -61.2059,-221.34713 z"
       id="path4530-7-6"
       inkscape:connector-curvature="0"
       sodipodi:nodetypes="zsssssz" />
    <path
       style="color:#000000;display:inline;overflow:visible;visibility:visible;fill:#ffffff;fill-opacity:1;fill-rule:nonzero;stroke:none;stroke-width:1px;marker:none;enable-background:accumulate"
       d="m 765.15106,463.60351 c 34.9824,-14.7905 70.6577,-29.41822 8.3954,-67.06471 59.1008,9.67373 22.9303,-11.15288 8.4302,-25.04189 105.5637,27.41781 37.4091,-16.92424 11.4877,-43.82059 23.5249,10.70828 61.0265,40.90205 46.8629,-0.93284 7.4782,1.91823 16.2801,7.42204 19.9739,-0.91057 9.5311,5.74406 16.6097,7.21525 20.7459,3.55931 9.3713,10.45977 15.4234,13.21086 15.3665,1.77548 8.8588,8.61604 11.5825,5.64584 13.8301,1.77684 15.207,18.50139 20.8763,13.2739 26.8964,8.91882 8.6104,11.1089 18.6741,8.58289 29.9574,-5.3893 11.5723,18.89586 23.9898,17.73541 36.88074,5.33415 3.7932,4.65418 7.2409,12.54772 12.2966,5.35452 5.1238,2.48252 10.2507,8.85062 15.3674,2.66965 54.0771,24.42838 77.6386,3.73655 102.9344,-14.3906 14.1194,7.98213 24.302,23.42438 48.4105,12.47747 2.2637,11.15604 15.1988,15.67591 37.6562,14.27461 -23.0241,13.48482 -24.2028,21.15186 29.2056,14.28158 -37.2207,11.05799 -71.5207,22.11357 -13.8013,33.09323 -13.5128,4.38908 -57.7007,-5.87309 -9.1807,46.50102 -34.4328,-11.53981 -65.685,-14.51962 -75.2625,32.24989 -18.5809,-12.28225 -39.1478,-18.35722 -55.3064,9.8808 -14.7496,-13.2125 -35.369,-10.02051 -46.0982,-3.53837 -2.9164,-14.48133 -24.8673,-36.6761 -54.5432,3.62142 6.4995,-22.89575 1.5356,-59.35117 -33.03434,0.92134 -0.6951,-10.47917 13.5139,-67.48221 -82.9709,0.96264 12.005,-45.87742 -20.027,-19.16199 -45.33,-3.53902 12.5302,-28.76809 -6.3647,-30.97641 -47.6436,-14.26636 31.8318,-27.33214 -0.9157,-19.76613 -21.5267,-18.75852 z"
       id="path3549-3-3"
       inkscape:connector-curvature="0"
       sodipodi:nodetypes="ccccccccccccccccccccccccccccc" />
    <path
       style="color:#000000;display:inline;overflow:visible;visibility:visible;fill:#ffffff;fill-opacity:1;fill-rule:nonzero;stroke:none;stroke-width:1px;marker:none;enable-background:accumulate"
       d="M 768.43384,152.28295 C 779.59399,42.558101 827.80129,42.267211 994.16007,46.712511 1160.519,51.157813 1267.382,59.67347 1281.3565,67.638646 c 25.1109,14.312778 9.9009,114.164634 -7.1615,197.515434 -17.0626,83.3508 -92.6341,138.27119 -255.7937,131.60319 -163.1597,-6.6682 -200.1038,-5.42045 -225.36218,-22.38415 -47.98823,-32.229 -35.76543,-112.36531 -24.60528,-222.09017 z"
       id="path4530-7"
       inkscape:connector-curvature="0"
       sodipodi:nodetypes="zsssssz" />
    <path
       style="color:#000000;display:inline;overflow:visible;visibility:visible;fill:#ffffff;fill-opacity:1;fill-rule:nonzero;stroke:none;stroke-width:1px;marker:none;enable-background:accumulate"
       d="M 80.159304,158.91071 C 95.58883,48.294567 162.23812,48.001314 392.23841,52.482724 622.2388,56.964135 769.98287,65.548965 789.30335,73.578843 824.02067,88.007883 802.99195,188.67084 779.40227,272.6987 755.8123,356.72655 651.33051,412.09306 425.75321,405.3709 200.17587,398.64853 149.09859,399.90642 114.17747,382.80492 47.831072,350.31413 64.729777,269.52687 80.159304,158.91071 Z"
       id="path4530"
       inkscape:connector-curvature="0"
       sodipodi:nodetypes="zsssssz" />
    <path
       style="color:#000000;display:inline;overflow:visible;visibility:visible;fill:#ffffff;fill-opacity:1;fill-rule:nonzero;stroke:none;stroke-width:1px;marker:none;enable-background:accumulate"
       d="m 154.15106,359.8968 c 34.9824,14.7905 70.6577,29.41822 8.3954,67.06471 59.1008,-9.67373 22.9303,11.15288 8.4302,25.04189 105.56368,-27.41781 37.4091,16.92424 11.4877,43.82059 23.5249,-10.70828 61.02648,-40.90205 46.86288,0.93284 7.4782,-1.91823 16.2801,-7.42204 19.9739,0.91057 9.5311,-5.74406 16.6097,-7.21525 20.7459,-3.55931 9.3713,-10.45977 15.4234,-13.21086 15.3665,-1.77548 8.8588,-8.61604 11.5825,-5.64584 13.8301,-1.77684 15.207,-18.50139 20.8763,-13.2739 26.8964,-8.91882 8.6104,-11.1089 18.6741,-8.58289 29.9574,5.3893 11.5723,-18.89586 23.9898,-17.73541 36.8808,-5.33415 2.33936,-14.83109 9.49265,-29.67994 17.93566,1.22438 5.1238,-2.48252 8.37101,-22.00842 25.70566,10.48814 1.44592,-35.70649 61.66128,-23.47324 86.95708,-5.34609 -7.49698,-27.71882 5.50515,-40.34155 48.4105,-12.47747 2.2637,-11.15604 15.1988,-15.67591 37.6562,-14.27461 -23.0241,-13.48482 -24.2028,-21.15186 29.2056,-14.28158 -37.2207,-11.05799 -71.5207,-22.11357 -13.8013,-33.09323 -13.5128,-4.38908 -57.7007,5.87309 -9.1807,-46.50102 -34.4328,11.53981 -65.685,14.51962 -75.2625,-32.24989 -18.5809,12.28225 -39.1478,18.35722 -55.3064,-9.8808 -14.7496,13.2125 -35.369,10.02051 -46.0982,3.53837 -2.9164,14.48133 -24.8673,36.6761 -54.5432,-3.62142 6.4995,22.89575 1.5356,59.35117 -33.0344,-0.92134 -0.6951,10.47917 13.5139,67.48221 -82.9709,-0.96264 12.005,45.87742 -20.027,19.16199 -45.32998,3.53902 12.53018,28.76809 -6.3647,30.97641 -47.6436,14.26636 31.8318,27.33214 -0.9157,19.76613 -21.5267,18.75852 z"
       id="path3549-3-3-0"
       inkscape:connector-curvature="0"
       sodipodi:nodetypes="ccccccccccccccccccccccccccccc" />
    <path
       style="color:#000000;display:inline;overflow:visible;visibility:visible;fill:#ffffff;fill-opacity:1;fill-rule:nonzero;stroke:none;stroke-width:1px;marker:none;enable-background:accumulate"
       d="m 1246.3651,358.73331 c 36.39,14.76163 73.5005,29.35991 8.7878,67.05776 61.4491,-9.72249 23.8542,11.13396 8.7878,25.03493 109.7495,-27.50491 38.9153,16.89336 11.9834,43.81109 24.4537,-10.72768 63.4248,-40.95239 48.7323,0.89418 7.7748,-1.9244 16.9229,-7.43548 20.7712,0.89408 9.9061,-5.75192 17.2657,-7.22895 21.57,-3.57642 9.736,-10.4675 16.0271,-13.22358 15.9778,-1.78816 9.2046,-8.62335 12.0394,-5.6554 14.38,-1.78825 15.7975,-18.51393 21.6973,-13.29112 27.9612,-8.94101 8.9443,-11.116 19.4113,-8.5983 31.1566,5.36458 12.0176,-18.90541 24.9311,-17.7552 38.3468,-5.36458 3.9404,-4.65731 7.5188,-12.55369 12.7822,-5.36467 5.3261,-2.48674 10.6519,-8.85907 15.9779,-2.68233 56.2124,-24.47299 80.7312,-3.80061 107.0513,14.30566 14.6756,-7.99377 25.2509,-23.44442 50.3301,-12.51741 2.3444,-11.1579 15.7914,-15.68844 39.1455,-14.30567 -23.9538,-13.46582 -25.186,-21.13189 30.358,-14.30568 -38.7145,-11.02727 -74.3917,-22.05455 -14.3801,-33.08183 -14.0554,-4.37793 -59.9965,5.9207 -9.5867,-46.49343 -35.7959,11.56822 -68.2917,14.57382 -78.2912,-32.18777 -19.3114,12.29757 -40.6931,18.38951 -57.5202,-9.83517 -15.3264,13.22467 -36.7707,10.04969 -47.9334,3.57641 -3.0202,14.48373 -25.8273,36.69661 -56.7212,-3.57641 6.7783,22.89038 1.6478,59.34988 -34.3523,-0.89409 -0.7138,10.47974 14.1107,67.47104 -86.2802,-0.89417 12.5231,45.8675 -20.8091,19.1785 -47.1344,3.57642 13.0545,28.75774 -6.592,30.98165 -49.5312,14.30567 33.1246,27.30586 -0.9352,19.76687 -22.369,18.77627 z"
       id="path3549"
       inkscape:connector-curvature="0"
       sodipodi:nodetypes="ccccccccccccccccccccccccccccc" />
    <path
       style="color:#000000;display:inline;overflow:visible;visibility:visible;fill:#ffffff;fill-opacity:1;fill-rule:nonzero;stroke:none;stroke-width:1px;marker:none;enable-background:accumulate"
       d="m 2317.3429,463.71697 c -34.9824,-14.7905 -70.6577,-29.41822 -8.3954,-67.06471 -59.1008,9.67373 -22.9303,-11.15288 -8.4302,-25.04189 -105.5637,27.41781 -37.4091,-16.92424 -11.4877,-43.82059 -23.5249,10.70828 -61.0265,40.90205 -46.8629,-0.93284 -7.4782,1.91823 -16.2801,7.42204 -19.9739,-0.91057 -9.5311,5.74406 -16.6097,7.21525 -20.7459,3.55931 -9.3713,10.45977 -15.4234,13.21086 -15.3665,1.77548 -8.8588,8.61604 -11.5825,5.64584 -13.8301,1.77684 -15.207,18.50139 -20.8763,13.2739 -26.8964,8.91882 -8.6104,11.1089 -18.6741,8.58289 -29.9574,-5.3893 -11.5723,18.89586 -23.9898,17.73541 -36.8807,5.33415 -3.7932,4.65418 -7.2409,12.54772 -12.2966,5.35452 -5.1238,2.48252 -10.2507,8.85062 -15.3674,2.66965 -54.0771,24.42838 -77.6386,3.73655 -102.9344,-14.3906 -14.1194,7.98213 -24.302,23.42438 -48.4105,12.47747 -2.2637,11.15604 -15.1988,15.67591 -37.6562,14.27461 23.0241,13.48482 24.2028,21.15186 -29.2056,14.28158 37.2207,11.05799 71.5207,22.11357 13.8013,33.09323 13.5128,4.38908 57.7007,-5.87309 9.1807,46.50102 34.4328,-11.53981 65.685,-14.51962 75.2625,32.24989 18.5809,-12.28225 39.1478,-18.35722 55.3064,9.8808 14.7496,-13.2125 35.369,-10.02051 46.0982,-3.53837 2.9164,-14.48133 24.8673,-36.6761 54.5432,3.62142 -6.4995,-22.89575 -1.5356,-59.35117 33.0343,0.92134 0.6951,-10.47917 -13.5139,-67.48221 82.9709,0.96264 -12.005,-45.87742 20.027,-19.16199 45.33,-3.53902 -12.5302,-28.76809 6.3647,-30.97641 47.6436,-14.26636 -31.8318,-27.33214 0.9157,-19.76613 21.5267,-18.75852 z"
       id="path3549-3"
       inkscape:connector-curvature="0"
       sodipodi:nodetypes="ccccccccccccccccccccccccccccc" />
    <flowRoot
       xml:space="preserve"
       id="flowRoot2987"
       style="font-style:normal;font-variant:normal;font-weight:normal;font-stretch:normal;line-height:0.01%;font-family:Lavi;-inkscape-font-specification:Lavi;text-align:center;letter-spacing:0px;word-spacing:0px;text-anchor:middle;fill:#000000;fill-opacity:1;stroke:none"
       transform="matrix(0.95842652,0,0,0.92639044,61.631114,-94.148029)"><flowRegion
         id="flowRegion2989"><rect
           id="rect2991"
           width="802.00476"
           height="222.0042"
           x="120.55251"
           y="265.53046"
           style="font-style:normal;font-variant:normal;font-weight:normal;font-stretch:normal;font-family:Lavi;-inkscape-font-specification:Lavi;text-align:center;text-anchor:middle" /></flowRegion><flowPara
         id="flowPara2995"
         style="font-size:48px;line-height:1.25;text-align:center;text-anchor:middle"> </flowPara></flowRoot>
    <flowRoot
       xml:space="preserve"
       id="flowRoot2987-4-9-4"
       style="font-style:normal;font-variant:normal;font-weight:normal;font-stretch:normal;line-height:0.01%;font-family:Lavi;-inkscape-font-specification:Lavi;text-align:start;letter-spacing:0px;word-spacing:0px;text-anchor:start;fill:#000000;fill-opacity:1;stroke:none"
       transform="translate(-34.08278,-146.63986)"><flowRegion
         id="flowRegion2989-5-4-3"><rect
           id="rect2991-7-9-5"
           width="686.07916"
           height="258.15738"
           x="120.55251"
           y="265.53046"
           style="font-style:normal;font-variant:normal;font-weight:normal;font-stretch:normal;font-family:Lavi;-inkscape-font-specification:Lavi;text-align:start;text-anchor:start" /></flowRegion><flowPara
         style="font-size:48px;line-height:1.25;text-align:center;text-anchor:middle"
         id="flowPara4387">Von sehr weit her aus der</flowPara><flowPara
         style="font-size:48px;line-height:1.25;text-align:center;text-anchor:middle"
         id="flowPara4398">Technologen-Union angereist,</flowPara><flowPara
         style="font-size:48px;line-height:1.25;text-align:center;text-anchor:middle"
         id="flowPara4400">begrüße ich sehr erfreut -</flowPara><flowPara
         style="font-size:48px;line-height:1.25;text-align:center;text-anchor:middle"
         id="flowPara4402">die hinreißende und geniale</flowPara></flowRoot>
    <flowRoot
       xml:space="preserve"
       id="flowRoot2987-4-9-4-9"
       style="font-style:normal;font-variant:normal;font-weight:normal;font-stretch:normal;line-height:0.01%;font-family:Lavi;-inkscape-font-specification:Lavi;text-align:center;letter-spacing:0px;word-spacing:0px;text-anchor:middle;fill:#000000;fill-opacity:1;stroke:none"
       transform="translate(685.28986,-151.39098)"><flowRegion
         id="flowRegion2989-5-4-3-2"><rect
           id="rect2991-7-9-5-0"
           width="429.35825"
           height="477.69647"
           x="120.55251"
           y="265.53046"
           style="font-style:normal;font-variant:normal;font-weight:normal;font-stretch:normal;font-family:Lavi;-inkscape-font-specification:Lavi;text-align:center;text-anchor:middle" /></flowRegion><flowPara
         style="font-size:48px;line-height:1.25;text-align:center;text-anchor:middle"
         id="flowPara4529">... nicht zu</flowPara><flowPara
         style="font-size:48px;line-height:1.25;text-align:center;text-anchor:middle"
         id="flowPara4406">vergessen, unsere</flowPara><flowPara
         style="font-size:48px;line-height:1.25;text-align:center;text-anchor:middle"
         id="flowPara4408">einheimische Hexe</flowPara><flowPara
         style="font-size:48px;line-height:1.25;text-align:center;text-anchor:middle"
         id="flowPara4410">aus Komona,</flowPara></flowRoot>
    <flowRoot
       xml:space="preserve"
       id="flowRoot2987-4-9-4-0"
       style="font-style:normal;font-variant:normal;font-weight:normal;font-stretch:normal;line-height:0.01%;font-family:Lavi;-inkscape-font-specification:Lavi;text-align:center;letter-spacing:0px;word-spacing:0px;text-anchor:middle;fill:#000000;fill-opacity:1;stroke:none"
       transform="translate(1133.3551,-147.47794)"><flowRegion
         id="flowRegion2989-5-4-3-9"><rect
           id="rect2991-7-9-5-3"
           width="482.4017"
           height="380.73993"
           x="120.55251"
           y="265.53046"
           style="font-style:normal;font-variant:normal;font-weight:normal;font-stretch:normal;font-family:Lavi;-inkscape-font-specification:Lavi;text-align:center;text-anchor:middle" /></flowRegion><flowPara
         style="font-size:48px;line-height:1.25;text-align:center;text-anchor:middle"
         id="flowPara3941">... Unsere dritte</flowPara><flowPara
         style="font-size:48px;line-height:1.25;text-align:center;text-anchor:middle"
         id="flowPara4412">Teilnehmerin kommt</flowPara><flowPara
         style="font-size:48px;line-height:1.25;text-align:center;text-anchor:middle"
         id="flowPara4414">aus dem Land der</flowPara><flowPara
         style="font-size:48px;line-height:1.25;text-align:center;text-anchor:middle"
         id="flowPara4416"><flowSpan
   style="letter-spacing:-1px"
   id="flowSpan3585">untergehenden</flowSpan> Monde,</flowPara></flowRoot>
    <flowRoot
       xml:space="preserve"
       id="flowRoot2987-4-9-4-99"
       style="font-style:normal;font-variant:normal;font-weight:normal;font-stretch:normal;line-height:0.01%;font-family:Lavi;-inkscape-font-specification:Lavi;text-align:center;letter-spacing:0px;word-spacing:0px;text-anchor:middle;fill:#000000;fill-opacity:1;stroke:none"
       transform="translate(1676.0506,-147.15186)"><flowRegion
         id="flowRegion2989-5-4-3-5"><rect
           id="rect2991-7-9-5-9"
           width="557.40173"
           height="438.23993"
           x="120.55251"
           y="265.53046"
           style="font-style:normal;font-variant:normal;font-weight:normal;font-stretch:normal;font-family:Lavi;-inkscape-font-specification:Lavi;text-align:center;text-anchor:middle" /></flowRegion><flowPara
         style="font-size:48px;line-height:1.25;text-align:center;text-anchor:middle"
         id="flowPara4533">... und unsere</flowPara><flowPara
         style="font-size:48px;line-height:1.25;text-align:center;text-anchor:middle"
         id="flowPara4427">letzte Teilnehmerin,</flowPara><flowPara
         style="font-size:48px;line-height:1.25;text-align:center;text-anchor:middle"
         id="flowPara4429">aus dem Wald</flowPara><flowPara
         style="font-size:48px;line-height:1.25;text-align:center;text-anchor:middle"
         id="flowPara4431">Eichhorns Ruh’,</flowPara></flowRoot>
    <flowRoot
       xml:space="preserve"
       id="flowRoot3095"
       style="font-style:normal;font-variant:normal;font-weight:normal;font-stretch:normal;line-height:0.01%;font-family:Arial;-inkscape-font-specification:Arial;letter-spacing:0px;word-spacing:0px;fill:#000000;fill-opacity:1;stroke:none;stroke-width:1px;stroke-linecap:butt;stroke-linejoin:miter;stroke-opacity:1"><flowRegion
         id="flowRegion3097"><rect
           id="rect3099"
           width="573.91302"
           height="178.26086"
           x="128.26086"
           y="263.86972" /></flowRegion><flowPara
         id="flowPara3101"
         style="font-size:12px;line-height:1.25"> </flowPara></flowRoot>
    <flowRoot
       transform="matrix(1.1614703,0,0,1.3822798,-48.179531,-0.7845234)"
       style="font-style:normal;font-variant:normal;font-weight:normal;font-stretch:normal;line-height:0.01%;font-family:Lavi;-inkscape-font-specification:Lavi;text-align:center;letter-spacing:0px;word-spacing:0px;text-anchor:middle;fill:#000000;fill-opacity:1;stroke:#000000;stroke-width:0.688435;stroke-miterlimit:4;stroke-dasharray:none;stroke-opacity:1"
       id="flowRoot3103"
       xml:space="preserve"><flowRegion
         id="flowRegion3105"><rect
           style="font-style:normal;font-variant:normal;font-weight:normal;font-stretch:normal;font-family:Lavi;-inkscape-font-specification:Lavi;text-align:center;text-anchor:middle;stroke:#000000;stroke-width:0.68843514;stroke-miterlimit:4;stroke-dasharray:none;stroke-opacity:1"
           y="265.53046"
           x="120.55251"
           height="191.17474"
           width="541.5321"
           id="rect3107" /></flowRegion><flowPara
         id="flowPara3109"
         style="font-size:48px;line-height:1.25;text-align:center;text-anchor:middle;stroke:#000000;stroke-width:0.688435;stroke-miterlimit:4;stroke-dasharray:none;stroke-opacity:1">Coriander!</flowPara></flowRoot>
    <flowRoot
       transform="matrix(1.1614703,0,0,1.3822798,568.35145,-0.7845234)"
       style="font-style:normal;font-variant:normal;font-weight:normal;font-stretch:normal;line-height:0.01%;font-family:Lavi;-inkscape-font-specification:Lavi;text-align:center;letter-spacing:0px;word-spacing:0px;text-anchor:middle;fill:#000000;fill-opacity:1;stroke:#000000;stroke-width:0.688435;stroke-miterlimit:4;stroke-dasharray:none;stroke-opacity:1"
       id="flowRoot3103-0"
       xml:space="preserve"><flowRegion
         id="flowRegion3105-1"><rect
           style="font-style:normal;font-variant:normal;font-weight:normal;font-stretch:normal;font-family:Lavi;-inkscape-font-specification:Lavi;text-align:center;text-anchor:middle;stroke:#000000;stroke-width:0.68843514;stroke-miterlimit:4;stroke-dasharray:none;stroke-opacity:1"
           y="265.53046"
           x="120.55251"
           height="191.17474"
           width="541.5321"
           id="rect3107-0" /></flowRegion><flowPara
         id="flowPara3109-9"
         style="font-size:48px;line-height:1.25;text-align:center;text-anchor:middle;stroke:#000000;stroke-width:0.688435;stroke-miterlimit:4;stroke-dasharray:none;stroke-opacity:1">Saffron!</flowPara></flowRoot>
    <flowRoot
       transform="matrix(1.1614703,0,0,1.3822798,1040.9059,-0.04500665)"
       style="font-style:normal;font-variant:normal;font-weight:normal;font-stretch:normal;line-height:0.01%;font-family:Lavi;-inkscape-font-specification:Lavi;text-align:center;letter-spacing:0px;word-spacing:0px;text-anchor:middle;fill:#000000;fill-opacity:1;stroke:#000000;stroke-width:0.688435;stroke-miterlimit:4;stroke-dasharray:none;stroke-opacity:1"
       id="flowRoot3103-0-9-1"
       xml:space="preserve"><flowRegion
         id="flowRegion3105-1-5-6"><rect
           style="font-style:normal;font-variant:normal;font-weight:normal;font-stretch:normal;font-family:Lavi;-inkscape-font-specification:Lavi;text-align:center;text-anchor:middle;stroke:#000000;stroke-width:0.68843514;stroke-miterlimit:4;stroke-dasharray:none;stroke-opacity:1"
           y="265.53046"
           x="120.55251"
           height="191.17474"
           width="541.5321"
           id="rect3107-0-2-0" /></flowRegion><flowPara
         id="flowPara3109-9-9-7"
         style="font-size:48px;line-height:1.25;text-align:center;text-anchor:middle;stroke:#000000;stroke-width:0.688435;stroke-miterlimit:4;stroke-dasharray:none;stroke-opacity:1">Shichimi!</flowPara></flowRoot>
    <flowRoot
       transform="matrix(1.1614703,0,0,1.3822798,1638.4059,-0.7845234)"
       style="font-style:normal;font-variant:normal;font-weight:normal;font-stretch:normal;line-height:0.01%;font-family:Lavi;-inkscape-font-specification:Lavi;text-align:center;letter-spacing:0px;word-spacing:0px;text-anchor:middle;fill:#000000;fill-opacity:1;stroke:#000000;stroke-width:0.688435;stroke-miterlimit:4;stroke-dasharray:none;stroke-opacity:1"
       id="flowRoot3103-0-9-3"
       xml:space="preserve"><flowRegion
         id="flowRegion3105-1-5-7"><rect
           style="font-style:normal;font-variant:normal;font-weight:normal;font-stretch:normal;font-family:Lavi;-inkscape-font-specification:Lavi;text-align:center;text-anchor:middle;stroke:#000000;stroke-width:0.68843514;stroke-miterlimit:4;stroke-dasharray:none;stroke-opacity:1"
           y="265.53046"
           x="120.55251"
           height="191.17474"
           width="541.5321"
           id="rect3107-0-2-2" /></flowRegion><flowPara
         id="flowPara3109-9-9-8"
         style="font-size:48px;line-height:1.25;text-align:center;text-anchor:middle;stroke:#000000;stroke-width:0.688435;stroke-miterlimit:4;stroke-dasharray:none;stroke-opacity:1">Pepper!</flowPara></flowRoot>
    <flowRoot
       xml:space="preserve"
       id="flowRoot2987-4-9-8"
       style="font-style:normal;font-variant:normal;font-weight:normal;font-stretch:normal;line-height:0.01%;font-family:Lavi;-inkscape-font-specification:Lavi;text-align:center;letter-spacing:0px;word-spacing:0px;text-anchor:middle;fill:#000000;fill-opacity:1;stroke:none"
       transform="translate(-20.918183,1368.1073)"><flowRegion
         id="flowRegion2989-5-4-5"><rect
           id="rect2991-7-9-47"
           width="602.40173"
           height="310.73996"
           x="120.55251"
           y="265.53046"
           style="font-style:normal;font-variant:normal;font-weight:normal;font-stretch:normal;font-family:Lavi;-inkscape-font-specification:Lavi;text-align:center;text-anchor:middle" /></flowRegion><flowPara
         style="font-size:48px;line-height:1.25;text-align:center;text-anchor:middle"
         id="flowPara4539">Lasst die</flowPara><flowPara
         style="font-size:48px;line-height:1.25;text-align:center;text-anchor:middle"
         id="flowPara4435">Spiele beginnen!</flowPara></flowRoot>
    <flowRoot
       xml:space="preserve"
       id="flowRoot2987-4-9-3"
       style="font-style:normal;font-variant:normal;font-weight:normal;font-stretch:normal;line-height:0.01%;font-family:Lavi;-inkscape-font-specification:Lavi;text-align:center;letter-spacing:0px;word-spacing:0px;text-anchor:middle;fill:#000000;fill-opacity:1;stroke:none"
       transform="translate(426.30074,1530.3263)"><flowRegion
         id="flowRegion2989-5-4-4"><rect
           id="rect2991-7-9-57"
           width="619.65173"
           height="310.73993"
           x="120.55251"
           y="265.53046"
           style="font-style:normal;font-variant:normal;font-weight:normal;font-stretch:normal;font-family:Lavi;-inkscape-font-specification:Lavi;text-align:center;text-anchor:middle" /></flowRegion><flowPara
         style="font-size:48px;line-height:1.25;text-align:center;text-anchor:middle"
         id="flowPara4239">Abgestimmt wird</flowPara><flowPara
         style="font-size:48px;line-height:1.25;text-align:center;text-anchor:middle"
         id="flowPara4437">durch den Applaus!</flowPara></flowRoot>
    <flowRoot
       transform="translate(196.02576,1869.8014)"
       style="font-style:normal;font-variant:normal;font-weight:normal;font-stretch:normal;line-height:0.01%;font-family:Lavi;-inkscape-font-specification:Lavi;text-align:center;letter-spacing:0px;word-spacing:0px;text-anchor:middle;fill:#000000;fill-opacity:1;stroke:none"
       id="flowRoot4212"
       xml:space="preserve"><flowRegion
         id="flowRegion4214"><rect
           style="font-style:normal;font-variant:normal;font-weight:normal;font-stretch:normal;font-family:Lavi;-inkscape-font-specification:Lavi;text-align:center;text-anchor:middle"
           y="265.53046"
           x="120.55251"
           height="310.73996"
           width="602.40173"
           id="rect4216" /></flowRegion><flowPara
         style="font-size:48px;line-height:1.25;text-align:center;text-anchor:middle"
         id="flowPara4545">Als Erstes:</flowPara><flowPara
         style="font-size:48px;line-height:1.25;text-align:center;text-anchor:middle"
         id="flowPara4444">die Präsentation von</flowPara><flowPara
         style="font-size:48px;line-height:1.25;text-align:center;text-anchor:middle"
         id="flowPara4446">Coriander</flowPara></flowRoot>
    <path
       style="color:#000000;display:inline;overflow:visible;visibility:visible;fill:#ffffff;fill-opacity:1;fill-rule:nonzero;stroke:none;stroke-width:1px;marker:none;enable-background:accumulate"
       d="m 780.28717,2580.2849 c -2.4049,47.1601 -60.1208,116.0864 -121.44397,107.924 73.34739,-26.3008 92.58602,-87.0647 87.77636,-101.5755 -4.80966,-14.5108 33.66761,-6.3485 33.66761,-6.3485 z"
       id="path3978"
       inkscape:connector-curvature="0" />
    <path
       style="color:#000000;display:inline;overflow:visible;visibility:visible;fill:#ffffff;fill-opacity:1;fill-rule:nonzero;stroke:none;stroke-width:1px;marker:none;enable-background:accumulate"
       d="m 1241.5645,2312.5961 c -89.6471,-6.6612 -257.29259,-19.7348 -282.69274,-60.5351 -25.39998,-40.8002 -26.33895,-136.2787 18.07653,-166.7523 32.76741,-22.4818 197.82991,-15.9064 275.52411,-8.4124 77.694,7.494 176.0064,-9.131 199.9122,29.1711 23.906,38.3025 32.7262,175.0312 -67.3796,190.8517 -100.1059,15.8206 -143.4405,15.677 -143.4405,15.677 z"
       id="path3970-7"
       inkscape:connector-curvature="0"
       sodipodi:nodetypes="csssssc" />
    <flowRoot
       transform="translate(787.37811,1843.7474)"
       style="font-style:normal;font-variant:normal;font-weight:normal;font-stretch:normal;line-height:0.01%;font-family:Lavi;-inkscape-font-specification:Lavi;text-align:center;letter-spacing:0px;word-spacing:0px;text-anchor:middle;fill:#000000;fill-opacity:1;stroke:none"
       id="flowRoot4212-3-7"
       xml:space="preserve"><flowRegion
         id="flowRegion4214-6-7"><rect
           style="font-style:normal;font-variant:normal;font-weight:normal;font-stretch:normal;font-family:Lavi;-inkscape-font-specification:Lavi;text-align:center;text-anchor:middle"
           y="265.53046"
           x="120.55251"
           height="310.73996"
           width="602.40173"
           id="rect4216-4-0" /></flowRegion><flowPara
         style="font-size:48px;line-height:1.25;text-align:center;text-anchor:middle"
         id="flowPara4560">...vergessen Sie die</flowPara><flowPara
         style="font-size:48px;line-height:1.25;text-align:center;text-anchor:middle"
         id="flowPara4459">Angst vor dem Tod</flowPara><flowPara
         style="font-size:48px;line-height:1.25;text-align:center;text-anchor:middle"
         id="flowPara4465">dank meines...</flowPara></flowRoot>
    <path
       style="color:#000000;display:inline;overflow:visible;visibility:visible;fill:#ffffff;fill-opacity:1;fill-rule:nonzero;stroke:none;stroke-width:1px;marker:none;enable-background:accumulate"
       d="m 1952.8714,2352.7854 c -114.9901,-7.8068 -283.6419,-33.1792 -316.2227,-80.9961 -32.5804,-47.8169 -24.9144,-107.3442 42.1632,-133.6924 67.0773,-26.3481 182.0675,-48.7929 281.7256,-40.0102 99.6581,8.7828 229.9801,40.9861 260.6441,85.8754 30.6641,44.8895 1.9166,140.5236 -126.4889,159.0647 -128.4057,18.5414 -141.8213,9.7586 -141.8213,9.7586 z"
       id="path3970-7-9"
       inkscape:connector-curvature="0" />
    <flowRoot
       transform="translate(1489.4921,1890.9669)"
       style="font-style:normal;font-variant:normal;font-weight:normal;font-stretch:normal;line-height:0.01%;font-family:Lavi;-inkscape-font-specification:Lavi;text-align:center;letter-spacing:0px;word-spacing:0px;text-anchor:middle;fill:#000000;fill-opacity:1;stroke:none"
       id="flowRoot4212-3-7-9"
       xml:space="preserve"><flowRegion
         id="flowRegion4214-6-7-9"><rect
           style="font-style:normal;font-variant:normal;font-weight:normal;font-stretch:normal;font-family:Lavi;-inkscape-font-specification:Lavi;text-align:center;text-anchor:middle"
           y="265.53046"
           x="120.55251"
           height="310.73996"
           width="602.40173"
           id="rect4216-4-0-2" /></flowRegion><flowPara
         style="font-size:48px;line-height:1.25;text-align:center;text-anchor:middle"
         id="flowPara4358-6"> </flowPara></flowRoot>
    <flowRoot
       transform="translate(1494.4921,1875.9669)"
       style="font-style:normal;font-variant:normal;font-weight:normal;font-stretch:normal;line-height:0.01%;font-family:Lavi;-inkscape-font-specification:Lavi;text-align:center;letter-spacing:0px;word-spacing:0px;text-anchor:middle;fill:#000000;fill-opacity:1;stroke:none"
       id="flowRoot4212-3-7-8"
       xml:space="preserve"><flowRegion
         id="flowRegion4214-6-7-8"><rect
           style="font-style:normal;font-variant:normal;font-weight:normal;font-stretch:normal;font-family:Lavi;-inkscape-font-specification:Lavi;text-align:center;text-anchor:middle"
           y="265.53046"
           x="120.55251"
           height="310.73996"
           width="602.40173"
           id="rect4216-4-0-26" /></flowRegion><flowPara
         style="font-size:48px;line-height:1.25;text-align:center;text-anchor:middle"
         id="flowPara4358-7">.. Tranks der</flowPara></flowRoot>
    <flowRoot
       transform="matrix(0.90617713,0,-0.22078013,1.6225798,1531.4457,1775.1189)"
       style="font-style:normal;font-variant:normal;font-weight:normal;font-stretch:normal;line-height:0.01%;font-family:Lavi;-inkscape-font-specification:Lavi;text-align:center;letter-spacing:0px;word-spacing:0px;text-anchor:middle;fill:#000000;fill-opacity:1;stroke:#000000;stroke-width:4.7;stroke-miterlimit:4;stroke-dasharray:none;stroke-opacity:1"
       id="flowRoot4212-3-7-8-6"
       xml:space="preserve"><flowRegion
         id="flowRegion4214-6-7-8-3"><rect
           style="font-style:normal;font-variant:normal;font-weight:normal;font-stretch:normal;font-family:Lavi;-inkscape-font-specification:Lavi;text-align:center;text-anchor:middle;stroke:#000000;stroke-width:4.69999981;stroke-miterlimit:4;stroke-dasharray:none;stroke-opacity:1"
           y="265.53046"
           x="120.55251"
           height="355.03918"
           width="798.1947"
           id="rect4216-4-0-26-5" /></flowRegion><flowPara
         style="font-size:48px;line-height:1.25;text-align:center;letter-spacing:5.20896px;text-anchor:middle;stroke:#000000;stroke-width:4.7;stroke-miterlimit:4;stroke-dasharray:none;stroke-opacity:1"
         id="flowPara4358-7-1">ZOMBIFIZIERUNG!</flowPara></flowRoot>
    <flowRoot
       xml:space="preserve"
       id="flowRoot2987-7-9-9-7-0"
       style="font-style:normal;font-variant:normal;font-weight:normal;font-stretch:normal;line-height:0.01%;font-family:Lavi;-inkscape-font-specification:Lavi;letter-spacing:0px;word-spacing:0px;fill:#000000;fill-opacity:1;stroke:#000000;stroke-width:0.992362;stroke-miterlimit:4;stroke-dasharray:none;stroke-opacity:1;filter:url(#filter4375-4)"
       transform="matrix(0.93207984,-0.67152285,0,2.1472773,1415.8943,2784.4145)"><flowRegion
         id="flowRegion2989-4-5-8-7-41"
         style="stroke-width:5.40286"><rect
           id="rect2991-45-1-3-3-8"
           width="319.66232"
           height="56.089447"
           x="120.55251"
           y="265.53046"
           style="font-style:normal;font-variant:normal;font-weight:normal;font-stretch:normal;font-family:Lavi;-inkscape-font-specification:Lavi;fill:#000000;fill-opacity:1;stroke:#000000;stroke-width:0.99236238;stroke-miterlimit:4;stroke-dasharray:none;stroke-opacity:1" /></flowRegion><flowPara
         id="flowPara2995-4-1-5-0-7"
         style="font-weight:normal;font-size:48px;line-height:1.25;-inkscape-font-specification:Lavi;letter-spacing:7.06853px;fill:#ffffff;fill-opacity:1;stroke:#ffffff;stroke-width:0.992362;stroke-linejoin:miter;stroke-miterlimit:4;stroke-dasharray:none;stroke-opacity:1">Klatsch</flowPara></flowRoot>
    <flowRoot
       xml:space="preserve"
       id="flowRoot2987-7-9-9-7-0-3"
       style="font-style:normal;font-variant:normal;font-weight:normal;font-stretch:normal;line-height:0.01%;font-family:Lavi;-inkscape-font-specification:Lavi;letter-spacing:0px;word-spacing:0px;fill:#000000;fill-opacity:1;stroke:#000000;stroke-width:0.992362;stroke-miterlimit:4;stroke-dasharray:none;stroke-opacity:1;filter:url(#filter4375-4-1)"
       transform="matrix(0.81295734,-0.5582143,0,2.0745194,1540.0356,2816.3429)"><flowRegion
         id="flowRegion2989-4-5-8-7-41-7"
         style="stroke-width:5.40286"><rect
           id="rect2991-45-1-3-3-8-0"
           width="319.66232"
           height="56.089447"
           x="120.55251"
           y="265.53046"
           style="font-style:normal;font-variant:normal;font-weight:normal;font-stretch:normal;font-family:Lavi;-inkscape-font-specification:Lavi;fill:#000000;fill-opacity:1;stroke:#000000;stroke-width:0.99236238;stroke-miterlimit:4;stroke-dasharray:none;stroke-opacity:1" /></flowRegion><flowPara
         id="flowPara2995-4-1-5-0-7-2"
         style="font-weight:normal;font-size:48px;line-height:1.25;-inkscape-font-specification:Lavi;letter-spacing:7.06853px;fill:#ffffff;fill-opacity:1;stroke:#ffffff;stroke-width:0.992362;stroke-linejoin:miter;stroke-miterlimit:4;stroke-dasharray:none;stroke-opacity:1">Klatsch</flowPara></flowRoot>
    <flowRoot
       xml:space="preserve"
       id="flowRoot2987-7-9-9-7-0-3-0"
       style="font-style:normal;font-variant:normal;font-weight:normal;font-stretch:normal;line-height:0.01%;font-family:Lavi;-inkscape-font-specification:Lavi;letter-spacing:0px;word-spacing:0px;fill:#000000;fill-opacity:1;stroke:#000000;stroke-width:0.992362;stroke-miterlimit:4;stroke-dasharray:none;stroke-opacity:1;filter:url(#filter4375-4-1-4)"
       transform="matrix(0.81295734,-0.5582143,0,2.0745194,1392.2095,2686.9951)"><flowRegion
         id="flowRegion2989-4-5-8-7-41-7-6"
         style="stroke-width:5.40286"><rect
           id="rect2991-45-1-3-3-8-0-8"
           width="319.66232"
           height="56.089447"
           x="120.55251"
           y="265.53046"
           style="font-style:normal;font-variant:normal;font-weight:normal;font-stretch:normal;font-family:Lavi;-inkscape-font-specification:Lavi;fill:#000000;fill-opacity:1;stroke:#000000;stroke-width:0.99236238;stroke-miterlimit:4;stroke-dasharray:none;stroke-opacity:1" /></flowRegion><flowPara
         id="flowPara2995-4-1-5-0-7-2-9"
         style="font-weight:normal;font-size:48px;line-height:1.25;-inkscape-font-specification:Lavi;letter-spacing:7.06853px;fill:#ffffff;fill-opacity:1;stroke:#ffffff;stroke-width:0.992362;stroke-linejoin:miter;stroke-miterlimit:4;stroke-dasharray:none;stroke-opacity:1">Klatsch</flowPara></flowRoot>
    <flowRoot
       xml:space="preserve"
       id="flowRoot2987-7-9-9-7-0-3-5"
       style="font-style:normal;font-variant:normal;font-weight:normal;font-stretch:normal;line-height:0.01%;font-family:Lavi;-inkscape-font-specification:Lavi;letter-spacing:0px;word-spacing:0px;fill:#000000;fill-opacity:1;stroke:#000000;stroke-width:0.992362;stroke-miterlimit:4;stroke-dasharray:none;stroke-opacity:1;filter:url(#filter4375-4-1-7)"
       transform="matrix(0.81295734,-0.5582143,0,2.0745194,1650.9052,2771.7777)"
       inkscape:transform-center-x="260.86955"
       inkscape:transform-center-y="-152.17391"><flowRegion
         id="flowRegion2989-4-5-8-7-41-7-68"
         style="stroke-width:5.40286"><rect
           id="rect2991-45-1-3-3-8-0-3"
           width="319.66232"
           height="56.089447"
           x="120.55251"
           y="265.53046"
           style="font-style:normal;font-variant:normal;font-weight:normal;font-stretch:normal;font-family:Lavi;-inkscape-font-specification:Lavi;fill:#000000;fill-opacity:1;stroke:#000000;stroke-width:0.99236238;stroke-miterlimit:4;stroke-dasharray:none;stroke-opacity:1" /></flowRegion><flowPara
         id="flowPara2995-4-1-5-0-7-2-5"
         style="font-weight:normal;font-size:48px;line-height:1.25;-inkscape-font-specification:Lavi;letter-spacing:7.06853px;fill:#ffffff;fill-opacity:1;stroke:#ffffff;stroke-width:0.992362;stroke-linejoin:miter;stroke-miterlimit:4;stroke-dasharray:none;stroke-opacity:1">Klatsch</flowPara></flowRoot>
    <flowRoot
       xml:space="preserve"
       id="flowRoot2987-7-9-9-7-0-3-4"
       style="font-style:normal;font-variant:normal;font-weight:normal;font-stretch:normal;line-height:0.01%;font-family:Lavi;-inkscape-font-specification:Lavi;letter-spacing:0px;word-spacing:0px;fill:#000000;fill-opacity:1;stroke:#000000;stroke-width:0.992362;stroke-miterlimit:4;stroke-dasharray:none;stroke-opacity:1;filter:url(#filter4375-4-1-1)"
       transform="matrix(0.95025051,-0.6235099,0,2.3171807,1709.7887,2775.2954)"><flowRegion
         id="flowRegion2989-4-5-8-7-41-7-62"
         style="stroke-width:5.40286"><rect
           id="rect2991-45-1-3-3-8-0-4"
           width="319.66232"
           height="56.089447"
           x="120.55251"
           y="265.53046"
           style="font-style:normal;font-variant:normal;font-weight:normal;font-stretch:normal;font-family:Lavi;-inkscape-font-specification:Lavi;fill:#000000;fill-opacity:1;stroke:#000000;stroke-width:0.99236238;stroke-miterlimit:4;stroke-dasharray:none;stroke-opacity:1" /></flowRegion><flowPara
         id="flowPara2995-4-1-5-0-7-2-6"
         style="font-weight:normal;font-size:48px;line-height:1.25;-inkscape-font-specification:Lavi;letter-spacing:7.06853px;fill:#ffffff;fill-opacity:1;stroke:#ffffff;stroke-width:0.992362;stroke-linejoin:miter;stroke-miterlimit:4;stroke-dasharray:none;stroke-opacity:1">Klatsch</flowPara></flowRoot>
    <flowRoot
       xml:space="preserve"
       id="flowRoot2987-7-9-9-7-0-3-7"
       style="font-style:normal;font-variant:normal;font-weight:normal;font-stretch:normal;line-height:0.01%;font-family:Lavi;-inkscape-font-specification:Lavi;letter-spacing:0px;word-spacing:0px;fill:#000000;fill-opacity:1;stroke:#000000;stroke-width:0.992362;stroke-miterlimit:4;stroke-dasharray:none;stroke-opacity:1;filter:url(#filter4375-4-1-40)"
       transform="matrix(0.66064967,-0.45648241,0,1.6964482,1776.2569,2816.2132)"><flowRegion
         id="flowRegion2989-4-5-8-7-41-7-5"
         style="stroke-width:5.40286"><rect
           id="rect2991-45-1-3-3-8-0-5"
           width="319.66232"
           height="56.089447"
           x="120.55251"
           y="265.53046"
           style="font-style:normal;font-variant:normal;font-weight:normal;font-stretch:normal;font-family:Lavi;-inkscape-font-specification:Lavi;fill:#000000;fill-opacity:1;stroke:#000000;stroke-width:0.99236238;stroke-miterlimit:4;stroke-dasharray:none;stroke-opacity:1" /></flowRegion><flowPara
         id="flowPara2995-4-1-5-0-7-2-92"
         style="font-weight:normal;font-size:48px;line-height:1.25;-inkscape-font-specification:Lavi;letter-spacing:7.06853px;fill:#ffffff;fill-opacity:1;stroke:#ffffff;stroke-width:0.992362;stroke-linejoin:miter;stroke-miterlimit:4;stroke-dasharray:none;stroke-opacity:1">Klatsch</flowPara></flowRoot>
    <flowRoot
       xml:space="preserve"
       id="flowRoot2987-7-9-9-7-0-3-7-7"
       style="font-style:normal;font-variant:normal;font-weight:normal;font-stretch:normal;line-height:0.01%;font-family:Lavi;-inkscape-font-specification:Lavi;letter-spacing:0px;word-spacing:0px;fill:#000000;fill-opacity:1;stroke:#000000;stroke-width:0.992362;stroke-miterlimit:4;stroke-dasharray:none;stroke-opacity:1;filter:url(#filter4375-4-1-40-7)"
       transform="matrix(0.66064967,-0.45648241,0,1.6964482,1871.1529,2839.1811)"><flowRegion
         id="flowRegion2989-4-5-8-7-41-7-5-8"
         style="stroke-width:5.40286"><rect
           id="rect2991-45-1-3-3-8-0-5-8"
           width="319.66232"
           height="56.089447"
           x="120.55251"
           y="265.53046"
           style="font-style:normal;font-variant:normal;font-weight:normal;font-stretch:normal;font-family:Lavi;-inkscape-font-specification:Lavi;fill:#000000;fill-opacity:1;stroke:#000000;stroke-width:0.99236238;stroke-miterlimit:4;stroke-dasharray:none;stroke-opacity:1" /></flowRegion><flowPara
         id="flowPara2995-4-1-5-0-7-2-92-2"
         style="font-weight:normal;font-size:48px;line-height:1.25;-inkscape-font-specification:Lavi;letter-spacing:7.06853px;fill:#ffffff;fill-opacity:1;stroke:#ffffff;stroke-width:0.992362;stroke-linejoin:miter;stroke-miterlimit:4;stroke-dasharray:none;stroke-opacity:1">Klatsch</flowPara></flowRoot>
    <flowRoot
       xml:space="preserve"
       id="flowRoot2987-7-9-9-7-0-3-4-1"
       style="font-style:normal;font-variant:normal;font-weight:normal;font-stretch:normal;line-height:0.01%;font-family:Lavi;-inkscape-font-specification:Lavi;letter-spacing:0px;word-spacing:0px;fill:#000000;fill-opacity:1;stroke:#000000;stroke-width:0.992362;stroke-miterlimit:4;stroke-dasharray:none;stroke-opacity:1;filter:url(#filter4375-4-1-1-1)"
       transform="matrix(0.95025051,-0.6235099,0,2.3171807,2053.2197,2699.2558)"><flowRegion
         id="flowRegion2989-4-5-8-7-41-7-62-2"
         style="stroke-width:5.40286"><rect
           id="rect2991-45-1-3-3-8-0-4-6"
           width="319.66232"
           height="56.089447"
           x="120.55251"
           y="265.53046"
           style="font-style:normal;font-variant:normal;font-weight:normal;font-stretch:normal;font-family:Lavi;-inkscape-font-specification:Lavi;fill:#000000;fill-opacity:1;stroke:#000000;stroke-width:0.99236238;stroke-miterlimit:4;stroke-dasharray:none;stroke-opacity:1" /></flowRegion><flowPara
         id="flowPara2995-4-1-5-0-7-2-6-4"
         style="font-weight:normal;font-size:48px;line-height:1.25;-inkscape-font-specification:Lavi;letter-spacing:7.06853px;fill:#ffffff;fill-opacity:1;stroke:#ffffff;stroke-width:0.992362;stroke-linejoin:miter;stroke-miterlimit:4;stroke-dasharray:none;stroke-opacity:1">Klatsch</flowPara></flowRoot>
    <flowRoot
       xml:space="preserve"
       id="flowRoot2987-7-9-9-7-0-3-5-6"
       style="font-style:normal;font-variant:normal;font-weight:normal;font-stretch:normal;line-height:0.01%;font-family:Lavi;-inkscape-font-specification:Lavi;letter-spacing:0px;word-spacing:0px;fill:#000000;fill-opacity:1;stroke:#000000;stroke-width:0.992362;stroke-miterlimit:4;stroke-dasharray:none;stroke-opacity:1;filter:url(#filter4375-4-1-7-8)"
       transform="matrix(0.81295734,-0.5582143,0,2.0745194,1870.0923,2822.2502)"
       inkscape:transform-center-x="260.86955"
       inkscape:transform-center-y="-152.17391"><flowRegion
         id="flowRegion2989-4-5-8-7-41-7-68-6"
         style="stroke-width:5.40286"><rect
           id="rect2991-45-1-3-3-8-0-3-9"
           width="319.66232"
           height="56.089447"
           x="120.55251"
           y="265.53046"
           style="font-style:normal;font-variant:normal;font-weight:normal;font-stretch:normal;font-family:Lavi;-inkscape-font-specification:Lavi;fill:#000000;fill-opacity:1;stroke:#000000;stroke-width:0.99236238;stroke-miterlimit:4;stroke-dasharray:none;stroke-opacity:1" /></flowRegion><flowPara
         id="flowPara2995-4-1-5-0-7-2-5-5"
         style="font-weight:normal;font-size:48px;line-height:1.25;-inkscape-font-specification:Lavi;letter-spacing:7.06853px;fill:#ffffff;fill-opacity:1;stroke:#ffffff;stroke-width:0.992362;stroke-linejoin:miter;stroke-miterlimit:4;stroke-dasharray:none;stroke-opacity:1">Klatsch</flowPara></flowRoot>
    <flowRoot
       xml:space="preserve"
       id="flowRoot2987-7-9-9-7-0-3-5-2"
       style="font-style:normal;font-variant:normal;font-weight:normal;font-stretch:normal;line-height:0.01%;font-family:Lavi;-inkscape-font-specification:Lavi;letter-spacing:0px;word-spacing:0px;fill:#000000;fill-opacity:1;stroke:#000000;stroke-width:0.992362;stroke-miterlimit:4;stroke-dasharray:none;stroke-opacity:1;filter:url(#filter4375-4-1-7-3)"
       transform="matrix(0.64072204,-0.45082614,0,1.6754275,1972.1078,2818.9119)"
       inkscape:transform-center-x="205.60104"
       inkscape:transform-center-y="-122.89897"><flowRegion
         id="flowRegion2989-4-5-8-7-41-7-68-63"
         style="stroke-width:5.40286"><rect
           id="rect2991-45-1-3-3-8-0-3-6"
           width="319.66232"
           height="56.089447"
           x="120.55251"
           y="265.53046"
           style="font-style:normal;font-variant:normal;font-weight:normal;font-stretch:normal;font-family:Lavi;-inkscape-font-specification:Lavi;fill:#000000;fill-opacity:1;stroke:#000000;stroke-width:0.99236238;stroke-miterlimit:4;stroke-dasharray:none;stroke-opacity:1" /></flowRegion><flowPara
         id="flowPara2995-4-1-5-0-7-2-5-3"
         style="font-weight:normal;font-size:48px;line-height:1.25;-inkscape-font-specification:Lavi;letter-spacing:7.06853px;fill:#ffffff;fill-opacity:1;stroke:#ffffff;stroke-width:0.992362;stroke-linejoin:miter;stroke-miterlimit:4;stroke-dasharray:none;stroke-opacity:1">Klatsch</flowPara></flowRoot>
    <flowRoot
       xml:space="preserve"
       id="flowRoot2987-7-9-9-7-0-3-5-2-9"
       style="font-style:normal;font-variant:normal;font-weight:normal;font-stretch:normal;line-height:0.01%;font-family:Lavi;-inkscape-font-specification:Lavi;letter-spacing:0px;word-spacing:0px;fill:#000000;fill-opacity:1;stroke:#000000;stroke-width:0.992362;stroke-miterlimit:4;stroke-dasharray:none;stroke-opacity:1;filter:url(#filter4375-4-1-7-3-3)"
       transform="matrix(0.64072204,-0.45082614,0,1.6754275,2001.4084,2904.9232)"
       inkscape:transform-center-x="205.60104"
       inkscape:transform-center-y="-122.89897"><flowRegion
         id="flowRegion2989-4-5-8-7-41-7-68-63-4"
         style="stroke-width:5.40286"><rect
           id="rect2991-45-1-3-3-8-0-3-6-3"
           width="319.66232"
           height="56.089447"
           x="120.55251"
           y="265.53046"
           style="font-style:normal;font-variant:normal;font-weight:normal;font-stretch:normal;font-family:Lavi;-inkscape-font-specification:Lavi;fill:#000000;fill-opacity:1;stroke:#000000;stroke-width:0.99236238;stroke-miterlimit:4;stroke-dasharray:none;stroke-opacity:1" /></flowRegion><flowPara
         id="flowPara2995-4-1-5-0-7-2-5-3-1"
         style="font-weight:normal;font-size:48px;line-height:1.25;-inkscape-font-specification:Lavi;letter-spacing:7.06853px;fill:#ffffff;fill-opacity:1;stroke:#ffffff;stroke-width:0.992362;stroke-linejoin:miter;stroke-miterlimit:4;stroke-dasharray:none;stroke-opacity:1">Klatsch</flowPara></flowRoot>
    <flowRoot
       xml:space="preserve"
       id="flowRoot2987-7-9-9-7-0-3-5-2-6"
       style="font-style:normal;font-variant:normal;font-weight:normal;font-stretch:normal;line-height:0.01%;font-family:Lavi;-inkscape-font-specification:Lavi;letter-spacing:0px;word-spacing:0px;fill:#000000;fill-opacity:1;stroke:#000000;stroke-width:0.992362;stroke-miterlimit:4;stroke-dasharray:none;stroke-opacity:1;filter:url(#filter4375-4-1-7-3-7)"
       transform="matrix(0.64072204,-0.45082614,0,1.6754275,2198.69,2857.5414)"
       inkscape:transform-center-x="205.60104"
       inkscape:transform-center-y="-122.89897"><flowRegion
         id="flowRegion2989-4-5-8-7-41-7-68-63-1"
         style="stroke-width:5.40286"><rect
           id="rect2991-45-1-3-3-8-0-3-6-32"
           width="319.66232"
           height="56.089447"
           x="120.55251"
           y="265.53046"
           style="font-style:normal;font-variant:normal;font-weight:normal;font-stretch:normal;font-family:Lavi;-inkscape-font-specification:Lavi;fill:#000000;fill-opacity:1;stroke:#000000;stroke-width:0.99236238;stroke-miterlimit:4;stroke-dasharray:none;stroke-opacity:1" /></flowRegion><flowPara
         id="flowPara2995-4-1-5-0-7-2-5-3-0"
         style="font-weight:normal;font-size:48px;line-height:1.25;-inkscape-font-specification:Lavi;letter-spacing:7.06853px;fill:#ffffff;fill-opacity:1;stroke:#ffffff;stroke-width:0.992362;stroke-linejoin:miter;stroke-miterlimit:4;stroke-dasharray:none;stroke-opacity:1">Klatsch</flowPara></flowRoot>
    <flowRoot
       xml:space="preserve"
       id="flowRoot2987-7-9-9-7-0-3-4-1-7"
       style="font-style:normal;font-variant:normal;font-weight:normal;font-stretch:normal;line-height:0.01%;font-family:Lavi;-inkscape-font-specification:Lavi;letter-spacing:0px;word-spacing:0px;fill:#000000;fill-opacity:1;stroke:#000000;stroke-width:0.992362;stroke-miterlimit:4;stroke-dasharray:none;stroke-opacity:1;filter:url(#filter4375-4-1-1-1-8)"
       transform="matrix(0.80795325,-0.55028753,0,2.0450608,1508.9929,2668.928)"><flowRegion
         id="flowRegion2989-4-5-8-7-41-7-62-2-4"
         style="stroke-width:5.40286"><rect
           id="rect2991-45-1-3-3-8-0-4-6-7"
           width="319.66232"
           height="56.089447"
           x="120.55251"
           y="265.53046"
           style="font-style:normal;font-variant:normal;font-weight:normal;font-stretch:normal;font-family:Lavi;-inkscape-font-specification:Lavi;fill:#000000;fill-opacity:1;stroke:#000000;stroke-width:0.99236238;stroke-miterlimit:4;stroke-dasharray:none;stroke-opacity:1" /></flowRegion><flowPara
         id="flowPara2995-4-1-5-0-7-2-6-4-2"
         style="font-weight:normal;font-size:48px;line-height:1.25;-inkscape-font-specification:Lavi;letter-spacing:7.06853px;fill:#ffffff;fill-opacity:1;stroke:#ffffff;stroke-width:0.992362;stroke-linejoin:miter;stroke-miterlimit:4;stroke-dasharray:none;stroke-opacity:1">Klatsch</flowPara></flowRoot>
    <flowRoot
       transform="translate(366.26601,2174.0326)"
       style="font-style:normal;font-variant:normal;font-weight:normal;font-stretch:normal;line-height:0.01%;font-family:Lavi;-inkscape-font-specification:Lavi;text-align:center;letter-spacing:0px;word-spacing:0px;text-anchor:middle;fill:#000000;fill-opacity:1;stroke:none"
       id="flowRoot4212-3"
       xml:space="preserve"><flowRegion
         id="flowRegion4214-6"><rect
           style="font-style:normal;font-variant:normal;font-weight:normal;font-stretch:normal;font-family:Lavi;-inkscape-font-specification:Lavi;text-align:center;text-anchor:middle"
           y="265.53046"
           x="120.55251"
           height="310.73996"
           width="602.40173"
           id="rect4216-4" /></flowRegion><flowPara
         style="font-size:48px;line-height:1.25;text-align:center;text-anchor:middle"
         id="flowPara4551">Meine Damen</flowPara><flowPara
         style="font-size:48px;line-height:1.25;text-align:center;text-anchor:middle"
         id="flowPara4453">und Herren</flowPara><flowPara
         style="font-size:48px;line-height:1.25;text-align:center;text-anchor:middle"
         id="flowPara4455">...</flowPara></flowRoot>
  </g>
</svg>
