<?xml version="1.0" encoding="UTF-8" standalone="no"?>
<!-- Created with Inkscape (http://www.inkscape.org/) -->

<svg
   id="svg2"
   version="1.1"
   inkscape:version="1.2.1 (9c6d41e410, 2022-07-14)"
   width="2481"
   height="3503"
   sodipodi:docname="E38P03.svg"
   xmlns:inkscape="http://www.inkscape.org/namespaces/inkscape"
   xmlns:sodipodi="http://sodipodi.sourceforge.net/DTD/sodipodi-0.dtd"
   xmlns:xlink="http://www.w3.org/1999/xlink"
   xmlns="http://www.w3.org/2000/svg"
   xmlns:svg="http://www.w3.org/2000/svg"
   xmlns:rdf="http://www.w3.org/1999/02/22-rdf-syntax-ns#"
   xmlns:cc="http://creativecommons.org/ns#"
   xmlns:dc="http://purl.org/dc/elements/1.1/">
  <metadata
     id="metadata8">
    <rdf:RDF>
      <cc:Work
         rdf:about="">
        <dc:format>image/svg+xml</dc:format>
        <dc:type
           rdf:resource="http://purl.org/dc/dcmitype/StillImage" />
        <dc:title />
      </cc:Work>
    </rdf:RDF>
  </metadata>
  <defs
     id="defs6" />
  <sodipodi:namedview
     pagecolor="#ffffff"
     bordercolor="#666666"
     borderopacity="1"
     objecttolerance="10"
     gridtolerance="10"
     guidetolerance="10"
     inkscape:pageopacity="0"
     inkscape:pageshadow="2"
     inkscape:window-width="1350"
     inkscape:window-height="1041"
     id="namedview4"
     showgrid="false"
     inkscape:zoom="0.43016842"
     inkscape:cx="1215.8029"
     inkscape:cy="2708.2416"
     inkscape:window-x="554"
     inkscape:window-y="0"
     inkscape:window-maximized="0"
     inkscape:current-layer="layer3"
     inkscape:showpageshadow="0"
     inkscape:pagecheckerboard="0"
     inkscape:deskcolor="#d1d1d1" />
  <g
     inkscape:groupmode="layer"
     id="layer2"
     inkscape:label="artwork"
     sodipodi:insensitive="true">
    <image
       xlink:href="../gfx_Pepper-and-Carrot_by-David-Revoy_E38P03.png"
       y="0"
       x="0"
       id="image10"
       height="3503.9123"
       width="2481" />
  </g>
  <g
     inkscape:groupmode="layer"
     id="layer3"
     inkscape:label="speechbubbles">
    <path
       style="color:#000000;display:inline;overflow:visible;visibility:visible;fill:#ffffff;fill-opacity:1;fill-rule:nonzero;stroke:none;stroke-width:1px;marker:none;enable-background:accumulate"
       d="m 1982.7326,2510.0564 c -33.6371,0.8018 -67.6629,3.7749 -99.9247,15.4244 -13.6887,5.4226 -24.6693,16.7397 -35.2587,27.6458 -7.9932,8.4796 -15.5576,18.6022 -17.9022,31.1289 -3.2949,17.2957 -2.6532,35.2224 -0.7875,52.6825 1.5921,12.4624 5.7321,24.579 12.587,34.4867 9.279,13.9184 22.6798,23.6563 37.044,29.2347 24.5576,10.6706 50.7248,16.8653 77.0377,16.7512 17.0205,0.084 34.0413,-1.0985 51.0589,-0.2596 21.1874,0.5077 42.5788,1.2561 63.5173,-3.215 18.3719,-3.7455 36.3737,-10.0774 53.3195,-19.0492 12.0282,-6.7676 22.8446,-17.0427 29.4388,-30.5765 12.5759,-24.6712 12.9819,-57.015 0.4955,-81.8408 -10.2197,-21.2409 -27.2399,-37.3528 -46.1605,-47.7138 -19.6605,-10.9999 -41.3412,-16.173 -62.9511,-18.9956 -20.3983,-3.0816 -40.9002,-5.9834 -61.514,-5.7037 z"
       id="path4040-4-5-3"
       inkscape:connector-curvature="0"
       sodipodi:nodetypes="zssssz" />
    <path
       style="color:#000000;display:inline;overflow:visible;visibility:visible;fill:#ffffff;fill-opacity:1;fill-rule:nonzero;stroke:none;stroke-width:0.960376px;marker:none;enable-background:accumulate"
       d="m 2104.175,2706.9683 c -48.8237,0.6311 -98.1047,0.8517 -146.0775,8.7206 -21.9226,3.8311 -42.4757,13.7808 -54.5225,28.6074 -17.9861,21.4964 -19.7131,50.1978 -5.1727,73.1099 8.4759,13.9518 22.7128,25.6554 39.8917,33.4785 12.8903,6.291 27.5409,10.5163 42.7531,11.7504 38.2842,4.2704 76.9514,6.9975 115.6677,6.4133 29.2906,-0.4237 58.6067,-2.4432 87.3627,-6.8283 21.139,-3.4951 42.2316,-9.9423 57.8541,-21.807 12.0824,-9.0972 20.0816,-21.3391 22.191,-34.2645 2.2071,-11.1608 2.9803,-22.4993 2.4096,-33.7774 -0.7737,-11.7981 -4.7161,-23.745 -13.6829,-33.4844 -8.2741,-9.315 -20.6771,-15.9952 -34.0495,-20.342 -19.2206,-6.3345 -40.1639,-8.5713 -60.8078,-10.1921 -17.8874,-1.2596 -35.8658,-1.4696 -53.817,-1.3844 z"
       id="path3365-33"
       inkscape:connector-curvature="0"
       sodipodi:nodetypes="csssssc" />
    <path
       style="color:#000000;display:inline;overflow:visible;visibility:visible;fill:#ffffff;fill-opacity:1;fill-rule:nonzero;stroke:none;stroke-width:0.999999px;marker:none;enable-background:accumulate"
       d="m 1263.1642,1831.4688 c -42.5257,-42.2705 -19.5395,-108.0364 17.6028,-114.3414 51.4374,-8.7316 -11.3103,20.5827 -11.3103,20.5827 0,0 -37.0509,43.6527 -6.2925,93.7587 z"
       id="path5002-7"
       inkscape:connector-curvature="0"
       sodipodi:nodetypes="cscc" />
    <path
       style="color:#000000;display:inline;overflow:visible;visibility:visible;fill:#ffffff;fill-opacity:1;fill-rule:nonzero;stroke:none;stroke-width:1px;marker:none;enable-background:accumulate"
       d="m 1916.9709,2636.425 c -77.3885,-61.1144 -158.5933,-65.3254 -208.3967,7.4705 60.8364,-52.278 143.8743,-25.5157 174.2291,8.7518 16.5264,23.0336 34.1676,-16.2223 34.1676,-16.2223 z"
       id="path3978-4"
       inkscape:connector-curvature="0"
       sodipodi:nodetypes="cccc" />
    <path
       style="fill:#ffffff;fill-rule:evenodd;stroke:none;stroke-width:0.999997px;stroke-linecap:butt;stroke-linejoin:miter;stroke-opacity:1"
       d="m 1571.1,1438.6662 c 1.0295,-18.6517 13.3828,-52.846 31.913,-59.0632 18.53,-6.2173 70.0024,-6.2173 80.2969,-3.1082 10.2946,3.1082 26.7657,25.9044 30.8835,35.2307 4.1179,9.3254 15.4418,42.4833 -3.0882,55.9542 -18.5302,13.4708 -37.0602,23.8325 -56.6198,22.7962 -19.5596,-1.0364 -58.6787,-8.29 -67.9436,-20.7235 -9.2651,-12.4345 -15.4418,-31.0862 -15.4418,-31.0862 z"
       id="path1355"
       inkscape:connector-curvature="0" />
    <path
       style="fill:#ffffff;fill-rule:evenodd;stroke:none;stroke-width:1.27466px;stroke-linecap:butt;stroke-linejoin:miter;stroke-opacity:1"
       d="m 992.00737,1577.6117 c 21.98283,2.7815 54.17303,-10.3741 36.40083,-52.2522 34.496,29.6715 62.7791,24.4916 118.8923,-22.0984 -4.663,64.9151 20.4167,58.8502 43.0264,46.3872 -21.699,21.8444 17.2517,34.362 38.2038,35.589 -44.322,47.2479 -21.0481,62.2742 -3.5836,80.0699 -43.5581,-13.1662 -33.0233,13.5109 -38.2261,28.5964 -37.3662,-34.1798 -64.5403,-26.0678 -86.0085,5.7192 -11.2282,-17.2866 -14.7524,-53.0151 -56.1444,1.9065 15.2208,-47.4131 -4.7303,-42.4363 -37.0313,-19.0643 5.0622,-16.1494 35.1497,-40.7071 -15.52943,-38.1285 31.65513,-15.3526 38.29353,-36.1497 0,-66.7248 z"
       id="path4584"
       inkscape:connector-curvature="0"
       sodipodi:nodetypes="cccccccccccc" />
    <path
       style="color:#000000;display:inline;overflow:visible;visibility:visible;fill:#ffffff;fill-opacity:1;fill-rule:nonzero;stroke:none;stroke-width:1px;marker:none;enable-background:accumulate"
       d="m 1092.7675,1600.0887 c 32.5118,17.1362 69.5241,50.078 26.9344,88.4809 5.5785,26.0417 6.6264,46.3987 -29.7935,75.4959 22.4386,-26.2104 31.5308,-42.9396 20.1333,-80.7335 19.0733,-22.4288 9.883,-53.2464 -33.7163,-67.4214 -43.5993,-14.1751 -33.1079,-7.2586 -33.1079,-7.2586 l 36.9086,-13.1055 z"
       id="path5074"
       inkscape:connector-curvature="0"
       sodipodi:nodetypes="ccccsccc" />
    <path
       style="fill:#ffffff;stroke:none;stroke-width:0.999998"
       d="m 1641.2389,1626.3692 c -23.6692,-22.5115 -16.2357,-35.8105 -6.3972,-46.3314 9.8357,-10.5203 11.5626,-22.6355 9.6907,-30.0237 -1.8719,-7.3881 -10.8731,-18.1272 -18.2553,-23.021 -7.3832,-4.8937 2.0396,-17.023 7.4292,-24.7215 7.1196,-10.1717 17.3403,-10.9015 17.3403,-10.9015 0,0 -8.6513,-43.4434 -16.6505,-33.7546 -7.9983,9.6888 -25.6203,43.7517 -27.4427,48.1059 -1.8214,4.3541 -5.0288,17.8771 0.4234,24.5114 5.4533,6.6341 17.5984,9.8769 21.8896,18.2273 4.4207,8.6023 3.0414,15.2934 -2.2485,24.1895 -5.2898,8.8961 -13.1942,29.5079 -2.6908,39.3668 10.5043,9.8587 16.9118,14.3528 16.9118,14.3528 z"
       id="path3023-9"
       inkscape:connector-curvature="0"
       sodipodi:nodetypes="csssscssssssc" />
  </g>
  <g
     inkscape:groupmode="layer"
     id="layer1"
     inkscape:label="txt">
    <path
       style="color:#000000;display:inline;overflow:visible;visibility:visible;fill:#ffffff;fill-opacity:1;fill-rule:nonzero;stroke:none;stroke-width:1.0075px;marker:none;enable-background:accumulate"
       d="m 1274.9239,1780.7064 c 10.0479,-16.725 29.6384,-30.5568 38.2868,-0.9858 24.2862,-27.6437 35.9765,-18.5165 54.9577,1.1705 0.1699,-6.3018 6.5001,-31.4813 33.8131,-15.7888 -8.6583,-22.5818 17.7583,-24.6006 30.6596,-22.0745 -4.9027,-11.0436 2.4996,-19.3363 20.8803,-25.173 -26.0488,-5.1666 -20.477,-18.504 13.5825,-31.3188 -35.6876,1.5904 -44.1686,-13.9191 -16.7227,-34.3299 -13.1802,0.2308 -58.8557,29.4272 -53.6625,-27.9379 -15.7708,19.412 -44.696,41.8314 -72.6511,5.6969 -5.6553,15.5071 -24.4611,26.4225 -47.7317,7.5647 -2.8562,15.1876 -28.082,18.3003 -37.7485,15.9742 20.6475,15.2189 21.1403,25.5885 -4.2268,29.0886 46.1423,26.7668 10.6377,24.8506 4.571,32.9571 34.7742,7.8232 29.673,22.5556 14.434,29.4979 30.6029,-19.1038 23.6715,14.5158 21.5583,35.6588 z"
       id="path3549-3-8"
       inkscape:connector-curvature="0"
       sodipodi:nodetypes="cccccccccccccccc" />
    <text
       id="text4178-0"
       y="1600.2191"
       x="1106.0676"
       style="font-style:normal;font-variant:normal;font-weight:normal;font-stretch:normal;font-size:37.3333px;line-height:0%;font-family:Lavi;-inkscape-font-specification:Lavi;text-align:center;letter-spacing:0px;word-spacing:0px;text-anchor:middle;fill:#000000;fill-opacity:1;stroke:none"
       xml:space="preserve"><tspan
         y="1600.2191"
         x="1106.0676"
         style="font-size:37.3333px;line-height:1.25"
         sodipodi:role="line"
         id="tspan4245-6-6">Tämä on</tspan><tspan
         y="1646.8857"
         x="1106.0676"
         style="font-size:37.3333px;line-height:1.25"
         sodipodi:role="line"
         id="tspan240">minun!</tspan></text>
    <text
       id="text4178-0-1"
       y="1710.4082"
       x="1331.897"
       style="font-style:normal;font-variant:normal;font-weight:normal;font-stretch:normal;font-size:32.7584px;line-height:0%;font-family:Lavi;-inkscape-font-specification:Lavi;text-align:center;letter-spacing:0px;word-spacing:0px;text-anchor:middle;fill:#000000;fill-opacity:1;stroke:none;stroke-width:0.999996"
       xml:space="preserve"
       transform="scale(1.0080992,0.99196588)"><tspan
         y="1710.4082"
         x="1331.897"
         style="font-size:32.7584px;line-height:1.25;stroke-width:0.999996"
         sodipodi:role="line"
         id="tspan8148">Ei, anna</tspan><tspan
         y="1751.3562"
         x="1331.897"
         style="font-size:32.7584px;line-height:1.25;stroke-width:0.999996"
         sodipodi:role="line"
         id="tspan451">minun!</tspan></text>
    <text
       id="text4178-0-7"
       y="1453.9064"
       x="1646.5745"
       style="font-style:normal;font-variant:normal;font-weight:normal;font-stretch:normal;font-size:18.9857px;line-height:0%;font-family:Lavi;-inkscape-font-specification:Lavi;text-align:center;letter-spacing:0px;word-spacing:0px;text-anchor:middle;fill:#000000;fill-opacity:1;stroke:none;stroke-width:0.999996"
       xml:space="preserve"><tspan
         y="1453.9064"
         x="1646.5745"
         style="font-size:64.3559px;line-height:1.25;stroke-width:0.999996"
         sodipodi:role="line"
         id="tspan4245-6-6-9">?</tspan></text>
    <text
       id="text4178-0-2"
       y="2581.3774"
       x="1992.4161"
       style="font-style:normal;font-variant:normal;font-weight:normal;font-stretch:normal;line-height:0%;font-family:Lavi;-inkscape-font-specification:Lavi;text-align:center;letter-spacing:0px;word-spacing:0px;text-anchor:middle;fill:#000000;fill-opacity:1;stroke:none"
       xml:space="preserve"><tspan
         y="2581.3774"
         x="1992.4161"
         style="font-size:40.6767px;line-height:1.25"
         sodipodi:role="line"
         id="tspan424">Mitä sinä</tspan><tspan
         y="2632.2234"
         x="1992.4161"
         style="font-size:40.6767px;line-height:1.25"
         sodipodi:role="line"
         id="tspan305">oikein luulet</tspan><tspan
         y="2683.0691"
         x="1992.4161"
         style="font-size:40.6767px;line-height:1.25"
         sodipodi:role="line"
         id="tspan307">tekeväsi?</tspan></text>
    <text
       id="text4178-0-2-2"
       y="2770.7864"
       x="2069.9771"
       style="font-style:normal;font-variant:normal;font-weight:normal;font-stretch:normal;line-height:0%;font-family:Lavi;-inkscape-font-specification:Lavi;text-align:center;letter-spacing:0px;word-spacing:0px;text-anchor:middle;fill:#000000;fill-opacity:1;stroke:none"
       xml:space="preserve"><tspan
         y="2770.7864"
         x="2069.9771"
         style="font-size:40.6767px;line-height:1.25"
         sodipodi:role="line"
         id="tspan501">Olemme etsineet</tspan><tspan
         y="2821.6323"
         x="2069.9771"
         style="font-size:40.6767px;line-height:1.25"
         sodipodi:role="line"
         id="tspan314">sinua kuukausia.</tspan></text>
  </g>
</svg>
