<?xml version="1.0" encoding="UTF-8" standalone="no"?>
<!-- Created with Inkscape (http://www.inkscape.org/) -->

<svg
   id="svg2"
   version="1.1"
   inkscape:version="1.1.1 (3bf5ae0d25, 2021-09-20)"
   width="2481"
   height="3503"
   sodipodi:docname="E26P06.svg"
   xmlns:inkscape="http://www.inkscape.org/namespaces/inkscape"
   xmlns:sodipodi="http://sodipodi.sourceforge.net/DTD/sodipodi-0.dtd"
   xmlns:xlink="http://www.w3.org/1999/xlink"
   xmlns="http://www.w3.org/2000/svg"
   xmlns:svg="http://www.w3.org/2000/svg"
   xmlns:rdf="http://www.w3.org/1999/02/22-rdf-syntax-ns#"
   xmlns:cc="http://creativecommons.org/ns#"
   xmlns:dc="http://purl.org/dc/elements/1.1/">
  <metadata
     id="metadata8">
    <rdf:RDF>
      <cc:Work
         rdf:about="">
        <dc:format>image/svg+xml</dc:format>
        <dc:type
           rdf:resource="http://purl.org/dc/dcmitype/StillImage" />
      </cc:Work>
    </rdf:RDF>
  </metadata>
  <defs
     id="defs6" />
  <sodipodi:namedview
     pagecolor="#ffffff"
     bordercolor="#666666"
     borderopacity="1"
     objecttolerance="10"
     gridtolerance="10"
     guidetolerance="10"
     inkscape:pageopacity="0"
     inkscape:pageshadow="2"
     inkscape:window-width="1336"
     inkscape:window-height="725"
     id="namedview4"
     showgrid="false"
     inkscape:zoom="0.40739124"
     inkscape:cx="1493.6502"
     inkscape:cy="2859.659"
     inkscape:window-x="15"
     inkscape:window-y="15"
     inkscape:window-maximized="0"
     inkscape:current-layer="layer1"
     inkscape:snap-global="false"
     inkscape:pagecheckerboard="0" />
  <g
     inkscape:groupmode="layer"
     id="layer2"
     inkscape:label="artwork"
     sodipodi:insensitive="true">
    <image
       xlink:href="../gfx_Pepper-and-Carrot_by-David-Revoy_E26P06.png"
       y="0"
       x="0"
       id="image10"
       height="3503.9123"
       width="2481" />
  </g>
  <g
     inkscape:groupmode="layer"
     id="layer3"
     inkscape:label="speechbubbles">
    <path
       style="color:#000000;display:inline;overflow:visible;visibility:visible;fill:#ffffff;fill-opacity:1;fill-rule:nonzero;stroke:none;stroke-width:1.16317px;marker:none;enable-background:accumulate"
       d="m 1636.6246,2329.2461 c -21.2404,-6.2866 -82.4861,-56.0835 -7.3711,-53.4826 -55.2826,-20.9531 -47.9337,-62.6535 -2.5037,-87.008 -59.5884,4.9777 -103.8082,-5.4154 -73.104,-48.4545 -88.1412,27.5624 -111.8315,15.8805 -93.5141,-44.572 -40.6031,49.8835 -90.0928,55.0298 -100.1255,-3.3243 -9.1498,43.4949 -30.3106,51.7384 -88.5349,-3.0262 -4.2859,15.9595 -19.6998,84.8382 -145.2494,70.3457 47.5799,30.42 77.8046,49.8925 -3.1623,62.7611 41.2637,13.6848 67.5782,32.2234 3.2673,61.675 41.6704,9.3017 107.5946,6.5753 27.5397,62.9047 52.7794,-26.6232 140.8214,-7.3868 102.8741,35.5565 103.4256,-48.2523 134.501,-40.0526 131.013,-1.4792 38.4556,-50.6251 101.9525,-44.2241 134.2776,-14.7957 -15.7143,-44.8637 67.1011,-37.1198 114.5933,-37.1005 z"
       id="path3549-3-78"
       inkscape:connector-curvature="0"
       sodipodi:nodetypes="ccccccccccccccc" />
    <path
       style="color:#000000;display:inline;overflow:visible;visibility:visible;fill:#ffffff;fill-opacity:1;fill-rule:nonzero;stroke:none;stroke-width:1.01871407px;marker:none;enable-background:accumulate"
       d="m 1400.2732,2334.626 c 8.6108,49.7588 2.9002,118.1574 -78.6529,106.2078 -25.201,28.7471 -47.7946,47.6765 -113.2114,34.184 49.8699,1.0663 77.1319,-3.8454 110.8215,-49.0964 42.563,0.7758 70.1242,-36.0119 48.4083,-95.037 -21.7161,-59.0252 -20.5388,-41.7552 -20.5388,-41.7552 l 47.376,28.0049 z"
       id="path5074"
       inkscape:connector-curvature="0"
       sodipodi:nodetypes="ccccsccc" />
    <path
       style="color:#000000;display:inline;overflow:visible;visibility:visible;fill:#ffffff;fill-opacity:1;fill-rule:nonzero;stroke:none;stroke-width:0.957922px;marker:none;enable-background:accumulate"
       d="m 1037.8018,1989.0005 c 18.3879,-31.7727 187.2398,-54.6168 241.7924,10.86 54.5525,65.4768 26.5771,134.0694 -4.7236,159.0695 -31.3006,25.0002 -164.2584,32.0411 -207.2086,19.3096 -38.6232,-11.449 -56.0223,-40.1542 -58.1597,-105.7424 -0.8724,-26.7691 9.9115,-51.7239 28.2995,-83.4967 z"
       id="path4040"
       inkscape:connector-curvature="0"
       sodipodi:nodetypes="zssssz" />
  </g>
  <g
     inkscape:groupmode="layer"
     id="layer1"
     inkscape:label="txt">
    <path
       style="color:#000000;display:inline;overflow:visible;visibility:visible;fill:#ffffff;fill-opacity:1;fill-rule:nonzero;stroke:none;stroke-width:1px;marker:none;enable-background:accumulate"
       d="m 1740.3605,637.95688 c 17.4053,17.1181 35.3748,35.0294 57.0685,48.7241 6.1988,3.8199 12.7078,7.5251 19.009,9.9498 6.3746,1.4498 9.8735,-1.4122 10.2479,-5.6132 1.1947,-5.7353 -1.4145,-13.9047 3.6212,-17.285 3.8153,-2.3306 11.4822,0.8814 17.8675,3.1704 16.3272,6.0748 33.0627,13.8279 48.9378,17.9363 18.2324,5.5799 37.1007,10.4081 51.0148,8.0016 5.4182,-1.0555 10.3442,-3.0194 11.8487,-7.4624 -11.8529,-30.14705 -41.315,-28.57407 -60.2412,-23.1796 -6.8911,1.9398 -18.3474,-1.96756 -28.217,-4.71516 -12.4299,-0.8743 -25.0467,-6.21694 -38.7607,-12.19864 -6.261,-2.6676 -12.8949,-5.2059 -18.2978,-5.4716 -6.5707,1.3916 -9.2612,7.0734 -7.7874,13.4873 1.2952,6.5363 4.2551,10.27689 -1.1401,13.11709 -3.0033,2.6585 -7.7221,-0.63503 -13.1082,-3.00783 -17.4337,-9.2145 -34.1552,-18.02906 -48.3937,-31.46116 -1.2852,-1.3148 -2.4776,-2.6514 -3.6693,-3.992 z"
       id="path4496"
       inkscape:connector-curvature="0"
       sodipodi:nodetypes="cccccccccccccccccc"
       inkscape:transform-center-x="22.684309"
       inkscape:transform-center-y="9.4517954" />
    <path
       style="color:#000000;display:inline;overflow:visible;visibility:visible;fill:#ffffff;fill-opacity:1;fill-rule:nonzero;stroke:none;stroke-width:0.84162462px;marker:none;enable-background:accumulate"
       d="m 1866.1452,682.21912 c -3.3532,-36.09273 31.4019,-53.47964 101.915,-53.15731 70.513,0.32233 121.2217,-1.06812 135.1273,54.54926 5.2591,45.89008 -64.0431,55.95106 -125.2001,54.94894 -61.1569,-1.00211 -114.5955,-9.66529 -111.8422,-56.34089 z"
       id="path3565"
       inkscape:connector-curvature="0"
       sodipodi:nodetypes="cscsc" />
    <text
       xml:space="preserve"
       style="font-style:normal;font-variant:normal;font-weight:normal;font-stretch:normal;font-size:45px;line-height:0%;font-family:Lavi;-inkscape-font-specification:Lavi;text-align:center;letter-spacing:0px;word-spacing:0px;text-anchor:middle;white-space:pre;inline-size:161.938;fill:#000000;fill-opacity:1;stroke:none"
       x="1981.5024"
       y="696.3645"
       id="text4246-5-3"><tspan
         x="1981.5024"
         y="696.3645"
         id="tspan112051"><tspan
           style="line-height:1.25"
           id="tspan112049">...íizha</tspan></tspan></text>
    <path
       style="color:#000000;display:inline;overflow:visible;visibility:visible;fill:#ffffff;fill-opacity:1;fill-rule:nonzero;stroke:none;stroke-width:1.50382614px;marker:none;enable-background:accumulate"
       d="m 917.47421,1029.7762 c 0,0 60.6469,11.021 70.27329,16.9555 9.6264,5.9344 -64.64891,103.7675 -206.82049,193.0191 146.4033,-81.1884 278.69889,-156.842 298.91449,-154.2986 -8.6637,16.9553 -39.9065,47.6441 -39.9065,47.6441 0,0 92.2094,-44.8238 101.8359,-43.9759 -2.8879,7.6298 3.8507,22.8898 3.8507,22.8898 l 43.8483,-9.9699 -47.7495,43.8426 c 0,0 147.1986,-50.6441 154.0738,-48.2849 7.8153,2.3592 -5.7757,49.171 -5.7757,49.171 l 43.8941,-34.7205 -2.5003,17.765 32.73,-28.8244 10.589,16.1077 22.8327,-17.8234 0.2708,18.6713 36.5806,-24.5856 12.5143,2.5434 31.7674,38.9976 11.9236,-19.9649 14.0678,-29.2451 56.7963,32.2546 3.8504,-4.2389 -5.4109,-34.226 28.5145,24.0527 -2.6371,-25.4135 26.7033,5.9146 20.512,12.4611 27.6204,17.2111 -6.3054,-35.4032 34.9339,18.2252 -8.4129,-32.8407 37.5432,13.5645 11.5517,8.4776 2.8878,-15.2598 12.5145,-0.8479 23.1034,5.9346 30.6681,5.7692 29.0437,6.1983 -53.9359,-43.3352 -13.4768,-11.8688 49.0949,-11.8689 11.5,-108.50431 -22.1281,-47.79742 -818.33992,3.29452 -112.85677,10.49659 99.85033,89.40223 -40.77238,9.02411 42.35651,12.7167 -41.39381,19.49878 25.99137,13.5643 z"
       id="path3931"
       inkscape:connector-curvature="0"
       sodipodi:nodetypes="ccccccccccccccccccccccccccccccccccccccccccccccccccccc" />
    <text
       xml:space="preserve"
       style="font-style:normal;font-variant:normal;font-weight:normal;font-stretch:normal;font-size:23.1389px;line-height:0%;font-family:Lavi;-inkscape-font-specification:Lavi;text-align:center;letter-spacing:0px;word-spacing:0px;text-anchor:middle;fill:#000000;fill-opacity:1;stroke:none;stroke-width:1.92824"
       x="1625.3549"
       y="1017.8533"
       id="text4246-1"
       transform="matrix(0.97391078,0,-0.20538452,1.0267881,0,0)"><tspan
         sodipodi:role="line"
         style="font-style:normal;font-variant:normal;font-weight:bold;font-stretch:normal;font-size:86.7709px;line-height:1.25;font-family:Lavi;-inkscape-font-specification:'Lavi Bold';stroke-width:1.92824"
         x="1625.3549"
         y="1017.8533"
         id="tspan1013"><tspan
   style="font-size:85.7041px;stroke-width:1.92824"
   id="tspan877">YAA</tspan>A<tspan
   style="font-size:103.884px;stroke-width:1.92824"
   id="tspan867"><tspan
   style="font-size:94.5505px"
   id="tspan42">A</tspan>A<tspan
   style="font-size:114.55px"
   id="tspan46">A</tspan></tspan><tspan
   id="tspan875"
   style="font-size:129.855px;stroke-width:1.92824">A</tspan><tspan
   id="tspan887"
   style="font-size:150.492px;stroke-width:1.92824">A</tspan><tspan
   id="tspan885"
   style="font-size:168.811px;stroke-width:1.92824"><tspan
   style="font-size:160.811px"
   id="tspan48">!</tspan>!<tspan
   style="font-size:178.145px"
   id="tspan52">!</tspan></tspan></tspan></text>
    <text
       xml:space="preserve"
       style="font-style:normal;font-variant:normal;font-weight:normal;font-stretch:normal;font-size:18.6756px;line-height:0%;font-family:Lavi;-inkscape-font-specification:Lavi;text-align:center;letter-spacing:0px;word-spacing:0px;text-anchor:middle;fill:#000000;fill-opacity:1;stroke:none;stroke-width:1.92493;stroke-miterlimit:4;stroke-dasharray:none;stroke-dashoffset:0"
       x="2252.939"
       y="1604.1144"
       id="text4246-1-3"
       transform="matrix(0.72588626,-0.17326363,0.24142568,1.3199998,0,0)"><tspan
         sodipodi:role="line"
         style="font-style:normal;font-variant:normal;font-weight:bold;font-stretch:normal;font-size:70.0335px;line-height:1.25;font-family:Lavi;-inkscape-font-specification:'Lavi Bold';stroke:#000000;stroke-width:1.92493;stroke-linecap:square;stroke-miterlimit:4;stroke-dasharray:none;stroke-dashoffset:0;stroke-opacity:1;paint-order:normal"
         x="2252.939"
         y="1604.1144"
         id="tspan1013-6"><tspan
           id="tspan875-3"
           style="font-style:normal;font-variant:normal;font-weight:normal;font-stretch:normal;font-size:150.66px;font-family:Lavi;-inkscape-font-specification:Lavi;stroke:#000000;stroke-width:1.92493;stroke-linecap:square;stroke-miterlimit:4;stroke-dasharray:none;stroke-dashoffset:0;stroke-opacity:1;paint-order:normal">S</tspan><tspan
           id="tspan932"
           style="font-size:120.629px;stroke:#000000;stroke-width:1.92493;stroke-linecap:square;stroke-miterlimit:4;stroke-dasharray:none;stroke-dashoffset:0;stroke-opacity:1;paint-order:normal"><tspan
   style="font-size:133.333px"
   id="tspan266856">H</tspan>UM</tspan><tspan
           id="tspan885-6"
           style="font-style:normal;font-variant:normal;font-weight:normal;font-stretch:normal;font-size:172.183px;font-family:Lavi;-inkscape-font-specification:Lavi;stroke:#000000;stroke-width:1.92493;stroke-linecap:square;stroke-miterlimit:4;stroke-dasharray:none;stroke-dashoffset:0;stroke-opacity:1;paint-order:normal">!</tspan></tspan></text>
    <text
       xml:space="preserve"
       style="font-style:normal;font-variant:normal;font-weight:normal;font-stretch:normal;font-size:59.5897px;line-height:0%;font-family:Lavi;-inkscape-font-specification:Lavi;text-align:center;letter-spacing:0px;word-spacing:0px;text-anchor:middle;white-space:pre;inline-size:396.256;fill:#000000;fill-opacity:1;stroke:none;stroke-width:1.17751"
       x="1363.9592"
       y="2231.4438"
       id="text4246-1-3-2"
       transform="scale(0.99789912,1.0021053)"><tspan
         x="1363.9592"
         y="2231.4438"
         id="tspan112055"><tspan
   style="font-weight:bold;line-height:1.25;-inkscape-font-specification:'Lavi Bold'"
   id="tspan112053">...methalethíle</tspan><tspan
   y="2231.4438"
   id="tspan112057"> </tspan></tspan><tspan
         x="1363.9592"
         y="2305.9309"
         id="tspan112061"><tspan
           style="font-weight:bold;line-height:1.25;-inkscape-font-specification:'Lavi Bold'"
           id="tspan112059">áabe wa!</tspan></tspan></text>
    <text
       xml:space="preserve"
       style="font-style:normal;font-variant:normal;font-weight:normal;font-stretch:normal;font-size:45px;line-height:0%;font-family:Lavi;-inkscape-font-specification:Lavi;text-align:center;letter-spacing:0px;word-spacing:0px;text-anchor:middle;white-space:pre;inline-size:243.174;fill:#000000;fill-opacity:1;stroke:none"
       x="1159.5453"
       y="1974.3055"
       id="text4246-5"
       transform="translate(-4,50)"><tspan
         x="1159.5453"
         y="1974.3055"
         id="tspan112065"><tspan
   style="line-height:1.25"
   id="tspan112063">Ra. Bíi</tspan><tspan
   y="1974.3055"
   id="tspan112067"> </tspan></tspan><tspan
         x="1159.5453"
         y="2030.5556"
         id="tspan112071"><tspan
   style="line-height:1.25"
   id="tspan112069">dóon be wa;</tspan><tspan
   y="2030.5556"
   id="tspan112073"> </tspan></tspan><tspan
         x="1159.5453"
         y="2086.8056"
         id="tspan112077"><tspan
           style="line-height:1.25"
           id="tspan112075">hadihad, ...</tspan></tspan></text>
    <text
       xml:space="preserve"
       style="font-style:normal;font-variant:normal;font-weight:normal;font-stretch:normal;font-size:72.1808px;line-height:0%;font-family:Lavi;-inkscape-font-specification:Lavi;text-align:center;letter-spacing:0px;word-spacing:0px;text-anchor:middle;display:inline;opacity:1;fill:#241c1c;fill-opacity:1;stroke:#000000;stroke-width:0;stroke-miterlimit:4;stroke-dasharray:none;stroke-opacity:1"
       x="2414.1099"
       y="3323.9915"
       id="text4213"
       transform="matrix(0.95719015,0,-0.32603671,1.0447245,0,0)"><tspan
         sodipodi:role="line"
         id="tspan3562"
         x="2414.1099"
         y="3323.9915"
         style="font-style:normal;font-variant:normal;font-weight:bold;font-stretch:normal;font-size:72.1808px;line-height:1.25;font-family:Lavi;-inkscape-font-specification:'Lavi Bold';fill:#000000;fill-opacity:1;stroke:none;stroke-width:0;stroke-miterlimit:4;stroke-dasharray:none">- NODI -</tspan></text>
  </g>
</svg>
