<?xml version="1.0" encoding="UTF-8" standalone="no"?>
<!-- Created with Inkscape (http://www.inkscape.org/) -->

<svg
   id="svg2"
   version="1.1"
   inkscape:version="1.2.2 (732a01da63, 2022-12-09)"
   width="2481"
   height="663"
   sodipodi:docname="E06P00.svg"
   xml:space="preserve"
   xmlns:inkscape="http://www.inkscape.org/namespaces/inkscape"
   xmlns:sodipodi="http://sodipodi.sourceforge.net/DTD/sodipodi-0.dtd"
   xmlns:xlink="http://www.w3.org/1999/xlink"
   xmlns="http://www.w3.org/2000/svg"
   xmlns:svg="http://www.w3.org/2000/svg"
   xmlns:rdf="http://www.w3.org/1999/02/22-rdf-syntax-ns#"
   xmlns:cc="http://creativecommons.org/ns#"
   xmlns:dc="http://purl.org/dc/elements/1.1/"><sodipodi:namedview
     pagecolor="#ffffff"
     bordercolor="#666666"
     inkscape:pageopacity="0"
     inkscape:pageshadow="2"
     inkscape:window-width="1920"
     inkscape:window-height="1017"
     id="namedview70"
     showgrid="false"
     inkscape:zoom="0.56568542"
     inkscape:cx="1251.579"
     inkscape:cy="272.23611"
     inkscape:current-layer="layer1"
     borderopacity="0.25"
     inkscape:showpageshadow="2"
     inkscape:pagecheckerboard="0"
     inkscape:deskcolor="#d1d1d1"
     inkscape:window-x="-8"
     inkscape:window-y="-8"
     inkscape:window-maximized="1" /><metadata
     id="metadata8"><rdf:RDF><cc:Work
         rdf:about=""><dc:format>image/svg+xml</dc:format><dc:type
           rdf:resource="http://purl.org/dc/dcmitype/StillImage" /><dc:title /></cc:Work></rdf:RDF></metadata><defs
     id="defs6" /><sodipodi:namedview
     pagecolor="#ffffff"
     bordercolor="#666666"
     borderopacity="1"
     objecttolerance="10"
     gridtolerance="10"
     guidetolerance="10"
     inkscape:pageopacity="0"
     inkscape:pageshadow="2"
     inkscape:window-width="1920"
     inkscape:window-height="1025"
     id="namedview4"
     showgrid="false"
     inkscape:zoom="0.60944264"
     inkscape:cx="1297.4721"
     inkscape:cy="208.26369"
     inkscape:window-x="0"
     inkscape:window-y="26"
     inkscape:window-maximized="1"
     inkscape:current-layer="layer1" /><g
     inkscape:groupmode="layer"
     id="layer2"
     inkscape:label="artwork"
     sodipodi:insensitive="true"><image
       xlink:href="../gfx_Pepper-and-Carrot_by-David-Revoy_E06P00.png"
       y="0"
       x="0"
       id="image10"
       height="663"
       width="2481" /></g><g
     inkscape:groupmode="layer"
     id="layer1"
     inkscape:label="txt"
     style="display:inline"><flowRoot
       xml:space="preserve"
       id="episode-title"
       style="font-style:normal;font-variant:normal;font-weight:normal;font-stretch:normal;line-height:0.01%;font-family:Arial;-inkscape-font-specification:Arial;letter-spacing:0px;word-spacing:0px;fill:#301b0b;fill-opacity:1;stroke:none"
       transform="translate(-748.4491,-120.8471)"><flowRegion
         id="flowRegion2989"><rect
           id="rect2991"
           width="2405.8"
           height="107.55731"
           x="739.22333"
           y="644.36664"
           style="fill:#301b0b;fill-opacity:1" /></flowRegion><flowPara
         id="flowPara2993"
         style="font-style:normal;font-variant:normal;font-weight:normal;font-stretch:normal;font-size:72px;line-height:1.25;font-family:Lavi;-inkscape-font-specification:Lavi;text-align:center;text-anchor:middle;fill:#301b0b;fill-opacity:1">Epizodas 6: Eliksyrų varžybos</flowPara></flowRoot><path
       style="fill:#301b0b;fill-opacity:1;stroke-width:1.00142"
       d="m 557.8405,514.37445 c -6.16968,-2.8057 -7.18974,-5.89831 -6.17078,-18.70912 0.44524,-5.59823 0.9174,-21.38614 1.0492,-35.08425 l 0.23963,-24.90566 -6.91929,-0.55272 c -11.29465,-0.90227 -24.42683,-9.17985 -24.42683,-15.39692 0,-2.19316 0.24037,-2.24954 7.75336,-1.81757 10.21261,0.58716 14.95605,-0.81178 20.48489,-6.04157 l 4.50212,-4.25858 0.64875,-46.61195 c 0.3568,-25.63653 0.9351,-53.41077 1.28511,-61.7205 l 0.63633,-15.10858 -9.4017,-2.43354 c -9.1343,-2.3643 -9.41021,-2.52058 -9.70049,-5.49413 -0.19251,-1.97171 0.46877,-4.03837 1.85883,-5.80898 1.94376,-2.47601 2.58439,-2.6843 6.46275,-2.10155 3.86594,0.58084 4.47603,0.38542 5.98074,-1.91558 0.92161,-1.40932 1.37939,-3.04279 1.01724,-3.62991 -0.83995,-1.36172 4.19431,-3.47927 12.22024,-5.1403 5.4784,-1.13378 6.64966,-1.08881 9.70813,0.3725 3.91399,1.87019 6.20081,5.58825 7.16925,11.65638 0.7181,4.49962 1.4831,4.81601 6.53302,2.70182 9.41525,-3.94167 28.34067,-2.55942 39.3641,2.87506 11.99016,5.91112 22.30713,18.82811 27.54152,34.48254 5.50147,16.45315 5.27526,43.25488 -0.50888,60.29444 -4.68905,13.81363 -15.00051,31.06663 -18.56732,31.06663 -2.22734,0 -4.94015,3.65776 -4.94015,6.66093 0,2.77732 -8.3163,10.21041 -15.94523,14.25185 -3.06027,1.62116 -11.1916,4.6107 -18.06959,6.64337 -18.96885,5.6059 -17.00738,1.61366 -17.00738,34.61615 v 28.04428 h 7.96849 c 5.08424,0 13.13725,-1.10423 22.24823,-3.05074 15.0609,-3.21762 19.12407,-3.41695 19.5455,-0.95888 0.30107,1.75618 -12.50135,10.69677 -20.74963,14.49055 -5.16005,2.37336 -5.57806,2.4223 -6.71879,0.78639 -2.40699,-3.45181 -3.39429,-4.25046 -5.25441,-4.25046 -2.66324,0 -5.03418,2.69253 -5.03418,5.71708 0,3.65814 -5.97978,8.93688 -12.23076,10.79689 -7.23102,2.1516 -17.2726,1.94457 -22.57202,-0.46537 z m 35.22484,-116.30497 c 4.90917,-1.08739 10.85906,-2.91484 13.22201,-4.06098 9.02759,-4.3788 19.01745,-18.50446 24.69664,-34.92106 6.33738,-18.31932 2.93293,-41.92344 -7.48802,-51.9164 -7.064,-6.77391 -21.42171,-10.94653 -29.02026,-8.43383 -1.90171,0.62885 -5.06775,2.82789 -7.0356,4.88676 l -3.57793,3.7434 -1.125,33.58064 c -1.49954,44.76012 -1.46257,59.14828 0.15185,59.12026 0.68782,-0.0119 5.26716,-0.91137 10.17631,-1.99879 z m 524.05596,90.61879 c -2.8891,-2.51714 -5.2524,-5.05638 -5.2524,-5.64275 0,-0.58638 1.848,-2.77556 4.1064,-4.86482 l 4.1069,-3.79867 0.4146,-10.33164 c 0.2279,-5.68239 0.8424,-22.78929 1.3658,-38.01527 0.8003,-23.27848 1.2283,-28.1668 2.6908,-30.71989 2.4417,-4.26319 0.6592,-6.25171 -5.6037,-6.25171 -2.5738,0 -5.22,-0.54131 -5.8801,-1.20291 -2.0996,-2.10385 -1.3165,-5.53808 1.8775,-8.23084 2.4732,-2.08529 4.1311,-2.59514 8.4382,-2.59514 6.7427,0 9.2409,0.95633 13.8314,5.29394 2.9291,2.76829 3.6649,4.2035 3.6649,7.15208 v 3.6888 l 4.5359,-3.12713 c 3.1451,-2.16793 6.5583,-3.44248 11.1275,-4.15532 6.0316,-0.94083 6.8329,-0.84951 9.4293,1.07417 1.5611,1.15628 4.206,2.10235 5.8775,2.10235 3.8624,0 10.0181,5.40369 12.5404,11.00859 1.6036,3.5629 1.6578,4.38142 0.4419,6.65859 -1.2639,2.36586 -1.1893,2.75667 0.8404,4.4035 5.2472,4.25715 0.623,14.60681 -8.8904,19.89939 l -4.6144,2.56736 -2.3885,-2.77022 c -2.4888,-2.88682 -4.8626,-3.5198 -8.5936,-2.29141 -1.8654,0.61414 -2.5189,0.10777 -4.252,-3.29664 -5.0707,-9.9591 0.096,-17.47414 6.9557,-10.11659 2.3107,2.47808 3.5944,3.00721 7.2974,3.00721 2.6746,0 4.6868,-0.50731 4.9698,-1.253 1.4887,-3.92041 -5.8778,-11.00446 -13.2978,-12.78805 -6.5336,-1.57039 -11.6666,-0.0144 -17.4435,5.28784 l -4.6221,4.24239 -0.2067,30.76271 c -0.1435,21.35027 0.1309,31.10462 0.8969,31.88021 0.6073,0.6146 6.235,2.03166 12.5056,3.149 6.2704,1.11733 11.6958,2.33361 12.0559,2.70285 0.3606,0.36921 -1.5455,2.619 -4.2358,4.99951 -4.6624,4.12635 -4.9954,4.25493 -7.1303,2.75663 -2.995,-2.10222 -3.8849,-2.00086 -8.2015,0.93439 -3.3437,2.27354 -4.6332,2.50378 -13.8959,2.48159 l -10.2097,-0.0244 z m -36.9076,0.18164 c -5.1848,-2.28036 -5.7638,-5.82174 -4.9969,-30.55468 0.611,-19.68493 0.8369,-21.67525 2.6532,-23.37069 2.5193,-2.35195 2.4928,-3.22789 -0.1731,-5.71664 -2.1083,-1.96761 -2.1445,-2.45545 -1.5479,-20.83896 0.3357,-10.35334 1.1304,-20.30395 1.7667,-22.11249 2.237,-6.36353 11.9938,-8.14455 15.4729,-2.82446 2.2877,3.49859 2.6799,14.8217 1.747,50.4551 -0.6024,23.01231 -1.196,32.66382 -2.0607,33.53051 -1.5213,1.52424 -1.5837,5.48122 -0.101,6.39937 1.821,1.12762 0.5364,11.26404 -1.7011,13.42404 -2.6617,2.56917 -7.3311,3.24851 -11.0591,1.6089 z m 768.4757,-42.54808 c -7.6403,-3.51232 -16.779,-15.28724 -32.7437,-42.18885 -4.252,-7.16499 -6.574,-12.07319 -6.1636,-13.03131 1.6506,-3.85816 -1.0606,-9.05498 -4.7243,-9.05498 -2.0095,0 -4.3439,-2.79388 -12.1051,-14.48603 -2.9093,-4.38372 -5.7706,-8.11523 -6.3575,-8.29225 -0.5868,-0.17703 -4.3009,3.68646 -8.2537,8.58558 -6.7115,8.31935 -7.1864,9.23082 -7.1968,13.80548 -0.02,9.00527 -1.0432,12.54139 -4.1376,14.30471 -3.5884,2.04493 -3.7023,5.23669 -0.3798,10.64145 4.6599,7.58006 2.931,18.52837 -3.9785,25.19642 -6.1717,5.95644 -12.3866,7.8204 -26.1881,7.85498 -11.0265,0.0275 -11.228,-0.0136 -14.2564,-2.91613 -1.6894,-1.61929 -3.0718,-3.67345 -3.0718,-4.5648 0,-1.89733 4.2419,-6.0625 12.1669,-11.94809 7.9197,-5.88165 8.8408,-8.34579 9.894,-26.4815 0.4865,-8.36454 0.8987,-17.06239 0.9167,-19.32861 0.022,-2.70043 0.8943,-5.39292 2.5336,-7.81314 3.1119,-4.59437 3.1075,-5.14149 -0.065,-8.08774 l -2.5664,-2.38337 1.567,-61.97339 c 0.8614,-34.0854 1.5662,-62.94424 1.5658,-64.13076 -4e-4,-1.48054 0.9115,-2.47587 2.9064,-3.17272 5.2653,-1.83903 4.8885,-8.46423 -0.5593,-9.83423 -4.728,-1.18892 -18.9628,0.44787 -26.7891,3.08026 -4.1879,1.40866 -7.9528,2.56118 -8.3661,2.56118 -0.4139,0 -1.6153,-1.6062 -2.6708,-3.56934 l -1.9184,-3.56934 2.9418,-2.36575 c 6.2433,-5.02161 27.6657,-17.86953 34.6405,-20.77564 13.5853,-5.66052 24.1621,-3.91285 26.077,4.30894 0.4375,1.87936 0.5042,33.30123 0.1483,69.82642 -0.356,36.52519 -0.3897,66.40948 -0.075,66.40948 1.0751,0 38.4852,-53.82298 45.0235,-64.77816 4.1869,-7.0147 22.3561,-25.06691 26.2034,-26.03438 4.2273,-1.06302 5.4825,0.99797 5.4759,8.98849 0,4.72437 -0.9751,10.71032 -2.8676,17.66998 -3.3628,12.3665 -5.1372,16.81847 -9.2839,23.29366 -2.7739,4.33053 -3.4126,4.77375 -6.8835,4.77375 -3.8925,0 -6.9704,2.0025 -6.9704,4.53526 0,0.76168 0.5336,2.55755 1.1853,3.99079 1.3895,3.05532 0.8831,4.07858 -8.8733,17.94758 l -6.2829,8.93151 1.8697,3.09734 c 6.7589,11.19825 27.3888,47.29171 30.0109,52.50779 2.5944,5.16111 3.0216,6.89117 2.3485,9.52286 -0.4518,1.76877 -0.6635,4.21551 -0.4704,5.43715 0.4579,2.89628 5.7272,7.30166 8.7336,7.30166 1.8017,0 3.7615,1.9463 8.3274,8.26987 7.2438,10.03161 9.4754,12.17915 17.4693,16.81012 5.6991,3.30175 6.2083,3.87786 6.2083,7.02155 0,5.08236 -2.586,5.96177 -17.5073,5.95313 -10,-0.006 -13.3077,-0.37585 -16.5071,-1.84688 z m -541.0329,-3.57172 c -15.0487,-5.37868 -31.7163,-27.58922 -31.7163,-42.26407 0,-4.23365 0.1522,-4.49671 2.2508,-3.88944 3.8077,1.10188 7.126,4.00462 9.8426,8.60988 l 2.5986,4.40638 6.5912,-0.26715 c 3.6884,-0.14953 6.867,0.18155 7.2191,0.75181 0.8793,1.42564 3.4892,1.27269 3.9941,-0.23405 0.2306,-0.68916 0.9038,-3.15145 1.4964,-5.47171 0.772,-3.02323 1.8491,-4.58752 3.8013,-5.52019 3.4236,-1.63618 4.2859,-6.97074 1.605,-9.93839 -1.6832,-1.86411 -1.6241,-2.60154 1.377,-17.19775 7.1657,-34.84702 21.2399,-102.62187 21.745,-104.71491 0.3176,-1.31635 1.3053,-2.25542 2.371,-2.25542 1.005,0 2.6826,-0.9471 3.7276,-2.1047 2.0006,-2.21495 2.1215,-4.68749 0.8778,-17.94345 -0.4417,-4.70345 -0.028,-9.38142 1.4863,-16.81915 4.4889,-22.04873 10.9966,-32.27872 17.0446,-26.79463 4.3824,3.97419 7.3338,14.61564 24.0484,86.71726 5.0485,21.77731 9.3287,39.75338 9.5118,39.94686 0.511,0.54005 1.5963,-3.93405 12.9689,-53.47932 12.0519,-52.50324 15.5716,-65.5745 19.1143,-70.97979 2.1525,-3.28335 2.9513,-3.77512 5.701,-3.50848 2.86,0.2774 3.5675,1.04997 6.6993,7.3138 3.1047,6.20944 3.5016,7.88969 3.5016,14.81732 0,5.3211 0.4141,8.07163 1.2987,8.62249 2.2207,1.38337 2.3076,1.79213 25.0943,117.9859 0.7469,3.80668 0.6089,4.19328 -2.0415,5.71717 -2.1244,1.22171 -2.8419,2.39076 -2.8419,4.62916 0,3.2992 0.88,4.13895 5.2848,5.0416 l 2.9583,0.60623 4.2116,21.03613 c 2.3169,11.5699 4.7546,22.05106 5.4176,23.29155 1.1249,2.10354 1.8667,2.25541 11.02,2.25541 8.605,0 10.0418,0.25175 11.6599,2.04312 1.7999,1.99275 1.7817,2.17315 -0.737,7.31801 -3.5505,7.25349 -11.8274,16.03471 -18.0365,19.13486 -4.0945,2.04434 -6.6265,2.57556 -12.221,2.56384 -8.1212,-0.017 -11.1346,-1.23544 -14.1522,-5.72187 -2.8176,-4.18967 -4.8639,-17.22753 -3.2583,-20.75934 0.9221,-2.0271 0.7496,-3.38104 -0.9294,-7.29294 -2.3663,-5.51373 -5.3005,-22.78503 -15.2045,-89.50708 -3.8874,-26.18789 -7.2204,-48.06542 -7.4065,-48.61675 -0.5982,-1.76951 -2.4364,6.16747 -11.2593,48.61675 -8.7593,42.14159 -8.9326,42.71182 -13.8787,45.63969 -2.2166,1.31227 -2.2922,6.42878 -0.1186,8.02141 0.894,0.65509 1.6258,2.18888 1.6258,3.40847 0,3.73227 -6.1195,30.46183 -7.6559,33.44109 -1.8839,3.6528 -5.3968,5.29972 -8.1529,3.822 -2.7865,-1.49444 -4.3652,-7.11752 -24.2199,-86.27486 -6.6655,-26.57522 -12.4965,-49.29648 -12.957,-50.49175 -1.2224,-3.17122 -1.4852,-2.04783 -5.5859,23.8894 -2.0049,12.68048 -4.5309,27.11513 -5.614,32.077 -1.0829,4.96195 -2.5882,14.43467 -3.3462,21.05059 -1.7263,15.07549 -7.976,56.70384 -10.6101,70.66963 -2.8393,15.055 -3.4556,16.60424 -7.344,18.45286 -4.0886,1.94391 -13.6249,2.01954 -18.8571,0.14952 z m 731.6155,0.0905 c -6.1698,-1.67166 -12.9118,-5.59845 -15.401,-8.9705 -1.5435,-2.09049 -2.169,-4.71447 -2.4494,-10.27467 -0.2069,-4.10694 -0.6143,-7.46719 -0.9052,-7.46719 -0.2908,0 -2.5264,1.84453 -4.9673,4.09895 -7.1225,6.57812 -12.1418,8.35572 -23.2976,8.25039 -12.8344,-0.12114 -19.1095,-2.51756 -27.0963,-10.3483 -6.3918,-6.26636 -10.6664,-14.08156 -13.4311,-24.55518 -3.0427,-11.52613 -4.343,-54.95918 -2.641,-88.22049 0.5976,-11.68 0.9014,-13.27436 2.9099,-15.2867 2.6941,-2.69983 2.8037,-4.49306 0.5115,-8.38111 -2.0475,-3.4732 -1.292,-5.22925 3.7231,-8.65114 5.0841,-3.46889 12.9583,-3.17262 17.2259,0.64817 l 3.2434,2.90358 0.6825,13.38554 c 0.3757,7.36205 0.7528,26.69251 0.8384,42.95656 0.2116,40.16398 1.0198,51.28752 4.1901,57.66656 4.8251,9.70808 12.8958,12.03369 22.5361,6.49371 11.3246,-6.50758 15.9047,-17.22691 16.9872,-39.75672 l 0.6334,-13.18662 2.7967,-0.5605 c 5.7295,-1.14809 6.182,-7.96109 0.6572,-9.89084 l -3.0606,-1.06899 0.6254,-24.65786 c 0.3442,-13.56188 1.1015,-26.32046 1.6833,-28.3525 2.8897,-10.08974 18.2089,-12.90581 24.4146,-4.48795 2.0303,2.75439 2.0882,3.7646 1.8405,32.07704 -0.4146,47.30673 -1.9336,81.73482 -3.7283,84.47927 -1.9126,2.92472 -1.9284,5.47526 -0.049,7.96443 0.9345,1.23828 1.4801,4.33472 1.5003,8.51581 0.034,7.0135 1.8894,10.99979 9.5359,20.4875 6.6115,8.20412 7.0121,12.46707 1.3574,14.44219 -4.1003,1.43228 -15.1405,1.29872 -20.8656,-0.25244 z m -1285.25092,-8.4182 c -9.71572,-10.37374 -10.12637,-13.33355 -2.62719,-18.9367 4.99661,-3.73332 5.14752,-3.99202 5.75925,-9.87383 0.41897,-4.02823 3.62885,-106.63904 3.5771,-114.35037 -0.0117,-1.7472 -1.17315,-2.3459 -7.40718,-3.81848 -4.0663,-0.96057 -8.2306,-2.3966 -9.25403,-3.1912 -1.79052,-1.39022 -1.76636,-1.52614 0.64036,-3.60117 3.84074,-3.31141 16.37329,-8.81896 22.77311,-10.00793 7.20502,-1.33849 15.85976,-0.67762 17.90018,1.36679 0.91772,0.91952 2.02417,5.05645 2.70041,10.09647 l 1.14563,8.53859 3.00131,-2.50674 c 1.65071,-1.37869 5.47738,-3.6907 8.5037,-5.13773 4.67784,-2.23673 6.87986,-2.63604 14.69444,-2.66438 8.26615,-0.0299 9.40377,0.19382 11.29387,2.22204 1.15599,1.24049 3.2242,2.25543 4.59603,2.25543 6.00525,0 13.87145,5.47833 18.60511,12.95723 3.57443,5.64741 3.94382,13.91104 0.83228,18.61858 -1.09323,1.654 -1.99066,4.04459 -1.99428,5.31244 -0.0155,5.4144 -6.67678,14.72656 -12.39588,17.32882 -6.18736,2.81532 -15.19354,2.57499 -19.74961,-0.52709 -3.97998,-2.70979 -7.23576,-8.48607 -6.24349,-11.077 0.71398,-1.86427 1.51678,-1.72645 8.9859,1.54233 7.17775,3.14128 9.57919,2.30848 12.88888,-4.4696 2.51733,-5.1554 2.56972,-5.57127 1.06811,-8.48078 -2.47629,-4.79809 -9.48077,-8.33902 -17.65487,-8.92504 -6.29783,-0.45151 -7.52409,-0.20564 -13.37833,2.68206 -3.82284,1.88571 -8.03019,4.98349 -10.34118,7.61414 l -3.89616,4.43497 -0.65513,15.82693 c -0.36032,8.70479 -0.65662,29.21441 -0.65845,45.57691 -0.004,32.34687 0.0906,32.90039 5.60265,32.90039 1.35397,0 4.09287,0.68288 6.08649,1.51749 2.47438,1.0359 5.13581,1.31666 8.38619,0.88461 4.56179,-0.60633 14.08005,0.55975 22.31538,2.73384 l 3.87731,1.02358 -3.67042,2.49907 c -3.95626,2.69362 -5.42856,2.96922 -10.12418,1.89521 -3.93373,-0.89981 -7.36812,1.76296 -8.32591,6.4552 -0.55403,2.71424 -1.31873,3.58312 -3.6715,4.17187 -3.92718,0.98269 -30.31216,2.87688 -40.07348,2.87688 h -7.71416 z m 862.69772,-0.50118 c -8.2119,-12.91412 -8.2839,-15.02611 -0.6549,-19.18643 l 5.0262,-2.74104 v -6.50288 c 0,-3.87707 0.6185,-7.70068 1.5312,-9.46933 1.2231,-2.36971 1.2931,-3.41212 0.3478,-5.18129 -1.2824,-2.40152 -1.2926,-17.32628 -0.047,-68.43679 0.3897,-15.98841 0.5485,-31.61481 0.3521,-34.7254 l -0.3563,-5.65562 -6.8982,-0.39056 c -8.852,-0.50116 -9.7608,-1.38233 -7.5113,-7.28477 2.9025,-7.61407 9.1004,-10.58444 22.0866,-10.58444 6.8577,0 8.7566,0.37129 11.5523,2.25882 5.2576,3.55031 7.701,8.96721 9.4879,21.03617 l 0.5546,3.74803 5.0058,-3.96444 c 6.3578,-5.03575 10.0399,-6.02518 22.4479,-6.03207 9.3847,-0.005 10.4977,0.21769 17.2328,3.4519 13.6694,6.56363 20.3082,15.77121 21.0441,29.18409 0.5411,9.87516 -0.9741,13.42216 -9.7097,22.73046 l -5.8899,6.27598 h -7.3512 c -6.0421,0 -8.3758,-0.50444 -13.1092,-2.83315 -6.4128,-3.15535 -8.3813,-5.63453 -6.8102,-8.57661 1.2915,-2.41808 2.3155,-2.77785 10.3586,-3.64092 6.6272,-0.71108 6.6479,-0.72309 8.7543,-5.08328 2.2779,-4.71517 2.0789,-6.70411 -1.2175,-12.16082 -1.5853,-2.62417 -2.5486,-3.20237 -5.1728,-3.10355 -1.7735,0.0666 -5.0508,-0.93194 -7.2838,-2.21939 l -4.0593,-2.34083 -4.682,2.93831 c -10.2001,6.40088 -15.0876,10.11176 -17.8441,13.54806 l -2.8823,3.59285 -0.9612,45.3675 c -0.5286,24.95211 -0.7455,45.71747 -0.4815,46.14524 0.2638,0.42776 2.1797,1.05014 4.2576,1.38305 2.0778,0.33291 4.595,1.56154 5.5938,2.73021 1.671,1.95541 1.9562,1.99757 3.5761,0.52875 3.4582,-3.13573 17.8945,-1.40292 24.0768,2.89 5.0771,3.5252 4.8511,3.83758 -8.4197,11.63794 l -10.0527,5.90907 -24.2728,0.01 -24.2729,0.01 -3.3464,-5.26263 z m 489.582,0.56474 c -5.234,-0.86895 -15.7372,-4.61708 -21.4311,-7.6479 -4.3221,-2.30035 -7.1344,-4.78614 -10.3951,-9.18702 -7.5394,-10.17596 -9.1904,-14.85055 -10.3565,-29.3259 -1.2296,-15.26444 -0.1552,-20.60136 4.2522,-21.11468 3.2929,-0.38353 4.4234,1.07274 5.7565,7.41439 1.4893,7.08506 4.7871,15.60954 7.7074,19.92119 1.3516,1.99548 2.4571,4.70359 2.4571,6.01805 0,3.70007 2.7436,5.85052 6.4144,5.028 3.321,-0.74415 4.5551,-0.75953 23.599,-0.29436 13.8999,0.33956 16.4905,-0.41646 21.3813,-6.24083 3.7667,-4.48534 6.087,-13.08811 4.681,-17.35676 -2.2854,-6.93856 -8.7506,-10.82372 -26.0623,-15.66208 -10.0793,-2.8169 -11.885,-3.65744 -14.5681,-6.78169 -2.7623,-3.21585 -3.4123,-3.5006 -6.6186,-2.89792 -3.2563,0.61207 -3.8692,0.32005 -7.2887,-3.47217 -5.555,-6.16085 -6.7497,-9.92518 -7.3066,-23.01511 -0.3862,-9.08897 -0.1227,-12.86016 1.2266,-17.54212 2.7333,-9.48671 7.5026,-17.44005 15.1324,-25.23603 9.607,-9.81623 17.4136,-13.54707 29.5629,-14.12911 7.6627,-0.36707 9.3158,-0.1212 14.1775,2.10884 3.0265,1.38837 6.6987,3.8691 8.1601,5.51268 1.7516,1.9697 4.0062,3.20445 6.6144,3.62232 2.7808,0.44555 5.0668,1.78127 7.6932,4.49593 6.5545,6.77407 17.1986,27.25007 15.9126,30.60929 -0.5753,1.5006 -0.9684,1.47295 -4.403,-0.31 -2.0741,-1.07678 -6.4721,-4.28457 -9.7737,-7.12843 -6.8108,-5.86663 -16.9806,-11.38663 -24.1533,-13.10948 -2.6728,-0.642 -6.3483,-2.01392 -8.168,-3.04872 -4.1341,-2.3508 -4.3607,-2.3439 -7.293,0.22266 -1.322,1.15732 -4.5467,3.19691 -7.1653,4.53251 -5.6209,2.86658 -10.1667,8.71269 -12.256,15.76227 -2.5029,8.44548 -2.078,10.48243 3.2614,15.63332 4.1306,3.98488 6.1497,5.01066 15.4424,7.84532 8.1094,2.47363 10.8432,3.74259 11.3223,5.25551 0.3867,1.22038 1.5145,1.99449 2.906,1.99449 4.1939,0 14.809,6.24872 21.734,12.79426 8.2637,7.8112 9.8719,12.01354 9.8719,25.79842 0,15.64679 -4.0464,24.90777 -15.3692,35.17453 -12.6032,11.42773 -29.9242,16.53443 -46.6581,13.75633 z M 494.79057,432.1413 c -4.38815,-2.68068 -6.28667,-7.6074 -6.50942,-16.89262 -0.29303,-12.21474 1.43926,-98.58245 2.26634,-112.99458 0.6612,-11.52087 1.01754,-13.39684 2.90364,-15.28669 2.43694,-2.44174 2.53698,-3.00865 1.16749,-6.61773 -0.7901,-2.08221 -0.60452,-2.96801 0.9477,-4.52321 2.66003,-2.66535 8.94412,-4.22824 12.59541,-3.13258 9.6343,2.89097 9.66277,2.98899 10.2223,35.17469 l 0.46183,26.56378 -2.61845,2.43015 c -3.13374,2.90839 -3.32267,5.38468 -0.61762,8.09509 1.89444,1.89814 1.9977,3.29829 1.94117,26.31318 -0.0884,35.99659 -1.20391,53.402 -3.63531,56.72676 -4.33426,5.92668 -13.09814,7.82553 -19.12508,4.14376 z m 202.73974,0.50279 c -4.42866,-2.41018 -7.15535,-7.84212 -6.41998,-12.78955 0.34559,-2.32498 0.54386,-5.35497 0.44063,-6.73328 -0.10323,-1.37829 -0.0995,-21.67702 0.008,-45.10827 0.23445,-50.96986 1.42588,-83.98847 3.15141,-87.33487 3.78581,-7.34206 10.46223,-10.13304 17.65543,-7.38052 7.24229,2.77133 7.77808,4.64487 8.16636,28.55653 0.32098,19.76965 0.24785,20.70738 -1.9281,24.71435 -2.15295,3.96471 -2.18104,4.28846 -0.58377,6.731 1.47179,2.25067 1.67208,5.98826 1.63011,30.418 -0.0697,40.56947 -1.23546,60.98077 -3.67309,64.31486 -4.03262,5.51554 -12.77192,7.70034 -18.44725,4.61175 z M 1538.34,432.7716 c -12.6052,-4.10883 -26.6923,-18.20676 -34.2879,-34.31462 -5.8612,-12.42997 -7.4427,-21.03366 -7.4385,-40.46809 0,-20.61584 1.3611,-26.97799 9.3089,-43.64816 6.3572,-13.33506 11.4173,-20.68169 19.3928,-28.15727 8.6145,-8.07425 14.0439,-10.62506 23.822,-11.19223 26.2219,-1.52093 45.7004,14.01921 52.8935,42.19925 4.6392,18.17618 5.1187,45.59009 1.1301,64.67677 -2.0568,9.84212 -3.2287,12.20828 -6.0487,12.20828 -2.133,0 -5.0346,3.08629 -5.0346,5.35519 0,0.92887 0.5363,2.54914 1.1915,3.60056 1,1.60402 0.7181,2.6026 -1.7508,6.2052 -7.8919,11.51661 -19.3004,20.02526 -30.454,22.71304 -8.0314,1.93532 -18.182,2.30253 -22.7243,0.82208 z m 22.352,-29.48227 c 9.3479,-4.78264 17.2105,-18.47016 19.2985,-33.59469 0.5951,-4.31267 1.0667,-13.33429 1.0475,-20.04813 -0.085,-29.87433 -7.8611,-45.89627 -23.0297,-47.45378 -11.75,-1.20644 -19.9022,4.01634 -25.6467,16.4315 -1.8444,3.98597 -3.6346,8.65595 -3.9782,10.37769 -0.4559,2.28505 -1.4154,3.40655 -3.5521,4.15285 -4.1463,1.44836 -5.3307,5.1409 -2.9353,9.15297 1.5315,2.56492 2.075,6.60086 2.9199,21.69559 1.177,21.01786 2.6703,26.70968 8.9332,34.04058 5.9015,6.90826 8.7305,8.25639 16.3104,7.7731 3.9176,-0.24979 8.1444,-1.25461 10.6325,-2.52768 z m 323.8776,28.9588 c -2.0322,-1.24167 -3.7587,-3.54934 -4.9045,-6.55549 -1.6129,-4.23235 -1.719,-7.812 -1.2072,-40.81277 0.5372,-34.66672 0.6477,-36.29161 2.6532,-39.00969 2.6431,-3.58133 2.6478,-6.25669 0.017,-9.82117 -2.0363,-2.75967 -2.0563,-3.27788 -1.0588,-27.35819 1.142,-27.58857 2.0482,-31.76153 7.5107,-34.60328 4.0683,-2.11659 10.2758,-2.07151 14.4611,0.1051 6.4111,3.33465 6.4904,4.03291 5.9323,52.22046 -0.4552,39.2949 -0.6634,43.44263 -2.3529,46.94175 -1.7638,3.65277 -1.77,3.98371 -0.1299,6.84746 1.3431,2.34509 1.7161,5.36955 1.6898,13.70387 -0.051,16.13593 -1.6058,30.82325 -3.6266,34.2507 -3.2637,5.5367 -13.1364,7.66422 -18.9844,4.09125 z m -960.37725,-1.22189 c -2.49235,-2.80273 -7.82106,-5.02322 -10.10348,-4.21014 -0.99367,0.35397 -2.59349,1.32063 -3.55513,2.14812 -1.55969,1.34206 -2.16291,1.31728 -5.58632,-0.22953 -5.02242,-2.26924 -17.64054,-13.29584 -25.32305,-22.12906 -3.7042,-4.25901 -7.85367,-10.61132 -10.55769,-16.16243 l -4.4549,-9.14556 0.0357,-19.92422 c 0.0334,-18.63056 0.22485,-20.67272 2.9483,-31.45188 5.00216,-19.79813 11.02134,-30.71194 24.95799,-45.25305 10.35858,-10.80788 15.33569,-13.33765 26.24119,-13.3377 6.5509,-3e-5 8.48173,0.46083 15.07521,3.59824 10.05746,4.78572 19.82881,13.91149 24.01223,22.42602 4.59269,9.34748 6.27202,22.06212 5.54511,41.98472 -0.31975,8.76363 -0.79645,16.14943 -1.05937,16.41286 -0.45269,0.45366 -13.26736,3.60359 -53.8376,13.23372 l -17.75771,4.21512 v 3.74286 c 0,10.38126 9.27409,23.01503 19.43659,26.47777 5.75489,1.96092 17.71446,2.18064 28.08406,0.51603 3.85168,-0.6183 9.31515,-1.06828 12.14118,-0.99996 4.92344,0.11909 5.18735,-0.011 6.31755,-3.11615 0.64868,-1.78228 1.72905,-4.36819 2.40084,-5.74649 1.51096,-3.09998 16.41824,-15.30211 17.7141,-14.49964 0.51893,0.32136 0.94352,3.86871 0.94352,7.88306 0,10.36133 -3.67921,17.42382 -14.9563,28.70953 -9.77645,9.78392 -16.09211,13.32985 -27.70845,15.55679 -9.396,1.8013 -8.69008,1.84632 -10.95358,-0.69903 z m -3.40646,-90.67208 c 11.2799,-1.43282 20.9443,-3.02084 21.47653,-3.52887 1.1649,-1.11213 -1.94145,-20.71108 -4.11289,-25.94948 -1.93494,-4.66781 -7.62311,-10.3892 -12.53541,-12.60871 -3.52586,-1.59304 -4.45706,-1.645 -8.15589,-0.45483 -2.29659,0.73894 -6.48392,1.29017 -9.3052,1.22493 -6.57011,-0.15196 -9.38265,2.31236 -7.70919,6.75456 0.89508,2.37604 0.60441,3.92348 -1.79604,9.5615 -3.67068,8.62144 -5.87408,17.17978 -5.87408,22.81575 0,5.38241 0.47916,5.95567 4.43041,5.30012 1.69007,-0.28044 12.30185,-1.68217 23.58176,-3.11497 z m -579.02288,84.0442 c -10.07918,-12.88433 -8.45999,-21.96853 4.41027,-24.74364 l 3.13853,-0.67673 0.72697,-17.9572 c 0.66254,-16.36429 0.8945,-18.01043 2.61512,-18.55762 4.22815,-1.3446 4.74933,-7.41431 0.81772,-9.52265 -1.77304,-0.95075 -1.93129,-2.21667 -1.91144,-15.28562 l 0.0216,-14.24901 3.16399,-1.5036 c 5.38133,-2.55736 5.53974,-3.91194 1.46325,-12.51282 l -3.67008,-7.74339 v -31.27516 -31.27516 l -3.33626,-3.24 c -2.19981,-2.13632 -4.67047,-3.42051 -7.25313,-3.76998 -2.15431,-0.29151 -4.92984,-0.73488 -6.1679,-0.98535 -3.71471,-0.75148 -2.7573,-4.30639 2.53689,-9.41933 8.43317,-8.14452 28.05829,-13.05619 52.11788,-13.0438 33.29376,0.0171 57.61346,12.33198 67.62513,34.24353 5.43183,11.88797 6.86279,19.92855 6.92763,38.92513 0.0509,14.93592 -0.26981,18.84887 -2.15875,26.33758 -5.51421,21.86084 -16.96066,40.33458 -30.97968,49.99892 -9.86503,6.80073 -28.63072,12.95534 -44.29658,14.52806 -3.57656,0.35905 -6.83358,1.14954 -7.23782,1.75669 -1.18241,1.77567 -0.87435,18.57083 0.38455,20.96724 1.55221,2.95484 2.79188,3.65965 6.46825,3.6778 1.71405,0.008 4.32292,0.96619 5.79748,2.12839 2.03546,1.60424 3.33265,1.92463 5.38719,1.33052 3.34711,-0.96786 17.65293,-0.70969 21.70142,0.39161 2.93158,0.79748 2.827,0.90095 -5.51151,5.45523 -12.46914,6.81037 -17.84695,8.99115 -22.0293,8.93331 -2.71171,-0.0374 -4.36227,0.62078 -6.03807,2.40813 -3.02164,3.22275 -9.716,5.13053 -24.39026,6.95079 -16.93532,2.10078 -16.89933,2.10481 -20.32309,-2.27187 z m 67.57811,-79.99879 c 1.22293,-0.85824 2.22347,-2.16153 2.22347,-2.89614 0,-2.8536 3.60947,-5.81551 7.45993,-6.12163 4.71212,-0.37464 5.76637,-1.79558 5.151,-6.94302 -0.35262,-2.95009 0.26622,-5.69079 2.3766,-10.52524 5.29845,-12.13741 6.44157,-18.23872 6.48342,-34.60396 0.0436,-17.06756 -1.87429,-25.68872 -7.42165,-33.36172 -3.35689,-4.64321 -11.68961,-9.92086 -17.05059,-10.79926 -5.32417,-0.87238 -7.7652,-2.12439 -8.4681,-4.34335 -1.35425,-4.27537 -8.76197,-3.29508 -10.54158,1.39503 -0.62305,1.64182 -1.98408,2.74977 -3.83327,3.1203 l -2.8673,0.57463 -0.65072,13.59581 c -0.35792,7.47776 -0.6508,30.8516 -0.6508,51.94188 v 38.34607 l 4.09482,0.69317 c 2.2521,0.38127 6.43413,0.40035 9.29348,0.0422 2.85928,-0.35795 6.30647,-0.20779 7.66034,0.3338 3.44101,1.37639 4.21359,1.32492 6.74095,-0.44876 z m 671.55628,9.73494 c -4.4289,-4.22165 -5.0082,-6.92766 -2.6794,-12.51264 1.8159,-4.35465 5.6179,-6.69171 10.856,-6.673 5.6093,0.02 7.1629,1.13196 7.2317,5.17565 0.046,2.66849 0.5034,3.39306 2.3075,3.6498 1.8489,0.26311 2.2509,0.95242 2.2509,3.85928 0,2.68813 -0.8175,4.35829 -3.4016,6.9471 -2.873,2.87898 -4.1093,3.40819 -7.9611,3.40819 -3.9212,0 -5.1265,-0.53986 -8.604,-3.85438 z M 912.23955,249.86636 c -10.36932,-6.33584 -12.3385,-19.81789 -4.12416,-28.2363 3.96361,-4.06209 6.4391,-4.98052 13.42405,-4.98052 7.05703,0 11.15923,2.59002 14.84633,9.37376 6.52673,12.00833 -2.056,25.71131 -16.1001,25.70517 -3.10828,-10e-4 -6.15465,-0.70633 -8.04612,-1.86211 z M 500.72364,238.9927 c -4.15295,-2.04992 -8.6766,-8.11029 -9.55477,-12.80056 -1.57111,-8.39104 5.29939,-19.08584 13.18603,-20.52589 7.95205,-1.45203 17.6206,1.99885 14.46347,5.16216 -1.54941,1.55246 -1.55321,5.07397 -0.007,6.62309 0.66024,0.66157 2.68612,1.20291 4.50192,1.20291 3.17559,0 3.30144,0.15027 3.30144,3.94433 0,5.0865 -1.46369,8.87602 -4.8157,12.46819 -5.22472,5.59899 -14.27144,7.28419 -21.07525,3.92577 z m 202.17611,0.0427 c -4.90764,-2.42346 -7.21167,-5.91681 -7.21167,-10.93429 0,-2.37403 -0.4502,-4.59524 -1.00044,-4.93602 -3.17256,-1.9646 1.593,-12.25047 7.4605,-16.10259 3.19863,-2.09996 13.21737,-2.18096 17.15884,-0.13876 8.54342,4.42667 11.97076,16.38929 7.15523,24.97423 -4.38458,7.81667 -15.4187,11.15909 -23.56246,7.13747 z m 1186.23505,-1.1271 c -2.6461,-1.70357 -5.2817,-4.43943 -6.2531,-6.48964 -3.4036,-7.18682 -1.3975,-16.98576 4.632,-22.62303 4.8667,-4.55069 14.9439,-4.86712 21.3365,-0.67007 2.1211,1.39246 2.5082,2.28195 2.1145,4.86338 -0.6363,4.17698 -0.026,5.60916 2.8576,6.70764 4.901,1.86693 1.8553,13.39284 -4.792,18.13533 -2.292,1.6353 -4.9885,2.4096 -9.2767,2.66354 -5.3169,0.31492 -6.5957,0.003 -10.6188,-2.58715 z"
       id="path916" /></g></svg>
