<?xml version="1.0" encoding="UTF-8" standalone="no"?>
<!-- Created with Inkscape (http://www.inkscape.org/) -->

<svg
   id="svg2"
   version="1.1"
   inkscape:version="1.3 (1:1.3+202307231459+0e150ed6c4)"
   width="2481"
   height="3503"
   sodipodi:docname="E38P04.svg"
   xmlns:inkscape="http://www.inkscape.org/namespaces/inkscape"
   xmlns:sodipodi="http://sodipodi.sourceforge.net/DTD/sodipodi-0.dtd"
   xmlns:xlink="http://www.w3.org/1999/xlink"
   xmlns="http://www.w3.org/2000/svg"
   xmlns:svg="http://www.w3.org/2000/svg"
   xmlns:rdf="http://www.w3.org/1999/02/22-rdf-syntax-ns#"
   xmlns:cc="http://creativecommons.org/ns#"
   xmlns:dc="http://purl.org/dc/elements/1.1/">
  <metadata
     id="metadata8">
    <rdf:RDF>
      <cc:Work
         rdf:about="">
        <dc:format>image/svg+xml</dc:format>
        <dc:type
           rdf:resource="http://purl.org/dc/dcmitype/StillImage" />
        <dc:title />
      </cc:Work>
    </rdf:RDF>
  </metadata>
  <defs
     id="defs6">
    <filter
       style="color-interpolation-filters:sRGB"
       id="filter4375-4-1-1-1-9-5-8-8-3-3"
       inkscape:label="Drop Shadow"
       x="-0.043877529"
       y="-0.086353334"
       width="1.0745954"
       height="1.2211023">
      <feFlood
         id="feFlood4377-7-9-0-8-1-7-3-1-6-61"
         flood-opacity="1"
         flood-color="rgb(87,166,204)"
         result="flood"
         radius="5.0999999999999996" />
      <feComposite
         id="feComposite4379-3-8-8-2-77-4-1-0-7-2"
         in2="SourceGraphic"
         in="flood"
         operator="in"
         result="composite1"
         baseFrequency="0.053999999999999999 0.053999999999999999" />
      <feMorphology
         id="feMorphology4393-1-0-49-8-9-3-0-1-5-9"
         operator="dilate"
         radius="5.1272503082614058"
         result="result3" />
      <feComposite
         id="feComposite4385-9-5-7-0-8-8-7-5-3-3"
         in2="result3"
         in="SourceGraphic"
         operator="over"
         result="fbSourceGraphic"
         numOctaves="4" />
      <feColorMatrix
         result="fbSourceGraphicAlpha"
         in="fbSourceGraphic"
         values="0 0 0 -1 0 0 0 0 -1 0 0 0 0 -1 0 0 0 0 1 0"
         id="feColorMatrix4544-9-5-1" />
      <feTurbulence
         id="feTurbulence4546-3-6-9"
         type="fractalNoise"
         numOctaves="4.4123222748815163"
         seed="172"
         baseFrequency="0.062 0.054054054054054057"
         result="turbulence" />
      <feDisplacementMap
         id="feDisplacementMap4548-8-2-4"
         in2="turbulence"
         in="fbSourceGraphic"
         scale="10.781991"
         yChannelSelector="G"
         xChannelSelector="R"
         result="fbSourceGraphic" />
      <feColorMatrix
         result="fbSourceGraphicAlpha"
         in="fbSourceGraphic"
         values="0 0 0 -1 0 0 0 0 -1 0 0 0 0 -1 0 0 0 0 1 0"
         id="feColorMatrix4670-7-9-7"
         scale="10.800000000000001" />
      <feFlood
         id="feFlood4672-4-1-8"
         flood-opacity="0"
         flood-color="rgb(45,8,0)"
         result="flood"
         in="fbSourceGraphic"
         dx="-2.3999999999999999" />
      <feComposite
         id="feComposite4674-8-2-4"
         in2="fbSourceGraphic"
         in="flood"
         operator="in"
         result="composite1" />
      <feGaussianBlur
         id="feGaussianBlur4676-3-7-50"
         in="composite1"
         stdDeviation="0"
         result="blur" />
      <feOffset
         id="feOffset4678-6-0-3"
         dx="-2.3696682464454994"
         dy="3.1000000000000001"
         result="offset" />
      <feComposite
         id="feComposite4680-4-9-6"
         in2="offset"
         in="fbSourceGraphic"
         operator="over"
         result="composite2" />
    </filter>
  </defs>
  <sodipodi:namedview
     pagecolor="#ffffff"
     bordercolor="#666666"
     borderopacity="1"
     objecttolerance="10"
     gridtolerance="10"
     guidetolerance="10"
     inkscape:pageopacity="0"
     inkscape:pageshadow="2"
     inkscape:window-width="1920"
     inkscape:window-height="997"
     id="namedview4"
     showgrid="false"
     inkscape:zoom="0.25767182"
     inkscape:cx="1055.6063"
     inkscape:cy="2212.1162"
     inkscape:window-x="0"
     inkscape:window-y="0"
     inkscape:window-maximized="1"
     inkscape:current-layer="svg2"
     inkscape:showpageshadow="0"
     inkscape:pagecheckerboard="0"
     inkscape:deskcolor="#d1d1d1" />
  <g
     inkscape:groupmode="layer"
     id="layer2"
     inkscape:label="artwork"
     sodipodi:insensitive="true">
    <image
       xlink:href="../gfx_Pepper-and-Carrot_by-David-Revoy_E38P04.png"
       y="0"
       x="0"
       id="image10"
       height="3503"
       width="2481" />
  </g>
  <path
     style="color:#000000;display:inline;overflow:visible;visibility:visible;fill:#ffbace;fill-opacity:1;fill-rule:nonzero;stroke:none;stroke-width:0.999999px;marker:none;enable-background:accumulate"
     d="m 1707.5542,2031.0517 c -33.7241,86.288 24.3827,161.6365 22.7214,224.0306 -1.747,56.5345 3.233,81.3805 -4.3176,97.0072 17.6416,12.3945 24.5002,64.0279 36.8009,50.5952 12.3008,-13.4333 -14.2555,45.5813 -14.2555,45.5813 0,0 -48.406,-3.2408 -62.0153,-45.6293 -13.6092,-42.3886 16.053,-109.3925 19.9573,-147.9407 3.9042,-38.5479 -18.8728,-78.7992 -18.6406,-110.548 0.2313,-31.7496 -0.8231,-80.519 19.7494,-113.0963 z"
     id="path4538-7"
     inkscape:connector-curvature="0"
     sodipodi:nodetypes="cccccsscc" />
  <path
     style="color:#000000;display:inline;overflow:visible;visibility:visible;fill:#ffe4a0;fill-opacity:1;fill-rule:nonzero;stroke:none;stroke-width:1px;marker:none;enable-background:accumulate"
     d="m 415.71737,1808.757 c -26.98194,-21.2495 -52.89928,-35.4635 -53.40136,-63.9201 -2.29747,-22.5355 26.57239,-51.1483 24.36276,-80.9123 -2.20836,-29.7644 -27.4773,-50.6445 -37.02194,-58.8715 22.30057,-6.5256 52.6529,-24.219 68.20209,-17.1468 15.54933,7.0723 -18.02024,-23.9979 -18.02024,-23.9979 0,0 -61.18955,1.7064 -78.39293,24.023 -17.20326,22.3169 33.76744,57.5933 38.70283,77.8883 4.93526,20.2947 -22.06026,49.9447 -21.76674,66.6599 0.29238,48.3513 64.6098,67.6632 77.33553,76.2774 z"
     id="path4538-7-3"
     inkscape:connector-curvature="0"
     sodipodi:nodetypes="ccscccsscc" />
  <g
     inkscape:groupmode="layer"
     id="layer3"
     inkscape:label="speechbubbles">
    <path
       style="display:inline;fill:#ffe4a0;stroke:none;stroke-width:0.988023;fill-opacity:1"
       d="m 1221.4651,2183.5694 c -46.7745,1.0209 -93.6273,15.8036 -129.5275,43.685 -20.6072,16.0772 -36.9381,37.5585 -43.1061,61.9636 -7.4439,27.7268 -7.176,56.5398 -6.0936,84.891 1.0893,26.521 2.6501,53.1115 0.4602,79.6231 -0.4111,6.075 -1.4123,12.1314 -0.9317,18.23 0.6842,14.8029 3.8081,29.3935 7.0562,43.8683 6.2285,23.8398 17.773,47.1906 37.0563,64.5296 16.9917,15.2279 39.0494,24.9277 61.8735,30.3035 51.4987,13.8171 106.0322,14.712 159.0743,9.6745 25.3646,-2.4178 50.9867,-6.0919 74.5245,-15.5156 14.3711,-5.6582 28.3643,-12.2626 41.3147,-20.3343 13.7144,-8.7507 25.3053,-20.6726 31.7214,-34.9431 6.698,-14.3277 8.5766,-30.0121 9.7539,-45.4216 2.7026,-29.9666 2.483,-60.075 1.7613,-90.112 -0.6643,-19.4439 -1.0162,-38.8963 -1.5404,-58.343 -1.2772,-30.2204 -5.9223,-60.7894 -18.7622,-88.8417 -9.9767,-21.6726 -26.4663,-41.3086 -48.6434,-53.4729 -21.1018,-11.8441 -45.2245,-18.0314 -69.2056,-22.7962 -33.1727,-6.2336 -67.1726,-7.2283 -100.9317,-7.0356 -1.9515,-0.023 -3.9026,0.03 -5.8541,0.047 z"
       id="path3280-5"
       inkscape:connector-curvature="0"
       sodipodi:nodetypes="csssc" />
    <path
       style="color:#000000;display:inline;overflow:visible;visibility:visible;fill:#ffe4a0;fill-opacity:1;fill-rule:nonzero;stroke:none;stroke-width:0.999999px;marker:none;enable-background:accumulate"
       d="m 1194.4261,2219.843 c 45.8361,-19.5196 82.587,-105.5394 -49.1007,-120.7493 127.103,-6.1934 159.2541,38.4346 96.4979,159.5477 -28.3877,54.7848 -31.2357,-25.6942 -31.2357,-25.6942 z"
       id="path4035-4"
       inkscape:connector-curvature="0"
       sodipodi:nodetypes="ccscc" />
    <path
       style="fill:#ffe4a0;stroke:none;stroke-width:0.798956;fill-opacity:1"
       d="m 686.53544,128.60377 c -20.1465,0.19649 -40.69958,1.99915 -59.65336,10.40349 -18.06992,8.27067 -30.73909,29.06301 -32.54524,51.06369 -1.48023,17.24854 2.04381,35.58831 11.77796,49.16985 9.29667,12.81933 23.11672,20.30555 37.17054,23.58136 13.48706,3.11797 27.27665,4.00834 41.00042,4.50018 15.60956,0.39105 31.23606,-0.11155 46.81259,-1.26886 15.14125,-2.0111 30.24129,-8.73725 41.09174,-21.30195 9.62979,-10.8273 15.78188,-26.20147 14.9376,-41.81619 -0.45344,-17.86488 -6.16097,-35.88189 -17.05666,-48.87516 -8.62424,-9.37448 -20.17696,-13.91071 -31.42247,-17.44014 -16.95577,-5.29752 -34.51819,-8.25839 -52.11312,-8.01627 z"
       id="path3280-10"
       inkscape:connector-curvature="0"
       sodipodi:nodetypes="csssc" />
    <path
       style="display:inline;fill:#ffe4a0;stroke:none;stroke-width:1;fill-opacity:1"
       d="m 1251.1034,467.37189 c -43.6866,-16.7148 -73.9387,-64.6419 -41.3589,-116.27864 19.7402,-31.2873 35.1022,-48.40898 35.1022,-48.40898 l -37.5089,2.15924 -24.2698,34.33821 c 0,0 -40.3372,98.02142 68.0354,128.19017 z"
       id="path3063-1-6"
       inkscape:connector-curvature="0"
       sodipodi:nodetypes="cscccc" />
    <path
       style="fill:#b6b6b6;fill-rule:evenodd;stroke:none;stroke-width:1px;stroke-linecap:butt;stroke-linejoin:miter;stroke-opacity:1;fill-opacity:1"
       d="m 2151.4643,1034.3276 c 3.813,13.612 19.8117,22.2508 22.7974,32.4416 0.4278,4.9156 -2.7714,8.4856 -4.8902,12.015 -3.7283,5.4459 -18.0962,30.0091 -18.5828,37.712 -0.1397,9.1352 8.308,16.0816 14.6894,12.2332 4.8705,-2.3897 8.8711,-0.1294 9.728,-6.4196 2.4151,-8.411 16.5023,-41.9245 20.2796,-49.1746 2.4202,-6.4816 0.7708,-14.7433 -3.4765,-19.2722 -6.907,-9.4821 -17.1682,-11.5411 -25.2954,-18.8894 -10.7486,-11.6758 9.6447,-50.61274 16.4743,-64.02001 -6.1842,2.90653 -37.7876,56.72531 -31.7238,63.37401 z"
       id="path4272-2"
       inkscape:connector-curvature="0"
       sodipodi:nodetypes="ccssscccccc" />
    <path
       style="fill:#ffe4a0;stroke:none;stroke-width:0.860833;fill-opacity:1"
       d="m 848.81765,218.46105 c -32.92964,1.36675 -63.6315,8.56953 -94.87477,13.85061 -21.10947,3.88186 -42.45872,9.43309 -56.40406,19.33881 -22.17853,15.22383 -31.20881,35.04032 -31.88536,54.26399 -0.69261,23.00791 8.7189,46.28496 29.04094,66.46979 18.18779,16.08618 49.22323,26.93298 82.31696,31.38109 36.61415,5.26659 75.04711,4.90175 112.37125,2.49484 33.22537,-2.5793 65.61415,-9.79925 91.22138,-21.875 24.09411,-11.00159 43.52531,-25.96121 49.45021,-43.11477 4.6731,-13.72492 3.0677,-27.75335 3.0212,-41.6315 -0.7857,-14.56404 -5.1659,-29.67005 -19.8763,-42.09275 -17.60913,-15.2185 -46.16097,-25.95326 -77.15646,-31.34168 -27.93436,-5.40399 -57.63511,-7.95616 -87.22499,-7.74343 z"
       id="path3100-98"
       inkscape:connector-curvature="0"
       sodipodi:nodetypes="zsssssz" />
    <path
       style="fill:#b6b6b6;fill-rule:evenodd;stroke:none;stroke-width:0.999993px;stroke-linecap:butt;stroke-linejoin:miter;stroke-opacity:1;fill-opacity:1"
       d="m 2080.5895,1165.4071 c 3.3262,-33.8764 41.6859,-52.579 72.7741,-46.9784 25.8394,-0.5847 58.872,1.1633 72.6458,26.8263 12.4489,28.269 -14.5084,63.1107 -45.0957,59.1001 -34.2198,3.0609 -75.2376,0.8924 -98.1895,-28.3999 -1.9106,-3.1256 -2.7073,-6.9264 -2.1347,-10.5481 z"
       id="path1285"
       inkscape:connector-curvature="0" />
    <path
       style="fill:#ffe4a0;fill-rule:evenodd;stroke:none;stroke-width:0.941059px;stroke-linecap:butt;stroke-linejoin:miter;stroke-opacity:1;fill-opacity:1"
       d="m 1315.4017,121.92497 c -36.5893,0.008 -73.6139,-0.71083 -109.3614,6.39555 -29.6438,6.48684 -57.8519,19.69382 -79.2007,40.01855 -9.0133,8.97968 -14.7761,20.36313 -19.7244,31.76406 -10.9568,26.30559 -12.9675,56.16376 -5.174,84.10349 9.0777,34.50328 31.7953,66.78505 64.2579,85.82598 16.2107,9.34663 35.0954,14.06815 53.745,13.99339 23.8268,1.02051 47.6272,0.4051 71.4478,0.97854 34.0523,0.0107 68.5577,-0.5337 101.4064,-8.69588 22.62,-5.79411 44.062,-17.05482 58.538,-34.54652 18.0206,-20.90506 26.6155,-48.47104 25.5014,-75.78123 -0.1884,-31.88852 -9.0148,-64.44156 -27.7294,-91.79246 -14.4792,-19.14874 -36.5946,-31.95965 -59.5706,-39.76505 -23.8344,-8.25532 -49.0932,-11.94508 -74.136,-12.49842 z"
       id="path1289"
       inkscape:connector-curvature="0"
       sodipodi:nodetypes="csssssssscc" />
    <path
       style="color:#000000;display:inline;overflow:visible;visibility:visible;fill:#ffe4a0;fill-opacity:1;fill-rule:nonzero;stroke:none;stroke-width:0.999999px;marker:none;enable-background:accumulate"
       d="m 661.5216,524.82134 c 90.9194,5.17139 103.93742,-82.12184 83.66659,-148.47756 -20.27099,-66.35455 -5.51814,-41.54615 -5.51814,-41.54615 l 34.28339,7.09789 c 0,0 57.50435,216.25637 -112.43184,182.92582 z"
       id="path3072-56"
       inkscape:connector-curvature="0"
       sodipodi:nodetypes="ccccc" />
    <path
       style="color:#000000;display:inline;overflow:visible;visibility:visible;fill:#ffe4a0;fill-opacity:1;fill-rule:nonzero;stroke:none;stroke-width:1px;marker:none;enable-background:accumulate"
       d="m 1087.4572,1915.5501 c 46.4378,6.848 72.1287,-9.9568 84.9916,-22.9791 -3.3421,-5.4461 -12.3203,-21.4734 -12.3203,-21.4734 -2.9694,-0.642 38.2293,-17.701 48.172,-30.028 9.0834,-11.2616 -11.5309,-29.4873 -11.5309,-29.4873 -14.2164,-16.9604 9.1287,12.7285 -70.3691,48.6913 9.7254,14.621 15.6982,22.6585 19.4108,29.6818 -3.9586,3.8647 -36.6798,26.5229 -58.3541,25.5947 z"
       id="path4456-3"
       inkscape:connector-curvature="0"
       sodipodi:nodetypes="cccscccc"
       inkscape:transform-center-x="-4.1291461"
       inkscape:transform-center-y="8.0335027" />
    <path
       style="color:#000000;display:inline;overflow:visible;visibility:visible;fill:#ffe4a0;fill-opacity:1;fill-rule:nonzero;stroke:none;stroke-width:0.999994px;marker:none;enable-background:accumulate"
       d="m 1142.6046,1636.7194 c -5.8299,24.4807 -38.7112,26.5342 -50.8156,21.5582 24.3998,27.3861 23.5491,44.402 -9.5789,47.0429 55.5564,49.3581 10.1564,41.8891 1.2016,54.4038 43.622,17.0103 29.1634,42.7908 1.1636,54.6415 50.1393,0.7238 38.0014,18.0967 19.0187,43.0964 22.1996,-16.3674 56.4448,-28.137 57.6598,14.6566 32.1655,-37.3837 48.7612,-36.6556 60.3929,5.6174 9.716,-36.4522 42.7995,-43.4676 55.4501,-4.1554 10.8975,-53.2037 49.7814,-45.7132 72.9274,-19.9285 -6.4965,-9.0988 -19.7873,-50.1567 39.6405,-32.2972 13.3461,4.0109 20.795,-5.8494 10.9919,-16.2535 -17.3381,-18.831 -12.8326,-24.8398 9.5375,-22.0595 -25.7677,-10.0759 -26.1093,-26.9186 21.7354,-38.1037 -36.4071,-1.0808 -70.3568,-3.2979 -27.6435,-41.4425 -13.4003,-0.923 -84.308,-10.4707 -19.3525,-56.8663 -59.3612,26.5622 -77.526,20.1206 -54.0956,-25.8266 -68.7783,49.1202 -79.7695,53.2149 -86.2891,11.9359 -9.0889,36.411 -36.695,21.1642 -51.036,-3.6877 -9.4757,24.6627 -23.6505,41.3202 -50.9082,7.6682 z"
       id="path3549-3-7-8"
       inkscape:connector-curvature="0"
       sodipodi:nodetypes="ccccccccccsccccccccc" />
    <path
       style="fill:#ffe4a0;stroke:none;stroke-width:0.964171;fill-opacity:1"
       d="m 295.37826,1440.8491 c -16.62444,2.2094 -33.03602,8.6975 -50.00778,6.2142 -11.03505,-1.627 -22.56477,-5.1418 -33.55769,-1.3841 -20.95844,9.5634 -38.85889,25.518 -61.21169,31.9875 -8.97684,3.1162 -17.85987,9.6394 -20.161,19.4863 -4.27406,15.4753 -1.01038,32.2228 -6.89673,47.3564 -1.93489,5.8802 -3.56402,13.2639 0.73292,18.5062 6.13842,7.4328 16.31269,9.9567 21.94597,17.9594 5.22923,6.4792 10.33714,14.093 18.68765,16.5572 11.34242,4.0831 22.95935,7.3948 34.07802,12.1005 19.21047,6.6492 39.79453,8.6526 59.96697,6.9114 35.3838,-1.3145 70.70831,-4.76 106.14494,-4.194 15.58022,-0.4832 31.66594,-1.0817 46.21356,-7.3604 11.36607,-7.7378 15.78316,-22.7896 28.22692,-29.223 7.93776,-4.6374 17.40187,-8.5059 21.71445,-17.3275 4.6278,-9.5266 1.80818,-20.8607 -3.24868,-29.589 -5.01441,-9.5958 -6.93897,-20.6368 -6.22329,-31.4283 -0.0251,-8.2148 -0.87142,-17.6213 -7.40102,-23.3603 -8.23986,-7.1594 -19.63985,-7.425 -29.31044,-11.4707 -11.19048,-4.1196 -21.55813,-10.6727 -33.31123,-13.1058 -9.65089,-1.666 -19.34983,0.5112 -28.77425,2.4886 -10.42727,1.5719 -21.35449,0.3138 -30.87628,-4.4142 -8.59181,-3.2684 -17.37537,-7.0152 -26.73132,-6.7104 z"
       id="path3280-7"
       inkscape:connector-curvature="0"
       sodipodi:nodetypes="csssc" />
    <path
       style="fill:#ffe4a0;stroke:none;stroke-width:1.00001;fill-opacity:1"
       d="m 1017.3299,1583.906 c 21.3162,-10.7543 30.2734,-25.4057 27.1644,-43.8617 41.7765,5.6944 51.2433,0.1243 77.7252,-23.0425 43.0878,6.7466 93.9116,15.0877 155.7088,7.6911 7.387,19.9338 23.7648,44.6302 45.3418,60.7608 -34.7131,28.6087 -21.8362,52.6157 -20.7231,74.9803 -40.275,-5.3138 -42.6487,4.4901 -80.2029,16.1908 l -114.359,-4.9184 c -11.4276,-17.6539 -36.0196,-20.0182 -61.557,-21.2847 3.6237,-21.9333 -6.1468,-51.7987 -29.0982,-66.5157 z"
       id="path3280-7-1"
       inkscape:connector-curvature="0"
       sodipodi:nodetypes="cccccccccc" />
    <path
       style="color:#000000;display:inline;overflow:visible;visibility:visible;fill:#ffe4a0;fill-opacity:1;fill-rule:nonzero;stroke:none;stroke-width:0.94403px;marker:none;enable-background:accumulate"
       d="m 1706.8849,1428.0578 c -42.522,-0.1701 -86.2043,4.8939 -125.0439,25.005 -36.507,17.9528 -58.2952,62.7869 -55.8937,105.7036 0.8485,20.6936 6.7355,41.156 17.5539,58.2454 11.8761,19.3028 29.3819,34.237 49.2989,42.457 37.2105,17.0905 77.9354,22.4167 117.995,23.5793 51.3703,0.7732 102.8279,-8.0736 151.6332,-25.4926 18.7763,-7.3194 37.9322,-18.4658 48.0418,-38.0677 15.4819,-29.398 17.0274,-65.8523 8.3014,-97.9474 -5.4529,-20.6121 -16.8095,-39.2372 -32.2925,-52.4986 -18.2925,-16.2381 -41.1988,-24.2289 -63.7305,-30.4198 -37.8813,-9.8887 -77.1091,-10.7436 -115.8636,-10.5642 z"
       id="path3365-90"
       inkscape:connector-curvature="0"
       sodipodi:nodetypes="csssssc" />
    <path
       style="color:#000000;display:inline;overflow:visible;visibility:visible;fill:#ffbace;fill-opacity:1;fill-rule:nonzero;stroke:none;stroke-width:0.885895px;marker:none;enable-background:accumulate"
       d="m 1627.3864,2472.8284 c -13.5704,0.1881 -27.4488,1.8516 -40.1872,10.4391 -11.4106,7.9616 -20.1364,25.0018 -24.4478,44.4186 -4.077,18.4339 -6.379,38.6359 -4.2254,58.2343 2.2642,21.5789 12.2493,39.9622 24.5704,46.1587 10.8724,6.3 22.1352,10.5832 33.5017,13.3183 13.7438,3.1664 27.6446,4.4646 41.5085,3.7761 18.7156,-1.4973 37.2986,-7.0994 55.2578,-16.1205 8.0134,-4.5306 15.7794,-12.3422 20.4298,-24.6509 6.1371,-15.5287 8.1424,-35.0348 6.8225,-53.4198 -1.3683,-16.9903 -6.4974,-32.9171 -14.0419,-44.2698 -8.8823,-13.7405 -20.2365,-21.7548 -31.6654,-27.2358 -21.9248,-10.4384 -44.934,-10.717 -67.523,-10.6483 z"
       id="path3365-90-4"
       inkscape:connector-curvature="0"
       sodipodi:nodetypes="csssssc" />
    <path
       style="color:#000000;display:inline;overflow:visible;visibility:visible;fill:#ffbace;fill-opacity:1;fill-rule:nonzero;stroke:none;stroke-width:0.806484px;marker:none;enable-background:accumulate"
       d="m 1662.7689,2370.2027 c -12.04,0.1521 -24.3534,1.4982 -35.6551,8.447 -10.1237,6.4422 -17.8653,20.2306 -21.6906,35.9422 -3.6174,14.9162 -5.6598,31.2631 -3.7491,47.1216 2.0092,17.4608 10.8681,32.3362 21.7995,37.3501 9.6462,5.0978 19.639,8.5636 29.7238,10.7769 12.1937,2.5622 24.5268,3.6125 36.8272,3.0554 16.605,-1.2116 33.0923,-5.7446 49.026,-13.0442 7.1096,-3.666 13.9998,-9.987 18.1256,-19.9468 5.4452,-12.5653 7.2242,-28.3491 6.0533,-43.2257 -1.2139,-13.7481 -5.7646,-26.6357 -12.4584,-35.8217 -7.8805,-11.1186 -17.9542,-17.6035 -28.0943,-22.0385 -19.4522,-8.4465 -39.8664,-8.672 -59.9079,-8.6163 z"
       id="path3365-90-4-4"
       inkscape:connector-curvature="0"
       sodipodi:nodetypes="csssssc" />
    <path
       style="color:#000000;display:inline;overflow:visible;visibility:visible;fill:#ffbace;fill-opacity:1;fill-rule:nonzero;stroke:none;stroke-width:0.976157px;marker:none;enable-background:accumulate"
       d="m 1619.6473,2275.9933 c -5.2278,16.5359 -34.7133,17.9228 -45.5678,14.5617 21.88,18.4988 21.1171,29.992 -8.5898,31.7771 49.8192,33.3396 9.1076,28.2946 1.0775,36.7483 39.1173,11.4902 24.4262,15.698 8.3283,28.3804 44.9614,0.4883 39.4704,11.8803 20.5929,28.5345 28.162,-9.5499 43.3904,-21.6293 40.8824,19.0049 24.2185,-22.5642 51.6845,-32.7911 68.4039,2.8697 11.9825,-24.2792 24.338,-37.7406 45.9145,-2.3822 -5.896,-38.0637 33.4633,-27.3068 60.301,-16.6615 -6.3728,-10.1748 4.413,-36.5883 30.6744,-24.7394 -17.8391,-16.637 4.5023,-19.0125 21.8909,-23.6115 -23.1066,-6.8062 -27.3651,-13.8268 15.5387,-21.382 -32.6472,-0.731 -63.0911,-2.2281 -24.7887,-27.994 -12.0166,-0.623 -40.527,20.8758 -27.2343,-42.0426 -20.6631,20.1425 -42.7087,31.2597 -70.356,-10.9333 -29.0736,32.8559 -33.1133,-0.8768 -42.9862,-27.2061 -3.5486,11.2243 -17.7299,43.1217 -30.2212,43.6339 -4.8304,-4.4591 -13.0104,-5.8042 -18.2093,-13.7382 -8.4974,16.6594 -21.2083,27.9113 -45.6512,5.1803 z"
       id="path3549-3-7-1"
       inkscape:connector-curvature="0"
       sodipodi:nodetypes="cccccccccccccccccccc" />
    <path
       style="display:inline;fill:#ffe4a0;fill-rule:evenodd;stroke:none;stroke-width:0.999998px;stroke-linecap:butt;stroke-linejoin:miter;stroke-opacity:1;fill-opacity:1"
       d="m 1891.8594,1730.557 c -93.6968,5.0406 -112.3781,-54.02 -108.9143,-74.5283 3.4638,-20.5079 35.2288,-62.9834 31.0406,-47.1737 -6.2946,23.7614 -12.0556,106.1175 77.8737,121.702 z"
       id="path4293"
       inkscape:connector-curvature="0"
       sodipodi:nodetypes="cssc" />
  </g>
  <g
     inkscape:groupmode="layer"
     id="layer1"
     inkscape:label="txt">
    <text
       id="text4178-0"
       y="183.63927"
       x="689.41241"
       style="font-style:normal;font-variant:normal;font-weight:normal;font-stretch:normal;line-height:0%;font-family:Lavi;-inkscape-font-specification:Lavi;text-align:center;letter-spacing:0px;word-spacing:0px;text-anchor:middle;fill:#000000;fill-opacity:1;stroke:none"
       xml:space="preserve"><tspan
         y="183.63927"
         x="689.41241"
         style="font-size:40.6767px;line-height:1.25"
         sodipodi:role="line"
         id="tspan682">Ali ni</tspan><tspan
         y="234.48514"
         x="689.41241"
         style="font-size:40.6767px;line-height:1.25"
         sodipodi:role="line"
         id="tspan3646">očitno?</tspan></text>
    <text
       id="text4178-0-9"
       y="275.07355"
       x="850.6698"
       style="font-style:normal;font-variant:normal;font-weight:normal;font-stretch:normal;line-height:0%;font-family:Lavi;-inkscape-font-specification:Lavi;text-align:center;letter-spacing:0px;word-spacing:0px;text-anchor:middle;fill:#000000;fill-opacity:1;stroke:none"
       xml:space="preserve"><tspan
         y="275.07355"
         x="850.6698"
         style="font-size:40.6767px;line-height:1.25"
         sodipodi:role="line"
         id="tspan3663">Odločila sem</tspan><tspan
         y="325.91943"
         x="850.6698"
         style="font-size:40.6767px;line-height:1.25"
         sodipodi:role="line"
         id="tspan439">se zamenjati svojo</tspan><tspan
         y="376.76529"
         x="850.6698"
         style="font-size:40.6767px;line-height:1.25"
         sodipodi:role="line"
         id="tspan441">zaposlitev!</tspan></text>
    <text
       id="text4178-0-8"
       y="179.07019"
       x="1290.8813"
       style="font-style:normal;font-variant:normal;font-weight:normal;font-stretch:normal;line-height:0%;font-family:Lavi;-inkscape-font-specification:Lavi;text-align:center;letter-spacing:0px;word-spacing:0px;text-anchor:middle;fill:#000000;fill-opacity:1;stroke:none"
       xml:space="preserve"><tspan
         y="179.07019"
         x="1290.8813"
         style="font-size:40.6767px;line-height:1.25"
         sodipodi:role="line"
         id="tspan509">Kot ste</tspan><tspan
         y="229.91606"
         x="1290.8813"
         style="font-size:40.6767px;line-height:1.25"
         sodipodi:role="line"
         id="tspan429">mogoče opazili,</tspan><tspan
         y="280.76193"
         x="1290.8813"
         style="font-size:40.6767px;line-height:1.25"
         sodipodi:role="line"
         id="tspan524">sem zdaj <tspan
   style="font-weight:bold"
   id="tspan513">Pop'Ra,</tspan></tspan><tspan
         y="331.60779"
         x="1290.8813"
         style="font-weight:bold;font-size:40.6767px;line-height:1.25"
         sodipodi:role="line"
         id="tspan511">vélika zdravilka.</tspan></text>
    <text
       id="text4178-0-8-3"
       y="1164.1686"
       x="2158.5315"
       style="font-style:normal;font-variant:normal;font-weight:normal;font-stretch:normal;font-size:18.1011px;line-height:0%;font-family:Lavi;-inkscape-font-specification:Lavi;text-align:center;letter-spacing:0px;word-spacing:0px;text-anchor:middle;fill:#000000;fill-opacity:1;stroke:none;stroke-width:1"
       xml:space="preserve"><tspan
         y="1164.1686"
         x="2158.5315"
         style="font-size:61.3576px;line-height:1.25;stroke-width:1"
         sodipodi:role="line"
         id="tspan10165-3">...</tspan></text>
    <text
       id="text4178-0-8-1"
       y="1521.6534"
       x="292.44852"
       style="font-style:normal;font-variant:normal;font-weight:normal;font-stretch:normal;line-height:0%;font-family:Lavi;-inkscape-font-specification:Lavi;text-align:center;letter-spacing:0px;word-spacing:0px;text-anchor:middle;fill:#000000;fill-opacity:1;stroke:none;stroke-width:1.2;stroke-dasharray:none"
       xml:space="preserve"><tspan
         y="1521.6534"
         x="292.44852"
         style="font-weight:bold;font-size:40.6767px;line-height:1.25;stroke-width:1.2;stroke-dasharray:none"
         sodipodi:role="line"
         id="tspan495">„Ampak zakaj?“</tspan><tspan
         y="1572.4993"
         x="292.44852"
         style="font-size:40.6767px;line-height:1.25;stroke-width:1.2;stroke-dasharray:none"
         sodipodi:role="line"
         id="tspan33684">se sprašujete?!</tspan></text>
    <text
       id="text4178-0-8-1-5"
       y="1574.9546"
       x="1172.6461"
       style="font-style:normal;font-variant:normal;font-weight:normal;font-stretch:normal;line-height:0%;font-family:Lavi;-inkscape-font-specification:Lavi;text-align:center;letter-spacing:0px;word-spacing:0px;text-anchor:middle;fill:#000000;fill-opacity:1;stroke:none"
       xml:space="preserve"><tspan
         y="1574.9546"
         x="1172.6461"
         style="font-weight:bold;font-size:40.6767px;line-height:1.25"
         sodipodi:role="line"
         id="tspan28558">Zelo</tspan><tspan
         y="1625.8004"
         x="1172.6461"
         style="font-weight:bold;font-size:40.6767px;line-height:1.25"
         sodipodi:role="line"
         id="tspan3701">preprosto!</tspan></text>
    <text
       id="text4178-0-8-1-5-0"
       y="1744.1803"
       x="1241.7863"
       style="font-style:normal;font-variant:normal;font-weight:normal;font-stretch:normal;font-size:16.2678px;line-height:0%;font-family:Lavi;-inkscape-font-specification:Lavi;text-align:center;letter-spacing:1.0542px;word-spacing:0px;text-anchor:middle;fill:#000000;fill-opacity:1;stroke:#000000;stroke-width:1.7;stroke-dasharray:none;stroke-opacity:1"
       xml:space="preserve"
       transform="scale(0.99980073,1.0001993)"><tspan
         y="1744.1803"
         x="1241.7863"
         style="font-weight:bold;font-size:55.1434px;line-height:1.25;stroke:#000000;stroke-width:1.7;stroke-dasharray:none;stroke-opacity:1"
         sodipodi:role="line"
         id="tspan26168">DOVOLJ</tspan><tspan
         y="1813.1095"
         x="1242.3134"
         style="font-weight:bold;font-size:55.1434px;line-height:1.25;stroke:#000000;stroke-width:1.7;stroke-dasharray:none;stroke-opacity:1"
         sodipodi:role="line"
         id="tspan3697">IMAM!</tspan></text>
    <text
       id="text4178-0-8-1-5-2"
       y="2252.4412"
       x="1256.7762"
       style="font-style:normal;font-variant:normal;font-weight:normal;font-stretch:normal;line-height:0%;font-family:Lavi;-inkscape-font-specification:Lavi;text-align:center;letter-spacing:0px;word-spacing:0px;text-anchor:middle;fill:#000000;fill-opacity:1;stroke:none"
       xml:space="preserve"><tspan
         y="2252.4412"
         x="1256.7762"
         style="font-size:40.6767px;line-height:1.25"
         sodipodi:role="line"
         id="tspan1679"><tspan
   style="font-weight:bold"
   id="tspan953">Sita</tspan> sem tega,</tspan><tspan
         y="2303.2871"
         x="1256.7762"
         style="font-size:40.6767px;line-height:1.25"
         sodipodi:role="line"
         id="tspan3857">da me lovijo, <tspan
   style="font-weight:bold"
   id="tspan955">sita</tspan></tspan><tspan
         y="2354.1328"
         x="1256.7762"
         style="font-size:40.6767px;line-height:1.25"
         sodipodi:role="line"
         id="tspan3869">sem posmehovanja,</tspan><tspan
         y="2404.9788"
         x="1256.7762"
         style="font-size:40.6767px;line-height:1.25"
         sodipodi:role="line"
         id="tspan666">povrhu vsega pa sem</tspan><tspan
         y="2455.8247"
         x="1256.7762"
         style="font-size:40.6767px;line-height:1.25"
         sodipodi:role="line"
         id="tspan673"><tspan
   style="font-weight:bold"
   id="tspan691">sita tega</tspan>, da ne</tspan><tspan
         y="2506.6707"
         x="1256.7762"
         style="font-size:40.6767px;line-height:1.25"
         sodipodi:role="line"
         id="tspan677">najdem službe po</tspan><tspan
         y="2557.5164"
         x="1256.7762"
         style="font-size:40.6767px;line-height:1.25"
         sodipodi:role="line"
         id="tspan679">tolikih letih šolanja!</tspan></text>
    <text
       id="text4178-0-5-4-6-9"
       y="1491.6761"
       x="1720.6056"
       style="font-style:normal;font-variant:normal;font-weight:normal;font-stretch:normal;line-height:0%;font-family:Lavi;-inkscape-font-specification:Lavi;text-align:center;letter-spacing:0px;word-spacing:0px;text-anchor:middle;fill:#000000;fill-opacity:1;stroke:none"
       xml:space="preserve"><tspan
         y="1491.6761"
         x="1720.6056"
         style="font-size:40.6767px;line-height:1.25"
         sodipodi:role="line"
         id="tspan3816">Tukaj me vsaj</tspan><tspan
         y="1542.522"
         x="1720.6056"
         style="font-size:40.6767px;line-height:1.25"
         sodipodi:role="line"
         id="tspan717">potrebujejo in</tspan><tspan
         y="1593.3679"
         x="1720.6056"
         style="font-size:40.6767px;line-height:1.25"
         sodipodi:role="line"
         id="tspan719">cenijo zaradi <tspan
   style="font-weight:bold"
   id="tspan727">mojih</tspan></tspan><tspan
         y="1644.2137"
         x="1720.6056"
         style="font-size:40.6767px;line-height:1.25"
         sodipodi:role="line"
         id="tspan721">sposobnosti!</tspan></text>
    <text
       id="text4178-0-5"
       y="2362.6953"
       x="1714.1775"
       style="font-style:normal;font-variant:normal;font-weight:normal;font-stretch:normal;font-size:14.6308px;line-height:0%;font-family:Lavi;-inkscape-font-specification:Lavi;text-align:center;letter-spacing:0px;word-spacing:0px;text-anchor:middle;fill:#000000;fill-opacity:1;stroke:none;stroke-width:0.999999"
       xml:space="preserve"><tspan
         y="2362.6953"
         x="1714.1775"
         style="font-weight:bold;font-size:49.5944px;line-height:1.25;stroke-width:0.999999"
         sodipodi:role="line"
         id="tspan4245-6-6-5">Zdravilka!</tspan></text>
    <text
       id="text4178-0-5-4"
       y="2430.2241"
       x="1680.5991"
       style="font-style:normal;font-variant:normal;font-weight:normal;font-stretch:normal;font-size:10.4011px;line-height:0%;font-family:Lavi;-inkscape-font-specification:Lavi;text-align:center;letter-spacing:0px;word-spacing:0px;text-anchor:middle;fill:#000000;fill-opacity:1;stroke:none;stroke-width:1"
       xml:space="preserve"><tspan
         y="2430.2241"
         x="1680.5991"
         style="font-size:35.2567px;line-height:1.25;stroke-width:1"
         sodipodi:role="line"
         id="tspan14113">Vrni se</tspan><tspan
         y="2474.2949"
         x="1680.5991"
         style="font-size:35.2567px;line-height:1.25;stroke-width:1"
         sodipodi:role="line"
         id="tspan15197">sem!</tspan></text>
    <text
       id="text4178-0-5-4-6"
       y="2525.6628"
       x="1651.2151"
       style="font-style:normal;font-variant:normal;font-weight:normal;font-stretch:normal;font-size:10.4011px;line-height:0%;font-family:Lavi;-inkscape-font-specification:Lavi;text-align:center;letter-spacing:0px;word-spacing:0px;text-anchor:middle;fill:#000000;fill-opacity:1;stroke:none;stroke-width:1"
       xml:space="preserve"><tspan
         y="2525.6628"
         x="1651.2151"
         style="font-size:35.2567px;line-height:1.25;stroke-width:1"
         sodipodi:role="line"
         id="tspan3843">Rozga</tspan><tspan
         y="2569.7336"
         x="1651.2151"
         style="font-size:35.2567px;line-height:1.25;stroke-width:1"
         sodipodi:role="line"
         id="tspan731">je precej</tspan><tspan
         y="2613.8047"
         x="1651.2151"
         style="font-size:35.2567px;line-height:1.25;stroke-width:1"
         sodipodi:role="line"
         id="tspan737">zdelana.</tspan></text>
    <text
       xml:space="preserve"
       style="font-style:normal;font-variant:normal;font-weight:normal;font-stretch:normal;line-height:0%;font-family:Lavi;-inkscape-font-specification:Lavi;letter-spacing:3.02325px;word-spacing:0px;fill:#daf9ff;fill-opacity:1;stroke:#00bfff;stroke-width:0.808288;stroke-miterlimit:4;stroke-dasharray:none;stroke-opacity:1;filter:url(#filter4375-4-1-1-1-9-5-8-8-3-3)"
       x="787.65729"
       y="1584.5073"
       id="text4580-6-0-0-3"
       transform="matrix(0.63625061,-0.3004975,0.12503652,1.0615485,234.6135,1589.0183)"><tspan
         sodipodi:role="line"
         id="tspan4582-1-1-0-6"
         x="787.65729"
         y="1584.5073"
         style="font-style:normal;font-variant:normal;font-weight:bold;font-stretch:normal;font-size:70px;line-height:1.25;font-family:Lavi;-inkscape-font-specification:'Lavi Bold';fill:#daf9ff;fill-opacity:1;stroke:#00bfff;stroke-width:0.808288;stroke-opacity:1"><tspan
           style="font-size:68.6116px;fill:#daf9ff;fill-opacity:1;stroke:#00bfff;stroke-width:0.808288;stroke-opacity:1"
           id="tspan853-6">Dzing</tspan><tspan
           style="font-size:79.977px;fill:#daf9ff;fill-opacity:1;stroke:#00bfff;stroke-width:0.808288;stroke-opacity:1"
           id="tspan929" /></tspan></text>
  </g>
</svg>
