<?xml version="1.0" encoding="UTF-8" standalone="no"?>
<!-- Created with Inkscape (http://www.inkscape.org/) -->

<svg
   xmlns:dc="http://purl.org/dc/elements/1.1/"
   xmlns:cc="http://creativecommons.org/ns#"
   xmlns:rdf="http://www.w3.org/1999/02/22-rdf-syntax-ns#"
   xmlns:svg="http://www.w3.org/2000/svg"
   xmlns="http://www.w3.org/2000/svg"
   xmlns:xlink="http://www.w3.org/1999/xlink"
   xmlns:sodipodi="http://sodipodi.sourceforge.net/DTD/sodipodi-0.dtd"
   xmlns:inkscape="http://www.inkscape.org/namespaces/inkscape"
   id="svg2"
   version="1.1"
   inkscape:version="0.92.3 (2405546, 2018-03-11)"
   width="2481"
   height="663"
   sodipodi:docname="E30P00.svg">
  <metadata
     id="metadata8">
    <rdf:RDF>
      <cc:Work
         rdf:about="">
        <dc:format>image/svg+xml</dc:format>
        <dc:type
           rdf:resource="http://purl.org/dc/dcmitype/StillImage" />
        <dc:title />
      </cc:Work>
    </rdf:RDF>
  </metadata>
  <defs
     id="defs6">
    <linearGradient
       inkscape:collect="always"
       id="linearGradient823">
      <stop
         style="stop-color:#fdfeff;stop-opacity:1"
         offset="0"
         id="stop819" />
      <stop
         id="stop827"
         offset="0.48474982"
         style="stop-color:#fefeff;stop-opacity:0.33333334" />
      <stop
         style="stop-color:#ffffff;stop-opacity:0"
         offset="1"
         id="stop821" />
    </linearGradient>
    <radialGradient
       inkscape:collect="always"
       xlink:href="#linearGradient823"
       id="radialGradient825"
       cx="505.43463"
       cy="218.57224"
       fx="505.43463"
       fy="218.57224"
       r="25.183058"
       gradientUnits="userSpaceOnUse"
       gradientTransform="matrix(0.8341488,-0.03576122,0.02997162,0.79885669,66.98996,54.590787)" />
    <filter
       inkscape:collect="always"
       style="color-interpolation-filters:sRGB"
       id="filter947"
       x="-0.17399332"
       width="1.3479866"
       y="-0.18902947"
       height="1.3780589">
      <feGaussianBlur
         inkscape:collect="always"
         stdDeviation="0.24881771"
         id="feGaussianBlur949" />
    </filter>
    <filter
       inkscape:collect="always"
       style="color-interpolation-filters:sRGB"
       id="filter947-3"
       x="-0.17399332"
       width="1.3479866"
       y="-0.18902947"
       height="1.3780589">
      <feGaussianBlur
         inkscape:collect="always"
         stdDeviation="0.24881771"
         id="feGaussianBlur949-6" />
    </filter>
    <radialGradient
       inkscape:collect="always"
       xlink:href="#linearGradient823"
       id="radialGradient825-7"
       cx="505.43463"
       cy="218.57224"
       fx="505.43463"
       fy="218.57224"
       r="25.183058"
       gradientUnits="userSpaceOnUse"
       gradientTransform="matrix(0.8341488,-0.03576122,0.02997162,0.79885669,915.09946,200.06478)" />
    <filter
       inkscape:collect="always"
       style="color-interpolation-filters:sRGB"
       id="filter947-3-9"
       x="-0.17399332"
       width="1.3479866"
       y="-0.18902947"
       height="1.3780589">
      <feGaussianBlur
         inkscape:collect="always"
         stdDeviation="0.24881771"
         id="feGaussianBlur949-6-1" />
    </filter>
    <radialGradient
       inkscape:collect="always"
       xlink:href="#linearGradient823"
       id="radialGradient825-7-2"
       cx="505.43463"
       cy="218.57224"
       fx="505.43463"
       fy="218.57224"
       r="25.183058"
       gradientUnits="userSpaceOnUse"
       gradientTransform="matrix(0.8341488,-0.03576122,0.02997162,0.79885669,1555.1218,155.18878)" />
    <filter
       inkscape:collect="always"
       style="color-interpolation-filters:sRGB"
       id="filter947-3-9-0"
       x="-0.17399332"
       width="1.3479866"
       y="-0.18902947"
       height="1.3780589">
      <feGaussianBlur
         inkscape:collect="always"
         stdDeviation="0.24881771"
         id="feGaussianBlur949-6-1-6" />
    </filter>
    <radialGradient
       inkscape:collect="always"
       xlink:href="#linearGradient823"
       id="radialGradient825-7-2-2"
       cx="505.43463"
       cy="218.57224"
       fx="505.43463"
       fy="218.57224"
       r="25.183058"
       gradientUnits="userSpaceOnUse"
       gradientTransform="matrix(0.54100296,-0.02286667,0.01943866,0.51081019,792.4052,215.67758)" />
    <filter
       inkscape:collect="always"
       style="color-interpolation-filters:sRGB"
       id="filter947-3-9-0-2"
       x="-0.17399332"
       width="1.3479866"
       y="-0.18902947"
       height="1.3780589">
      <feGaussianBlur
         inkscape:collect="always"
         stdDeviation="0.24881771"
         id="feGaussianBlur949-6-1-6-0" />
    </filter>
    <radialGradient
       inkscape:collect="always"
       xlink:href="#linearGradient823"
       id="radialGradient825-7-2-2-2"
       cx="505.43463"
       cy="218.57224"
       fx="505.43463"
       fy="218.57224"
       r="25.183058"
       gradientUnits="userSpaceOnUse"
       gradientTransform="matrix(0.54100296,-0.02286667,0.01943866,0.51081019,-1078.2101,-508.04444)" />
    <filter
       inkscape:collect="always"
       style="color-interpolation-filters:sRGB"
       id="filter947-3-9-0-28"
       x="-0.17399332"
       width="1.3479866"
       y="-0.18902947"
       height="1.3780589">
      <feGaussianBlur
         inkscape:collect="always"
         stdDeviation="0.24881771"
         id="feGaussianBlur949-6-1-6-9" />
    </filter>
    <radialGradient
       inkscape:collect="always"
       xlink:href="#linearGradient823"
       id="radialGradient825-7-2-2-7"
       cx="505.43463"
       cy="218.57224"
       fx="505.43463"
       fy="218.57224"
       r="25.183058"
       gradientUnits="userSpaceOnUse"
       gradientTransform="matrix(0.54100296,-0.02286667,0.01943866,0.51081019,-1083.9174,-476.65439)" />
    <filter
       inkscape:collect="always"
       style="color-interpolation-filters:sRGB"
       id="filter947-3-9-0-3"
       x="-0.17399332"
       width="1.3479866"
       y="-0.18902947"
       height="1.3780589">
      <feGaussianBlur
         inkscape:collect="always"
         stdDeviation="0.24881771"
         id="feGaussianBlur949-6-1-6-1" />
    </filter>
    <radialGradient
       inkscape:collect="always"
       xlink:href="#linearGradient823"
       id="radialGradient825-7-2-2-9"
       cx="505.43463"
       cy="218.57224"
       fx="505.43463"
       fy="218.57224"
       r="25.183058"
       gradientUnits="userSpaceOnUse"
       gradientTransform="matrix(0.54100296,-0.02286667,0.01943866,0.51081019,254.51369,229.03275)" />
    <filter
       inkscape:collect="always"
       style="color-interpolation-filters:sRGB"
       id="filter947-3-9-0-0"
       x="-0.17399332"
       width="1.3479866"
       y="-0.18902947"
       height="1.3780589">
      <feGaussianBlur
         inkscape:collect="always"
         stdDeviation="0.24881771"
         id="feGaussianBlur949-6-1-6-3" />
    </filter>
    <radialGradient
       inkscape:collect="always"
       xlink:href="#linearGradient823"
       id="radialGradient825-7-2-2-6"
       cx="505.43463"
       cy="218.57224"
       fx="505.43463"
       fy="218.57224"
       r="25.183058"
       gradientUnits="userSpaceOnUse"
       gradientTransform="matrix(0.54100296,-0.02286667,0.01943866,0.51081019,1463.0061,233.31321)" />
    <filter
       inkscape:collect="always"
       style="color-interpolation-filters:sRGB"
       id="filter947-3-9-0-6"
       x="-0.17399332"
       width="1.3479866"
       y="-0.18902947"
       height="1.3780589">
      <feGaussianBlur
         inkscape:collect="always"
         stdDeviation="0.24881771"
         id="feGaussianBlur949-6-1-6-15" />
    </filter>
    <radialGradient
       inkscape:collect="always"
       xlink:href="#linearGradient823"
       id="radialGradient825-7-2-2-5"
       cx="505.43463"
       cy="218.57224"
       fx="505.43463"
       fy="218.57224"
       r="25.183058"
       gradientUnits="userSpaceOnUse"
       gradientTransform="matrix(0.54100296,-0.02286667,0.01943866,0.51081019,1724.7364,300.37377)" />
    <filter
       inkscape:collect="always"
       style="color-interpolation-filters:sRGB"
       id="filter947-3-93"
       x="-0.17399332"
       width="1.3479866"
       y="-0.18902947"
       height="1.3780589">
      <feGaussianBlur
         inkscape:collect="always"
         stdDeviation="0.24881771"
         id="feGaussianBlur949-6-7" />
    </filter>
    <radialGradient
       inkscape:collect="always"
       xlink:href="#linearGradient823"
       id="radialGradient825-7-4"
       cx="505.43463"
       cy="218.57224"
       fx="505.43463"
       fy="218.57224"
       r="25.183058"
       gradientUnits="userSpaceOnUse"
       gradientTransform="matrix(0.8341488,-0.03576122,0.02997162,0.79885669,1045.7224,68.433191)" />
    <filter
       inkscape:collect="always"
       style="color-interpolation-filters:sRGB"
       id="filter947-3-9-0-0-4"
       x="-0.17399332"
       width="1.3479866"
       y="-0.18902947"
       height="1.3780589">
      <feGaussianBlur
         inkscape:collect="always"
         stdDeviation="0.24881771"
         id="feGaussianBlur949-6-1-6-3-4" />
    </filter>
    <radialGradient
       inkscape:collect="always"
       xlink:href="#linearGradient823"
       id="radialGradient825-7-2-2-6-3"
       cx="505.43463"
       cy="218.57224"
       fx="505.43463"
       fy="218.57224"
       r="25.183058"
       gradientUnits="userSpaceOnUse"
       gradientTransform="matrix(0.54100296,-0.02286667,0.01943866,0.51081019,1147.6788,141.9967)" />
    <radialGradient
       inkscape:collect="always"
       xlink:href="#linearGradient823"
       id="radialGradient103"
       gradientUnits="userSpaceOnUse"
       gradientTransform="matrix(0.8341488,-0.03576122,0.02997162,0.79885669,795.09946,238.06478)"
       cx="505.43463"
       cy="218.57224"
       fx="505.43463"
       fy="218.57224"
       r="25.183058" />
  </defs>
  <sodipodi:namedview
     pagecolor="#ffffff"
     bordercolor="#666666"
     borderopacity="1"
     objecttolerance="10"
     gridtolerance="10"
     guidetolerance="10"
     inkscape:pageopacity="0"
     inkscape:pageshadow="2"
     inkscape:window-width="1920"
     inkscape:window-height="1022"
     id="namedview4"
     showgrid="false"
     inkscape:zoom="0.43094102"
     inkscape:cx="698.18378"
     inkscape:cy="330.20261"
     inkscape:window-x="0"
     inkscape:window-y="0"
     inkscape:window-maximized="1"
     inkscape:current-layer="layer1" />
  <g
     inkscape:groupmode="layer"
     id="layer2"
     inkscape:label="artwork"
     sodipodi:insensitive="true">
    <image
       xlink:href="../gfx_Pepper-and-Carrot_by-David-Revoy_E30P00.png"
       y="0"
       x="0"
       id="image10"
       height="663"
       width="2481" />
  </g>
  <g
     inkscape:groupmode="layer"
     id="layer1"
     inkscape:label="txt"
     style="display:inline">
    <path
       style="display:inline;fill:#1c3c77;fill-opacity:1;stroke:none;stroke-width:1;font-variant-east_asian:normal;opacity:1;vector-effect:none;stroke-linecap:butt;stroke-linejoin:miter;stroke-miterlimit:4;stroke-dasharray:none;stroke-dashoffset:0;stroke-opacity:1"
       d="m 1191.5183,468.81755 c 1.7372,-5.20184 1.9974,-8.85067 2.4013,-10.59317 6.6833,-6.28065 -1.1596,-0.28232 1.8198,-8.24867 1.2785,-3.41843 0.5289,-6.85755 3.4125,-12.11326 2.9593,-5.21847 0.1223,-11.74219 1.5687,-19.67453 0.6292,-3.45144 0.1519,-10.03377 1.2312,-11.57185 1.2345,-1.75957 2.0435,-4.62342 2.1814,-7.72351 0.1207,-2.70984 1.1444,-10.14036 2.275,-16.51224 3.0432,-17.1521 3.4589,-15.92905 -5.4163,-15.93333 -7.9749,-0.003 -13.7576,-2.24255 -13.7576,-5.32608 0,-1.19714 -0.3861,-1.2897 -1.9308,-0.46293 -1.3764,0.73663 -2.4946,0.73173 -3.8936,-0.017 -1.4395,-0.7704 -3.6078,-0.34844 -5.6752,-2.29842 -3.651,-3.13791 -3.4462,-5.83411 -8.8094,-8.24094 -4.9899,-2.23938 -9.4053,-2.17658 -9.902,-3.14894 -3.3663,-1.09769 -4.0398,-3.99487 -1.2504,-2.98386 2.0043,-0.25359 2.6409,0.8296 4.2379,1.23043 1.2688,0.31843 2.8084,0.16533 3.4214,-0.34023 1.8489,-1.52508 12.9211,4.21372 15.993,4.21372 1.5794,0 13.8569,1.93219 15.8049,0.78276 3.7375,-0.37769 3.5478,1.1468 18.8761,-3.40655 10.0966,-2.8842 18.8717,-4.09902 20.8997,-3.71858 4.6843,0.87882 8.853,5.01652 9.7223,9.65022 0.607,3.23557 -1.1533,13.23479 -4.4313,25.17256 -0.4374,1.59297 -1.0838,5.28577 -1.4365,8.20623 -0.3526,2.92044 -2.816,10.87335 -5.4741,17.67313 -4.5215,11.56726 -3.5757,15.68241 -7.9672,18.96105 -3.8917,2.90543 -4.0529,2.16622 -3.9914,4.61922 0.1039,4.1461 4.2308,-1.04979 -0.9695,7.54267 -5.1388,8.4908 -8.7773,18.9238 -14.5138,23.54751 -2.655,1.17763 -2.6517,4.85632 -6.4599,6.66428 -3.8082,1.80796 3.0631,-2.78003 -1.8981,1.02876 -1.4314,1.09893 -2.0194,1.41892 -2.7085,1.69345 z m 195.6705,-24.69233 c -11.0673,-2.40103 -15.8963,-4.43883 -25.4345,-10.73322 -11.559,-7.62789 -21.6188,-18.56974 -26.4757,-28.79701 -3.7076,-7.80704 -8.7083,-26.6456 -9.6249,-36.25836 -0.9489,-9.9512 3.3282,-32.06858 10.4464,-54.01968 4.5626,-14.07027 8.2257,-21.70476 17.2242,-35.89863 17.2675,-27.23718 34.0656,-44.3389 52.8014,-53.75617 7.915,-3.97838 7.9826,-3.99265 18.8945,-3.99265 10.4414,0 11.4322,0.18137 21.2948,3.8979 5.6889,2.14384 10.763,3.63876 11.2755,3.32205 0.5123,-0.31672 0.9332,-2.61383 0.9352,-5.10468 0,-2.85938 0.7324,-5.72423 1.9805,-7.77156 1.9658,-3.22409 2.0082,-3.23882 7.395,-2.56578 6.4339,0.80385 12.7129,3.55507 18.4705,8.09306 l 4.1964,3.30747 -0.3347,7.87177 c -0.3253,7.65483 -0.4462,8.0024 -4.3877,12.61234 -3.0424,3.55864 -3.7953,5.0511 -3.0193,5.98601 0.5683,0.68499 1.7525,1.24543 2.6313,1.24543 0.8789,0 2.5227,0.64771 3.653,1.43938 1.634,1.14454 1.9725,2.18278 1.6521,5.06855 -0.2214,1.99604 -1.0481,10.14587 -1.8368,18.11073 -2.7454,27.7242 -11.7953,65.16706 -15.751,65.16706 -1.1301,0 -2.1022,-4.75753 -2.1022,-10.2888 0,-2.34012 -0.5846,-5.65385 -1.299,-7.36383 -0.7145,-1.70997 -1.6137,-8.89788 -1.9983,-15.97315 -0.642,-11.8087 -1.0459,-13.84103 -4.9235,-24.77163 -7.7958,-21.97586 -15.8549,-34.94767 -22.703,-36.5425 -2.7734,-0.6459 -9.4582,2.15739 -17.5059,7.34113 -8.1582,5.255 -23.3392,21.49058 -31.5111,33.70004 -14.7548,22.04467 -31.1282,62.69658 -32.6625,81.09407 -0.5219,6.25742 -1.108,8.30959 -3.0233,10.58587 l -2.376,2.82368 2.5684,3.88115 c 1.4126,2.13465 3.1817,4.11647 3.9312,4.40405 0.7495,0.2876 2.5211,2.54701 3.937,5.0209 3.6569,6.38938 11.6506,14.37139 17.2838,17.25848 4.5801,2.34738 5.3521,2.44017 15.9297,1.91463 11.2453,-0.55871 18.6341,-2.48536 35.6263,-9.28973 2.8606,-1.14552 5.9798,-1.95697 6.9313,-1.80321 0.9517,0.15376 2.9555,-0.88338 4.4532,-2.30475 1.4978,-1.42138 5.7064,-3.70192 9.3529,-5.06787 3.6464,-1.36595 8.1146,-3.78719 9.9293,-5.38053 1.8148,-1.59336 3.71,-2.897 4.2118,-2.897 0.5017,0 1.7551,-1.65217 2.7852,-3.6715 1.0301,-2.01933 2.8855,-4.13893 4.1227,-4.71022 6.2571,-2.88898 14.5067,-10.28123 18.9067,-16.94136 3.1541,-4.77467 5.2455,-7.01908 6.5406,-7.01908 2.5589,0 2.3758,2.25793 -1.2726,15.69588 -1.8508,6.81681 -4.6429,14.01517 -7.4895,19.30874 -6.8636,12.76269 -19.0136,24.3698 -25.5101,24.3698 -1.4336,0 -2.6781,1.42403 -4.5112,5.16151 -2.3018,4.69324 -3.4716,5.74589 -12.8942,11.60296 -19.6178,12.19428 -41.6348,16.77738 -60.7139,12.63826 z M 792.37008,426.61388 C 778.34,420.47734 765.67162,412.13599 767.5417,410.26594 c 0.30147,-0.30148 5.3865,-1.23362 11.30005,-2.07143 10.13088,-1.4353 10.83272,-1.67954 12.15086,-4.22853 1.16793,-2.25854 1.35731,-9.28515 1.14685,-42.55292 l -0.2521,-39.84768 -8.1699,-1.72676 c -7.75879,-1.63986 -10.02863,-2.86116 -9.36519,-5.03894 0.16176,-0.53099 4.28194,-1.6057 9.15596,-2.38824 l 8.86185,-1.42278 v -27.11693 c 0,-30.47736 0.29855,-29.17351 -7.48344,-32.68269 -7.86316,-3.54579 -7.9604,-11.48978 -0.23518,-19.21498 l 4.66064,-4.66066 6.11482,0.68941 c 10.77737,1.2151 24.47942,5.58602 30.36322,9.68578 2.9504,2.05581 7.49809,5.0958 10.10597,6.75552 2.60788,1.65973 5.42677,3.58633 6.26419,4.28133 0.83743,0.695 5.03908,2.81263 9.337,4.70582 4.29794,1.89318 7.73714,3.8766 7.64267,4.40759 -0.10871,0.6111 -5.41257,0.83697 -14.45085,0.61537 -16.82387,-0.41245 -24.50899,0.80072 -28.42446,4.48707 l -2.65495,2.4996 v 21.43842 c 0,22.95092 -0.0734,22.61046 4.87016,22.61046 0.99876,0 7.33903,2.00219 14.0895,4.44929 12.23357,4.43479 21.53844,9.47142 21.57137,11.67638 0.009,0.63875 0.54037,2.30928 1.17963,3.71229 1.02529,2.25025 1.56811,2.48604 4.60521,2.00039 3.1814,-0.50872 3.73905,-0.20403 7.34121,4.0112 8.55438,10.01032 12.28164,15.90105 15.53501,24.55227 3.19356,8.49215 3.34077,9.40747 2.7492,17.09401 -0.76828,9.98249 -3.16688,15.07101 -10.31642,21.88568 -10.50301,10.01109 -15.98311,13.27822 -29.90064,17.82625 -7.43238,2.42881 -10.25539,2.8541 -19.01925,2.86532 -13.18444,0.0169 -14.4497,0.36624 -14.82339,4.09301 -0.29918,2.98356 -3.23937,5.8487 -7.05324,6.87316 -1.1371,0.30544 -6.09817,-1.30405 -12.06798,-3.91514 z m 57.48842,-29.85326 c 12.93885,-2.67581 19.22851,-9.00682 18.12291,-18.24204 -1.01514,-8.47968 -5.84179,-16.40478 -15.88863,-26.08829 -10.26893,-9.89757 -17.9233,-15.30412 -27.32243,-19.29879 -8.35935,-3.55278 -9.49464,-2.95668 -10.32373,5.42064 -0.33616,3.39686 -0.64827,16.16839 -0.69355,28.38118 -0.0814,21.95255 -0.0566,22.23419 2.17343,24.76584 1.6908,1.91941 4.04069,2.93982 9.38251,4.07421 13.67665,2.9044 15.01826,2.95836 24.54949,0.98725 z m -415.66576,30.90531 c -6.81957,-3.08373 -11.75062,-10.28566 -12.82831,-18.73608 -0.83662,-6.56022 1.89778,-9.48418 9.9312,-10.61969 8.51053,-1.20297 9.4201,-2.37542 10.2251,-13.18049 0.64422,-8.647 0.71472,-8.84717 3.29774,-9.36379 4.32352,-0.8647 4.51398,-4.37652 0.42667,-7.86712 l -3.39141,-2.89632 0.27261,-28.44454 0.27262,-28.44456 3.56557,-0.84288 c 2.07381,-0.49024 3.70795,-1.51504 3.90588,-2.44946 0.18717,-0.88362 -1.75752,-4.40561 -4.32153,-7.82664 -2.56402,-3.42106 -4.46036,-6.74516 -4.2141,-7.3869 0.24627,-0.64175 0.76016,-11.6533 1.14199,-24.47009 l 0.69424,-23.3033 -2.664,-2.78061 c -1.46519,-1.52933 -5.18306,-3.72269 -8.26193,-4.8741 -6.5332,-2.44326 -8.55664,-4.44294 -11.40922,-11.27524 -2.88078,-6.89988 -2.84492,-14.79744 0.0821,-18.07675 3.16974,-3.55124 16.32331,-7.95497 33.54895,-11.23197 13.39427,-2.54813 16.93947,-2.84545 33.79032,-2.8339 30.48786,0.0208 39.14064,1.57559 55.82558,10.03049 13.08114,6.62871 23.76467,18.81476 33.50831,38.22083 5.93255,11.81567 8.14082,20.32013 8.1473,31.37673 0.005,10.52619 -1.33557,15.86729 -6.61908,26.34911 -3.25297,6.45346 -5.94817,9.93261 -13.89982,17.94281 -5.42541,5.46536 -13.55718,12.55634 -18.07059,15.75775 -13.08958,9.28452 -44.68247,23.30565 -63.23618,28.06458 -5.30989,1.36197 -10.41465,3.12282 -11.34388,3.91303 -1.45773,1.23962 -1.68952,3.26084 -1.68952,14.73314 0,13.21443 0.0158,13.30877 2.54379,15.29737 1.39914,1.10053 3.72999,2.00095 5.17975,2.00095 1.44976,0 3.74055,0.8689 5.09063,1.93088 1.70632,1.34219 3.91657,1.93087 7.24959,1.93087 2.63719,0 6.47869,0.58501 8.53667,1.30001 2.71006,0.94156 5.60516,1.08833 10.49984,0.5323 3.71693,-0.42225 12.9954,-0.79002 20.61884,-0.8173 12.25491,-0.0438 13.79288,0.12736 13.27476,1.47755 -0.32231,0.83991 -0.58601,1.7088 -0.58601,1.93088 0,0.22205 -0.88558,0.40375 -1.96796,0.40375 -1.08238,0 -6.22709,1.95231 -11.43269,4.33846 -11.32862,5.19286 -28.78775,11.10854 -32.78494,11.10854 -1.58045,0 -4.97725,1.08756 -7.54845,2.41679 -11.64064,6.01782 -47.29797,10.31066 -55.3604,6.66491 z m 53.83953,-102.26285 c 6.23013,-1.33651 15.15925,-3.95413 19.84249,-5.81692 7.12346,-2.83345 9.25778,-3.28841 13.06029,-2.78399 4.16679,0.55274 4.65404,0.39978 5.85108,-1.83691 0.71818,-1.34194 1.08716,-3.58351 0.81996,-4.98131 -0.61634,-3.22412 3.20903,-6.29379 5.48712,-4.40314 2.35894,1.95775 5.12873,-0.26169 4.6234,-3.70476 -0.35592,-2.425 0.63969,-4.22316 6.19363,-11.18623 3.63975,-4.56321 8.45864,-11.64922 10.70866,-15.74667 4.05884,-7.39149 4.09104,-7.52778 4.10311,-17.37775 0.0108,-8.81003 -0.2734,-10.49489 -2.52419,-14.96428 -5.88208,-11.68004 -14.97199,-17.86066 -29.38242,-19.97841 -6.90005,-1.01402 -9.83914,-0.95972 -19.20435,0.35478 l -11.05746,1.55202 -2.98734,-2.89544 c -4.83133,-4.68271 -9.17076,-3.19087 -9.17076,3.15278 0,1.62591 -1.2543,3.21416 -4.22078,5.34454 -7.72526,5.54786 -7.60093,4.74652 -8.12996,52.39613 l -0.46757,42.11232 2.27951,1.59663 c 1.25371,0.87815 2.40743,1.59662 2.56379,1.59662 0.15636,0 5.38167,-1.0935 11.61179,-2.43001 z m 111.73301,100.28861 c -16.50226,-3.35072 -19.394,-5.96179 -26.04811,-23.5199 l -4.57348,-12.06797 0.46072,-17.37787 c 0.38442,-14.49997 0.81939,-18.49707 2.62649,-24.13594 4.70126,-14.66972 11.76968,-26.46191 23.3173,-38.90009 6.79782,-7.32208 18.23158,-13.4448 26.77475,-14.33773 5.00104,-0.52271 6.1794,-0.28431 10.36834,2.09766 6.61163,3.75959 14.56305,11.63795 17.51073,17.34983 3.54288,6.86522 5.00302,14.77946 5.04201,27.32882 0.0396,12.76876 -1.25048,19.02681 -4.33985,21.05104 -1.19999,0.78626 -7.16655,2.46325 -13.25902,3.72663 -10.80752,2.24114 -31.46271,7.40004 -42.33252,10.57308 -4.76404,1.39069 -5.62203,2.03392 -7.1077,5.32852 l -1.68961,3.74692 3.53087,7.34095 c 4.82615,10.03399 8.66079,12.66418 17.21329,11.80663 6.61721,-0.66351 16.39533,-5.05533 32.36276,-14.53568 12.29264,-7.29852 13.30681,-6.6059 8.69265,5.93665 -1.63624,4.44772 -2.19257,5.06855 -4.54193,5.06855 -4.12598,0 -6.08268,2.85796 -5.72936,8.36821 l 0.29913,4.6652 -8.66891,4.19028 c -10.90984,5.2735 -22.71059,7.75773 -29.90855,6.29621 z m 9.68406,-71.85246 c 17.47208,-3.98905 23.87325,-6.33602 24.95263,-9.14881 0.33098,-0.86253 0.60179,-6.5428 0.60179,-12.62283 0,-17.57748 -2.75297,-21.26736 -12.26943,-16.44499 -6.53917,3.31365 -20.21933,17.13983 -25.05153,25.31894 -4.88219,8.26371 -8.05462,14.49315 -8.05462,15.81622 0,1.50818 1.21701,1.32898 19.82116,-2.91853 z m 914.31806,70.75829 c -2.7609,-0.94555 -6.8726,-3.56736 -9.822,-6.26298 -4.1878,-3.82735 -5.2546,-5.48225 -6.1123,-9.48176 -1.4649,-6.83058 -1.2901,-16.20914 0.3958,-21.23193 0.7892,-2.35131 1.8328,-8.40234 2.3192,-13.44675 0.4864,-5.04442 1.5828,-14.16779 2.4364,-20.27419 0.8536,-6.10639 2.1143,-18.2709 2.8014,-27.03225 1.0211,-13.02075 1.5042,-15.86156 2.6454,-15.5564 5.0911,1.36137 5.8169,1.23816 7.8375,-1.3307 1.8853,-2.3967 2.5305,-2.59728 7.1275,-2.21606 6.8837,0.57085 8.4759,2.29509 7.5878,8.21742 -0.3777,2.51808 -1.3292,6.1061 -2.1149,7.97338 -1.3865,3.29594 -3.1979,13.78188 -5.065,29.32056 -0.8235,6.85322 -2.1783,14.25602 -4.8847,26.69087 -0.5199,2.38946 -0.7247,5.25019 -0.4546,6.35719 0.27,1.10698 0.059,3.49644 -0.4659,5.3099 -2.9135,10.04061 4.3809,13.46748 22.1606,10.41104 6.2665,-1.07723 24.215,-8.86639 24.215,-10.50861 0,-0.45078 0.8694,-1.09552 1.932,-1.43276 3.6137,-1.14695 5.8337,-8.26219 7.7664,-24.89188 0.6655,-5.72586 1.5795,-10.63902 2.0312,-10.91815 1.2097,-0.74764 0.9993,-5.96214 -0.2723,-6.74802 -1.6455,-1.01692 -0.6143,-32.86125 1.1863,-36.63403 1.6191,-3.39264 4.7627,-4.0608 11.3277,-2.40772 5.3483,1.34673 9.3902,4.1146 11.2443,7.69988 1.4004,2.70804 1.2821,7.42188 -0.9953,39.62722 -0.782,11.05931 -3.3585,28.05231 -4.8701,32.12034 -0.7438,2.00196 -1.3525,4.76792 -1.3525,6.14658 0,2.12836 0.3279,2.41879 2.1723,1.92453 1.1947,-0.32019 2.6197,-0.58809 3.1668,-0.59533 0.5471,-0.008 4.0227,-1.97454 7.7235,-4.37173 10.2043,-6.6097 13.9754,-4.67744 8.2586,4.2315 -1.7742,2.76489 -3.2121,6.54059 -3.571,9.37723 -0.3304,2.61176 -1.4736,6.55163 -2.5404,8.75526 -1.6734,3.45694 -3.0815,4.58027 -10.2634,8.18827 -6.7579,3.39482 -9.505,4.24198 -14.6001,4.50223 -6.2659,0.32005 -6.2795,0.31503 -8.4483,-3.10618 -1.1947,-1.88471 -2.1722,-4.24853 -2.1722,-5.25295 0,-2.96149 -2.0649,-4.03017 -4.8299,-2.49982 -1.3261,0.73383 -3.0079,1.34961 -3.7375,1.36843 -0.7297,0.0188 -4.6982,1.55653 -8.819,3.41714 -8.8202,3.98245 -14.5633,5.20927 -27.0236,5.7728 -6.9391,0.31382 -10.3278,0.0189 -13.9207,-1.21157 z m 336.7214,0.75291 c -2.4448,-0.98657 -5.1718,-4.60533 -5.1718,-6.8628 0,-3.4065 -2.389,-3.93871 -7.8569,-1.7503 -14.2696,5.71124 -21.7717,7.72825 -30.8648,8.29837 -10.9768,0.6882 -16.0118,-0.63537 -22.4331,-5.89708 -3.4023,-2.78788 -4.4651,-4.48162 -5.7801,-9.21139 -2.1974,-7.90431 -2.0358,-11.28954 0.9326,-19.5245 3.4957,-9.69756 8.6455,-16.92714 15.4455,-21.683 9.4773,-6.62845 26.3418,-14.51819 36.6015,-17.12344 5.5473,-1.40858 10.2198,-3.18624 11.3526,-4.31901 1.8111,-1.81109 1.8637,-2.46665 0.8868,-11.06673 -0.6326,-5.56812 -1.8288,-10.6905 -3.06,-13.104 l -2.0214,-3.9624 h -7.7252 c -7.1269,0 -8.3385,0.30823 -15.6371,3.9779 -9.0976,4.57423 -21.1939,13.46728 -26.0759,19.17087 -2.6564,3.10335 -3.5745,3.65533 -4.4087,2.65029 -1.1419,-1.37592 2.9687,-11.94356 7.9564,-20.45437 3.3589,-5.73159 13.6872,-14.24371 22.3777,-18.44282 6.1424,-2.9679 7.7066,-3.31423 14.9644,-3.31355 6.9423,6.5e-4 8.9358,0.39926 13.8975,2.77895 9.1227,4.37536 13.7098,10.6031 16.8349,22.85642 1.2784,5.01257 2.9372,27.93348 2.9481,40.73772 0.01,8.98131 0.7345,11.66091 2.4221,8.93029 1.0263,-1.66074 4.3455,-1.10605 4.3327,0.72408 -0.01,0.92923 -1.527,5.16062 -3.379,9.4031 -1.852,4.24246 -3.3673,8.50761 -3.3673,9.47808 0,2.22494 1.3483,1.82802 12.9166,-3.80237 12.7033,-6.18284 13.4608,-5.81985 7.4054,3.54901 -2.3513,3.63802 -4.0638,7.63046 -4.4654,10.41102 -0.3582,2.48056 -1.2996,5.6326 -2.0921,7.00452 -1.7177,2.97447 -10.2679,7.82707 -17.5601,9.96622 -5.8746,1.72329 -6.4558,1.75929 -9.3759,0.58092 z m -33.5141,-21.83236 c 10.1375,-2.07156 23.71,-9.00379 26.9427,-13.76125 4.4638,-6.56881 2.1441,-16.54816 -3.8465,-16.54816 -1.1071,0 -2.5556,-0.86889 -3.2188,-1.93087 -1.3943,-2.23269 -3.3844,-2.49111 -4.9215,-0.63907 -0.5897,0.71049 -3.7927,2.09575 -7.1176,3.07834 -4.2398,1.25292 -8.2083,3.46715 -13.2863,7.41303 -10.3182,8.01781 -12.0129,9.73675 -14.2371,14.44121 -1.8539,3.92111 -1.8806,4.35543 -0.4211,6.84186 1.4097,2.40155 2.0815,2.65495 7.0396,2.65495 3.0145,0 8.8946,-0.69753 13.0666,-1.55004 z m -866.27379,19.90148 c -2.44476,-0.98657 -5.17182,-4.60532 -5.17182,-6.86279 0,-3.4065 -2.389,-3.93872 -7.85679,-1.75031 -14.26969,5.71125 -21.77177,7.72826 -30.86497,8.29839 -10.97684,0.6882 -16.01185,-0.63539 -22.43308,-5.8971 -3.40221,-2.78786 -4.46503,-4.48162 -5.78001,-9.21139 -2.19761,-7.9043 -2.03591,-11.28954 0.93254,-19.52451 3.49567,-9.69756 8.64551,-16.92712 15.4454,-21.68298 9.47737,-6.62845 26.34183,-14.51819 36.60165,-17.12344 5.54727,-1.40859 10.21983,-3.18624 11.35256,-4.31902 1.8111,-1.81108 1.86369,-2.46664 0.88672,-11.06672 -0.63248,-5.56813 -1.82857,-10.6905 -3.05986,-13.104 l -2.02144,-3.9624 h -7.72538 c -7.12665,0 -8.33831,0.30823 -15.63691,3.97789 -9.09774,4.57422 -21.19392,13.46729 -26.07601,19.17088 -2.65634,3.10335 -3.57454,3.65532 -4.40865,2.65028 -1.1419,-1.37591 2.96874,-11.94354 7.9564,-20.45436 3.35896,-5.73161 13.68721,-14.24371 22.37782,-18.44284 6.14245,-2.96788 7.70655,-3.31422 14.96434,-3.31354 6.94229,6.6e-4 8.93577,0.39926 13.89751,2.77896 9.12284,4.37536 13.70982,10.60307 16.83492,22.85643 1.2784,5.01255 2.937,27.93346 2.948,40.73769 0.01,8.98132 0.7345,11.66092 2.422,8.93031 1.0264,-1.66074 4.3455,-1.10606 4.3327,0.72407 -0.01,0.92924 -1.527,5.16064 -3.379,9.40311 -1.852,4.24246 -3.3672,8.5076 -3.3672,9.47807 0,2.22496 1.3483,1.82802 12.9166,-3.80237 12.7033,-6.18284 13.46075,-5.81985 7.4053,3.54901 -2.3513,3.63804 -4.0637,7.63047 -4.4654,10.41103 -0.3582,2.48056 -1.2996,5.6326 -2.0919,7.00452 -1.7178,2.97446 -10.268,7.82707 -17.5601,9.9662 -5.87466,1.72329 -6.45582,1.7593 -9.37594,0.58093 z M 927.18677,401.5872 c 10.13763,-2.07157 23.71012,-9.00379 26.94285,-13.76126 4.46368,-6.56882 2.144,-16.54815 -3.84648,-16.54815 -1.10721,0 -2.55573,-0.86889 -3.21898,-1.93088 -1.3943,-2.23269 -3.38443,-2.49111 -4.92146,-0.63907 -0.58968,0.71049 -3.79255,2.09576 -7.11761,3.07834 -4.23974,1.25292 -8.20833,3.46715 -13.28629,7.41304 -10.31825,8.01781 -12.01286,9.73674 -14.23714,14.4412 -1.85391,3.92112 -1.88062,4.35545 -0.42115,6.84185 1.4097,2.40157 2.08155,2.65496 7.03958,2.65496 3.01471,0 8.89471,-0.69752 13.06668,-1.55003 z m 82.70883,17.72111 c -4.8072,-4.97859 -8.2453,-11.55541 -7.8413,-14.99947 0.3651,-3.11198 2.5576,-3.83935 11.9716,-3.97169 l 6.8459,-0.0963 0.6289,-20.03284 c 0.3459,-11.01805 1.0667,-21.55051 1.6017,-23.40549 0.5349,-1.85496 0.9727,-9.49067 0.9727,-16.96822 0,-13.22444 -0.065,-13.65697 -2.3942,-15.84489 -1.6817,-1.57983 -2.2332,-2.89169 -1.8527,-4.40744 0.7102,-2.82977 -1.0132,-3.78903 -4.3351,-2.41302 -2.1898,0.90704 -3.5317,0.77027 -7.424,-0.75668 -2.6984,-1.05859 -4.8929,-2.57674 -5.0796,-3.5139 -1.3221,-6.63593 25.0609,-15.24457 33.9417,-11.07504 3.4642,1.62647 5.4872,6.454 5.4872,13.09418 0,6.90762 1.3181,6.75362 8.3707,-0.97791 6.4773,-7.1009 11.9845,-10.24818 17.8991,-10.22934 6.1224,0.0194 8.4378,0.90684 9.0839,3.48121 0.4581,1.82493 1.2166,2.29823 3.6829,2.29823 4.0953,0 6.0653,2.27001 11.606,13.37288 4.4241,8.86567 4.4863,9.11799 3.4462,13.99885 -2.4779,11.62849 -2.6455,11.94648 -7.2122,13.69053 -2.3413,0.8941 -5.233,2.66482 -6.4262,3.93491 -1.1932,1.27011 -2.6369,2.3119 -3.208,2.31511 -2.7974,0.0158 -11.1644,-4.5732 -12.1202,-6.64729 -1.3591,-2.94924 -0.5281,-3.7712 1.7387,-1.71975 2.0924,1.89353 6.8779,2.10212 9.0929,0.39635 0.8618,-0.66374 2.2825,-3.717 3.1572,-6.78502 l 1.5901,-5.57822 -3.0398,-3.59344 c -6.871,-8.12288 -6.584,-7.94017 -12.4199,-7.90578 -3.909,0.0231 -6.0736,0.55215 -7.6558,1.87149 -2.506,2.08968 -7.0105,11.49676 -9.267,19.35255 -2.5477,8.87084 -6.3878,32.84138 -6.3878,39.87578 0,8.17491 1.6267,11.23972 7.4733,14.08016 2.3713,1.15212 4.5319,2.93711 4.8011,3.96665 0.3929,1.50258 0.8495,1.67926 2.3139,0.89554 1.2495,-0.6687 2.4428,-0.64537 3.7869,0.074 1.4395,0.7704 2.8345,0.73515 5.2334,-0.13226 2.9327,-1.06053 3.888,-0.9055 9.2513,1.50133 4.9899,2.23938 6.374,2.50478 8.3551,1.60213 3.2491,-1.48042 4.7015,-0.35887 2.5763,1.98951 -1.1841,1.30828 -2.4201,1.71157 -4.017,1.31073 -1.2688,-0.31843 -2.8084,-0.16533 -3.4213,0.34023 -1.8491,1.52508 -12.9211,4.95657 -15.9931,4.95657 -1.5793,0 -4.4464,0.92919 -6.3712,2.06489 -2.9353,1.73181 -6.3313,2.27199 -21.0535,3.34891 -24.6559,1.80355 -22.8034,1.99015 -27.3888,-2.75885 z m 621.5572,-1.05462 c -2.1885,-2.83675 -3.9791,-6.17571 -3.9791,-7.41992 0,-3.47763 3.6291,-6.56591 9.7259,-8.27662 4.6621,-1.3081 5.617,-1.95556 6.057,-4.10681 0.2874,-1.40465 0.2739,-18.19398 -0.03,-37.30965 -0.6166,-38.79562 -0.6827,-39.17531 -7.5917,-43.69492 -1.8337,-1.19962 -3.3342,-2.75602 -3.3342,-3.45869 0,-1.16946 17.865,-7.46251 21.0447,-7.4131 2.0564,0.0319 5.8186,5.01433 7.4787,9.90387 0.854,2.51595 1.965,4.82917 2.4686,5.14045 0.5038,0.31131 3.9392,-2.67141 7.6344,-6.62824 5.492,-5.88075 7.5229,-7.39675 11.1232,-8.30332 10.853,-2.73282 23.1932,6.86689 25.2442,19.63798 0.4955,3.08567 -1.2046,11.63898 -4.6454,23.37018 -1.7488,5.96255 -2.7899,7.65632 -7.68,12.49549 -3.1113,3.07888 -5.9032,5.35171 -6.2043,5.05077 -0.3008,-0.30095 0.178,-3.73515 1.0642,-7.63155 1.2436,-5.46763 1.4599,-9.29598 0.9481,-16.77549 -0.3649,-5.33011 -1.0144,-10.04593 -1.4434,-10.47958 -0.4291,-0.43366 -3.2524,-0.0697 -6.274,0.80862 -4.4594,1.29639 -6.0504,2.35375 -8.45,5.61565 -4.5842,6.23131 -5.697,9.68799 -8.1308,25.2582 -2.7097,17.33475 -2.971,28.28015 -0.7767,32.52344 l 1.5419,2.98169 12.9577,-0.49444 c 7.1269,-0.27195 13.191,-0.11729 13.4759,0.34369 0.7781,1.25885 -4.1789,7.30353 -7.8496,9.57213 -1.775,1.097 -4.1257,3.44825 -5.2238,5.22502 -3.5987,5.82295 -5.7775,6.58175 -22.7194,7.91292 -23.7159,1.8634 -21.8122,2.14052 -26.4322,-3.84777 z m 82.9703,0.65235 c -2.1812,-2.47797 -4.2297,-5.55691 -4.5522,-6.84211 -0.8621,-3.43471 2.3845,-7.23186 7.4746,-8.74194 7.7633,-2.30322 7.0853,0.87287 7.7906,-36.49207 0.7224,-38.26051 0.2612,-43.4567 -4.1888,-47.20114 -1.5452,-1.30024 -4.505,-2.87204 -6.5773,-3.49292 -3.8055,-1.14018 -5.8049,-3.48128 -3.611,-4.22816 0.6548,-0.22291 6.298,-1.31263 12.5404,-2.42158 l 11.35,-2.0163 3.301,2.51789 c 3.905,2.97839 6.0378,6.00599 6.4931,9.21738 0.5635,3.97333 3.047,3.02462 7.5717,-2.89252 3.2191,-4.20981 5.7742,-6.37141 9.8639,-8.34531 5.1263,-2.47414 5.8141,-2.57792 9.6544,-1.45692 5.5436,1.61823 11.1707,5.57956 13.8088,9.72112 2.152,3.37833 2.1559,3.45798 0.7786,15.82381 -1.3412,12.04299 -1.5247,12.66404 -5.9183,20.02739 -6.1333,10.27902 -7.915,10.30781 -7.9085,0.12774 0.01,-10.16173 -2.0844,-15.83928 -6.8118,-18.49623 -5.6805,-3.19262 -7.4396,-2.72765 -9.7089,2.56651 -5.4897,12.80703 -11.5868,49.83187 -9.3209,56.60176 1.3664,4.08196 3.4055,6.26928 5.3761,5.76661 3.453,-0.88076 23.8808,-2.95704 24.6634,-2.50678 0.4529,0.26062 -2.2157,3.57027 -5.9303,7.3548 -3.7149,3.78452 -7.2921,8.42624 -7.9496,10.31497 -1.9565,5.6193 -5.1722,6.81462 -22.1821,8.24528 -22.753,1.9137 -21.4047,2.0771 -26.0069,-3.15128 z m 187.3522,-1.61779 c -2.2906,-2.96905 -3.9791,-6.21008 -3.9791,-7.63768 0,-3.59654 4.2742,-6.69388 12.2123,-8.85005 l 6.8258,-1.854 0.6608,-10.6967 c 1.669,-27.01346 3.5831,-42.77201 5.9628,-49.09238 0.7538,-2.00196 1.3706,-4.76791 1.3706,-6.14658 0,-2.12835 -0.3279,-2.4188 -2.1722,-1.92452 -1.1948,0.32017 -2.6199,0.58807 -3.1669,0.59533 -0.5472,0.008 -4.0227,1.97453 -7.7235,4.37173 -10.2043,6.6097 -13.9755,4.67743 -8.2586,-4.23151 1.7743,-2.76489 3.212,-6.54058 3.571,-9.37722 0.3305,-2.61178 1.4735,-6.55164 2.5403,-8.75527 1.6735,-3.45695 3.0816,-4.58027 10.2636,-8.18827 6.7577,-3.39482 9.5049,-4.24199 14.6,-4.50222 6.2658,-0.32007 6.2794,-0.31504 8.4482,3.10616 1.1947,1.88471 2.1723,4.24853 2.1723,5.25294 0,2.96151 2.0648,4.03018 4.83,2.49982 1.3259,-0.7338 3.0078,-1.3496 3.7374,-1.36841 0.7296,-0.0188 4.6983,-1.55653 8.8191,-3.41715 12.6105,-5.69378 29.927,-7.74426 39.9001,-4.72464 8.3049,2.51454 15.5648,9.31676 16.9783,15.90816 1.4543,6.78091 1.2939,16.33616 -0.3526,21.00275 -0.7655,2.16959 -1.8319,8.41508 -2.3701,13.87887 -0.5382,5.46378 -1.6165,14.27863 -2.3963,19.58854 -3.1768,21.63387 -2.7973,24.84896 3.088,26.15568 4.2885,0.95215 12.7246,4.5539 12.7246,5.43266 0,0.45197 0.8688,0.35673 1.9309,-0.21163 1.3763,-0.73662 2.4944,-0.73174 3.8934,0.017 1.4396,0.77039 2.8346,0.73513 5.2334,-0.13227 2.9328,-1.06052 3.8881,-0.9055 9.2513,1.50133 4.99,2.23938 6.3741,2.50479 8.3552,1.60215 3.2492,-1.48044 4.7015,-0.35889 2.5762,1.98949 -1.184,1.30827 -2.4199,1.71157 -4.0169,1.31073 -1.2688,-0.31843 -2.8084,-0.16534 -3.4213,0.34023 -1.849,1.52509 -12.9212,4.95657 -15.9931,4.95657 -1.5793,0 -4.4553,0.93443 -6.391,2.0765 -3.0273,1.78616 -6.3541,2.27447 -23.7931,3.49226 l -20.2737,1.41574 -3.8605,-3.7336 c -6.3354,-6.12734 -10.5506,-16.36399 -7.5116,-18.24221 0.5551,-0.34305 3.922,-0.91173 7.4822,-1.26378 l 6.4729,-0.64004 1.2318,-8.68894 c 0.6775,-4.77891 1.6478,-12.10092 2.1562,-16.27112 0.8357,-6.85719 2.2051,-14.3189 4.8978,-26.69085 0.52,-2.38946 0.7247,-5.25019 0.4546,-6.35719 -0.27,-1.10699 -0.06,-3.49645 0.4658,-5.30991 2.9136,-10.0406 -4.3808,-13.46747 -22.1606,-10.41105 -6.2664,1.07724 -24.215,8.8664 -24.215,10.50861 0,0.45079 -0.8692,1.09552 -1.9319,1.43277 -3.6137,1.14695 -5.8337,8.26219 -7.7665,24.89189 -0.6654,5.72585 -1.5794,10.63901 -2.031,10.91814 -1.1443,0.70716 -1.031,5.94257 0.1442,6.66889 0.5351,0.33069 0.9655,4.72453 0.9655,9.856 v 9.2593 l 10.6048,-0.55944 c 6.1106,-0.32236 10.8384,-0.1815 11.1559,0.3324 0.8057,1.30353 -4.0742,7.31304 -7.8164,9.62582 -1.7751,1.097 -4.1257,3.44826 -5.2237,5.22502 -3.5988,5.82295 -5.7775,6.58175 -22.7195,7.91292 -23.7159,1.8634 -21.8122,2.14052 -26.4322,-3.84777 z m -1166.02137,2.26954 c -2.44474,-0.98656 -5.17185,-4.60531 -5.17185,-6.86279 0,-3.4065 -2.38899,-3.93872 -7.85678,-1.7503 -14.26971,5.71125 -21.77177,7.72826 -30.86493,8.29838 -10.97683,0.6882 -16.01184,-0.63538 -22.43308,-5.8971 -3.40221,-2.78786 -4.46501,-4.48162 -5.78002,-9.21137 -2.1976,-7.90431 -2.0359,-11.28954 0.93255,-19.52451 3.49566,-9.69757 8.64551,-16.92713 15.44544,-21.683 9.47736,-6.62844 26.34178,-14.51819 36.6016,-17.12343 5.54722,-1.40859 10.21978,-3.18625 11.35255,-4.31902 1.81111,-1.81109 1.86363,-2.46664 0.88672,-11.06672 -0.6325,-5.56812 -1.82862,-10.69051 -3.05989,-13.10401 l -2.02148,-3.9624 h -7.72529 c -7.12673,0 -8.33835,0.30823 -15.63697,3.9779 -9.09768,4.57422 -21.19387,13.46728 -26.07595,19.17088 -2.65635,3.10334 -3.57454,3.65533 -4.40865,2.65028 -1.14189,-1.37591 2.96873,-11.94355 7.95641,-20.45436 3.35893,-5.7316 13.68717,-14.24371 22.37779,-18.44282 6.1424,-2.9679 7.70652,-3.31424 14.96428,-3.31357 6.94234,6.6e-4 8.93582,0.39928 13.89754,2.77897 9.12281,4.37536 13.70983,10.60308 16.83489,22.85642 1.2784,5.01257 2.93714,27.93348 2.94811,40.73771 0.008,8.9813 0.73445,11.6609 2.42207,8.93029 1.0264,-1.66073 4.34545,-1.10605 4.33268,0.72408 -0.006,0.92924 -1.52704,5.16063 -3.37904,9.40311 -1.85197,4.24246 -3.36723,8.50761 -3.36723,9.47807 0,2.22495 1.34834,1.82802 12.91659,-3.80237 12.70335,-6.18284 13.46078,-5.81985 7.4054,3.54902 -2.35138,3.63802 -4.06376,7.63045 -4.46536,10.41102 -0.35828,2.48056 -1.29967,5.6326 -2.09198,7.00452 -1.71786,2.97447 -10.26804,7.82706 -17.56028,9.9662 -5.87463,1.7233 -6.45582,1.7593 -9.37584,0.58092 z m -33.51416,-21.83235 c 10.13763,-2.07155 23.71007,-9.00378 26.94285,-13.76126 4.46363,-6.56879 2.14399,-16.54814 -3.8465,-16.54814 -1.1072,0 -2.55572,-0.8689 -3.21894,-1.93087 -1.39432,-2.23269 -3.3844,-2.49111 -4.92146,-0.63908 -0.58967,0.71049 -3.7926,2.09575 -7.11765,3.07835 -4.23976,1.25291 -8.20831,3.46714 -13.28631,7.41303 -10.31818,8.01781 -12.01281,9.73673 -14.23706,14.4412 -1.85388,3.92112 -1.88062,4.35544 -0.42115,6.84186 1.40966,2.40156 2.08153,2.65494 7.03959,2.65494 3.01467,0 8.89464,-0.69751 13.06663,-1.55003 z"
       id="path819"
       inkscape:connector-curvature="0"
       sodipodi:nodetypes="cccccccccsccccccccscccccccccscsscccccccccsccccccccccscccsscccccccccccccscccccssccsccscccccscscccccsscccccccccccssccscccsscccccccsccsccccccsccccccsccsccccsscssccscccscscsccccsscscccscsccscscsscscsscsccsssscscsssscccsccccscscccsscscsssccccsscscscccccccscccccccccscccccccscscccccsscccccccccccscccccsscccccscccccsccssccsccsccsscccsccccccscccccccscccssccccccccsccccccscccccscsccccccscccsccccccccccccccsccccccccccscscccsccccsccccsccccccccccscscscscccccccccsccccccccccsccccccsccsccccscccccccccsscccccsccsccccccccscscccccccccccsccccscscccsccsccccccscsccsssccccccccccsscccccccsccsscssc" />
    <text
       xml:space="preserve"
       style="font-style:normal;font-variant:normal;font-weight:normal;font-stretch:normal;font-size:72.5px;line-height:1.25;font-family:Lavi;-inkscape-font-specification:'Lavi, Normal';font-variant-ligatures:normal;font-variant-caps:normal;font-variant-numeric:normal;font-feature-settings:normal;text-align:center;letter-spacing:0px;word-spacing:0px;writing-mode:lr-tb;text-anchor:middle;display:inline;fill:#1c3c77;fill-opacity:1;stroke:none"
       x="1240.1991"
       y="582.47577"
       id="episode-title"><tspan
         sodipodi:role="line"
         id="tspan4180"
         x="1240.1991"
         y="582.47577">Eapasod 30: Glac mi teann</tspan></text>
    <ellipse
       style="color:#000000;clip-rule:nonzero;display:inline;overflow:visible;visibility:visible;opacity:0.45199998;isolation:auto;mix-blend-mode:normal;color-interpolation:sRGB;color-interpolation-filters:linearRGB;solid-color:#000000;solid-opacity:1;vector-effect:none;fill:url(#radialGradient825);fill-opacity:1;fill-rule:nonzero;stroke:none;stroke-width:0.80237073;stroke-linecap:round;stroke-linejoin:miter;stroke-miterlimit:4;stroke-dasharray:none;stroke-dashoffset:0;stroke-opacity:1;marker:none;paint-order:markers stroke fill;color-rendering:auto;image-rendering:auto;shape-rendering:auto;text-rendering:auto;enable-background:accumulate"
       id="path817"
       cx="495.14856"
       cy="211.12373"
       rx="20.572075"
       ry="21.990839" />
    <ellipse
       style="color:#000000;clip-rule:nonzero;display:inline;overflow:visible;visibility:visible;opacity:1;isolation:auto;mix-blend-mode:normal;color-interpolation:sRGB;color-interpolation-filters:linearRGB;solid-color:#000000;solid-opacity:1;vector-effect:none;fill:#ffffff;fill-opacity:1;fill-rule:nonzero;stroke:none;stroke-width:0.58823705;stroke-linecap:round;stroke-linejoin:miter;stroke-miterlimit:4;stroke-dasharray:none;stroke-dashoffset:0;stroke-opacity:1;marker:none;paint-order:markers stroke fill;color-rendering:auto;image-rendering:auto;shape-rendering:auto;text-rendering:auto;enable-background:accumulate;filter:url(#filter947)"
       id="path829"
       cx="495.02432"
       cy="210.56668"
       rx="1.7160501"
       ry="1.5795487" />
    <ellipse
       style="color:#000000;clip-rule:nonzero;display:inline;overflow:visible;visibility:visible;opacity:0.45199998;isolation:auto;mix-blend-mode:normal;color-interpolation:sRGB;color-interpolation-filters:linearRGB;solid-color:#000000;solid-opacity:1;vector-effect:none;fill:url(#radialGradient825-7);fill-opacity:1;fill-rule:nonzero;stroke:none;stroke-width:0.80237073;stroke-linecap:round;stroke-linejoin:miter;stroke-miterlimit:4;stroke-dasharray:none;stroke-dashoffset:0;stroke-opacity:1;marker:none;paint-order:markers stroke fill;color-rendering:auto;image-rendering:auto;shape-rendering:auto;text-rendering:auto;enable-background:accumulate"
       id="path817-6"
       cx="1343.2581"
       cy="356.59772"
       rx="20.572075"
       ry="21.990839" />
    <ellipse
       style="color:#000000;clip-rule:nonzero;display:inline;overflow:visible;visibility:visible;opacity:1;isolation:auto;mix-blend-mode:normal;color-interpolation:sRGB;color-interpolation-filters:linearRGB;solid-color:#000000;solid-opacity:1;vector-effect:none;fill:#ffffff;fill-opacity:1;fill-rule:nonzero;stroke:none;stroke-width:0.58823705;stroke-linecap:round;stroke-linejoin:miter;stroke-miterlimit:4;stroke-dasharray:none;stroke-dashoffset:0;stroke-opacity:1;marker:none;paint-order:markers stroke fill;filter:url(#filter947-3);color-rendering:auto;image-rendering:auto;shape-rendering:auto;text-rendering:auto;enable-background:accumulate"
       id="path829-2"
       cx="1343.1338"
       cy="356.04068"
       rx="1.7160501"
       ry="1.5795487" />
    <ellipse
       style="color:#000000;clip-rule:nonzero;display:inline;overflow:visible;visibility:visible;opacity:0.45199998;isolation:auto;mix-blend-mode:normal;color-interpolation:sRGB;color-interpolation-filters:linearRGB;solid-color:#000000;solid-opacity:1;vector-effect:none;fill:url(#radialGradient825-7-2);fill-opacity:1;fill-rule:nonzero;stroke:none;stroke-width:0.80237073;stroke-linecap:round;stroke-linejoin:miter;stroke-miterlimit:4;stroke-dasharray:none;stroke-dashoffset:0;stroke-opacity:1;marker:none;paint-order:markers stroke fill;color-rendering:auto;image-rendering:auto;shape-rendering:auto;text-rendering:auto;enable-background:accumulate"
       id="path817-6-3"
       cx="1983.2804"
       cy="311.72171"
       rx="20.572075"
       ry="21.990839" />
    <ellipse
       style="color:#000000;clip-rule:nonzero;display:inline;overflow:visible;visibility:visible;opacity:1;isolation:auto;mix-blend-mode:normal;color-interpolation:sRGB;color-interpolation-filters:linearRGB;solid-color:#000000;solid-opacity:1;vector-effect:none;fill:#ffffff;fill-opacity:1;fill-rule:nonzero;stroke:none;stroke-width:0.58823705;stroke-linecap:round;stroke-linejoin:miter;stroke-miterlimit:4;stroke-dasharray:none;stroke-dashoffset:0;stroke-opacity:1;marker:none;paint-order:markers stroke fill;filter:url(#filter947-3-9);color-rendering:auto;image-rendering:auto;shape-rendering:auto;text-rendering:auto;enable-background:accumulate"
       id="path829-2-6"
       cx="1983.1561"
       cy="311.16467"
       rx="1.7160501"
       ry="1.5795487" />
    <ellipse
       style="color:#000000;clip-rule:nonzero;display:inline;overflow:visible;visibility:visible;opacity:0.47099998;isolation:auto;mix-blend-mode:normal;color-interpolation:sRGB;color-interpolation-filters:linearRGB;solid-color:#000000;solid-opacity:1;vector-effect:none;fill:url(#radialGradient825-7-2-2);fill-opacity:1;fill-rule:nonzero;stroke:none;stroke-width:0.51671189;stroke-linecap:round;stroke-linejoin:miter;stroke-miterlimit:4;stroke-dasharray:none;stroke-dashoffset:0;stroke-opacity:1;marker:none;paint-order:markers stroke fill;color-rendering:auto;image-rendering:auto;shape-rendering:auto;text-rendering:auto;enable-background:accumulate"
       id="path817-6-3-7"
       cx="1070.0956"
       cy="315.76883"
       rx="13.342408"
       ry="14.061526" />
    <ellipse
       style="color:#000000;clip-rule:nonzero;display:inline;overflow:visible;visibility:visible;opacity:0.47099998;isolation:auto;mix-blend-mode:normal;color-interpolation:sRGB;color-interpolation-filters:linearRGB;solid-color:#000000;solid-opacity:1;vector-effect:none;fill:#ffffff;fill-opacity:1;fill-rule:nonzero;stroke:none;stroke-width:0.58823705;stroke-linecap:round;stroke-linejoin:miter;stroke-miterlimit:4;stroke-dasharray:none;stroke-dashoffset:0;stroke-opacity:1;marker:none;paint-order:markers stroke fill;filter:url(#filter947-3-9-0);color-rendering:auto;image-rendering:auto;shape-rendering:auto;text-rendering:auto;enable-background:accumulate"
       id="path829-2-6-9"
       cx="1089.9664"
       cy="357.10336"
       rx="1.7160501"
       ry="1.5795487"
       transform="matrix(0.64856889,0,0,0.63942657,363.09656,87.071309)" />
    <ellipse
       style="color:#000000;clip-rule:nonzero;display:inline;overflow:visible;visibility:visible;opacity:0.47099998;isolation:auto;mix-blend-mode:normal;color-interpolation:sRGB;color-interpolation-filters:linearRGB;solid-color:#000000;solid-opacity:1;vector-effect:none;fill:url(#radialGradient825-7-2-2-2);fill-opacity:1;fill-rule:nonzero;stroke:none;stroke-width:0.51671189;stroke-linecap:round;stroke-linejoin:miter;stroke-miterlimit:4;stroke-dasharray:none;stroke-dashoffset:0;stroke-opacity:1;marker:none;paint-order:markers stroke fill;color-rendering:auto;image-rendering:auto;shape-rendering:auto;text-rendering:auto;enable-background:accumulate"
       id="path817-6-3-7-9"
       cx="-800.51978"
       cy="-407.95316"
       rx="13.342408"
       ry="14.061526"
       transform="scale(-1)" />
    <ellipse
       style="color:#000000;clip-rule:nonzero;display:inline;overflow:visible;visibility:visible;opacity:0.47099998;isolation:auto;mix-blend-mode:normal;color-interpolation:sRGB;color-interpolation-filters:linearRGB;solid-color:#000000;solid-opacity:1;vector-effect:none;fill:#ffffff;fill-opacity:1;fill-rule:nonzero;stroke:none;stroke-width:0.58823705;stroke-linecap:round;stroke-linejoin:miter;stroke-miterlimit:4;stroke-dasharray:none;stroke-dashoffset:0;stroke-opacity:1;marker:none;paint-order:markers stroke fill;filter:url(#filter947-3-9-0-2);color-rendering:auto;image-rendering:auto;shape-rendering:auto;text-rendering:auto;enable-background:accumulate"
       id="path829-2-6-9-2"
       cx="1089.9664"
       cy="357.10336"
       rx="1.7160501"
       ry="1.5795487"
       transform="matrix(-0.64856889,0,0,-0.63942657,1507.5187,636.6507)" />
    <ellipse
       style="color:#000000;clip-rule:nonzero;display:inline;overflow:visible;visibility:visible;opacity:0.47099998;isolation:auto;mix-blend-mode:normal;color-interpolation:sRGB;color-interpolation-filters:linearRGB;solid-color:#000000;solid-opacity:1;vector-effect:none;fill:url(#radialGradient825-7-2-2-7);fill-opacity:1;fill-rule:nonzero;stroke:none;stroke-width:0.51671189;stroke-linecap:round;stroke-linejoin:miter;stroke-miterlimit:4;stroke-dasharray:none;stroke-dashoffset:0;stroke-opacity:1;marker:none;paint-order:markers stroke fill;color-rendering:auto;image-rendering:auto;shape-rendering:auto;text-rendering:auto;enable-background:accumulate"
       id="path817-6-3-7-2"
       cx="-806.22705"
       cy="-376.56311"
       rx="13.342408"
       ry="14.061526"
       transform="scale(-1)" />
    <ellipse
       style="color:#000000;clip-rule:nonzero;display:inline;overflow:visible;visibility:visible;opacity:0.47099998;isolation:auto;mix-blend-mode:normal;color-interpolation:sRGB;color-interpolation-filters:linearRGB;solid-color:#000000;solid-opacity:1;vector-effect:none;fill:#ffffff;fill-opacity:1;fill-rule:nonzero;stroke:none;stroke-width:0.58823705;stroke-linecap:round;stroke-linejoin:miter;stroke-miterlimit:4;stroke-dasharray:none;stroke-dashoffset:0;stroke-opacity:1;marker:none;paint-order:markers stroke fill;filter:url(#filter947-3-9-0-28);color-rendering:auto;image-rendering:auto;shape-rendering:auto;text-rendering:auto;enable-background:accumulate"
       id="path829-2-6-9-9"
       cx="1089.9664"
       cy="357.10336"
       rx="1.7160501"
       ry="1.5795487"
       transform="matrix(-0.64856889,0,0,-0.63942657,1513.226,605.26066)" />
    <ellipse
       style="color:#000000;clip-rule:nonzero;display:inline;overflow:visible;visibility:visible;opacity:0.47099998;isolation:auto;mix-blend-mode:normal;color-interpolation:sRGB;color-interpolation-filters:linearRGB;solid-color:#000000;solid-opacity:1;vector-effect:none;fill:url(#radialGradient825-7-2-2-9);fill-opacity:1;fill-rule:nonzero;stroke:none;stroke-width:0.51671189;stroke-linecap:round;stroke-linejoin:miter;stroke-miterlimit:4;stroke-dasharray:none;stroke-dashoffset:0;stroke-opacity:1;marker:none;paint-order:markers stroke fill;color-rendering:auto;image-rendering:auto;shape-rendering:auto;text-rendering:auto;enable-background:accumulate"
       id="path817-6-3-7-4"
       cx="532.20404"
       cy="329.12402"
       rx="13.342408"
       ry="14.061526" />
    <ellipse
       style="color:#000000;clip-rule:nonzero;display:inline;overflow:visible;visibility:visible;opacity:0.47099998;isolation:auto;mix-blend-mode:normal;color-interpolation:sRGB;color-interpolation-filters:linearRGB;solid-color:#000000;solid-opacity:1;vector-effect:none;fill:#ffffff;fill-opacity:1;fill-rule:nonzero;stroke:none;stroke-width:0.58823705;stroke-linecap:round;stroke-linejoin:miter;stroke-miterlimit:4;stroke-dasharray:none;stroke-dashoffset:0;stroke-opacity:1;marker:none;paint-order:markers stroke fill;filter:url(#filter947-3-9-0-3);color-rendering:auto;image-rendering:auto;shape-rendering:auto;text-rendering:auto;enable-background:accumulate"
       id="path829-2-6-9-5"
       cx="1089.9664"
       cy="357.10336"
       rx="1.7160501"
       ry="1.5795487"
       transform="matrix(0.64856889,0,0,0.63942657,-174.79495,100.42648)" />
    <ellipse
       style="color:#000000;clip-rule:nonzero;display:inline;overflow:visible;visibility:visible;opacity:0.47099998;isolation:auto;mix-blend-mode:normal;color-interpolation:sRGB;color-interpolation-filters:linearRGB;solid-color:#000000;solid-opacity:1;vector-effect:none;fill:url(#radialGradient825-7-2-2-6);fill-opacity:1;fill-rule:nonzero;stroke:none;stroke-width:0.51671189;stroke-linecap:round;stroke-linejoin:miter;stroke-miterlimit:4;stroke-dasharray:none;stroke-dashoffset:0;stroke-opacity:1;marker:none;paint-order:markers stroke fill;color-rendering:auto;image-rendering:auto;shape-rendering:auto;text-rendering:auto;enable-background:accumulate"
       id="path817-6-3-7-3"
       cx="1740.6964"
       cy="333.40448"
       rx="13.342408"
       ry="14.061526" />
    <ellipse
       style="color:#000000;clip-rule:nonzero;display:inline;overflow:visible;visibility:visible;opacity:0.47099998;isolation:auto;mix-blend-mode:normal;color-interpolation:sRGB;color-interpolation-filters:linearRGB;solid-color:#000000;solid-opacity:1;vector-effect:none;fill:#ffffff;fill-opacity:1;fill-rule:nonzero;stroke:none;stroke-width:0.58823705;stroke-linecap:round;stroke-linejoin:miter;stroke-miterlimit:4;stroke-dasharray:none;stroke-dashoffset:0;stroke-opacity:1;marker:none;paint-order:markers stroke fill;filter:url(#filter947-3-9-0-0);color-rendering:auto;image-rendering:auto;shape-rendering:auto;text-rendering:auto;enable-background:accumulate"
       id="path829-2-6-9-20"
       cx="1089.9664"
       cy="357.10336"
       rx="1.7160501"
       ry="1.5795487"
       transform="matrix(0.64856889,0,0,0.63942657,1033.6974,104.70694)" />
    <ellipse
       style="color:#000000;clip-rule:nonzero;display:inline;overflow:visible;visibility:visible;opacity:0.47099998;isolation:auto;mix-blend-mode:normal;color-interpolation:sRGB;color-interpolation-filters:linearRGB;solid-color:#000000;solid-opacity:1;vector-effect:none;fill:url(#radialGradient825-7-2-2-5);fill-opacity:1;fill-rule:nonzero;stroke:none;stroke-width:0.51671189;stroke-linecap:round;stroke-linejoin:miter;stroke-miterlimit:4;stroke-dasharray:none;stroke-dashoffset:0;stroke-opacity:1;marker:none;paint-order:markers stroke fill;color-rendering:auto;image-rendering:auto;shape-rendering:auto;text-rendering:auto;enable-background:accumulate"
       id="path817-6-3-7-5"
       cx="2002.4268"
       cy="400.46503"
       rx="13.342408"
       ry="14.061526" />
    <ellipse
       style="color:#000000;clip-rule:nonzero;display:inline;overflow:visible;visibility:visible;opacity:0.47099998;isolation:auto;mix-blend-mode:normal;color-interpolation:sRGB;color-interpolation-filters:linearRGB;solid-color:#000000;solid-opacity:1;vector-effect:none;fill:#ffffff;fill-opacity:1;fill-rule:nonzero;stroke:none;stroke-width:0.58823705;stroke-linecap:round;stroke-linejoin:miter;stroke-miterlimit:4;stroke-dasharray:none;stroke-dashoffset:0;stroke-opacity:1;marker:none;paint-order:markers stroke fill;filter:url(#filter947-3-9-0-6);color-rendering:auto;image-rendering:auto;shape-rendering:auto;text-rendering:auto;enable-background:accumulate"
       id="path829-2-6-9-6"
       cx="1089.9664"
       cy="357.10336"
       rx="1.7160501"
       ry="1.5795487"
       transform="matrix(0.64856889,0,0,0.63942657,1295.4277,171.7675)" />
    <ellipse
       style="color:#000000;clip-rule:nonzero;display:inline;overflow:visible;visibility:visible;opacity:0.45199998;isolation:auto;mix-blend-mode:normal;color-interpolation:sRGB;color-interpolation-filters:linearRGB;solid-color:#000000;solid-opacity:1;vector-effect:none;fill:url(#radialGradient825-7-4);fill-opacity:1;fill-rule:nonzero;stroke:none;stroke-width:0.80237073;stroke-linecap:round;stroke-linejoin:miter;stroke-miterlimit:4;stroke-dasharray:none;stroke-dashoffset:0;stroke-opacity:1;marker:none;paint-order:markers stroke fill;color-rendering:auto;image-rendering:auto;shape-rendering:auto;text-rendering:auto;enable-background:accumulate"
       id="path817-6-4"
       cx="1473.8811"
       cy="224.96614"
       rx="20.572075"
       ry="21.990839" />
    <ellipse
       style="color:#000000;clip-rule:nonzero;display:inline;overflow:visible;visibility:visible;opacity:1;isolation:auto;mix-blend-mode:normal;color-interpolation:sRGB;color-interpolation-filters:linearRGB;solid-color:#000000;solid-opacity:1;vector-effect:none;fill:#ffffff;fill-opacity:1;fill-rule:nonzero;stroke:none;stroke-width:0.58823705;stroke-linecap:round;stroke-linejoin:miter;stroke-miterlimit:4;stroke-dasharray:none;stroke-dashoffset:0;stroke-opacity:1;marker:none;paint-order:markers stroke fill;filter:url(#filter947-3-93);color-rendering:auto;image-rendering:auto;shape-rendering:auto;text-rendering:auto;enable-background:accumulate"
       id="path829-2-7"
       cx="1473.7568"
       cy="224.4091"
       rx="1.7160501"
       ry="1.5795487" />
    <ellipse
       style="color:#000000;clip-rule:nonzero;display:inline;overflow:visible;visibility:visible;opacity:0.47099998;isolation:auto;mix-blend-mode:normal;color-interpolation:sRGB;color-interpolation-filters:linearRGB;solid-color:#000000;solid-opacity:1;vector-effect:none;fill:url(#radialGradient825-7-2-2-6-3);fill-opacity:1;fill-rule:nonzero;stroke:none;stroke-width:0.51671189;stroke-linecap:round;stroke-linejoin:miter;stroke-miterlimit:4;stroke-dasharray:none;stroke-dashoffset:0;stroke-opacity:1;marker:none;paint-order:markers stroke fill;color-rendering:auto;image-rendering:auto;shape-rendering:auto;text-rendering:auto;enable-background:accumulate"
       id="path817-6-3-7-3-6"
       cx="1425.3691"
       cy="242.08798"
       rx="13.342408"
       ry="14.061526" />
    <ellipse
       style="color:#000000;clip-rule:nonzero;display:inline;overflow:visible;visibility:visible;opacity:0.47099998;isolation:auto;mix-blend-mode:normal;color-interpolation:sRGB;color-interpolation-filters:linearRGB;solid-color:#000000;solid-opacity:1;vector-effect:none;fill:#ffffff;fill-opacity:1;fill-rule:nonzero;stroke:none;stroke-width:0.58823705;stroke-linecap:round;stroke-linejoin:miter;stroke-miterlimit:4;stroke-dasharray:none;stroke-dashoffset:0;stroke-opacity:1;marker:none;paint-order:markers stroke fill;filter:url(#filter947-3-9-0-0-4);color-rendering:auto;image-rendering:auto;shape-rendering:auto;text-rendering:auto;enable-background:accumulate"
       id="path829-2-6-9-20-8"
       cx="1089.9664"
       cy="357.10336"
       rx="1.7160501"
       ry="1.5795487"
       transform="matrix(0.64856889,0,0,0.63942657,718.37009,13.390433)" />
    <ellipse
       ry="21.990839"
       rx="20.572075"
       cy="394.59772"
       cx="1223.2581"
       id="ellipse99"
       style="color:#000000;clip-rule:nonzero;display:inline;overflow:visible;visibility:visible;opacity:0.45199998;isolation:auto;mix-blend-mode:normal;color-interpolation:sRGB;color-interpolation-filters:linearRGB;solid-color:#000000;solid-opacity:1;vector-effect:none;fill:url(#radialGradient103);fill-opacity:1;fill-rule:nonzero;stroke:none;stroke-width:0.80237073;stroke-linecap:round;stroke-linejoin:miter;stroke-miterlimit:4;stroke-dasharray:none;stroke-dashoffset:0;stroke-opacity:1;marker:none;paint-order:markers stroke fill;color-rendering:auto;image-rendering:auto;shape-rendering:auto;text-rendering:auto;enable-background:accumulate" />
    <ellipse
       ry="1.5795487"
       rx="1.7160501"
       cy="394.04068"
       cx="1223.1338"
       id="ellipse101"
       style="color:#000000;clip-rule:nonzero;display:inline;overflow:visible;visibility:visible;opacity:1;isolation:auto;mix-blend-mode:normal;color-interpolation:sRGB;color-interpolation-filters:linearRGB;solid-color:#000000;solid-opacity:1;vector-effect:none;fill:#ffffff;fill-opacity:1;fill-rule:nonzero;stroke:none;stroke-width:0.58823705;stroke-linecap:round;stroke-linejoin:miter;stroke-miterlimit:4;stroke-dasharray:none;stroke-dashoffset:0;stroke-opacity:1;marker:none;paint-order:markers stroke fill;filter:url(#filter947-3);color-rendering:auto;image-rendering:auto;shape-rendering:auto;text-rendering:auto;enable-background:accumulate" />
  </g>
</svg>
