<?xml version="1.0" encoding="UTF-8" standalone="no"?>
<!-- Created with Inkscape (http://www.inkscape.org/) -->

<svg
   id="svg2"
   version="1.1"
   inkscape:version="1.3 (0e150ed6c4, 2023-07-21)"
   width="2481"
   height="3503"
   sodipodi:docname="E23P03.svg"
   xmlns:inkscape="http://www.inkscape.org/namespaces/inkscape"
   xmlns:sodipodi="http://sodipodi.sourceforge.net/DTD/sodipodi-0.dtd"
   xmlns:xlink="http://www.w3.org/1999/xlink"
   xmlns="http://www.w3.org/2000/svg"
   xmlns:svg="http://www.w3.org/2000/svg"
   xmlns:rdf="http://www.w3.org/1999/02/22-rdf-syntax-ns#"
   xmlns:cc="http://creativecommons.org/ns#"
   xmlns:dc="http://purl.org/dc/elements/1.1/">
  <metadata
     id="metadata8">
    <rdf:RDF>
      <cc:Work
         rdf:about="">
        <dc:format>image/svg+xml</dc:format>
        <dc:type
           rdf:resource="http://purl.org/dc/dcmitype/StillImage" />
        <dc:title />
      </cc:Work>
    </rdf:RDF>
  </metadata>
  <defs
     id="defs6">
    <filter
       style="color-interpolation-filters:sRGB"
       id="filter4375-4-1-1-1-9"
       inkscape:label="deevad outline effect"
       x="-0.023674898"
       y="-0.057436302"
       width="1.0473498"
       height="1.1148726">
      <feFlood
         id="feFlood4377-7-9-0-8-1"
         flood-opacity="1"
         flood-color="rgb(0,0,0)"
         result="flood" />
      <feComposite
         id="feComposite4379-3-8-8-2-77"
         in2="SourceGraphic"
         in="flood"
         operator="in"
         result="composite1" />
      <feMorphology
         id="feMorphology4393-1-0-49-8-9"
         operator="dilate"
         radius="3"
         result="result3" />
      <feComposite
         id="feComposite4385-9-5-7-0-8"
         in2="result3"
         in="SourceGraphic"
         operator="over"
         result="composite2" />
    </filter>
    <filter
       style="color-interpolation-filters:sRGB"
       id="filter4375-4-1-1-1-9-3"
       inkscape:label="deevad outline effect">
      <feFlood
         id="feFlood4377-7-9-0-8-1-6"
         flood-opacity="1"
         flood-color="rgb(146,62,33)"
         result="flood" />
      <feComposite
         id="feComposite4379-3-8-8-2-77-7"
         in2="SourceGraphic"
         in="flood"
         operator="in"
         result="composite1" />
      <feMorphology
         id="feMorphology4393-1-0-49-8-9-5"
         operator="dilate"
         radius="3"
         result="result3" />
      <feComposite
         id="feComposite4385-9-5-7-0-8-3"
         in2="result3"
         in="SourceGraphic"
         operator="over"
         result="composite2" />
    </filter>
  </defs>
  <sodipodi:namedview
     pagecolor="#ffffff"
     bordercolor="#666666"
     borderopacity="1"
     objecttolerance="10"
     gridtolerance="10"
     guidetolerance="10"
     inkscape:pageopacity="0"
     inkscape:pageshadow="2"
     inkscape:window-width="1920"
     inkscape:window-height="1012"
     id="namedview4"
     showgrid="false"
     inkscape:zoom="0.28284272"
     inkscape:cx="647.00269"
     inkscape:cy="1887.9751"
     inkscape:window-x="0"
     inkscape:window-y="0"
     inkscape:window-maximized="1"
     inkscape:current-layer="layer1"
     inkscape:document-rotation="0"
     inkscape:showpageshadow="0"
     inkscape:pagecheckerboard="0"
     inkscape:deskcolor="#d1d1d1" />
  <g
     inkscape:groupmode="layer"
     id="layer2"
     inkscape:label="artwork"
     sodipodi:insensitive="true">
    <image
       xlink:href="../gfx_Pepper-and-Carrot_by-David-Revoy_E23P03.png"
       width="2481"
       height="3503"
       id="image10"
       x="0"
       y="0" />
  </g>
  <g
     inkscape:groupmode="layer"
     id="layer3"
     inkscape:label="speechbubbles">
    <path
       style="fill:#ffffff;stroke:none;stroke-width:1.00456"
       d="m 152.70358,2934.915 c 1.03181,-112.2362 188.51949,-122.3158 273.11523,-123.8285 114.42319,-2.0461 340.3264,0.9401 396.69525,43.2727 85.63231,64.3094 52.47118,145.9541 22.65908,172.0665 -39.91649,34.9628 -124.28538,40.8121 -210.1724,54.5302 -106.64587,17.0339 -326.65232,4.5765 -378.86621,-16.2494 -53.11018,-21.1832 -104.46275,-17.5549 -103.43095,-129.7915 z"
       id="path3100"
       inkscape:connector-curvature="0"
       sodipodi:nodetypes="zsssssz" />
    <path
       style="color:#000000;display:inline;overflow:visible;visibility:visible;fill:#ffffff;fill-opacity:1;fill-rule:nonzero;stroke:none;stroke-width:1px;marker:none;enable-background:accumulate"
       d="m 843.98883,2956.7978 c 57.3052,17.7871 114.43744,34.6742 149.48328,-5.5841 -24.12635,56.7783 -126.22584,48.3612 -173.00855,34.6012 -39.73498,-11.6871 23.52527,-29.0171 23.52527,-29.0171 z"
       id="path4480"
       inkscape:connector-curvature="0"
       sodipodi:nodetypes="ccsc" />
    <path
       style="fill:#ffffff;stroke:none"
       d="m 607.23674,2758.8526 c -3.29257,57.1669 -65.15627,74.2662 -109.37763,75.5045 -75.12405,6.2705 -151.46632,1.1492 -225.16858,-15.2086 -47.66809,-14.5458 -72.06934,-87.342 -33.46239,-125.3753 39.76941,-29.8732 91.59217,-28.7665 138.00524,-35.5382 65.73716,-4.658 133.98296,-1.1401 196.09115,23.9189 27.71812,13.7956 37.83296,45.8336 33.91221,76.6987 z"
       id="path3100-2"
       inkscape:connector-curvature="0" />
    <path
       style="fill:#ffffff;stroke:none"
       d="m 131.7172,2635.0819 c -0.81018,-19.5115 25.33667,-73.4917 137.40271,-67.2812 112.06603,6.2106 146.64926,28.4362 149.09654,63.1409 3.87153,54.9018 -55.48808,68.2045 -140.31163,70.342 -87.4439,2.2035 -141.4054,-16.8507 -146.18762,-66.2017 z"
       id="path3280"
       inkscape:connector-curvature="0"
       sodipodi:nodetypes="csssc" />
  </g>
  <g
     inkscape:groupmode="layer"
     id="layer1"
     inkscape:label="txt">
    <text
       xml:space="preserve"
       style="font-style:normal;font-variant:normal;font-weight:normal;font-stretch:normal;line-height:0%;font-family:Lavi;-inkscape-font-specification:Lavi;text-align:center;letter-spacing:0px;word-spacing:0px;text-anchor:middle;fill:#000000;fill-opacity:1;stroke:#000000;stroke-width:0.5;stroke-miterlimit:4;stroke-dasharray:none;stroke-opacity:1"
       x="280.11404"
       y="2652.2388"
       id="text4246-3"><tspan
         sodipodi:role="line"
         style="font-size:49.6748px;line-height:1.25;stroke:#000000;stroke-width:0.5;stroke-miterlimit:4;stroke-dasharray:none;stroke-opacity:1"
         x="287.87573"
         y="2652.2388"
         id="tspan4167-3">¡Saludos! </tspan></text>
    <text
       xml:space="preserve"
       style="font-style:normal;font-variant:normal;font-weight:normal;font-stretch:normal;line-height:0%;font-family:Lavi;-inkscape-font-specification:Lavi;text-align:center;letter-spacing:0px;word-spacing:0px;text-anchor:middle;fill:#000000;fill-opacity:1;stroke:none"
       x="414.11102"
       y="2735.022"
       id="text4246-5"><tspan
         sodipodi:role="line"
         style="font-size:45px;line-height:1.25"
         x="414.11102"
         y="2735.022"
         id="tspan4167-1">Permítanme </tspan><tspan
         sodipodi:role="line"
         style="font-size:45px;line-height:1.25"
         x="421.14227"
         y="2791.272"
         id="tspan4241">presentarme: </tspan></text>
    <text
       xml:space="preserve"
       style="font-style:normal;font-variant:normal;font-weight:normal;font-stretch:normal;line-height:0%;font-family:Lavi;-inkscape-font-specification:Lavi;letter-spacing:0px;word-spacing:0px;fill:#000000;fill-opacity:1;stroke:#ffffff;stroke-width:2.246;stroke-miterlimit:4;stroke-dasharray:none;stroke-opacity:1;filter:url(#filter4375-4-1-1-1-9)"
       x="787.65729"
       y="1584.5073"
       id="text4580"
       transform="matrix(0.59080172,-0.79384316,0.23129973,1.313198,478.68923,-967.19282)"><tspan
         sodipodi:role="line"
         id="tspan4582"
         x="787.65729"
         y="1584.5073"
         style="font-size:70px;line-height:100%;letter-spacing:4.88345px;fill:#ffffff;stroke:#ffffff;stroke-width:2.246;stroke-miterlimit:4;stroke-dasharray:none;stroke-opacity:1"><tspan
           style="font-size:55.3496px;line-height:100%;letter-spacing:4.88345px;stroke:#ffffff;stroke-width:2.246;stroke-miterlimit:4;stroke-dasharray:none;stroke-opacity:1"
           id="tspan4439">¡B<tspan
   style="font-size:49.2453px;stroke-width:2.246"
   id="tspan4162">ong</tspan></tspan><tspan
           style="font-size:80.4001px;line-height:100%;letter-spacing:4.88345px;stroke:#ffffff;stroke-width:2.246;stroke-miterlimit:4;stroke-dasharray:none;stroke-opacity:1"
           id="tspan4617">!</tspan></tspan></text>
    <text
       xml:space="preserve"
       style="font-style:normal;font-variant:normal;font-weight:normal;font-stretch:normal;line-height:0%;font-family:Lavi;-inkscape-font-specification:Lavi;text-align:center;letter-spacing:0px;word-spacing:0px;text-anchor:middle;fill:#000000;fill-opacity:1;stroke:none"
       x="516.56061"
       y="2891.2078"
       id="text4246"><tspan
         sodipodi:role="line"
         style="font-size:45px;line-height:1.25"
         x="516.56061"
         y="2891.2078"
         id="tspan4230">¡soy el Genio del Éxito,</tspan><tspan
         sodipodi:role="line"
         style="font-size:45px;line-height:1.25"
         x="516.56061"
         y="2947.4578"
         id="tspan4179">a vuestro servicio las veinticuatro </tspan><tspan
         sodipodi:role="line"
         style="font-size:45px;line-height:1.25"
         x="516.56061"
         y="3003.7078"
         id="tspan3365">horas del día, los siete días</tspan><tspan
         sodipodi:role="line"
         style="font-size:45px;line-height:1.25"
         x="523.59186"
         y="3059.9578"
         id="tspan4167">de la semana!* </tspan></text>
  </g>
</svg>
