<?xml version="1.0" encoding="UTF-8" standalone="no"?>
<!-- Created with Inkscape (http://www.inkscape.org/) -->

<svg
   id="svg2"
   version="1.1"
   inkscape:version="1.1 (c68e22c387, 2021-05-23)"
   width="2481"
   height="3503"
   sodipodi:docname="E37P07.svg"
   xmlns:inkscape="http://www.inkscape.org/namespaces/inkscape"
   xmlns:sodipodi="http://sodipodi.sourceforge.net/DTD/sodipodi-0.dtd"
   xmlns:xlink="http://www.w3.org/1999/xlink"
   xmlns="http://www.w3.org/2000/svg"
   xmlns:svg="http://www.w3.org/2000/svg"
   xmlns:rdf="http://www.w3.org/1999/02/22-rdf-syntax-ns#"
   xmlns:cc="http://creativecommons.org/ns#"
   xmlns:dc="http://purl.org/dc/elements/1.1/">
  <metadata
     id="metadata8">
    <rdf:RDF>
      <cc:Work
         rdf:about="">
        <dc:format>image/svg+xml</dc:format>
        <dc:type
           rdf:resource="http://purl.org/dc/dcmitype/StillImage" />
        <dc:title />
      </cc:Work>
    </rdf:RDF>
  </metadata>
  <defs
     id="defs6">
    <filter
       style="color-interpolation-filters:sRGB"
       id="filter4375-4-1-1-1-9-6-9-2-1-5-4"
       inkscape:label="deevad outline effect"
       x="-0.007108724"
       y="-0.012620398"
       width="1.0142174"
       height="1.0252408">
      <feFlood
         id="feFlood4377-7-9-0-8-1-0-2-2-06-5-3"
         flood-opacity="1"
         flood-color="rgb(0,0,0)"
         result="flood" />
      <feComposite
         id="feComposite4379-3-8-8-2-77-6-0-8-3-8-64"
         in2="SourceGraphic"
         in="flood"
         operator="in"
         result="composite1" />
      <feMorphology
         id="feMorphology4393-1-0-49-8-9-2-2-9-2-7-3"
         operator="dilate"
         radius="4"
         result="result3" />
      <feComposite
         id="feComposite4385-9-5-7-0-8-6-3-7-0-1-1"
         in2="result3"
         in="SourceGraphic"
         operator="over"
         result="composite2" />
    </filter>
  </defs>
  <sodipodi:namedview
     pagecolor="#ffffff"
     bordercolor="#666666"
     borderopacity="1"
     objecttolerance="10"
     gridtolerance="10"
     guidetolerance="10"
     inkscape:pageopacity="0"
     inkscape:pageshadow="2"
     inkscape:window-width="1366"
     inkscape:window-height="745"
     id="namedview4"
     showgrid="false"
     inkscape:zoom="0.56568545"
     inkscape:cx="1847.3164"
     inkscape:cy="3087.4048"
     inkscape:window-x="-8"
     inkscape:window-y="-8"
     inkscape:window-maximized="1"
     inkscape:current-layer="layer3"
     inkscape:pagecheckerboard="0"
     inkscape:showpageshadow="0"
     inkscape:deskcolor="#d1d1d1" />
  <g
     inkscape:groupmode="layer"
     id="layer2"
     inkscape:label="artwork"
     sodipodi:insensitive="true">
    <image
       xlink:href="../gfx_Pepper-and-Carrot_by-David-Revoy_E37P07.png"
       y="0"
       x="0"
       id="image10"
       height="3503"
       width="2481" />
  </g>
  <g
     inkscape:groupmode="layer"
     id="layer3"
     inkscape:label="speechbubbles">
    <path
       style="display:inline;fill:#ffffff;fill-rule:evenodd;stroke:none;stroke-width:1.11956px;stroke-linecap:butt;stroke-linejoin:miter;stroke-opacity:1"
       d="m 1921.7927,1520.1844 c -35.9251,-2.1925 -88.0218,13.4421 -57.8055,58.5611 -65.9732,-29.567 -202.9817,-48.1547 -224.7658,1.0987 -3.6662,-60.2413 -39.3862,-51.5044 -75.8826,-36.998 34.734,-24.7327 6.7781,-21.3252 -27.4203,-21.8573 70.8688,-53.3939 32.4763,-68.9295 3.4743,-87.7194 71.4105,12.7179 53.4447,-16.055 61.4812,-32.7562 61.9363,35.9406 106.0033,26.017 140.0668,-9.5823 18.8186,18.4744 37.9966,71.5598 103.8608,9.8865 -23.4149,52.4495 0.1289,53.3055 52.1044,26.4921 -7.7763,17.8595 -59.6427,24.6718 22.9129,19.8911 -51.1595,18.0168 -61.3678,41.0217 1.9738,72.9837 z"
       id="path4584-8"
       inkscape:connector-curvature="0"
       sodipodi:nodetypes="cccccccccccc" />
    <path
       style="display:inline;fill:#ffffff;fill-rule:evenodd;stroke:none;stroke-width:1.11956px;stroke-linecap:butt;stroke-linejoin:miter;stroke-opacity:1"
       d="m 2143.5568,1510.4173 c -35.9251,-2.1925 -88.0218,13.4421 -57.8055,58.5611 -65.9732,-29.567 -222.4271,-49.9225 -244.2112,-0.6691 -3.6662,-60.2413 -28.7796,-33.8267 -65.276,-19.3203 34.734,-24.7327 15.6169,-37.2351 -18.5815,-37.7672 70.8688,-53.3939 32.4763,-68.9295 3.4743,-87.7194 71.4105,12.7179 53.4447,-16.055 61.4812,-32.7562 61.9363,35.9406 106.0033,26.017 140.0668,-9.5823 18.8186,18.4744 25.6222,57.4177 91.4864,-4.2556 -23.4149,52.4495 8.9678,46.2344 60.9433,19.421 -7.7763,17.8595 -56.1072,45.885 26.4484,41.1043 -51.1595,18.0168 -61.3678,41.0217 1.9738,72.9837 z"
       id="path4584-8-1"
       inkscape:connector-curvature="0"
       sodipodi:nodetypes="cccccccccccc" />
    <path
       style="fill:#ffffff;stroke:none;stroke-width:0.987614"
       d="m 1644.3359,1547.2051 c -49.801,1.1621 -101.3235,11.6742 -142.504,41.0827 -30.9028,26.2001 -40.5175,71.1487 -30.8675,109.4431 7.4706,31.1828 31.3052,57.0123 60.6082,69.3402 42.8509,20.4039 91.3147,22.0018 137.9056,22.7787 50.6854,0.4308 101.4554,0.4345 152.0371,-3.1518 37.9406,-3.4927 76.9077,-10.3668 110.0228,-30.2059 29.2547,-21.8961 40.716,-60.7231 38.1025,-96.0194 -2.4716,-37.5318 -25.9117,-72.8023 -59.7152,-89.3911 -38.3119,-21.053 -83.2646,-24.0865 -126.1077,-22.7236 -42.3392,0.877 -84.6946,0.4099 -127.0105,-1.1286 -4.1569,-0.059 -8.3142,-0.055 -12.4713,-0.024 z"
       id="path3280-8-0-3"
       inkscape:connector-curvature="0"
       sodipodi:nodetypes="csssc" />
    <path
       style="fill:#ffffff;fill-rule:evenodd;stroke:none;stroke-width:1px;stroke-linecap:butt;stroke-linejoin:miter;stroke-opacity:1"
       d="m 1918.6061,1746.1574 c 19.1204,15.4627 39.0722,32.1803 63.6123,29.0086 -15.036,6.0295 -43.8148,9.8246 -66.282,-5.5838 -35.0644,-24.0476 0.2146,-23.9396 0.2146,-23.9396 z"
       id="path4248"
       inkscape:connector-curvature="0"
       sodipodi:nodetypes="ccscc" />
    <path
       style="fill:#ffffff;fill-rule:evenodd;stroke:none;stroke-width:0.84259px;stroke-linecap:butt;stroke-linejoin:miter;stroke-opacity:1"
       d="m 209.18843,2520.692 c 13.91687,18.6091 30.69058,26.056 55.768,1.0613 20.456,6.0403 20.31799,24.7701 87.33472,2.1218 -38.46395,28.588 -22.32998,30.9026 0,30.236 -32.44044,37.0364 -4.7759,31.2953 7.36561,36.6022 -39.75751,22.3704 -34.5481,32.8673 -15.78336,39.7846 -13.40496,13.5521 -22.77006,26.6965 5.26103,36.0712 -21.92211,3.6978 -52.96264,2.0329 -43.14122,24.4014 -34.8096,-14.1518 -59.10343,-10.2794 -79.96913,-0.5309 -18.00279,-12.9686 -32.62185,-29.3494 -83.12584,-9.548 27.96981,-21.9401 16.90362,-32.9472 -5.26117,-40.8458 41.64075,-21.2391 9.13426,-28.6347 -23.14898,-36.0712 58.36414,-2.5541 41.77684,-26.0994 26.30571,-49.3332 27.32733,4.6669 54.75149,9.6745 68.39463,-33.9494 z"
       id="path4489"
       inkscape:connector-curvature="0"
       sodipodi:nodetypes="cccccccccccccc" />
    <path
       style="color:#000000;display:inline;overflow:visible;visibility:visible;fill:#ffffff;fill-opacity:1;fill-rule:nonzero;stroke:none;stroke-width:1px;marker:none;enable-background:accumulate"
       d="m 194.15137,2627.0953 c 14.3116,13.119 20.5898,27.322 21.7824,31.497 1.1926,4.174 -2.1039,30.52 2.0703,35.291 4.1742,4.77 19.6785,5.366 21.4675,8.944 1.7889,3.578 -3.5779,22.064 0,25.642 3.5779,3.578 28.6232,13.119 29.8159,16.101 1.1926,2.981 7.7521,19.082 19.6784,31.604 -11.33,-31.604 -7.7521,-38.164 -11.9263,-42.934 -4.1742,-4.771 -15.9274,-10.181 -18.3127,-15.548 -2.3853,-5.367 6.711,-25.728 0.086,-28.027 -4.7705,-4.77 -19.8083,-10.267 -19.8083,-10.267 4.1743,-4.771 18.356,-27.854 -1.3225,-55.881 -19.6785,-28.027 -43.5312,3.578 -43.5312,3.578 z"
       id="path5050-8"
       inkscape:connector-curvature="0"
       sodipodi:nodetypes="csccscccccccc" />
    <path
       style="color:#000000;display:inline;overflow:visible;visibility:visible;fill:#ffffff;fill-opacity:1;fill-rule:nonzero;stroke:none;stroke-width:0.931441px;marker:none;enable-background:accumulate"
       d="m 1046.0995,2670.8019 c 2.2873,-32.4023 44.4638,-54.1083 148.2526,-48.4217 55.5947,3.0466 118.6766,4.9398 115.9699,52.4044 -2.7068,47.4647 -93.3212,46.6002 -111.9876,47.7833 -18.6663,1.1831 -116.7116,-0.3151 -134.2209,-16.3885 -10.9604,-10.0618 -18.0225,-25.3447 -18.014,-35.3775 z"
       id="path4546-6-89"
       inkscape:connector-curvature="0"
       sodipodi:nodetypes="cssssc" />
    <path
       style="color:#000000;display:inline;overflow:visible;visibility:visible;fill:#ffffff;fill-opacity:1;fill-rule:nonzero;stroke:none;stroke-width:1px;marker:none;enable-background:accumulate"
       d="m 1112.3939,2658.8111 c -36.5658,59.4022 -50.7173,145.4159 26.0841,179.4136 -60.0157,-38.5902 -23.0543,-135.4959 8.3656,-161.6817 21.2953,-14.4935 -34.4497,-17.7319 -34.4497,-17.7319 z"
       id="path3978-4"
       inkscape:connector-curvature="0"
       sodipodi:nodetypes="cccc" />
    <path
       style="color:#000000;display:inline;overflow:visible;visibility:visible;fill:#ffffff;fill-opacity:1;fill-rule:nonzero;stroke:none;stroke-width:1.69256px;marker:none;enable-background:accumulate"
       d="m 259.53916,827.03615 c -53.02557,0.97742 -106.71598,5.72739 -157.20867,22.57106 -30.755874,10.08691 -57.543574,31.61628 -73.509608,59.33441 -6.423462,14.18608 -6.075977,30.02322 -8.414281,45.10562 -1.638643,17.58227 1.687417,36.45858 13.337987,50.42266 14.535811,18.7597 35.226158,31.619 55.899683,42.9704 27.531779,14.1333 58.433139,20.7635 89.251349,22.9277 47.14699,5.424 94.81663,7.4891 142.18819,3.7811 28.30189,-2.033 56.76536,-4.6551 84.28226,-11.7673 15.97335,-4.1637 31.06918,-10.9626 45.44203,-18.8892 14.45602,-7.9208 28.67304,-16.4204 41.72085,-26.4498 17.08774,-13.9381 30.20615,-33.51411 33.05645,-55.44391 4.87408,-31.00456 -7.6809,-64.52501 -33.23869,-83.74013 -26.29389,-21.81902 -59.79808,-32.8221 -92.9805,-39.82018 -45.86355,-9.79844 -93.05355,-11.34543 -139.82705,-11.00243 z"
       id="path3365-9"
       inkscape:connector-curvature="0"
       sodipodi:nodetypes="csszcsc"
       inkscape:transform-center-x="-458.17804"
       inkscape:transform-center-y="149.04249" />
    <path
       style="fill:#ffffff;fill-rule:evenodd;stroke:none;stroke-width:0.977223px;stroke-linecap:butt;stroke-linejoin:miter;stroke-opacity:1"
       d="m 1104.6778,920.64705 c 8.668,-65.50225 80.129,-92.81872 156.1733,-86.01322 35.6447,3.18999 95.1971,-3.04759 114.5504,11.64251 21.9351,16.64965 4.1454,62.88484 4.872,82.82731 0.2956,31.1419 -9.5819,78.95915 -87.8018,88.82865 -78.22,9.8696 -194.7545,-2.882 -187.7939,-97.28525 z"
       id="path912"
       inkscape:connector-curvature="0"
       sodipodi:nodetypes="csscsc" />
    <path
       style="color:#000000;display:inline;overflow:visible;visibility:visible;fill:#ffffff;fill-opacity:1;fill-rule:nonzero;stroke:none;stroke-width:0.989872px;marker:none;enable-background:accumulate"
       d="m 473.4959,1110.2215 c -40.3937,1.8691 -54.77121,0.1547 -74.36032,-43.9141 -19.5892,-44.0678 -35.24613,-35.3212 -35.24613,-35.3212 l -26.14855,14.5263 c 0,0 69.82372,109.5525 135.755,64.709 z"
       id="path3072-5-5"
       inkscape:connector-curvature="0"
       sodipodi:nodetypes="ccccc" />
    <path
       style="color:#000000;display:inline;overflow:visible;visibility:visible;fill:#ffffff;fill-opacity:1;fill-rule:nonzero;stroke:none;stroke-width:1.18666px;marker:none;enable-background:accumulate"
       d="m 1238.4789,978.3037 c 6.1098,35.65 -0.6324,117.9014 -118.1167,120.6282 67.0346,-18.7772 84.3388,-47.5207 79.194,-93.2904 -3.3137,-29.47951 9.6095,-29.94973 9.6095,-29.94973 z"
       id="path4440-1"
       inkscape:connector-curvature="0"
       sodipodi:nodetypes="ccscc" />
    <path
       style="display:inline;fill:#ffffff;fill-rule:evenodd;stroke:none;stroke-width:1.01877px;stroke-linecap:butt;stroke-linejoin:miter;stroke-opacity:1"
       d="m 1585.1681,834.10016 c 26.3605,1.43741 22.5722,30.2986 -7.7879,32.52833 28.0864,11.07394 20.719,16.55772 5.0825,20.73654 30.1077,49.96334 14.4282,78.92487 -2.3285,107.39244 43.0121,-10.29071 40.2449,15.90833 47.5031,34.11683 15.0142,-33.93418 15.6457,-11.3404 12.2643,27.0265 16.9832,-44.0327 23.998,-47.0666 21.9255,-12.7143 13.6687,-27.6181 26.8834,-37.5698 39.5761,-27.2159 31.5935,-24.19393 50.6906,-7.4248 36.1982,25.824 35.7363,-36.4952 44.1511,-36.5499 49.0609,-15.3076 5.9072,-15.7172 10.2227,-38.49762 30.4914,-1.4653 5.4474,-43.91327 14.4338,-6.6044 21.1914,-0.9801 3.3136,-42.1807 47.9092,-24.67207 51.3068,-5.0224 -2.3606,-8.6471 -1.8865,-18.0901 1.9332,-28.47237 -3.4945,-14.95333 -3.0232,-30.00482 -0.4686,-45.10804 -3.7153,-26.67646 1.3753,-47.64662 4.2686,-70.04025 -4.8014,8.79645 -8.0169,-36.83532 -7.7937,-39.40497 -7.6052,1.71777 -51.138,-0.36731 -44.1109,-1.28703 -35.0113,2.22104 -27.5902,0.137 -32.8049,-0.66509 -76.0477,-8.26292 -75.0416,-0.48864 -86.6808,-2.19083 -15.965,3.40129 -28.7159,1.98864 -41.4539,0.55613 -7.4728,2.90754 -15.0766,2.0104 -22.6779,1.19283 -4.7376,1.24643 -15.4245,1.56075 -34.1327,0.61834 12.1542,1.10599 2.3884,1.23425 -40.5622,-0.11776 z"
       id="path4289-9"
       inkscape:connector-curvature="0"
       sodipodi:nodetypes="cccccccccccccccccccccccc" />
    <path
       style="color:#000000;display:inline;overflow:visible;visibility:visible;fill:#ffffff;fill-opacity:1;fill-rule:nonzero;stroke:none;stroke-width:1px;marker:none;enable-background:accumulate"
       d="m 1669.8183,1095.0591 c 52.9673,-34.0351 71.8625,-58.8898 88.416,-83.1049 7.7887,-11.3942 -22.5092,-17.40291 -22.5092,-17.40291 l -11.5344,24.88391 c 0,0 -12.622,41.2034 -54.3724,75.6239 z"
       id="path4000-2"
       inkscape:connector-curvature="0"
       sodipodi:nodetypes="csccc"
       inkscape:transform-center-x="-308.61774"
       inkscape:transform-center-y="-55.962808" />
    <path
       style="color:#000000;display:inline;overflow:visible;visibility:visible;fill:#ffffff;fill-opacity:1;fill-rule:nonzero;stroke:none;stroke-width:0.999997px;marker:none;enable-background:accumulate"
       d="m 2170.571,904.03926 c -16.097,3.14561 -32.5505,0.63413 -48.5155,5.35703 -11.3625,2.8156 -23.0725,5.10696 -34.547,2.86631 -8.1132,-1.11144 -16.807,0.059 -23.9449,5.61905 -10.0322,7.00839 -18.9445,16.38853 -26.7544,26.89538 -3.7625,5.46121 -7.1464,12.047 -7.3094,19.38683 0.1042,7.51594 3.6049,14.13124 7.8204,19.0879 8.4216,10.81727 20.278,16.84734 32.3315,18.18114 13.7213,2.5717 26.8288,9.1178 40.8267,9.7192 7.6773,0.1317 15.3467,-2.7831 22.999,-1.4161 5.847,1.0945 11.1207,4.5286 16.7345,6.5683 5.0172,1.6681 10.4834,1.6242 15.4368,-0.7077 6.3114,-2.3847 12.8172,-5.4223 19.4661,-4.2908 10.9798,1.0722 22.0479,-0.066 32.981,-1.9702 7.7524,-1.0714 15.7863,-1.4755 23.0472,-5.5698 8.8534,-6.5439 15.9266,-16.04456 23.4684,-24.64025 3.36,-4.33179 5.9584,-10.43444 4.9524,-16.51588 -0.9425,-7.09545 -5.1529,-12.71634 -9.9645,-16.22189 -8.9141,-8.19555 -17.8014,-16.59216 -25.3674,-26.72066 -5.7145,-5.42411 -13.3094,-6.50281 -20.3659,-5.76243 -10.1415,0.41892 -20.1934,-2.16947 -29.572,-6.60063 -4.4558,-1.66413 -9.0224,-3.11542 -13.723,-3.2648 z"
       id="path3365-8"
       inkscape:connector-curvature="0"
       sodipodi:nodetypes="cssccsc" />
    <path
       style="display:inline;fill:#ffffff;fill-opacity:1;fill-rule:evenodd;stroke:none;stroke-width:1px;stroke-linecap:butt;stroke-linejoin:miter;stroke-opacity:1"
       d="m 2214.3795,960.14643 c -1.4297,8.459 7.6905,12.502 13.3057,16.588 7.0937,5.072 5.0374,15.927 -2.8535,18.922 -6.6614,2.438 -9.0687,9.33897 -9.5278,15.82497 0.6979,7.757 3.662,13.46 2.8543,19.998 0.7758,9.959 11.0423,12.466 10.1091,22.941 -0.9566,6.951 -5.9088,9.739 -12.2778,13.752 2.1992,4.9978 -11.1367,21.6776 -16.8896,25.4794 7.8261,-4.4494 22.2841,-11.4819 25.4378,-21.2415 12.9454,-6.0505 22.9576,-18.2077 12.7096,-32.1719 -7.4268,-8.207 -10.2366,-22.295 -1.8919,-30.861 6.0058,-4.627 13.7043,-10.08597 12.902,-18.73797 -2.3975,-11.731 -3.0261,-25.609 -12.9899,-33.83 -5.6468,-3.884 -8.5965,-13.223 -16.3596,-12.996 -6.7189,2.442 -5.6829,10.787 -4.5284,16.333 z"
       id="path4396-1"
       inkscape:connector-curvature="0"
       sodipodi:nodetypes="ccccccccccccccc" />
    <path
       style="color:#000000;display:inline;overflow:visible;visibility:visible;fill:#ffffff;fill-opacity:1;fill-rule:nonzero;stroke:none;stroke-width:0.58297px;marker:none;enable-background:accumulate"
       d="m 1925.1424,869.40511 c 9.7784,-12.51422 117.4695,-21.42748 145.3353,6.87679 19.4198,19.72576 18.3957,55.40763 1.7504,65.25521 -16.6451,9.84672 -97.0072,12.61998 -119.8474,7.60573 -20.5392,-4.50995 -42.0981,-14.21594 -43.2348,-40.05023 -0.4639,-10.54418 6.218,-27.17241 15.9965,-39.6875 z"
       id="path4040-3"
       inkscape:connector-curvature="0"
       sodipodi:nodetypes="zssssz" />
    <path
       style="color:#000000;display:inline;overflow:visible;visibility:visible;fill:#ffffff;fill-opacity:1;fill-rule:nonzero;stroke:none;stroke-width:1.0212px;marker:none;enable-background:accumulate"
       d="m 176.85308,1379.8767 c -6.89345,24.314 -45.77403,26.3529 -60.08704,21.4114 28.85162,27.2004 27.84583,44.1006 -11.32675,46.7242 65.69301,49.023 12.00959,41.6049 1.42095,54.0355 51.58121,16.8949 28.50319,37.9196 19.31992,58.8502 59.28751,0.7194 39.88543,34.2706 42.3843,60.9912 5.02615,-12.5383 28.90382,-50.7126 30.34049,-8.2089 39.21525,-40.55 86.44893,-66.7436 90.1995,4.2203 15.80045,-35.7003 43.0661,-50.2858 41.85327,-7.7067 39.14851,-55.3803 62.81624,-35.9478 98.20522,-20.2953 -9.50071,-20.0809 -29.51181,-49.5367 40.44831,-36.3768 -38.91854,-23.6587 -8.64623,-30.9155 11.84139,-36.0393 -16.56555,-10.0078 -19.61851,-20.331 11.13998,-31.4395 -23.40545,-1.0753 -45.23118,-3.2771 -17.77148,-41.1617 -8.61489,-0.9176 -41.98136,32.0157 -24.45328,-60.4998 -27.24691,29.6177 -56.31696,45.964 -92.77343,-16.0771 -17.25298,30.9951 -47.17791,46.3321 -60.19686,7.6174 -4.67919,16.504 -24.08181,22.7118 -40.55324,23.4638 -6.36954,-6.5556 -12.93899,-15.4598 -19.79438,-27.1263 -11.20477,24.4961 -27.96582,41.0404 -60.19687,7.6174 z"
       id="path3549-3-7-3"
       inkscape:connector-curvature="0"
       sodipodi:nodetypes="cccccccccccccccccccc" />
    <path
       style="color:#000000;display:inline;overflow:visible;visibility:visible;fill:#ffffff;fill-opacity:1;fill-rule:nonzero;stroke:none;stroke-width:1px;marker:none;enable-background:accumulate"
       d="m 287.3927,1556.3317 c -6.75576,12.853 -43.26253,45.4194 -53.2553,55.6175 4.16934,1.1193 18.49163,-0.6612 23.70885,-0.424 -28.18696,30.3633 -75.14135,49.9921 -114.1922,49.1115 24.25327,-6.1985 48.19266,-15.9707 67.33595,-32.4693 1.27157,-1.27 2.94318,-2.2742 3.93941,-3.7153 0.44585,-1.5091 -1.22772,-1.1492 -2.12241,-1.2189 -6.48954,-0.5288 -13.00655,-0.3703 -19.51056,-0.3998 15.86642,-14.3214 47.17809,-46.8583 52.52599,-64.6698 4.97614,-0.092 37.13148,-4.0317 41.79442,-2.4536 3.48254,-1.6486 2.08311,1.2448 2.00837,1.4519 z"
       id="path5066-7"
       inkscape:connector-curvature="0"
       sodipodi:nodetypes="cccccccccccc" />
    <path
       style="fill:#ffffff;fill-rule:evenodd;stroke:none;stroke-width:1px;stroke-linecap:butt;stroke-linejoin:miter;stroke-opacity:1"
       d="m 157.8069,2096.6973 c 7.4959,18.2948 15.02654,35.498 39.34133,-13.5676 -2.74445,14.6793 0.45019,39.1305 36.25433,16.6856 -20.31902,28.0034 -11.79607,30.2706 0,29.6177 -17.13704,36.279 -2.52293,30.6553 3.89097,35.8536 -21.00237,21.913 -18.25044,32.1952 -8.33775,38.971 -7.08132,13.275 -12.02854,26.1506 2.7792,35.3336 -11.5806,3.6221 -27.97812,1.9913 -22.78984,23.9024 -18.38857,-13.8625 -31.22207,-10.0693 -42.24461,-0.5201 -9.51018,-12.7034 -17.23287,-28.7492 -43.91219,-9.3527 14.77538,-21.4914 8.92954,-32.2734 -2.77927,-40.0105 21.99721,-20.8048 4.82528,-28.0492 -12.22871,-35.3336 30.83153,-2.5019 22.0691,-25.5657 13.89629,-48.3243 14.43598,4.5714 28.92311,9.4767 36.13025,-33.2551 z"
       id="path4489-0"
       inkscape:connector-curvature="0"
       sodipodi:nodetypes="cccccccccccccc" />
    <path
       style="fill:#ffffff;stroke:none;stroke-width:0.999995"
       d="m 1347.8547,1371.5877 c -15.3068,6.381 -31.4764,10.8062 -48.6199,9.5819 -4.1809,0.096 -8.3546,0.3094 -12.3643,1.2285 -7.3377,7.8856 -11.104,20.8381 -12.6889,34.4348 -2.9506,15.7614 -6.1404,31.3768 -8.4536,47.5502 1.9234,23.5788 16.906,47.7214 33.4543,53.9051 14.7837,3.4522 29.7936,6.2884 44.4671,15.1086 10.4453,5.5146 21.5155,8.4292 31.1724,5.1687 14.7632,-3.5956 29.078,-9.7364 44.9579,-8.3517 19.5233,2.4448 39.5131,14.462 58.8819,14.736 13.3145,0.2322 25.4006,-5.0887 36.9955,-10.9974 9.2601,-3.4326 19.7161,-1.591 29.8842,0.4494 9.5769,0.5818 17.6466,-6.2876 22.3054,-16.4907 7.5707,-14.0324 12.0107,-32.3818 10.8072,-52.476 -1.4494,-19.4629 -7.9003,-40.3688 -19.0703,-55.51 -7.9287,-11.0029 -18.5339,-17.1811 -28.2007,-17.4812 -13.3147,-1.7593 -26.7977,-2.261 -40.2765,-9.3256 -16.8545,-8.4096 -34.3719,-12.7802 -50.3443,-9.4822 -16.6561,2.5618 -33.4973,5.5091 -51.2029,1.5967 -12.1297,-2.3276 -24.3358,-5.2065 -36.2984,-5.7133 -1.802,0.6894 -3.604,1.3788 -5.4061,2.0682 z"
       id="path3280-1"
       inkscape:connector-curvature="0"
       sodipodi:nodetypes="csssc" />
    <path
       style="fill:#ffffff;fill-opacity:1;stroke:none;stroke-width:0.930848"
       d="m 590.96121,1507.8707 c 22.6397,3.266 28.68959,13.3151 5.07212,21.2282 29.6562,5.2447 8.48765,35.6406 -0.61481,38.773 13.58653,-3.6776 25.82265,3.7373 25.82265,3.7373 3.64232,4.978 -15.39718,30.7955 -14.37063,31.3114 2.09114,0.482 14.49958,-1.7418 16.63693,0.4454 2.13735,2.1883 -17.74237,35.4546 -14.94394,36.4762 2.79855,1.0226 65.87,-23.2307 75.00346,-18.4888 9.13358,4.742 -1.70053,25.2387 1.08259,25.6919 2.78293,0.4531 34.63666,-11.2431 38.11175,-10.8188 3.47482,0.4244 1.25314,22.7487 4.72814,23.173 3.47508,0.4244 28.08464,-13.7267 30.86767,-13.2735 2.78311,0.4531 1.78421,14.7226 5.25921,15.1469 3.47509,0.4243 18.35844,-12.7149 20.44967,-12.2331 2.09105,0.4819 10.4724,28.5887 13.97811,30.1496 3.50588,1.5612 24.75397,-32.3312 26.81441,-32.9861 2.0602,-0.6559 16.26947,38.0219 19.05259,38.4749 2.7831,0.4531 15.88212,-27.4098 17.97336,-26.9279 2.09113,0.482 15.66883,15.8527 18.46726,16.874 2.79851,1.0217 19.80278,-36.1094 22.57041,-36.2245 2.7678,-0.1153 26.70886,14.2538 28.86163,17.0092 2.15287,2.7566 3.75108,-14.953 6.5187,-15.0683 2.7677,-0.1151 34.87327,8.7928 35.54999,8.1955 0.67642,-0.5971 -5.1517,-11.1681 -3.07596,-11.2545 2.0758,-0.087 34.98108,12.7711 36.28808,9.8717 -3.848,-21.6284 73.9246,2.1927 75.7426,8.798 0,0 -32.3994,-45.3186 -29.0323,-48.8741 3.3672,-3.5543 15.9299,-0.094 16.5756,-1.8282 0.6455,-1.7339 -7.8576,-8.7782 -5.8436,-11.1382 2.0142,-2.3612 25.293,-12.4358 27.2918,-15.3642 1.9987,-2.9293 -10.6561,-9.8009 -7.9347,-11.6212 -4.4257,-5.4922 39.3331,-19.5221 43.8672,-17.1935 -2.1532,0.6398 -25.4196,-14.3685 -18.5444,-19.7148 2.66,-4.0952 5.7382,-5.7519 9.4559,-8.9314 -3.9528,-1.2648 -14.008,-5.6772 -13.393,-8.5478 0.6151,-2.8707 7.1491,-17.3717 9.1632,-19.7316 2.0143,-2.36 -14.5612,-0.5318 -14.6226,-2.8053 -0.062,-2.2747 0.2353,-36.4704 24.2577,-58.154 -13.4479,4.8824 -49.8707,9.0421 -49.8707,9.0421 l 8.1683,-19.6772 c 0,0 -30.4814,18.4644 -42.1552,16.6356 -22.9568,-3.5964 -18.2375,-33.9567 -18.2375,-33.9567 0,0 -27.18062,14.9941 -30.74797,11.1596 -3.56749,-3.8359 -8.51516,-11.2159 -9.5376,-15.1736 -1.8292,2.5099 -18.25059,16.6948 -21.72549,16.2705 -10.47695,2.05 -39.72152,-23.0064 -41.53187,-24.4504 -9.12643,9.1762 -19.22906,16.6889 -25.34495,17.2776 -3.17711,1.194 -13.71628,-12.9389 -13.46416,-17.9378 -1.51706,4.1637 -19.81659,19.7295 -24.02955,17.6471 -3.49052,-0.994 -11.80221,-10.9491 -14.7316,-14.6337 -3.48444,7.4022 -12.71459,17.609 -12.71459,17.609 0,0 -24.44986,-6.9534 -30.302,-22.0415 -2.84856,16.5387 -16.44274,32.2573 -19.87163,33.538 -3.4288,1.2808 -54.68673,-30.9505 -52.70338,-34.4472 -0.329,18.1619 -3.20739,33.1774 -7.7893,34.0318 -4.79714,1.908 -42.71061,-33.7947 -44.04809,-32.0318 -1.33777,1.7626 4.24586,34.2875 0.1097,35.0288 -4.13608,0.7412 -11.87987,-2.596 -11.87987,-2.596 l -0.40534,9.3678 c 0,0 -34.42246,-34.1471 -37.97456,-37.4132 -3.55193,-3.2674 10.98539,34.8754 13.18436,39.3372 -12.57776,-4.0297 -32.9552,-16.4543 -35.79976,-19.1821 -2.4384,-2.7966 12.53111,30.1442 10.80585,34.9812 -5.09765,7.2029 -24.59753,1.2477 -24.62247,0.8003 l 16.28388,12.9808 c 4.7335,4.5806 4.87336,3.8552 5.81256,10.0016 3.87553,13.2063 -19.67174,24.7903 -16.28944,21.0925 26.99703,7.4491 23.30461,6.9176 -1.67442,12.5633 z"
       id="path5888-3"
       inkscape:connector-curvature="0"
       sodipodi:nodetypes="cccccccsscccccccsccscscsccscccccccccscccscsccccccccccccccccscccccccc" />
    <path
       style="color:#000000;display:inline;overflow:visible;visibility:visible;fill:#ffffff;fill-opacity:1;fill-rule:nonzero;stroke:none;stroke-width:1px;marker:none;enable-background:accumulate"
       d="m 1032.7385,2506.0538 c -7.0167,15.6506 -46.59208,16.9629 -61.16088,13.7817 29.36728,17.508 28.3435,28.3861 -11.52901,30.075 66.86699,31.5541 12.22415,26.7792 1.44622,34.7804 52.50307,10.8742 29.01265,24.4075 19.66527,37.8796 60.3469,0.4628 40.5981,22.0581 43.1416,39.2574 5.116,-8.0707 29.4206,-32.6414 30.883,-5.2836 39.9161,-26.1008 87.9938,-42.9607 91.8113,2.7159 16.083,-22.9786 32.1173,-32.6903 30.883,-5.2835 39.8482,-35.6461 75.6572,-22.8152 111.6787,-12.7403 9.4607,-10.7588 10.5632,-27.2874 41.1711,-23.414 -4.2915,-10.6639 6.043,-17.9942 29.3819,-22.3473 -31.0136,-6.4418 -36.7293,-13.0863 20.8559,-20.2368 -43.8191,-0.6917 -84.6806,-2.1087 -33.2713,-26.4941 -16.1285,-0.5901 -54.395,19.7578 -36.5538,-39.7907 -27.7338,19.0635 -57.3233,29.5852 -94.4312,-10.348 -17.5615,19.9499 -48.0213,29.8219 -61.2729,4.9029 -4.7628,10.6234 -24.5122,14.6187 -41.278,15.1032 -6.4833,-4.2198 -13.1701,-9.9514 -20.148,-17.4607 -11.405,15.7675 -28.4656,26.4162 -61.2729,4.9029 z"
       id="path3549-3-7"
       inkscape:connector-curvature="0"
       sodipodi:nodetypes="cccccccccccccccccccc" />
    <path
       style="color:#000000;display:inline;overflow:visible;visibility:visible;fill:#ffffff;fill-opacity:1;fill-rule:nonzero;stroke:none;stroke-width:0.999999px;marker:none;enable-background:accumulate"
       d="m 816.63784,1756.6297 c -53.77145,-23.5695 -66.64315,-43.3978 -72.53669,-59.3997 4.92832,-2.8264 19.90718,-12.2286 19.90718,-12.2286 -16.13101,-13.5035 -22.74289,-67.3125 -10.60035,-69.1694 13.12461,-2.0071 37.10425,-0.6792 37.10425,-0.6792 -15.10667,5.504 -31.61267,72.6481 3.53791,74.6731 -13.86907,7.2537 -15.94917,12.9369 -22.14538,13.688 0.0252,10.0268 26.00335,44.2425 44.73308,53.1158 z"
       id="path4456-3"
       inkscape:connector-curvature="0"
       sodipodi:nodetypes="cccscccc" />
    <path
       style="fill:#ffffff;fill-rule:evenodd;stroke:none;stroke-width:1px;stroke-linecap:butt;stroke-linejoin:miter;stroke-opacity:1"
       d="m 167.70136,2121.0977 c -3.69503,-24.293 -4.22495,-65.7807 10.34503,-85.4357 -12.3556,9.997 -31.21448,52.6878 -29.1892,79.8508 3.16086,42.393 20.17148,17.9256 20.17148,17.9256 z"
       id="path4248-7"
       inkscape:connector-curvature="0"
       sodipodi:nodetypes="ccscc" />
  </g>
  <g
     inkscape:groupmode="layer"
     id="layer1"
     inkscape:label="txt">
    <text
       xml:space="preserve"
       style="font-style:normal;font-variant:normal;font-weight:normal;font-stretch:normal;font-size:45.3333px;line-height:125%;font-family:Lavi;-inkscape-font-specification:Lavi;text-align:center;letter-spacing:0px;word-spacing:0px;text-anchor:middle;fill:#000000;fill-opacity:1;stroke:none"
       x="300.20328"
       y="915.61249"
       id="text4246-70-2-2-2-7-4-9-9-6-1-2-3-9-2-7-9-3"><tspan
         sodipodi:role="line"
         style="font-size:45.3333px"
         x="300.20328"
         y="915.61249"
         id="tspan2829">aaa! o pali, </tspan><tspan
         sodipodi:role="line"
         style="font-size:45.3333px"
         x="300.20328"
         y="972.27911"
         id="tspan1029">jan Pepa o! toki pi </tspan><tspan
         sodipodi:role="line"
         style="font-size:45.3333px"
         x="300.20328"
         y="1028.9458"
         id="tspan102">pilin ike o lon.</tspan></text>
    <text
       xml:space="preserve"
       style="font-style:normal;font-variant:normal;font-weight:normal;font-stretch:normal;font-size:45.3333px;line-height:125%;font-family:Lavi;-inkscape-font-specification:Lavi;text-align:center;letter-spacing:0px;word-spacing:0px;text-anchor:middle;fill:#000000;fill-opacity:1;stroke:none"
       x="1246.7052"
       y="919.91296"
       id="text4246-70-2-2-2-7-4-9-9-6-1-2-3-9-2-7-9-3-3"><tspan
         sodipodi:role="line"
         style="font-size:45.3333px"
         x="1246.7052"
         y="919.91296"
         id="tspan1033">sina ken </tspan><tspan
         sodipodi:role="line"
         style="font-size:45.3333px"
         x="1246.7052"
         y="976.57959"
         id="tspan742">pali.</tspan></text>
    <text
       xml:space="preserve"
       style="font-style:normal;font-variant:normal;font-weight:normal;font-stretch:normal;font-size:52.6959px;line-height:125%;font-family:Lavi;-inkscape-font-specification:Lavi;text-align:center;letter-spacing:0px;word-spacing:0px;text-anchor:middle;fill:#000000;fill-opacity:1;stroke:none;stroke-width:1"
       x="1735.2688"
       y="908.93842"
       id="text4246-70-2-2-2-7-4-9-9-6-1-2-3-9-2-7-9-3-3-7"><tspan
         sodipodi:role="line"
         style="font-style:normal;font-variant:normal;font-weight:bold;font-stretch:normal;font-size:52.6959px;font-family:Lavi;-inkscape-font-specification:'Lavi Bold';stroke-width:1"
         x="1735.2688"
         y="908.93842"
         id="tspan1037">sina ken</tspan><tspan
         sodipodi:role="line"
         style="font-style:normal;font-variant:normal;font-weight:bold;font-stretch:normal;font-size:52.6959px;font-family:Lavi;-inkscape-font-specification:'Lavi Bold';stroke-width:1"
         x="1735.2688"
         y="974.80829"
         id="tspan1430">pali.</tspan></text>
    <text
       xml:space="preserve"
       style="font-style:normal;font-variant:normal;font-weight:normal;font-stretch:normal;font-size:45.3333px;line-height:125%;font-family:Lavi;-inkscape-font-specification:Lavi;text-align:center;letter-spacing:0px;word-spacing:0px;text-anchor:middle;fill:#000000;fill-opacity:1;stroke:none"
       x="2001.5763"
       y="914.20508"
       id="text4246-70-2-2-2-7-4-9-9-6-1-2-3-9-2-7-9-3-5"><tspan
         sodipodi:role="line"
         style="font-size:45.3333px"
         x="2001.5763"
         y="914.20508"
         id="tspan2829-1">ala...</tspan></text>
    <text
       xml:space="preserve"
       style="font-style:normal;font-variant:normal;font-weight:normal;font-stretch:normal;font-size:36.074px;line-height:125%;font-family:Lavi;-inkscape-font-specification:Lavi;text-align:center;letter-spacing:0px;word-spacing:0px;text-anchor:middle;fill:#000000;fill-opacity:1;stroke:none;stroke-width:0.999996"
       x="2210.7493"
       y="943.36493"
       id="text4246-70-2-2-2-7-4-9-9-6-1-2-3-9-2-7-9-3-5-2"
       transform="scale(0.97209399,1.0287071)"><tspan
         sodipodi:role="line"
         style="font-size:36.074px;stroke-width:0.999996"
         x="2210.7493"
         y="943.36493"
         id="tspan2829-1-7">sina ken ala.</tspan></text>
    <text
       xml:space="preserve"
       style="font-style:normal;font-variant:normal;font-weight:normal;font-stretch:normal;font-size:50.6667px;line-height:0%;font-family:Lavi;-inkscape-font-specification:Lavi;text-align:center;letter-spacing:0px;word-spacing:0px;text-anchor:middle;display:inline;fill:#000000;fill-opacity:1;stroke:#000000;stroke-width:2.01521;stroke-miterlimit:4;stroke-dasharray:none;stroke-opacity:1"
       x="565.14215"
       y="1421.595"
       id="text4246-3-7-9-5-1-6-2-3"
       transform="matrix(0.96995835,0,-0.17070021,1.0309721,0,0)"><tspan
         sodipodi:role="line"
         style="font-size:50.6667px;line-height:1.25;stroke:#000000;stroke-width:2.01521;stroke-miterlimit:4;stroke-dasharray:none;stroke-opacity:1"
         x="565.14215"
         y="1421.595"
         id="tspan22576">a! sina o!</tspan><tspan
         sodipodi:role="line"
         style="font-size:50.6667px;line-height:1.25;stroke:#000000;stroke-width:2.01521;stroke-miterlimit:4;stroke-dasharray:none;stroke-opacity:1"
         x="565.14215"
         y="1484.9283"
         id="tspan22580">o kama weka!</tspan></text>
    <text
       xml:space="preserve"
       style="font-style:normal;font-variant:normal;font-weight:normal;font-stretch:normal;font-size:6.87975px;line-height:0%;font-family:Lavi;-inkscape-font-specification:Lavi;text-align:center;letter-spacing:0px;word-spacing:0px;text-anchor:middle;fill:#000000;fill-opacity:1;stroke:none;stroke-width:0.87182"
       x="-341.33691"
       y="2062.9126"
       id="text4246-4-9-8-0-3"
       transform="matrix(0.86354336,-0.84725955,0.23030923,0.93205314,0,0)"><tspan
         sodipodi:role="line"
         style="font-size:80.8612px;line-height:1.25;stroke-width:0.87182"
         x="-341.33691"
         y="2062.9126"
         id="tspan4205-3-3"><tspan
           style="font-size:69.6307px;stroke-width:0.87182"
           id="tspan4438">!!</tspan></tspan></text>
    <text
       xml:space="preserve"
       style="font-style:normal;font-variant:normal;font-weight:normal;font-stretch:normal;font-size:13.6455px;line-height:0%;font-family:Lavi;-inkscape-font-specification:Lavi;text-align:center;letter-spacing:0px;word-spacing:0px;text-anchor:middle;display:inline;fill:#000000;fill-opacity:1;stroke:#000000;stroke-width:2.01521;stroke-miterlimit:4;stroke-dasharray:none;stroke-opacity:1"
       x="1135.5023"
       y="1446.0135"
       id="text4246-3-7-9-5-1-6-2-3-8"
       transform="matrix(0.97850393,0,-0.17220413,1.0219683,0,0)"><tspan
         sodipodi:role="line"
         style="font-size:51.17px;line-height:1.25;stroke:#000000;stroke-width:2.01521;stroke-miterlimit:4;stroke-dasharray:none;stroke-opacity:1"
         x="1135.5023"
         y="1446.0135"
         id="tspan1893">sina ken ala pana</tspan><tspan
         sodipodi:role="line"
         style="font-size:51.17px;line-height:1.25;stroke:#000000;stroke-width:2.01521;stroke-miterlimit:4;stroke-dasharray:none;stroke-opacity:1"
         x="1135.5023"
         y="1509.9761"
         id="tspan1897">e mani la o luka ala</tspan><tspan
         sodipodi:role="line"
         style="font-size:51.17px;line-height:1.25;stroke:#000000;stroke-width:2.01521;stroke-miterlimit:4;stroke-dasharray:none;stroke-opacity:1"
         x="1135.5023"
         y="1573.9386"
         id="tspan1899">e ijo esun mi!</tspan></text>
    <text
       xml:space="preserve"
       style="font-style:normal;font-variant:normal;font-weight:normal;font-stretch:normal;font-size:45.3333px;line-height:125%;font-family:Lavi;-inkscape-font-specification:Lavi;text-align:center;letter-spacing:0px;word-spacing:0px;text-anchor:middle;fill:#000000;fill-opacity:1;stroke:none"
       x="1430.9071"
       y="1440.3622"
       id="text4246-70-2-2-2-7-4-9-9-6-1-2-3-9-2-7-9-3-3-5-6"><tspan
         sodipodi:role="line"
         style="font-style:italic;font-variant:normal;font-weight:normal;font-stretch:normal;font-size:45.3333px;font-family:Lavi;-inkscape-font-specification:'Lavi Italic'"
         x="1430.9071"
         y="1440.3622"
         id="tspan11363-1">ike a.</tspan><tspan
         sodipodi:role="line"
         style="font-style:italic;font-variant:normal;font-weight:normal;font-stretch:normal;font-size:45.3333px;font-family:Lavi;-inkscape-font-specification:'Lavi Italic'"
         x="1430.9071"
         y="1497.0288"
         id="tspan1441">o ni ala...</tspan></text>
    <text
       xml:space="preserve"
       style="font-style:normal;font-variant:normal;font-weight:normal;font-stretch:normal;font-size:15.3246px;line-height:0%;font-family:Lavi;-inkscape-font-specification:Lavi;text-align:center;letter-spacing:2px;word-spacing:0px;text-anchor:middle;display:inline;fill:#000000;fill-opacity:1;stroke:#000000;stroke-width:2.01521;stroke-miterlimit:4;stroke-dasharray:none;stroke-opacity:1"
       x="2222.8789"
       y="1394.7125"
       id="text4246-3-7-9-5-1-6-2"
       transform="matrix(0.92840736,0,-0.16338778,1.0771134,0,0)"><tspan
         sodipodi:role="line"
         style="font-size:57.4671px;line-height:1.25;stroke:#000000;stroke-width:2.01521;stroke-miterlimit:4;stroke-dasharray:none;stroke-opacity:1"
         x="2223.8789"
         y="1394.7125"
         id="tspan1222">SOWELI KAWA O!</tspan></text>
    <text
       xml:space="preserve"
       style="font-style:normal;font-variant:normal;font-weight:normal;font-stretch:normal;font-size:45.3333px;line-height:125%;font-family:Lavi;-inkscape-font-specification:Lavi;text-align:center;letter-spacing:0px;word-spacing:0px;text-anchor:middle;fill:#000000;fill-opacity:1;stroke:none"
       x="1724.5636"
       y="1630.7692"
       id="text4246-70-2-2-2-7-4-9-9-6-1-2-3-9-2-7-9-3-3-5"><tspan
         sodipodi:role="line"
         style="font-size:45.3333px"
         x="1724.5636"
         y="1630.7692"
         id="tspan1614">sina ken pana e pona </tspan><tspan
         sodipodi:role="line"
         style="font-size:45.3333px"
         x="1724.5636"
         y="1687.4358"
         id="tspan9746">tawa pali mi. taso sina </tspan><tspan
         sodipodi:role="line"
         style="font-size:45.3333px"
         x="1724.5636"
         y="1744.1024"
         id="tspan9748">wile moku taso!</tspan></text>
    <text
       xml:space="preserve"
       style="font-style:normal;font-variant:normal;font-weight:normal;font-stretch:normal;font-size:15.3246px;line-height:0%;font-family:Lavi;-inkscape-font-specification:Lavi;text-align:center;letter-spacing:0px;word-spacing:0px;text-anchor:middle;display:inline;fill:#000000;fill-opacity:1;stroke:#000000;stroke-width:2.01521;stroke-miterlimit:4;stroke-dasharray:none;stroke-opacity:1"
       x="687.12646"
       y="2438.4612"
       id="text4246-3-7-9-5-1-6-2-9"
       transform="matrix(0.92840736,0,-0.16338778,1.0771134,0,0)"><tspan
         sodipodi:role="line"
         style="font-size:57.4671px;line-height:1.25;stroke:#000000;stroke-width:2.01521;stroke-miterlimit:4;stroke-dasharray:none;stroke-opacity:1"
         x="687.12646"
         y="2438.4612"
         id="tspan1222-1">aa?!</tspan></text>
    <text
       xml:space="preserve"
       style="font-style:normal;font-variant:normal;font-weight:normal;font-stretch:normal;font-size:55.8737px;line-height:125%;font-family:Lavi;-inkscape-font-specification:Lavi;text-align:center;letter-spacing:0px;word-spacing:0px;text-anchor:middle;fill:#000000;fill-opacity:1;stroke:none;stroke-width:0.999999"
       x="1152.1935"
       y="2595.791"
       id="text4246-70-2-2-2-7-4-9-9-6-1-2-3-9-2-7-9-3-3-2-2"><tspan
         sodipodi:role="line"
         style="font-style:normal;font-variant:normal;font-weight:bold;font-stretch:normal;font-size:55.8737px;font-family:Lavi;-inkscape-font-specification:'Lavi Bold';stroke-width:0.999999"
         x="1152.1935"
         y="2595.791"
         id="tspan17035-3">a, pona...</tspan></text>
    <text
       xml:space="preserve"
       style="font-style:normal;font-variant:normal;font-weight:normal;font-stretch:normal;font-size:45.3333px;line-height:125%;font-family:Lavi;-inkscape-font-specification:Lavi;text-align:center;letter-spacing:0px;word-spacing:0px;text-anchor:middle;fill:#000000;fill-opacity:1;stroke:none"
       x="1181.6333"
       y="2688.5107"
       id="text4246-70-2-2-2-7-4-9-9-6-1-2-3-9-2-7-9-3-3-2"><tspan
         sodipodi:role="line"
         style="font-size:45.3333px"
         x="1181.6333"
         y="2688.5107"
         id="tspan1834">ni li ken.</tspan></text>
  </g>
</svg>
