<?xml version="1.0" encoding="UTF-8" standalone="no"?>
<svg
   id="svg2"
   version="1.1"
   inkscape:version="1.1.1 (3bf5ae0d25, 2021-09-20)"
   width="2481"
   height="3503"
   sodipodi:docname="E35P11.svg"
   xmlns:inkscape="http://www.inkscape.org/namespaces/inkscape"
   xmlns:sodipodi="http://sodipodi.sourceforge.net/DTD/sodipodi-0.dtd"
   xmlns:xlink="http://www.w3.org/1999/xlink"
   xmlns="http://www.w3.org/2000/svg"
   xmlns:svg="http://www.w3.org/2000/svg"
   xmlns:rdf="http://www.w3.org/1999/02/22-rdf-syntax-ns#"
   xmlns:cc="http://creativecommons.org/ns#"
   xmlns:dc="http://purl.org/dc/elements/1.1/">
  <metadata
     id="metadata8">
    <rdf:RDF>
      <cc:Work
         rdf:about="">
        <dc:format>image/svg+xml</dc:format>
        <dc:type
           rdf:resource="http://purl.org/dc/dcmitype/StillImage" />
        <dc:title />
      </cc:Work>
    </rdf:RDF>
  </metadata>
  <defs
     id="defs6">
    <filter
       style="color-interpolation-filters:sRGB"
       id="filter4375-4-1-1-1-9-3-2-3-8-7-6-4-9"
       inkscape:label="deevad outline effect"
       x="-0.002101149"
       y="-0.0071745174"
       width="1.0042023"
       height="1.014349">
      <feFlood
         id="feFlood4377-7-9-0-8-1-6-9-6-7-5-32-7-4"
         flood-opacity="1"
         flood-color="rgb(95,141,211)"
         result="flood" />
      <feComposite
         id="feComposite4379-3-8-8-2-77-7-1-0-9-9-0-6-8"
         in2="SourceGraphic"
         in="flood"
         operator="in"
         result="composite1" />
      <feMorphology
         id="feMorphology4393-1-0-49-8-9-5-2-6-2-2-6-5-1"
         operator="dilate"
         radius="4"
         result="result3" />
      <feComposite
         id="feComposite4385-9-5-7-0-8-3-7-2-0-2-1-6-2"
         in2="result3"
         in="SourceGraphic"
         operator="over"
         result="composite2" />
    </filter>
  </defs>
  <sodipodi:namedview
     pagecolor="#ffffff"
     bordercolor="#666666"
     borderopacity="1"
     objecttolerance="10"
     gridtolerance="10"
     guidetolerance="10"
     inkscape:pageopacity="0"
     inkscape:pageshadow="2"
     inkscape:window-width="1920"
     inkscape:window-height="1001"
     id="namedview4"
     showgrid="false"
     inkscape:zoom="0.46261216"
     inkscape:cx="902.48385"
     inkscape:cy="2709.6132"
     inkscape:window-x="-9"
     inkscape:window-y="-9"
     inkscape:window-maximized="1"
     inkscape:current-layer="layer1"
     inkscape:document-rotation="0"
     inkscape:snap-global="false"
     inkscape:pagecheckerboard="0" />
  <g
     inkscape:groupmode="layer"
     id="layer2"
     inkscape:label="artwork"
     sodipodi:insensitive="true">
    <image
       xlink:href="../gfx_Pepper-and-Carrot_by-David-Revoy_E35P11.png"
       width="2481"
       height="3503"
       id="image10"
       x="0"
       y="0" />
  </g>
  <g
     inkscape:groupmode="layer"
     id="layer3"
     inkscape:label="speechbubbles">
    <path
       style="color:#000000;display:inline;overflow:visible;visibility:visible;fill:#ffffff;fill-opacity:1;fill-rule:nonzero;stroke:none;stroke-width:1.05826px;marker:none;enable-background:accumulate"
       d="m 692.7246,1566.6704 c 28.1693,-24.9106 272.04455,-35.5556 336.641,7.541 53.9173,35.9724 32.8807,122.5341 -15.0706,141.6334 -47.95088,19.099 -207.46599,13.6696 -277.37785,3.2265 -66.56578,-9.9423 -77.74329,-36.2614 -81.01761,-88.8787 -1.33637,-21.4761 8.65558,-38.612 36.82506,-63.5222 z"
       id="path4040-4-9-2"
       inkscape:connector-curvature="0"
       sodipodi:nodetypes="zssssz" />
    <path
       style="color:#000000;display:inline;overflow:visible;visibility:visible;fill:#ffffff;fill-opacity:1;fill-rule:nonzero;stroke:none;stroke-width:1.36564px;marker:none;enable-background:accumulate"
       d="m 672.87343,351.47617 c 33.46845,54.26318 16.77932,109.75225 -42.25383,148.97796 101.91057,-50.70471 112.5118,-145.0271 95.84592,-167.01491 -16.31806,-21.52888 -53.59209,18.03695 -53.59209,18.03695 z"
       id="path5010-4"
       inkscape:connector-curvature="0"
       sodipodi:nodetypes="ccsc" />
    <path
       style="display:inline;fill:#ffffff;stroke:none;stroke-width:0.593809"
       d="m 1189.7651,57.299 c -37.6383,0.291165 -75.9441,5.226017 -110.6114,20.596138 -18.9707,9.035479 -34.6736,26.398282 -38.8001,47.340992 -3.9744,20.62219 -2.5171,42.19634 3.4954,62.27217 7.1845,18.83833 23.1758,33.143 41.1121,41.62797 26.4023,13.35548 56.0864,18.26676 85.3259,20.41751 39.6467,3.26547 79.5432,6.45676 119.3042,3.28382 30.4333,-2.53403 60.9347,-10.51405 86.9358,-26.93945 14.8833,-9.57802 28.8059,-21.8084 36.8096,-37.87408 6.7527,-13.08567 8.326,-28.38022 6.1478,-42.81545 -2.6598,-17.3016 -11.6926,-33.4704 -24.9835,-44.85659 -15.9119,-14.191543 -36.2871,-21.85208 -56.4207,-27.88553 -27.3936,-7.963814 -55.8576,-11.472072 -84.239,-13.544453 -21.3271,-1.406949 -42.709,-1.66886 -64.0761,-1.623047 z"
       id="path3280-8-1"
       inkscape:connector-curvature="0"
       sodipodi:nodetypes="csssc" />
    <path
       style="color:#000000;display:inline;overflow:visible;visibility:visible;fill:#ffffff;fill-opacity:1;fill-rule:nonzero;stroke:none;stroke-width:0.768319px;marker:none;enable-background:accumulate"
       d="m 1964.8579,80.042241 c -32.012,0.406432 -64.9167,6.568789 -91.2979,22.208449 -21.9887,13.16571 -40.4018,31.61855 -47.819,53.53875 -4.1234,13.03951 -5.487,26.75881 -3.6198,40.16175 3.1779,21.10953 15.9513,40.74776 33.5559,56.00596 14.6773,12.70148 33.5083,22.1213 54.0991,26.47524 49.9822,12.34459 102.0716,17.93543 154.0665,19.84518 49.4187,1.52074 99.562,-1.50162 147.0796,-13.43241 31.1707,-8.85512 60.5897,-24.40452 79.3546,-47.26665 15.2938,-19.38443 19.7523,-43.2101 18.8339,-65.9967 -0.6025,-21.44646 -7.6988,-43.71351 -25.2082,-60.02958 -16.5773,-15.127089 -40.9807,-22.876397 -65.1478,-24.641498 -59.6833,-7.607729 -120.235,-5.079663 -180.3715,-6.383948 -24.5072,-0.270672 -49.0153,-0.607176 -73.5254,-0.484543 z"
       id="path4546-6-7"
       inkscape:connector-curvature="0"
       sodipodi:nodetypes="cscssssc" />
    <path
       style="color:#000000;display:inline;overflow:visible;visibility:visible;fill:#ffffff;fill-opacity:1;fill-rule:nonzero;stroke:none;stroke-width:1.04781px;marker:none;enable-background:accumulate"
       d="m 552.76188,1391.4408 c 31.93806,-28.6191 308.44158,-44.7759 381.68011,2.817 61.13111,39.7255 37.27981,137.8723 -17.08671,160.2613 -54.36626,22.3888 -235.22294,18.9569 -314.48834,8.3434 -75.47159,-10.1046 -88.14456,-39.6484 -91.85696,-99.0356 -1.51515,-24.2394 9.81361,-43.7674 41.7519,-72.3861 z"
       id="path4040-4-9"
       inkscape:connector-curvature="0"
       sodipodi:nodetypes="zssssz" />
    <path
       style="fill:#ffffff;fill-rule:evenodd;stroke:none;stroke-width:0.866672px;stroke-linecap:butt;stroke-linejoin:miter;stroke-opacity:1"
       d="m 1085.5371,1675.3676 c -32.6473,0.5417 -65.265,1.9482 -97.85522,3.5861 -20.28572,1.2388 -40.82438,2.6862 -60.26466,7.9508 -25.04193,7.4844 -44.98163,24.5898 -55.27648,44.723 -4.74036,9.3894 -8.05994,19.2458 -10.52461,29.2028 -2.24972,10.0389 -1.93192,20.7117 2.91317,30.2221 5.58687,11.6696 14.97774,21.7624 25.00781,31.0446 18.95909,16.7391 44.59063,28.5692 72.18823,31.6754 23.81155,3.2485 47.87446,4.9986 71.90786,6.673 40.0487,2.212 80.2301,2.67 120.3475,1.7342 33.7443,-0.8635 67.4841,-2.7604 100.9505,-6.5011 17.7876,-2.3608 35.9287,-6.0977 50.8591,-14.8165 14.5097,-8.6792 24.3449,-22.1388 28.0963,-36.546 3.7802,-10.9749 7.0019,-22.6701 3.8797,-34.0406 -3.8902,-13.6177 -12.5381,-25.8121 -20.6433,-37.9403 -8.4423,-11.8549 -19.4086,-23.0261 -34.253,-29.6559 -17.9657,-8.4949 -38.2961,-12.4203 -58.0208,-17.0708 -31.1924,-6.739 -63.5126,-8.845 -95.6415,-9.4938 -14.5502,-0.4514 -29.1079,-0.8523 -43.6706,-0.747 z"
       id="path1079"
       inkscape:connector-curvature="0" />
    <path
       style="color:#000000;display:inline;overflow:visible;visibility:visible;fill:#ffffff;fill-opacity:1;fill-rule:nonzero;stroke:none;stroke-width:0.939237px;marker:none;enable-background:accumulate"
       d="m 1404.4998,1791.8153 c -45.9909,-29.4273 -78.0349,-27.5278 -104.8526,-18.0354 -25.7868,9.1275 -19.8278,10.3608 -19.8278,10.3608 l 10.5667,-48.0852 c -3.1179,-4.3789 71.5596,-1.8389 114.1137,55.7598 z"
       id="path3072-12"
       inkscape:connector-curvature="0"
       sodipodi:nodetypes="csccc" />
    <path
       style="display:inline;fill:#ffffff;stroke:none;stroke-width:0.912089"
       d="m 1364.1825,197.26135 c -47.5216,0.71141 -95.6195,6.56567 -139.9311,23.18281 -36.3256,15.5755 -65.7666,45.87113 -75.9487,82.0756 -6.6231,25.0237 -5.9933,51.00356 -5.6241,76.57747 1.6757,29.0786 17.5941,56.19505 39.5473,76.47645 12.9731,12.23074 28.949,21.35899 45.8405,28.16258 38.0716,15.82346 79.8497,22.86993 121.3841,24.03039 31.2129,0.6584 62.4273,-0.37645 93.6318,-0.94856 38.7376,-1.17898 77.7473,-3.0418 115.6398,-11.13023 21.0624,-4.70887 42.3306,-11.56473 59.0668,-24.77076 21.9753,-17.34664 36.1545,-41.96217 43.4215,-67.61578 7.4536,-26.9469 5.6299,-55.48535 -1.6656,-82.27993 -6.2897,-25.61175 -18.2533,-50.87469 -38.9631,-69.27695 -21.4238,-19.27673 -49.3657,-31.03158 -77.8937,-38.14607 -43.9048,-11.44019 -89.6898,-14.37129 -135.0595,-15.94323 -14.4778,-0.39537 -28.9631,-0.42638 -43.446,-0.39379 z"
       id="path3280-8-1-3"
       inkscape:connector-curvature="0"
       sodipodi:nodetypes="csssc" />
    <path
       style="display:inline;fill:#ffffff;stroke:none;stroke-width:0.986136"
       d="m 2011.8516,226.1866 c -58.2287,0.51905 -117.4901,9.31627 -171.1225,36.71618 -29.3487,16.1073 -53.642,47.05952 -60.026,84.39353 -6.1486,36.76262 -3.8941,75.2223 5.4076,111.01093 11.1149,33.5826 35.8544,59.08314 63.6028,74.20908 40.8459,23.80845 86.769,32.56366 132.0043,36.39776 61.3359,5.82125 123.0581,11.51027 184.5707,5.85396 47.0823,-4.51735 94.2697,-18.74311 134.495,-48.02423 23.0253,-17.07448 44.5645,-38.87726 56.9466,-67.51711 10.4469,-23.32748 12.8809,-50.59266 9.5111,-76.32597 -4.1149,-30.84309 -18.0892,-59.6668 -38.6511,-79.96465 -24.6166,-25.29889 -56.1382,-38.9551 -87.2862,-49.71079 -42.3795,-14.19688 -86.415,-20.45096 -130.3227,-24.14535 -32.9944,-2.50813 -66.0734,-2.97503 -99.1296,-2.89334 z"
       id="path3280-8-1-1"
       inkscape:connector-curvature="0"
       sodipodi:nodetypes="csssc" />
    <path
       style="display:inline;fill:#ffffff;stroke:none;stroke-width:0.827782"
       d="m 2030.5403,512.43078 c -46.3423,0.20075 -93.2051,6.86926 -136.1411,24.00767 -11.6966,4.6051 -22.9486,10.37614 -32.7214,18.10317 -24.2705,18.6068 -41.3911,46.05057 -44.9718,75.71747 -4.4757,29.04068 1.2844,60.40823 20.1087,84.14501 19.8321,25.1747 49.2499,42.10067 80.2427,51.95652 33.4628,11.47348 69.1636,14.97637 104.4723,16.52629 53.4038,4.16817 107.1569,3.25014 160.5027,-1.23323 24.9466,-2.08691 50.1516,-5.0411 73.6909,-13.62254 24.8537,-8.94485 47.1408,-24.33163 63.912,-43.96196 14.2349,-16.78377 24.3408,-37.23776 26.154,-58.92872 3.7126,-37.84191 -13.3534,-77.59269 -45.6942,-100.31785 -27.824,-20.26316 -61.8145,-30.64019 -95.4622,-38.29655 -56.9819,-12.61663 -115.8438,-14.28667 -174.0926,-14.09528 z"
       id="path3280-8-1-1-8"
       inkscape:connector-curvature="0"
       sodipodi:nodetypes="csssc" />
    <path
       style="fill:#ffffff;fill-rule:evenodd;stroke:none;stroke-width:1px;stroke-linecap:butt;stroke-linejoin:miter;stroke-opacity:1"
       d="m 1917.1509,703.14914 c -35.1448,34.55495 -40.918,43.76621 -48.2945,59.20991 -7.3765,15.44359 -1.4166,45.82505 15.3336,59.77726 16.7502,13.95231 20.6476,39.75145 6.4656,51.09426 -14.1819,11.34295 -70.6572,56.04997 -12.3413,98.68519 -52.1304,-50.93005 4.6214,-80.3316 15.046,-87.77901 10.4245,-7.44749 30.9525,-25.50425 13.4446,-59.50485 -17.5082,-34.00062 -21.7713,-50.818 31.7495,-83.72489 53.5207,-32.90685 -21.4035,-37.75787 -21.4035,-37.75787 z"
       id="path1081"
       inkscape:connector-curvature="0"
       sodipodi:nodetypes="ccccccssc" />
    <path
       style="color:#000000;display:inline;overflow:visible;visibility:visible;fill:#ffffff;fill-opacity:1;fill-rule:nonzero;stroke:none;stroke-width:1.4638px;marker:none;enable-background:accumulate"
       d="m 1446.9857,482.25247 c 38.5518,83.9689 2.5856,139.06018 -54.1917,168.09629 98.918,-30.2652 116.1188,-134.92733 86.7076,-167.77583 -23.1309,-25.83416 -32.5159,-0.32046 -32.5159,-0.32046 z"
       id="path5010-4-3"
       inkscape:connector-curvature="0"
       sodipodi:nodetypes="ccsc" />
    <path
       style="color:#000000;display:inline;overflow:visible;visibility:visible;fill:#ffffff;fill-opacity:1;fill-rule:nonzero;stroke:none;stroke-width:0.861506px;marker:none;enable-background:accumulate"
       d="m 1708.9341,2344.6889 c 0.1396,-105.6475 -1.9817,-81.2211 156.3841,-79.1966 68.739,0.8787 150.308,10.6222 143.7753,157.3952 -5.1637,116.0161 -130.901,110.3132 -154.2725,113.5955 -23.2236,3.2615 -117.9728,-16.6744 -138.5725,-62.3724 -12.895,-28.6062 -8.0693,-101.383 -7.3144,-129.4217 z"
       id="path4546-6-59"
       inkscape:connector-curvature="0"
       sodipodi:nodetypes="cssssc" />
    <path
       style="fill:#ffffff;stroke:none;stroke-width:1.40498"
       d="m 720.93646,74.334276 c -50.55152,3.08778 -100.03953,15.416754 -149.93195,23.909777 -31.45318,6.242517 -62.81602,17.304637 -88.87367,37.942527 -16.49827,13.20659 -29.33925,31.97773 -35.29672,53.34425 -9.54535,30.12085 -9.93681,62.865 -5.11563,94.04195 3.84814,22.99347 12.27848,45.81666 27.54972,62.71498 15.19086,17.11859 34.15817,30.07813 54.65516,38.33478 17.69799,7.8496 36.26553,13.26302 55.14052,16.50527 42.14937,7.86858 85.03779,9.8885 127.74302,9.45199 43.67122,-0.77799 87.28472,-6.16766 129.93481,-16.42186 21.26672,-4.78213 42.71551,-11.63012 60.62503,-25.42823 19.75792,-15.0267 35.44362,-36.34047 44.53157,-60.59277 3.97062,-10.73934 5.91123,-22.25046 6.27639,-33.7908 0.74213,-14.8313 0.81776,-29.69103 1.10115,-44.53743 0.10717,-44.82775 -3.44038,-89.73925 -11.72081,-133.685824 -3.09725,-3.45486 -7.93984,-1.880213 -11.78697,-3.251442 C 857.91557,82.354172 789.57167,74.056384 720.93646,74.334276 Z"
       id="path3100-2"
       inkscape:connector-curvature="0"
       sodipodi:nodetypes="cccccccccccccc" />
    <path
       style="display:inline;fill:#ffffff;fill-rule:evenodd;stroke:none;stroke-width:1.14884px;stroke-linecap:butt;stroke-linejoin:miter;stroke-opacity:1"
       d="m 1876.2442,2473.0319 c 29.6781,34.3855 -48.3918,61.0872 -32.7914,98.1006 6.1219,14.5249 50.1858,21.814 59.4409,88.3499 -23.107,-54.5774 -70.7535,-56.808 -83.5614,-79.4341 -24.3256,-42.971 15.5983,-74.4437 22.7675,-83.4264 9.5884,-12.0136 34.1444,-23.59 34.1444,-23.59 z"
       id="path4186-80"
       inkscape:connector-curvature="0"
       sodipodi:nodetypes="cscssc" />
    <path
       style="color:#000000;display:inline;overflow:visible;visibility:visible;fill:#ffffff;fill-opacity:1;fill-rule:nonzero;stroke:none;stroke-width:0.472467px;marker:none;enable-background:accumulate"
       d="m 266.97992,2086.542 c 13.37453,-13.964 129.16447,-22.406 159.83419,0.5429 25.59955,19.1552 15.61147,66.8586 -7.1553,77.8463 -22.76671,10.9877 -98.5031,9.7123 -131.69666,4.7305 -31.60485,-4.7428 -36.91183,-19.0595 -38.46644,-47.8849 -0.63452,-11.7653 4.10957,-21.2709 17.48421,-35.2348 z"
       id="path4040-4-9-3"
       inkscape:connector-curvature="0"
       sodipodi:nodetypes="zssssz" />
    <path
       style="color:#000000;display:inline;overflow:visible;visibility:visible;fill:#ffffff;fill-opacity:1;fill-rule:nonzero;stroke:none;stroke-width:0.816531px;marker:none;enable-background:accumulate"
       d="m 354.58902,2078.2586 c 35.58146,-4.2267 52.48817,-58.2989 28.13393,-95.1145 44.43236,49.6051 29.57055,64.2564 4.74971,120.5184 -6.58837,14.934 -32.88364,-25.4039 -32.88364,-25.4039 z"
       id="path5010-4-5"
       inkscape:connector-curvature="0"
       sodipodi:nodetypes="ccsc" />
  </g>
  <g
     inkscape:groupmode="layer"
     id="layer1"
     inkscape:label="txt">
    <text
       xml:space="preserve"
       style="font-style:normal;font-variant:normal;font-weight:normal;font-stretch:normal;font-size:45px;line-height:1.25;font-family:Lavi;-inkscape-font-specification:Lavi;text-align:center;letter-spacing:0px;word-spacing:0px;text-anchor:middle;fill:#000000;fill-opacity:1;stroke:none"
       x="690.90973"
       y="179.30602"
       id="text4246-3-2-2"><tspan
         style="font-size:45px"
         sodipodi:role="line"
         x="690.90973"
         y="179.30602"
         id="tspan891">Спасибо тебе, что</tspan><tspan
         style="font-size:45px"
         sodipodi:role="line"
         x="690.90973"
         y="235.55602"
         id="tspan831">разрешила Морквику</tspan><tspan
         style="font-size:45px"
         sodipodi:role="line"
         x="690.90973"
         y="291.80603"
         id="tspan899">принести мне свежую</tspan><tspan
         style="font-size:45px"
         sodipodi:role="line"
         x="690.90973"
         y="348.05603"
         id="tspan908">одежду.</tspan></text>
    <text
       xml:space="preserve"
       style="font-style:normal;font-variant:normal;font-weight:normal;font-stretch:normal;font-size:45px;line-height:1.25;font-family:Lavi;-inkscape-font-specification:Lavi;text-align:center;letter-spacing:0px;word-spacing:0px;text-anchor:middle;fill:#000000;fill-opacity:1;stroke:none"
       x="1235.6431"
       y="179.79465"
       id="text4246-3-2-2-3-3-3"><tspan
         style="font-size:45px"
         sodipodi:role="line"
         x="1235.6431"
         y="179.79465"
         id="tspan876-3">Не за что</tspan></text>
    <text
       xml:space="preserve"
       style="font-style:normal;font-variant:normal;font-weight:normal;font-stretch:normal;font-size:45px;line-height:1.25;font-family:Lavi;-inkscape-font-specification:Lavi;text-align:center;letter-spacing:0px;word-spacing:0px;text-anchor:middle;fill:#000000;fill-opacity:1;stroke:none"
       x="1403.865"
       y="288.4176"
       id="text4246-3-2-2-3-3"><tspan
         style="font-size:45px"
         sodipodi:role="line"
         x="1403.865"
         y="288.4176"
         id="tspan933">Ты сделала нашу</tspan><tspan
         style="font-size:45px"
         sodipodi:role="line"
         x="1403.865"
         y="344.6676"
         id="tspan2897">работу проще, так что</tspan><tspan
         style="font-size:45px"
         sodipodi:role="line"
         x="1403.865"
         y="400.9176"
         id="tspan2923">это меньшее, что</tspan><tspan
         style="font-size:45px"
         sodipodi:role="line"
         x="1403.865"
         y="457.1676"
         id="tspan2927">я могла сделать.</tspan></text>
    <text
       xml:space="preserve"
       style="font-style:normal;font-variant:normal;font-weight:normal;font-stretch:normal;font-size:45px;line-height:1.25;font-family:Lavi;-inkscape-font-specification:Lavi;text-align:center;letter-spacing:0px;word-spacing:0px;text-anchor:middle;fill:#000000;fill-opacity:1;stroke:none"
       x="2070.6965"
       y="162.92047"
       id="text4246-3-2-2-3-3-67"><tspan
         style="font-size:45px"
         sodipodi:role="line"
         x="2070.6965"
         y="162.92047"
         id="tspan898">Но знаешь, ты очень</tspan><tspan
         style="font-size:45px"
         sodipodi:role="line"
         x="2070.6965"
         y="219.17047"
         id="tspan6507">расстроила Васаби.</tspan></text>
    <text
       xml:space="preserve"
       style="font-style:normal;font-variant:normal;font-weight:normal;font-stretch:normal;font-size:45px;line-height:1.25;font-family:Lavi;-inkscape-font-specification:Lavi;text-align:center;letter-spacing:0px;word-spacing:0px;text-anchor:middle;fill:#000000;fill-opacity:1;stroke:none"
       x="2069.8462"
       y="308.0451"
       id="text4246-3-2-2-3-3-67-2"><tspan
         style="font-size:45px"
         sodipodi:role="line"
         x="2069.8462"
         y="308.0451"
         id="tspan1004-2">Она требует</tspan><tspan
         style="font-size:45px"
         sodipodi:role="line"
         x="2069.8462"
         y="364.2951"
         id="tspan7819">совершенства.Ты нарушила</tspan><tspan
         style="font-size:45px"
         sodipodi:role="line"
         x="2069.8462"
         y="420.5451"
         id="tspan1010-7">это своей грязью, своей</tspan><tspan
         style="font-size:45px"
         sodipodi:role="line"
         x="2069.8462"
         y="476.7951"
         id="tspan1016-9">одеждой, и своим</tspan><tspan
         style="font-size:45px"
         sodipodi:role="line"
         x="2069.8462"
         y="533.0451"
         id="tspan912">прибытием.</tspan></text>
    <text
       xml:space="preserve"
       style="font-style:normal;font-variant:normal;font-weight:normal;font-stretch:normal;font-size:45px;line-height:1.25;font-family:Lavi;-inkscape-font-specification:Lavi;text-align:center;letter-spacing:0px;word-spacing:0px;text-anchor:middle;fill:#000000;fill-opacity:1;stroke:none"
       x="2084.2942"
       y="614.01355"
       id="text4246-3-2-2-3-3-67-2-3"><tspan
         style="font-size:45px"
         sodipodi:role="line"
         x="2084.2942"
         y="614.01355"
         id="tspan1016-9-6">И ты напала на </tspan><tspan
         style="font-size:45px"
         sodipodi:role="line"
         x="2084.2942"
         y="670.26355"
         id="tspan1132">неё! Она не будет </tspan><tspan
         style="font-size:45px"
         sodipodi:role="line"
         x="2084.2942"
         y="726.51355"
         id="tspan9005">снисходительна к тебе.</tspan></text>
    <text
       xml:space="preserve"
       style="font-style:normal;font-variant:normal;font-weight:normal;font-stretch:normal;font-size:45px;line-height:1.25;font-family:Lavi;-inkscape-font-specification:Lavi;text-align:center;letter-spacing:0px;word-spacing:0px;text-anchor:middle;fill:#000000;fill-opacity:1;stroke:none"
       x="349.56961"
       y="2138.6455"
       id="text4246-3-2-2-3-3-6-67"><tspan
         style="font-size:45px"
         sodipodi:role="line"
         x="349.56961"
         y="2138.6455"
         id="tspan1191-3">Я знаю</tspan></text>
    <text
       xml:space="preserve"
       style="font-style:normal;font-variant:normal;font-weight:normal;font-stretch:normal;font-size:45px;line-height:1.25;font-family:Lavi;-inkscape-font-specification:Lavi;text-align:center;letter-spacing:0px;word-spacing:0px;text-anchor:middle;fill:#000000;fill-opacity:1;stroke:none"
       x="743.62054"
       y="1442.3682"
       id="text4246-3-2-2-3-3-6"><tspan
         style="font-size:45px"
         sodipodi:role="line"
         x="743.62054"
         y="1442.3682"
         id="tspan909">В любом случае, мне</tspan><tspan
         style="font-size:45px"
         sodipodi:role="line"
         x="743.62054"
         y="1498.6182"
         id="tspan11095">нужно немного</tspan><tspan
         style="font-size:45px"
         sodipodi:role="line"
         x="743.62054"
         y="1554.8682"
         id="tspan12841">вздремнуть.</tspan></text>
    <text
       xml:space="preserve"
       style="font-style:normal;font-variant:normal;font-weight:normal;font-stretch:normal;font-size:45px;line-height:1.25;font-family:Lavi;-inkscape-font-specification:Lavi;text-align:center;letter-spacing:0px;word-spacing:0px;text-anchor:middle;fill:#000000;fill-opacity:1;stroke:none"
       x="863.08191"
       y="1619.2286"
       id="text4246-3-2-2-3-3-6-6"><tspan
         style="font-size:45px"
         sodipodi:role="line"
         x="863.08191"
         y="1619.2286"
         id="tspan977">Мы полетим </tspan><tspan
         style="font-size:45px"
         sodipodi:role="line"
         x="863.08191"
         y="1675.4786"
         id="tspan949">когда я проснусь.</tspan></text>
    <text
       xml:space="preserve"
       style="font-style:normal;font-variant:normal;font-weight:normal;font-stretch:normal;font-size:45px;line-height:1.25;font-family:Lavi;-inkscape-font-specification:Lavi;text-align:center;letter-spacing:0px;word-spacing:0px;text-anchor:middle;fill:#000000;fill-opacity:1;stroke:none"
       x="1106.4032"
       y="1751.861"
       id="text4246-3-2-2-3-3-6-2"><tspan
         style="font-size:45px"
         sodipodi:role="line"
         x="1106.4032"
         y="1751.861"
         id="tspan986">Делай что хочешь,</tspan><tspan
         style="font-size:45px"
         sodipodi:role="line"
         x="1106.4032"
         y="1808.111"
         id="tspan958">но не уходи далеко...</tspan></text>
    <text
       xml:space="preserve"
       style="font-style:normal;font-variant:normal;font-weight:normal;font-stretch:normal;line-height:0%;font-family:Lavi;-inkscape-font-specification:Lavi;letter-spacing:0px;word-spacing:0px;display:inline;fill:#ffffff;fill-opacity:1;stroke:#5f8dd3;stroke-width:0.992362;stroke-miterlimit:4;stroke-dasharray:none;stroke-opacity:1;filter:url(#filter4375-4-1-1-1-9-3-2-3-8-7-6-4-9)"
       x="787.65729"
       y="1584.5073"
       id="text4580-5-0-6-2-8-5-9-9"
       transform="matrix(0.71138619,-0.38856964,0.42362052,1.0933045,-1095.3818,1936.127)"><tspan
         sodipodi:role="line"
         id="tspan4582-6-9-1-3-9-5-3-3"
         x="787.65729"
         y="1584.5073"
         style="font-size:70px;line-height:1.25;fill:#ffffff;stroke:#5f8dd3">Хлюп</tspan></text>
    <text
       xml:space="preserve"
       style="font-style:normal;font-variant:normal;font-weight:normal;font-stretch:normal;font-size:45px;line-height:1.25;font-family:Lavi;-inkscape-font-specification:Lavi;text-align:center;letter-spacing:0px;word-spacing:0px;text-anchor:middle;fill:#000000;fill-opacity:1;stroke:none"
       x="1861.7039"
       y="2364.5269"
       id="text4246-3-2-2-3-3-6-2-9"><tspan
         style="font-size:45px"
         sodipodi:role="line"
         x="1861.7039"
         y="2364.5269"
         id="tspan1017-0">Какая</tspan><tspan
         style="font-size:45px"
         sodipodi:role="line"
         x="1861.7039"
         y="2420.7769"
         id="tspan1078">странная</tspan><tspan
         style="font-size:45px"
         sodipodi:role="line"
         x="1861.7039"
         y="2477.0269"
         id="tspan1080">ведьма.</tspan></text>
  </g>
</svg>
