<?xml version="1.0" encoding="UTF-8" standalone="no"?>
<!-- Created with Inkscape (http://www.inkscape.org/) -->

<svg
   xmlns:dc="http://purl.org/dc/elements/1.1/"
   xmlns:cc="http://creativecommons.org/ns#"
   xmlns:rdf="http://www.w3.org/1999/02/22-rdf-syntax-ns#"
   xmlns:svg="http://www.w3.org/2000/svg"
   xmlns="http://www.w3.org/2000/svg"
   xmlns:xlink="http://www.w3.org/1999/xlink"
   xmlns:sodipodi="http://sodipodi.sourceforge.net/DTD/sodipodi-0.dtd"
   xmlns:inkscape="http://www.inkscape.org/namespaces/inkscape"
   id="svg2"
   version="1.1"
   inkscape:version="0.92.3 (2405546, 2018-03-11)"
   width="2481"
   height="3503"
   sodipodi:docname="E08P04.svg">
  <metadata
     id="metadata8">
    <rdf:RDF>
      <cc:Work
         rdf:about="">
        <dc:format>image/svg+xml</dc:format>
        <dc:type
           rdf:resource="http://purl.org/dc/dcmitype/StillImage" />
        <dc:title />
      </cc:Work>
    </rdf:RDF>
  </metadata>
  <defs
     id="defs6" />
  <sodipodi:namedview
     pagecolor="#ffffff"
     bordercolor="#666666"
     borderopacity="1"
     objecttolerance="10"
     gridtolerance="10"
     guidetolerance="10"
     inkscape:pageopacity="0"
     inkscape:pageshadow="2"
     inkscape:window-width="1920"
     inkscape:window-height="1017"
     id="namedview4"
     showgrid="false"
     inkscape:zoom="0.45740261"
     inkscape:cx="1116.635"
     inkscape:cy="2479.0945"
     inkscape:window-x="-8"
     inkscape:window-y="-8"
     inkscape:window-maximized="1"
     inkscape:current-layer="layer3" />
  <g
     inkscape:groupmode="layer"
     id="layer2"
     inkscape:label="artwork"
     sodipodi:insensitive="true">
    <image
       sodipodi:absref="C:\Users\ato\OneDrive - Høgskulen i Volda\Vevsida\Teikneseriesida\Pepar &amp; Gulrot\ep08_Pepper-s-Birthday-Party_lang-pack\lang\nn\../gfx_Pepper-and-Carrot_by-David-Revoy_E08P04.png"
       xlink:href="../gfx_Pepper-and-Carrot_by-David-Revoy_E08P04.png"
       y="0"
       x="0"
       id="image10"
       height="3503"
       width="2481" />
  </g>
  <g
     inkscape:groupmode="layer"
     id="layer3"
     inkscape:label="speechbubbles">
    <path
       style="color:#000000;display:inline;overflow:visible;visibility:visible;fill:#ffffff;fill-opacity:1;fill-rule:nonzero;stroke:none;stroke-width:0.91911221px;marker:none;enable-background:accumulate"
       d="m 998.44176,478.79801 c 0.1442,-50.46581 52.41624,-53.49254 202.74984,-50.29781 102.3775,2.17561 182.4114,-3.56456 198.2712,50.13596 19.4973,66.0168 -86.1784,48.26914 -125.4405,52.00232 -154.1529,-5.39036 -280.34236,13.96545 -275.58054,-51.84047 z"
       id="path4546-0-5"
       inkscape:connector-curvature="0"
       sodipodi:nodetypes="csscc" />
    <path
       style="color:#000000;display:inline;overflow:visible;visibility:visible;fill:#ffffff;fill-opacity:1;fill-rule:nonzero;stroke:none;stroke-width:0.71860969px;marker:none;enable-background:accumulate"
       d="m 1195.073,534.67441 c 0.1054,-14.43344 38.3314,-55.36498 148.2052,-50.88167 58.8545,2.40146 138.5364,-1.36166 140.6527,50.70302 2.1984,54.08353 -115.5028,52.49043 -135.2371,54.09494 -19.7344,1.60458 -83.4923,1.82686 -116.6667,-11.81542 -28.2776,-11.62852 -36.8428,-22.43782 -36.9541,-42.10087 z"
       id="path4546"
       inkscape:connector-curvature="0"
       sodipodi:nodetypes="cssssc" />
    <flowRoot
       xml:space="preserve"
       id="flowRoot2987-4-9-3"
       style="font-style:normal;font-variant:normal;font-weight:normal;font-stretch:normal;line-height:0.01%;font-family:Lavi;-inkscape-font-specification:Lavi;text-align:center;letter-spacing:0px;word-spacing:0px;text-anchor:middle;fill:#000000;fill-opacity:1;stroke:none"
       transform="matrix(0.80285874,0,0,0.80285874,1004.6252,300.75289)"><flowRegion
         id="flowRegion2989-5-4-5"><rect
           id="rect2991-7-9-6"
           width="602.40173"
           height="310.73996"
           x="120.55251"
           y="265.53046"
           style="font-style:normal;font-variant:normal;font-weight:normal;font-stretch:normal;font-family:Lavi;-inkscape-font-specification:Lavi;text-align:center;text-anchor:middle" /></flowRegion><flowPara
         style="font-size:53.1434288px;line-height:1.25;text-align:center;text-anchor:middle"
         id="flowPara3013">... snart ...</flowPara></flowRoot>    <path
       style="color:#000000;display:inline;overflow:visible;visibility:visible;fill:#ffffff;fill-opacity:1;fill-rule:nonzero;stroke:none;stroke-width:0.60263783px;marker:none;enable-background:accumulate"
       d="m 945.81227,418.17024 c 0.0904,-28.43572 32.75072,-55.21106 126.62863,-51.08578 50.286,2.2097 123.4843,15.81255 123.8315,50.92139 0.6915,69.90539 -92.0305,52.55529 -116.6193,54.51095 -24.6449,1.96014 -74.546,1.37023 -102.26671,-12.76623 -17.26718,-8.80553 -32.34071,-15.91008 -31.57412,-41.58033 z"
       id="path4546-0"
       inkscape:connector-curvature="0"
       sodipodi:nodetypes="cssssc" />
    <flowRoot
       xml:space="preserve"
       id="flowRoot2987-4-9-3-3"
       style="font-style:normal;font-variant:normal;font-weight:normal;font-stretch:normal;line-height:0.01%;font-family:Lavi;-inkscape-font-specification:Lavi;text-align:center;letter-spacing:0px;word-spacing:0px;text-anchor:middle;fill:#000000;fill-opacity:1;stroke:none"
       transform="matrix(0.89316914,0,0,0.89316914,694.34251,151.77298)"><flowRegion
         id="flowRegion2989-5-4-5-3"><rect
           id="rect2991-7-9-6-8"
           width="602.40173"
           height="310.73996"
           x="120.55251"
           y="265.53046"
           style="font-style:normal;font-variant:normal;font-weight:normal;font-stretch:normal;font-family:Lavi;-inkscape-font-specification:Lavi;text-align:center;text-anchor:middle" /></flowRegion><flowPara
         style="font-size:47.76997375px;line-height:1.25;text-align:center;text-anchor:middle"
         id="flowPara3051">Men ... </flowPara><flowPara
         style="font-size:47.76997375px;line-height:1.25;text-align:center;text-anchor:middle"
         id="flowPara3372"> </flowPara></flowRoot>    <path
       style="color:#000000;fill:#ffffff;fill-opacity:1;fill-rule:nonzero;stroke:none;stroke-width:1px;marker:none;visibility:visible;display:inline;overflow:visible;enable-background:accumulate"
       d="m 1390.4444,579.0932 c 18.7289,5.11471 39.3681,13.94076 42.3389,17.10636 2.9707,3.16561 3.5403,29.0288 9.435,31.36015 5.8946,2.33123 19.9529,-4.23421 23.181,-1.87166 3.2281,2.36253 6.9164,21.25493 11.735,22.7987 4.8187,1.54378 31.4537,-1.43509 33.8787,0.67009 2.425,2.10524 15.6258,13.41875 31.9608,19.09482 -24.538,-22.91551 -24.3587,-30.38519 -30.2534,-32.71645 -5.8946,-2.33133 -22.6507,1.59871 -27.2277,-2.08151 -4.577,-3.68014 -8.5227,-21.76961 -14.9476,-23.8279 -6.4248,-2.05835 -17.3175,1.53629 -17.3175,1.53629 1.5283,-6.15207 4.6076,-39.25886 -25.7157,-55.17241 -30.3235,-15.91365 -37.0675,23.10352 -37.0675,23.10352 z"
       id="path5050"
       inkscape:connector-curvature="0" />
    <text
       xml:space="preserve"
       style="font-style:normal;font-weight:normal;line-height:0%;font-family:sans-serif;letter-spacing:0px;word-spacing:0px;fill:#000000;fill-opacity:1;stroke:none;stroke-width:1px;stroke-linecap:butt;stroke-linejoin:miter;stroke-opacity:1"
       x="1030.2728"
       y="492.63382"
       id="text4160"><tspan
         sodipodi:role="line"
         id="tspan4162"
         x="1030.2728"
         y="492.63382"
         style="font-style:normal;font-variant:normal;font-weight:normal;font-stretch:normal;font-size:42.66666794px;line-height:1.25;font-family:Lavi;-inkscape-font-specification:Lavi">... dei kjem nok ... </tspan></text>
  </g>
  <g
     inkscape:groupmode="layer"
     id="layer1"
     inkscape:label="txt" />
</svg>
