<?xml version="1.0" encoding="UTF-8" standalone="no"?>
<svg
   xmlns:dc="http://purl.org/dc/elements/1.1/"
   xmlns:cc="http://creativecommons.org/ns#"
   xmlns:rdf="http://www.w3.org/1999/02/22-rdf-syntax-ns#"
   xmlns:svg="http://www.w3.org/2000/svg"
   xmlns="http://www.w3.org/2000/svg"
   xmlns:xlink="http://www.w3.org/1999/xlink"
   xmlns:sodipodi="http://sodipodi.sourceforge.net/DTD/sodipodi-0.dtd"
   xmlns:inkscape="http://www.inkscape.org/namespaces/inkscape"
   sodipodi:docname="E26P07.svg"
   height="5350"
   width="2481"
   inkscape:version="1.0 (4035a4fb49, 2020-05-01)"
   version="1.1"
   id="svg2">
  <metadata
     id="metadata8">
    <rdf:RDF>
      <cc:Work
         rdf:about="">
        <dc:format>image/svg+xml</dc:format>
        <dc:type
           rdf:resource="http://purl.org/dc/dcmitype/StillImage" />
        <dc:title />
      </cc:Work>
    </rdf:RDF>
  </metadata>
  <defs
     id="defs6">
    <filter
       style="color-interpolation-filters:sRGB"
       id="filter5546"
       inkscape:label="Drop Shadow">
      <feFlood
         id="feFlood5548"
         result="flood"
         flood-color="rgb(0,0,0)"
         flood-opacity="1" />
      <feComposite
         id="feComposite5550"
         result="composite1"
         operator="in"
         in2="SourceGraphic"
         in="flood" />
      <feGaussianBlur
         id="feGaussianBlur5552"
         result="blur"
         stdDeviation="1"
         in="composite1" />
      <feOffset
         id="feOffset5554"
         result="offset"
         dy="2.5"
         dx="2.5" />
      <feComposite
         id="feComposite5556"
         result="composite2"
         operator="over"
         in2="offset"
         in="SourceGraphic" />
    </filter>
  </defs>
  <sodipodi:namedview
     inkscape:document-rotation="0"
     inkscape:guide-bbox="true"
     showguides="true"
     inkscape:object-nodes="true"
     inkscape:current-layer="layer2"
     inkscape:window-maximized="1"
     inkscape:window-y="0"
     inkscape:window-x="0"
     inkscape:cy="5077.2573"
     inkscape:cx="1277.4908"
     inkscape:zoom="0.41986485"
     showgrid="false"
     id="namedview4"
     inkscape:window-height="776"
     inkscape:window-width="1280"
     inkscape:pageshadow="2"
     inkscape:pageopacity="0"
     guidetolerance="10"
     gridtolerance="10"
     objecttolerance="10"
     borderopacity="1"
     bordercolor="#666666"
     pagecolor="#ffffff">
    <sodipodi:guide
       inkscape:locked="false"
       id="guide4214"
       orientation="0,1"
       position="809.24474,5258.8901" />
  </sodipodi:namedview>
  <g
     sodipodi:insensitive="true"
     transform="translate(0,1374)"
     style="display:inline"
     inkscape:label="artwork"
     id="layer1"
     inkscape:groupmode="layer">
    <image
       sodipodi:absref="/home/peppercarrot/webcomics/"
       xlink:href="../gfx_Pepper-and-Carrot_by-David-Revoy_E26P07.png"
       width="2481"
       height="5350"
       preserveAspectRatio="none"
       style="image-rendering:optimizeQuality"
       id="image4223"
       x="0.54707891"
       y="-1373.3771" />
  </g>
  <g
     transform="translate(0,1374)"
     style="display:inline"
     inkscape:label="speechbubbles"
     id="layer3"
     inkscape:groupmode="layer" />
  <g
     transform="translate(0,1374)"
     style="display:inline;opacity:0.85500004"
     inkscape:label="text"
     id="layer2"
     inkscape:groupmode="layer">
    <text
       id="text4221-3"
       y="3866.3718"
       x="1244.9218"
       style="font-style:normal;font-variant:normal;font-weight:normal;font-stretch:normal;line-height:0%;font-family:Arial;-inkscape-font-specification:Arial;text-align:center;letter-spacing:0px;word-spacing:0px;text-anchor:middle;display:inline;opacity:0.855;fill:#483e37;fill-opacity:1;stroke:none;filter:url(#filter4155)"
       xml:space="preserve"><tspan
         style="font-style:normal;font-variant:normal;font-weight:normal;font-stretch:normal;font-size:40px;line-height:1.25;font-family:Lavi;-inkscape-font-specification:Lavi;fill:#483e37"
         y="3866.3718"
         x="1244.9218"
         id="tspan4223-6"
         sodipodi:role="line">Tu también puedes patrocinar a Pepper&amp;Carrot en www.patreon.com/davidrevoy</tspan></text>
    <text
       id="text4162-7"
       y="-375.95468"
       x="1243.3711"
       style="font-style:normal;font-variant:normal;font-weight:normal;font-stretch:normal;line-height:0%;font-family:Arial;-inkscape-font-specification:Arial;text-align:center;letter-spacing:0px;word-spacing:0px;text-anchor:middle;display:inline;opacity:0.855;fill:#483e37;fill-opacity:1;stroke:none;filter:url(#filter4155)"
       xml:space="preserve"><tspan
         id="tspan862"
         style="font-style:normal;font-variant:normal;font-weight:normal;font-stretch:normal;font-size:40px;line-height:1.25;font-family:Lavi;-inkscape-font-specification:Lavi;fill:#483e37"
         y="-375.95468"
         x="1243.3711"
         sodipodi:role="line">Pepper&amp;Carrot es totalmente hecho con código libre y </tspan><tspan
         id="tspan843"
         style="font-style:normal;font-variant:normal;font-weight:normal;font-stretch:normal;font-size:40px;line-height:1.25;font-family:Lavi;-inkscape-font-specification:Lavi;fill:#483e37"
         y="-325.95468"
         x="1243.3711"
         sodipodi:role="line">es posible gracias al patrocinio de sus lectores.</tspan><tspan
         id="tspan845"
         style="font-style:normal;font-variant:normal;font-weight:normal;font-stretch:normal;font-size:40px;line-height:1.25;font-family:Lavi;-inkscape-font-specification:Lavi;fill:#483e37"
         y="-275.95468"
         x="1243.3711"
         sodipodi:role="line">En este episodio agradecemos a 1098 contribuyentes:</tspan></text>
    <text
       xml:space="preserve"
       style="color:#000000;font-style:normal;font-variant:normal;font-weight:normal;font-stretch:normal;font-size:12.1717px;line-height:0%;font-family:Lavi;-inkscape-font-specification:Lavi;text-indent:0;text-align:center;text-decoration:none;text-decoration-line:none;letter-spacing:0px;word-spacing:0px;text-transform:none;writing-mode:lr-tb;direction:ltr;baseline-shift:baseline;text-anchor:middle;display:inline;overflow:visible;visibility:visible;opacity:0.855;fill:#060404;fill-opacity:1;fill-rule:nonzero;stroke:none;stroke-width:1.01431;enable-background:accumulate"
       x="1250.8"
       y="-1256.5934"
       id="text4151"><tspan
         id="tspan1046"
         sodipodi:role="line"
         style="color:#000000;font-style:normal;font-variant:normal;font-weight:normal;font-stretch:normal;font-size:35.7153px;line-height:125%;font-family:Lavi;-inkscape-font-specification:Lavi;text-indent:0;text-align:center;text-decoration:none;text-decoration-line:none;letter-spacing:0px;word-spacing:0px;text-transform:none;writing-mode:lr-tb;direction:ltr;baseline-shift:baseline;text-anchor:middle;display:inline;overflow:visible;visibility:visible;fill:#060404;fill-opacity:1;fill-rule:nonzero;stroke:none;stroke-width:1.01431;enable-background:accumulate"
         x="1250.8"
         y="-1256.5934"><tspan
   id="tspan1048"
   style="font-style:normal;font-variant:normal;font-weight:bold;font-stretch:normal;font-size:35.7153px;font-family:Lavi;-inkscape-font-specification:'Lavi Bold';fill:#060404;fill-opacity:1;stroke-width:1.01431">Licencia: </tspan>Creative Commons Atribución 4.0.</tspan><tspan
         id="tspan7821"
         sodipodi:role="line"
         style="color:#000000;font-style:normal;font-variant:normal;font-weight:normal;font-stretch:normal;font-size:35.7153px;line-height:125%;font-family:Lavi;-inkscape-font-specification:Lavi;text-indent:0;text-align:center;text-decoration:none;text-decoration-line:none;letter-spacing:0px;word-spacing:0px;text-transform:none;writing-mode:lr-tb;direction:ltr;baseline-shift:baseline;text-anchor:middle;display:inline;overflow:visible;visibility:visible;fill:#060404;fill-opacity:1;fill-rule:nonzero;stroke:none;stroke-width:1.01431;enable-background:accumulate"
         x="1250.8"
         y="-1211.9492"><tspan
   id="tspan7823"
   style="font-weight:bold">Software:</tspan> Krita 4.1, Inkscape 0.92.3 en Kubuntu 17.10.</tspan><tspan
         id="tspan1001"
         sodipodi:role="line"
         style="color:#000000;font-style:normal;font-variant:normal;font-weight:normal;font-stretch:normal;font-size:35.7153px;line-height:125%;font-family:Lavi;-inkscape-font-specification:Lavi;text-indent:0;text-align:center;text-decoration:none;text-decoration-line:none;letter-spacing:0px;word-spacing:0px;text-transform:none;writing-mode:lr-tb;direction:ltr;baseline-shift:baseline;text-anchor:middle;display:inline;overflow:visible;visibility:visible;fill:#060404;fill-opacity:1;fill-rule:nonzero;stroke:none;stroke-width:1.01431;enable-background:accumulate"
         x="1250.8"
         y="-1167.3052"> </tspan><tspan
         id="tspan988"
         sodipodi:role="line"
         style="color:#000000;font-style:normal;font-variant:normal;font-weight:normal;font-stretch:normal;font-size:35.7153px;line-height:125%;font-family:Lavi;-inkscape-font-specification:Lavi;text-indent:0;text-align:center;text-decoration:none;text-decoration-line:none;letter-spacing:0px;word-spacing:0px;text-transform:none;writing-mode:lr-tb;direction:ltr;baseline-shift:baseline;text-anchor:middle;display:inline;overflow:visible;visibility:visible;fill:#060404;fill-opacity:1;fill-rule:nonzero;stroke:none;stroke-width:1.01431;enable-background:accumulate"
         x="1250.8"
         y="-1122.661"><tspan
   id="tspan883"
   style="font-style:normal;font-variant:normal;font-weight:bold;font-stretch:normal;font-size:35.7153px;font-family:Lavi;-inkscape-font-specification:'Lavi Bold';fill:#060404;fill-opacity:1;stroke-width:1.01431">Guion e ilustración: </tspan>David Revoy.</tspan><tspan
         id="tspan943"
         sodipodi:role="line"
         style="color:#000000;font-style:normal;font-variant:normal;font-weight:normal;font-stretch:normal;font-size:35.7153px;line-height:125%;font-family:Lavi;-inkscape-font-specification:Lavi;text-indent:0;text-align:center;text-decoration:none;text-decoration-line:none;letter-spacing:0px;word-spacing:0px;text-transform:none;writing-mode:lr-tb;direction:ltr;baseline-shift:baseline;text-anchor:middle;display:inline;overflow:visible;visibility:visible;fill:#060404;fill-opacity:1;fill-rule:nonzero;stroke:none;stroke-width:1.01431;enable-background:accumulate"
         x="1250.8"
         y="-1078.0168"><tspan
   id="tspan945"
   style="font-style:normal;font-variant:normal;font-weight:bold;font-stretch:normal;font-size:35.7153px;font-family:Lavi;-inkscape-font-specification:'Lavi Bold';fill:#060404;fill-opacity:1;stroke-width:1.01431">Corrector de guion:</tspan> Craig Maloney.</tspan><tspan
         id="tspan947"
         sodipodi:role="line"
         style="color:#000000;font-style:normal;font-variant:normal;font-weight:normal;font-stretch:normal;font-size:35.7153px;line-height:125%;font-family:Lavi;-inkscape-font-specification:Lavi;text-indent:0;text-align:center;text-decoration:none;text-decoration-line:none;letter-spacing:0px;word-spacing:0px;text-transform:none;writing-mode:lr-tb;direction:ltr;baseline-shift:baseline;text-anchor:middle;display:inline;overflow:visible;visibility:visible;fill:#060404;fill-opacity:1;fill-rule:nonzero;stroke:none;stroke-width:1.01431;enable-background:accumulate"
         x="1250.8"
         y="-1033.3728"><tspan
   id="tspan949"
   style="font-style:normal;font-variant:normal;font-weight:bold;font-stretch:normal;font-size:35.7153px;font-family:Lavi;-inkscape-font-specification:'Lavi Bold';fill:#060404;fill-opacity:1;stroke-width:1.01431">Correctores:</tspan> Craig Maloney, CalimeroTeknik.</tspan><tspan
         id="tspan1038"
         sodipodi:role="line"
         style="color:#000000;font-style:normal;font-variant:normal;font-weight:bold;font-stretch:normal;font-size:35.7153px;line-height:125%;font-family:Lavi;-inkscape-font-specification:'Lavi Bold';text-indent:0;text-align:center;text-decoration:none;text-decoration-line:none;letter-spacing:0px;word-spacing:0px;text-transform:none;writing-mode:lr-tb;direction:ltr;baseline-shift:baseline;text-anchor:middle;display:inline;overflow:visible;visibility:visible;fill:#060404;fill-opacity:1;fill-rule:nonzero;stroke:none;stroke-width:1.01431;enable-background:accumulate"
         x="1250.8"
         y="-988.72864">Lectura de prueba:<tspan
   style="color:#000000;font-style:normal;font-variant:normal;font-weight:normal;font-stretch:normal;font-size:35.7153px;line-height:125%;font-family:Lavi;-inkscape-font-specification:Lavi;text-indent:0;text-align:center;text-decoration:none;text-decoration-line:none;letter-spacing:0px;word-spacing:0px;text-transform:none;writing-mode:lr-tb;direction:ltr;baseline-shift:baseline;text-anchor:middle;display:inline;overflow:visible;visibility:visible;fill:#060404;fill-opacity:1;fill-rule:nonzero;stroke:none;stroke-width:1.01431;enable-background:accumulate"
   id="tspan1015"> Ambernite, Craig Maloney, CalimeroTeknik, Jookia, Midgard, Nartance, Popolon, Quiralta, Valvin, xHire, Zeograd.</tspan></tspan><tspan
         id="tspan7839"
         sodipodi:role="line"
         style="color:#000000;font-style:normal;font-variant:normal;font-weight:bold;font-stretch:normal;font-size:18.6667px;line-height:125%;font-family:Lavi;-inkscape-font-specification:'Lavi Bold';text-indent:0;text-align:center;text-decoration:none;text-decoration-line:none;letter-spacing:0px;word-spacing:0px;text-transform:none;writing-mode:lr-tb;direction:ltr;baseline-shift:baseline;text-anchor:middle;display:inline;overflow:visible;visibility:visible;fill:#060404;fill-opacity:1;fill-rule:nonzero;stroke:none;stroke-width:1.01431;enable-background:accumulate"
         x="1250.8"
         y="-959.70874"> </tspan><tspan
         id="tspan7833"
         sodipodi:role="line"
         style="color:#000000;font-style:normal;font-variant:normal;font-weight:bold;font-stretch:normal;font-size:35.7153px;line-height:125%;font-family:Lavi;-inkscape-font-specification:'Lavi Bold';text-indent:0;text-align:center;text-decoration:none;text-decoration-line:none;letter-spacing:0px;word-spacing:0px;text-transform:none;writing-mode:lr-tb;direction:ltr;baseline-shift:baseline;text-anchor:middle;display:inline;overflow:visible;visibility:visible;fill:#060404;fill-opacity:1;fill-rule:nonzero;stroke:none;stroke-width:1.01431;enable-background:accumulate"
         x="1250.8"
         y="-920.7511">Traducción:<tspan
   id="tspan7835"
   style="font-weight:normal"> Quiralta.</tspan></tspan><tspan
         id="tspan1018"
         sodipodi:role="line"
         style="color:#000000;font-style:normal;font-variant:normal;font-weight:bold;font-stretch:normal;font-size:35.7153px;line-height:125%;font-family:Lavi;-inkscape-font-specification:'Lavi Bold';text-indent:0;text-align:center;text-decoration:none;text-decoration-line:none;letter-spacing:0px;word-spacing:0px;text-transform:none;writing-mode:lr-tb;direction:ltr;baseline-shift:baseline;text-anchor:middle;display:inline;overflow:visible;visibility:visible;fill:#060404;fill-opacity:1;fill-rule:nonzero;stroke:none;stroke-width:1.01431;enable-background:accumulate"
         x="1250.8"
         y="-876.10699">Software (traducción): <tspan
   id="tspan922"
   style="font-weight:normal;stroke-width:1.01431">Plasma on </tspan><tspan
   id="tspan914"
   style="font-style:normal;font-variant:normal;font-weight:normal;font-stretch:normal;font-family:Lavi;-inkscape-font-specification:Lavi;stroke-width:1.01431">Arch Linux.</tspan></tspan><tspan
         id="tspan1026"
         sodipodi:role="line"
         style="color:#000000;font-style:normal;font-variant:normal;font-weight:bold;font-stretch:normal;font-size:35.7153px;line-height:125%;font-family:Lavi;-inkscape-font-specification:'Lavi Bold';text-indent:0;text-align:center;text-decoration:none;text-decoration-line:none;letter-spacing:0px;word-spacing:0px;text-transform:none;writing-mode:lr-tb;direction:ltr;baseline-shift:baseline;text-anchor:middle;display:inline;overflow:visible;visibility:visible;fill:#060404;fill-opacity:1;fill-rule:nonzero;stroke:none;stroke-width:1.01431;enable-background:accumulate"
         x="1250.8"
         y="-831.46289"> </tspan><tspan
         id="tspan1028"
         sodipodi:role="line"
         style="color:#000000;font-style:normal;font-variant:normal;font-weight:bold;font-stretch:normal;font-size:35.7153px;line-height:125%;font-family:Lavi;-inkscape-font-specification:'Lavi Bold';text-indent:0;text-align:center;text-decoration:none;text-decoration-line:none;letter-spacing:0px;word-spacing:0px;text-transform:none;writing-mode:lr-tb;direction:ltr;baseline-shift:baseline;text-anchor:middle;display:inline;overflow:visible;visibility:visible;fill:#060404;fill-opacity:1;fill-rule:nonzero;stroke:none;stroke-width:1.01431;enable-background:accumulate"
         x="1250.8"
         y="-786.81873">Basado en el universo de Hereva</tspan><tspan
         id="tspan979"
         sodipodi:role="line"
         style="color:#000000;font-style:normal;font-variant:normal;font-weight:normal;font-stretch:normal;font-size:35.7153px;line-height:125%;font-family:Lavi;-inkscape-font-specification:Lavi;text-indent:0;text-align:center;text-decoration:none;text-decoration-line:none;letter-spacing:0px;word-spacing:0px;text-transform:none;writing-mode:lr-tb;direction:ltr;baseline-shift:baseline;text-anchor:middle;display:inline;overflow:visible;visibility:visible;fill:#060404;fill-opacity:1;fill-rule:nonzero;stroke:none;stroke-width:1.01431;enable-background:accumulate"
         x="1250.8"
         y="-742.17462"><tspan
   id="tspan987"
   style="font-weight:bold;font-size:35.7153px;stroke-width:1.01431">Creado por:</tspan> David Revoy.</tspan><tspan
         id="tspan981"
         sodipodi:role="line"
         style="color:#000000;font-style:normal;font-variant:normal;font-weight:normal;font-stretch:normal;font-size:35.7153px;line-height:125%;font-family:Lavi;-inkscape-font-specification:Lavi;text-indent:0;text-align:center;text-decoration:none;text-decoration-line:none;letter-spacing:0px;word-spacing:0px;text-transform:none;writing-mode:lr-tb;direction:ltr;baseline-shift:baseline;text-anchor:middle;display:inline;overflow:visible;visibility:visible;fill:#060404;fill-opacity:1;fill-rule:nonzero;stroke:none;stroke-width:1.01431;enable-background:accumulate"
         x="1250.8"
         y="-697.53046"><tspan
   id="tspan989"
   style="font-weight:bold;font-size:35.7153px;stroke-width:1.01431">Administrador:</tspan> Craig Maloney.</tspan><tspan
         id="tspan983"
         sodipodi:role="line"
         style="color:#000000;font-style:normal;font-variant:normal;font-weight:normal;font-stretch:normal;font-size:35.7153px;line-height:125%;font-family:Lavi;-inkscape-font-specification:Lavi;text-indent:0;text-align:center;text-decoration:none;text-decoration-line:none;letter-spacing:0px;word-spacing:0px;text-transform:none;writing-mode:lr-tb;direction:ltr;baseline-shift:baseline;text-anchor:middle;display:inline;overflow:visible;visibility:visible;fill:#060404;fill-opacity:1;fill-rule:nonzero;stroke:none;stroke-width:1.01431;enable-background:accumulate"
         x="1250.8"
         y="-652.88635"><tspan
   id="tspan991"
   style="font-weight:bold;font-size:35.7153px;stroke-width:1.01431">Redactores:</tspan> Craig Maloney, Nartance, Scribblemaniac, Valvin.</tspan><tspan
         id="tspan985"
         sodipodi:role="line"
         style="color:#000000;font-style:normal;font-variant:normal;font-weight:normal;font-stretch:normal;font-size:35.7153px;line-height:125%;font-family:Lavi;-inkscape-font-specification:Lavi;text-indent:0;text-align:center;text-decoration:none;text-decoration-line:none;letter-spacing:0px;word-spacing:0px;text-transform:none;writing-mode:lr-tb;direction:ltr;baseline-shift:baseline;text-anchor:middle;display:inline;overflow:visible;visibility:visible;fill:#060404;fill-opacity:1;fill-rule:nonzero;stroke:none;stroke-width:1.01431;enable-background:accumulate"
         x="1250.8"
         y="-608.24225"><tspan
   id="tspan993"
   style="font-weight:bold;font-size:35.7153px;stroke-width:1.01431">Correctores:</tspan> Willem Sonke, Moini, Hali, CGand, Alex Gryson.</tspan><tspan
         id="tspan1052"
         sodipodi:role="line"
         style="color:#000000;font-style:normal;font-variant:normal;font-weight:normal;font-stretch:normal;font-size:18.6667px;line-height:125%;font-family:Lavi;-inkscape-font-specification:Lavi;text-indent:0;text-align:center;text-decoration:none;text-decoration-line:none;letter-spacing:0px;word-spacing:0px;text-transform:none;writing-mode:lr-tb;direction:ltr;baseline-shift:baseline;text-anchor:middle;display:inline;overflow:visible;visibility:visible;fill:#060404;fill-opacity:1;fill-rule:nonzero;stroke:none;stroke-width:1.01431;enable-background:accumulate"
         x="1250.8"
         y="-579.22235"> </tspan><tspan
         id="tspan995"
         sodipodi:role="line"
         style="color:#000000;font-style:normal;font-variant:normal;font-weight:bold;font-stretch:normal;font-size:35.7153px;line-height:125%;font-family:Lavi;-inkscape-font-specification:'Lavi Bold';text-indent:0;text-align:center;text-decoration:none;text-decoration-line:none;letter-spacing:0px;word-spacing:0px;text-transform:none;writing-mode:lr-tb;direction:ltr;baseline-shift:baseline;text-anchor:middle;display:inline;overflow:visible;visibility:visible;fill:#060404;fill-opacity:1;fill-rule:nonzero;stroke:none;stroke-width:1.01431;enable-background:accumulate"
         x="1250.8"
         y="-540.26471">28 julio 2018</tspan><tspan
         id="tspan842"
         sodipodi:role="line"
         style="color:#000000;font-style:normal;font-variant:normal;font-weight:bold;font-stretch:normal;font-size:35.7153px;line-height:125%;font-family:Lavi;-inkscape-font-specification:'Lavi Bold';text-indent:0;text-align:center;text-decoration:none;text-decoration-line:none;letter-spacing:0px;word-spacing:0px;text-transform:none;writing-mode:lr-tb;direction:ltr;baseline-shift:baseline;text-anchor:middle;display:inline;overflow:visible;visibility:visible;fill:#060404;fill-opacity:1;fill-rule:nonzero;stroke:none;stroke-width:1.01431;enable-background:accumulate"
         x="1250.8"
         y="-495.62061">www.peppercarrot.com</tspan></text>
  </g>
</svg>
