<?xml version="1.0" encoding="UTF-8" standalone="no"?>
<!-- Created with Inkscape (http://www.inkscape.org/) -->

<svg
   xmlns:dc="http://purl.org/dc/elements/1.1/"
   xmlns:cc="http://creativecommons.org/ns#"
   xmlns:rdf="http://www.w3.org/1999/02/22-rdf-syntax-ns#"
   xmlns:svg="http://www.w3.org/2000/svg"
   xmlns="http://www.w3.org/2000/svg"
   xmlns:xlink="http://www.w3.org/1999/xlink"
   xmlns:sodipodi="http://sodipodi.sourceforge.net/DTD/sodipodi-0.dtd"
   xmlns:inkscape="http://www.inkscape.org/namespaces/inkscape"
   id="svg2"
   version="1.1"
   inkscape:version="0.92.2 5c3e80d, 2017-08-06"
   width="2481"
   height="3503"
   sodipodi:docname="E14P02.svg">
  <metadata
     id="metadata8">
    <rdf:RDF>
      <cc:Work
         rdf:about="">
        <dc:format>image/svg+xml</dc:format>
        <dc:type
           rdf:resource="http://purl.org/dc/dcmitype/StillImage" />
        <dc:title />
      </cc:Work>
    </rdf:RDF>
  </metadata>
  <defs
     id="defs6" />
  <sodipodi:namedview
     pagecolor="#ffffff"
     bordercolor="#666666"
     borderopacity="1"
     objecttolerance="10"
     gridtolerance="10"
     guidetolerance="10"
     inkscape:pageopacity="0"
     inkscape:pageshadow="2"
     inkscape:window-width="958"
     inkscape:window-height="1014"
     id="namedview4"
     showgrid="false"
     inkscape:zoom="0.60835003"
     inkscape:cx="730.86834"
     inkscape:cy="2871.5444"
     inkscape:window-x="0"
     inkscape:window-y="41"
     inkscape:window-maximized="0"
     inkscape:current-layer="layer1" />
  <g
     inkscape:groupmode="layer"
     id="layer2"
     inkscape:label="artwork"
     sodipodi:insensitive="true">
    <image
       sodipodi:absref="/home/peppercarrot/webcomics/"
       xlink:href="../gfx_Pepper-and-Carrot_by-David-Revoy_E14P02.png"
       y="0"
       x="0"
       id="image10"
       height="3503"
       width="2481" />
  </g>
  <g
     inkscape:groupmode="layer"
     id="layer3"
     inkscape:label="speechbubbles">
    <path
       style="fill:#ffffff;fill-rule:evenodd;stroke:none;stroke-width:0.89233255px;stroke-linecap:butt;stroke-linejoin:miter;stroke-opacity:1"
       d="m 115.67364,125.01045 c 25.37199,12.84293 63.41856,22.40868 2.61776,57.53267 23.0708,2.26732 51.50937,3.03659 28.79536,18.08169 8.75316,15.34205 -20.74991,30.68409 -41.88417,46.02614 22.10636,-5.37034 44.83638,-14.19368 15.38739,19.28423 15.81788,-0.95142 13.59641,7.80651 -7.5341,26.7419 49.88471,-35.32444 67.26759,-44.16601 69.37066,-16.4379 6.29526,-14.81655 18.53701,-18.68176 10.47104,29.58823 32.6128,-84.74422 4.70711,85.59582 -3.92664,251.49995 16.01978,-76.23729 44.62075,-388.11014 48.42857,-230.13068 25.53711,-113.64788 61.80102,-18.86794 69.37066,-6.57516 -6.35282,-88.47609 40.18757,-51.77102 52.35521,-18.0817 -3.13676,-21.58677 11.78497,-65.06529 56.32176,-11.9905 -10.6191,-19.50565 -3.39207,-39.66182 36.60874,8.70292 -12.13083,-32.25639 10.34099,-41.3421 80.35387,-10.62404 -0.54007,-16.00848 -7.36841,-32.85826 66.24073,-4.17007 -1.38093,-14.70024 -16.38919,-34.9626 83.76834,-8.21895 0.65338,-25.65455 16.78706,-27.19316 44.89573,-15.2327 -4.80195,-22.04605 25.89597,-11.95183 64.80424,2.97228 -24.78087,-30.16714 9.00761,-26.77992 57.8367,-17.32781 -4.74147,-14.61437 -11.52025,-29.62237 17.01547,-37.80719 -29.147,-34.91827 1.32218,-37.0807 10.47102,-50.9575 -20.52672,2.42931 -36.36515,-10.0765 -12.70524,-28.34529 -41.43819,6.75374 -26.22171,-14.35273 -23.94338,-25.8998 l -66.75292,-18.081696 -65.44401,-8.218953 -78.53282,-8.218953 -73.2973,-1.64379 h -74.60618 l -65.44402,3.287581 -56.28185,-8.218953 -57.59073,8.218953 -81.15059,-1.643791 -39.2664,27.944439 z"
       id="path4323"
       inkscape:connector-curvature="0"
       sodipodi:nodetypes="ccccccccccccccccccccccccccccccccccc" />
    <path
       style="fill:#ffffff;stroke:none;stroke-width:0.97413278"
       d="m 790.03899,381.3389 c -1.65064,-29.37566 27.94398,-102.91478 172.30524,-97.38339 144.36137,5.53134 189.54417,37.8436 193.77457,90.05888 6.6923,82.60313 -69.2561,104.67751 -178.311,110.79585 C 865.38397,491.1177 788.29411,434.41606 790.03899,381.3389 Z"
       id="path3280"
       inkscape:connector-curvature="0"
       sodipodi:nodetypes="csssc" />
    <path
       style="color:#000000;display:inline;overflow:visible;visibility:visible;fill:#ffffff;fill-opacity:1;fill-rule:nonzero;stroke:none;stroke-width:1px;marker:none;enable-background:accumulate"
       d="m 816.05405,568.35967 c 39.18491,-37.68963 73.342,-77.76882 65.62626,-117.15486 -10.90688,-55.67559 -9.43261,-29.77014 -9.43261,-29.77014 l 41.81204,36.16737 c 4.42223,-1.37242 6.88006,49.17295 -98.00569,110.75763 z"
       id="path3072"
       inkscape:connector-curvature="0"
       sodipodi:nodetypes="csccc" />
    <path
       style="fill:#ffffff;fill-rule:evenodd;stroke:none;stroke-width:0.86876154px;stroke-linecap:butt;stroke-linejoin:miter;stroke-opacity:1"
       d="m 1376.4408,373.02704 c 6.3906,-30.55229 23.6001,-53.73323 42.3299,-69.20795 8.9134,-7.47095 19.1015,-12.94586 29.5271,-11.50576 10.3571,0.86044 20.4735,5.99789 30.9453,4.21344 12.7333,-0.58935 25.6902,-3.1608 38.2773,0.51355 11.1895,4.00918 22.7179,6.08557 34.2647,6.20599 8.1459,-2.54485 15.5999,4.23787 22.8747,8.29473 6.5309,4.38207 13.2017,8.97958 18.6872,15.75792 5.0539,9.5154 11.1052,17.79366 16.2181,27.22437 3.3455,5.15569 3.024,12.27706 2.8699,18.86777 -0.4345,13.49636 -1.1703,27.2058 -3.9013,40.20841 -1.6344,8.25494 -7.6751,10.9868 -12.3168,14.78008 -10.9827,8.00761 -22.645,14.08004 -33.1267,23.50329 -10.3843,4.82518 -21.42,2.56821 -32.0696,1.83903 -8.9237,-1.43631 -17.9004,-3.43918 -26.9008,-1.7689 -11.4553,1.22232 -22.8758,4.38722 -34.3721,3.98184 -14.4017,-2.78183 -28.1946,-9.63137 -42.1511,-15.12588 -12.5215,-4.84289 -23.9338,-13.94951 -34.8842,-23.69126 -5.8493,-5.53198 -12.0414,-11.96214 -14.1057,-22.15692 -1.6923,-7.01999 -2.091,-14.53671 -2.1659,-21.93375 z"
       id="path4365"
       inkscape:connector-curvature="0" />
    <path
       style="fill:#ffffff;stroke:none"
       d="m 1600.5998,539.46175 c -28.0754,-14.3263 -28.0705,-24.10879 -27.1393,-35.26758 0.931,-11.15875 3.0258,-21.20884 -1.8373,-26.59493 -4.8629,-5.38607 -13.8837,-9.08681 -20.965,-10.93985 -7.0813,-1.85304 -2.5775,-10.15393 -3.484,-17.79341 -0.9066,-7.63954 -20.1711,-44.64576 -20.1711,-44.64576 0,0 -10.2917,29.72026 -10.4833,39.70135 -0.1918,9.98106 -0.313,13.62987 0.7147,17.62055 1.0279,3.99076 5.0156,13.43659 11.7527,17.22018 6.7371,3.78364 14.9313,4.06179 20.6767,5.77151 5.7455,1.70964 6.255,10.50318 7.37,19.09418 1.1149,8.59099 3.3294,14.64819 14.8496,23.66417 9.8749,7.72832 28.7163,12.16959 28.7163,12.16959 z"
       id="path3023"
       inkscape:connector-curvature="0"
       sodipodi:nodetypes="csssscssssssc" />
    <path
       style="fill:#ffffff;fill-rule:evenodd;stroke:none;stroke-width:1px;stroke-linecap:butt;stroke-linejoin:miter;stroke-opacity:1"
       d="m 568.8634,1318.3227 c 104.31326,44.7459 702.5032,155.1743 811.2553,71.8972 58.8149,31.0736 60.5988,42.1012 121.6331,4.8129 89.8869,43.503 111.1049,28.7465 133.2993,20.0459 48.5521,7.5979 70.9469,10.8128 141.1257,39.7648 -74.8014,-20.5225 -93.9086,-23.7561 -138.3472,-25.7747 -64.3635,22.373 -112.0813,-6.2147 -133.1658,-17.4012 -62.5836,39.1667 -64.7247,30.9426 -125.6546,-6.0558 -65.191,62.6405 -404.44384,23.8741 -807.88989,-63.3003 4.43886,-12.4294 -2.25591,-23.9888 -2.25591,-23.9888 z"
       id="path4385"
       inkscape:connector-curvature="0"
       sodipodi:nodetypes="cccccccccc" />
    <path
       style="color:#000000;display:inline;overflow:visible;visibility:visible;fill:#ffffff;fill-opacity:1;fill-rule:nonzero;stroke:none;stroke-width:1px;marker:none;enable-background:accumulate"
       d="m 168.86909,1296.3558 c 17.84931,-24.4048 55.39442,-44.927 104.6339,-53.2468 49.23945,-8.3199 140.33248,-6.1013 156.33539,-3.328 16.00274,2.7733 104.01832,12.757 123.09855,26.6234 19.08036,13.8664 44.93108,31.0607 50.47048,48.8096 5.53958,17.7489 0.61559,60.4574 -17.23377,69.8866 -17.84932,9.4292 -99.09442,29.9512 -146.48749,31.0606 -47.39302,1.1093 -157.56621,-7.7651 -188.95645,-13.8663 -31.39015,-6.1012 -64.62678,-13.8664 -74.47466,-33.2793 -9.84793,-19.413 -28.31273,-44.9271 -7.38595,-72.6598 z"
       id="path3533"
       inkscape:connector-curvature="0" />
    <path
       style="color:#000000;display:inline;overflow:visible;visibility:visible;fill:#ffffff;fill-opacity:1;fill-rule:nonzero;stroke:none;stroke-width:0.87978625px;marker:none;enable-background:accumulate"
       d="m 989.04114,1419.7186 c 0.67404,-33.5988 9.39307,-48.879 43.07036,-54.035 34.433,-5.2715 164.9112,-0.8543 189.9881,13.4829 18.8464,10.7749 23.4125,29.3632 21.2503,51.2876 -1.9826,20.1057 -27.44,42.0863 -69.8182,46.1473 -42.6838,4.0905 -117.4469,0.1265 -140.3604,-8.464 -22.9136,-8.5902 -42.74468,-21.5849 -44.13016,-48.4188 z"
       id="path3986"
       inkscape:connector-curvature="0"
       sodipodi:nodetypes="csssssc" />
    <path
       style="fill:#ffffff;fill-rule:evenodd;stroke:none;stroke-width:1px;stroke-linecap:butt;stroke-linejoin:miter;stroke-opacity:1"
       d="m 130.37091,2140.9069 c -66.601867,143.3288 421.72752,84.8962 462.88452,78.4896 33.60794,-3.9095 57.01139,-56.4084 13.05195,-95.9393 -23.1926,-23.0368 -411.27463,-58.7088 -475.93647,17.4497 z"
       id="path4430"
       inkscape:connector-curvature="0"
       sodipodi:nodetypes="cccc" />
    <path
       style="color:#000000;fill:#ffffff;fill-opacity:1;fill-rule:nonzero;stroke:none;stroke-width:1px;marker:none;visibility:visible;display:inline;overflow:visible;enable-background:accumulate"
       d="m 691.0979,2336.639 c -25.68011,21.5473 -245.05987,46.666 -323.03063,3.4441 -77.97075,-43.2218 -31.99818,-96.3486 12.04039,-113.5183 44.03847,-17.1699 174.15338,-36.7147 233.90501,-22.8786 59.75174,13.8359 106.46587,34.9031 110.22463,78.87 1.53409,17.9446 -7.45918,32.5354 -33.1394,54.0828 z"
       id="path4040"
       inkscape:connector-curvature="0"
       sodipodi:nodetypes="zssssz" />
    <path
       style="fill:#ffffff;stroke:none"
       d="m 841.66543,2570.7124 c -168.20546,-56.9231 -212.36128,-102.467 -272.87963,-227.2396 -31.03877,-63.9937 16.40761,-58.7269 16.40761,-58.7269 l -66.84596,-12.0365 c 0,0 -19.9862,-53.8679 0.8035,1.8299 20.7897,55.6978 51.93247,244.4932 322.51448,296.1731 z"
       id="path3063"
       inkscape:connector-curvature="0"
       sodipodi:nodetypes="cscczc" />
    <path
       style="color:#000000;display:inline;overflow:visible;visibility:visible;fill:#ffffff;fill-opacity:1;fill-rule:nonzero;stroke:none;stroke-width:0.92330724px;marker:none;enable-background:accumulate"
       d="m 1726.5685,3182.8918 c 19.3676,-40.6995 44.6755,-69.568 98.8886,-84.1355 54.2131,-14.5674 154.7417,-12.3555 172.4338,-8.0198 17.6921,4.3354 114.9286,19.4552 136.1634,42.111 21.2352,22.6557 29.2685,47.8547 35.6161,77.157 6.3475,29.3022 6.0359,87.657 -18.0836,116.0043 -29.3277,34.4683 -88.2131,54.0469 -140.485,56.6444 -52.2719,2.5976 -173.9392,-10.3297 -208.652,-19.9292 -34.7124,-9.5994 -55.6432,-27.6421 -66.7661,-59.6306 -11.123,-31.9887 -31.8338,-73.9422 -9.1152,-120.2016 z"
       id="path3533-6"
       inkscape:connector-curvature="0"
       sodipodi:nodetypes="cscssssssc" />
    <path
       style="color:#000000;display:inline;overflow:visible;visibility:visible;fill:#ffffff;fill-opacity:1;fill-rule:nonzero;stroke:none;stroke-width:1px;marker:none;enable-background:accumulate"
       d="m 1785.6357,3186.0855 c -20.1616,13.8181 16.9174,30.9609 -6.7481,39.3015 -23.6655,8.3406 -108.0753,7.8791 -138.1193,-16.3542 -60.0878,-48.4667 -44.2285,-81.6926 -44.2285,-81.6926 -2.0578,20.4814 35.0801,106.8869 189.0959,58.7453 z"
       id="path5002"
       inkscape:connector-curvature="0"
       sodipodi:nodetypes="csscc" />
    <path
       style="color:#000000;display:inline;overflow:visible;visibility:visible;fill:#ffffff;fill-opacity:1;fill-rule:nonzero;stroke:none;stroke-width:0.92374122px;marker:none;enable-background:accumulate"
       d="m 587.30538,1413.7348 c -5.86053,22.2136 -38.91476,24.0763 -51.08293,19.561 24.52822,24.85 23.67311,40.2897 -9.62931,42.687 55.84873,44.7862 10.2099,38.009 1.20796,49.3655 43.85158,15.4343 24.23194,34.6427 16.42483,53.7643 50.40307,0.6568 26.13216,12.831 12.84608,39.3748 14.24262,-11.7866 51.79246,-45.7392 48.98081,8.8459 27.14973,-30.3113 57.93985,-44.0496 76.68278,3.8548 13.43271,-32.6147 27.28365,-50.6979 51.47153,-3.2003 -6.60972,-51.1315 37.51315,-36.6815 67.59895,-22.3817 -7.14405,-13.6675 4.94714,-49.1497 34.38704,-33.2327 -19.99817,-22.3492 5.04718,-25.5401 24.54026,-31.7186 -25.9032,-9.1431 -30.67708,-18.574 17.41937,-28.7231 -36.59857,-0.9817 -70.727,-2.993 -27.7889,-37.6044 -13.47088,-0.8375 -45.43193,28.0432 -30.53043,-56.4768 -23.16393,27.0578 -47.87774,41.9918 -78.8711,-14.6874 -14.66764,28.3158 -40.10831,42.3276 -51.17625,6.9589 -3.97805,15.0783 -20.47316,20.749 -34.47627,21.4367 -5.41503,-5.9894 -11,-14.1245 -16.82817,-24.7828 -9.52567,22.3796 -23.77503,37.4938 -51.17625,6.9589 z"
       id="path3549-3-7"
       inkscape:connector-curvature="0"
       sodipodi:nodetypes="cccccccccccccccccccc" />
    <path
       style="color:#000000;display:inline;overflow:visible;visibility:visible;fill:#ffffff;fill-opacity:1;fill-rule:nonzero;stroke:none;stroke-width:1px;marker:none;enable-background:accumulate"
       d="m 548.30505,1489.5343 c -32.71667,-14.168 -100.80088,-25.7605 -117.75539,-27.2872 -20.27048,14.0102 -50.61242,35.3064 -73.20544,50.1722 -5.31176,-1.4012 -91.51271,-47.8708 -99.56707,-45.7537 -8.05422,2.1172 -79.0692,29.9973 -84.37818,37.4927 18.70636,-20.5749 83.14331,-49.601 95.87634,-50.1894 8.58229,-0.7407 80.53436,35.2542 83.66571,38.0832 15.04972,-15.8838 71.20105,-48.2854 79.8175,-52.493 13.26097,0.788 64.22973,3.8642 121.88704,24.3755 57.65735,20.5113 -6.34051,25.5997 -6.34051,25.5997 z"
       id="path5901"
       inkscape:connector-curvature="0"
       sodipodi:nodetypes="ccccccccsc" />
  </g>
  <g
     inkscape:groupmode="layer"
     id="layer1"
     inkscape:label="txt">
    <text
       id="text65"
       y="152.72641"
       x="477.423"
       style="font-style:normal;font-variant:normal;font-weight:normal;font-stretch:normal;font-size:17.56940651px;line-height:0%;font-family:Lavi;-inkscape-font-specification:Lavi;text-align:center;letter-spacing:0px;word-spacing:0px;text-anchor:middle;fill:#000000;fill-opacity:1;stroke:none;stroke-width:1.46411717"
       xml:space="preserve"><tspan
         id="tspan61"
         y="152.72641"
         x="477.423"
         style="font-style:normal;font-variant:normal;font-weight:normal;font-stretch:normal;font-size:65.88527679px;line-height:1;font-family:'Nanum Pen Script OTF';-inkscape-font-specification:'Nanum Pen Script OTF';stroke-width:1.46411717"
         sodipodi:role="line">카옌! 백리향! 어디 가서</tspan><tspan
         id="tspan63"
         y="218.61168"
         x="477.423"
         style="font-style:normal;font-variant:normal;font-weight:normal;font-stretch:normal;font-size:65.88527679px;line-height:1;font-family:'Nanum Pen Script OTF';-inkscape-font-specification:'Nanum Pen Script OTF';stroke-width:1.46411717"
         sodipodi:role="line">용 이빨 좀 가져올래?</tspan></text>
    <text
       id="text71"
       y="377.28467"
       x="975.06335"
       style="font-style:normal;font-variant:normal;font-weight:normal;font-stretch:normal;font-size:17.29760551px;line-height:1em;font-family:'Nanum Pen Script OTF';-inkscape-font-specification:'Nanum Pen Script OTF';text-align:center;letter-spacing:0px;word-spacing:0px;text-anchor:middle;fill:#000000;fill-opacity:1;stroke:none;stroke-width:1.44146705"
       xml:space="preserve"><tspan
         id="tspan67"
         y="377.28467"
         x="975.06335"
         style="font-style:normal;font-variant:normal;font-weight:normal;font-stretch:normal;font-size:64.8660202px;line-height:1em;font-family:'Nanum Pen Script OTF';-inkscape-font-specification:'Nanum Pen Script OTF';stroke-width:1.44146705"
         sodipodi:role="line">이 엄동설한에?!</tspan><tspan
         id="tspan69"
         y="442.1507"
         x="975.06335"
         style="font-style:normal;font-variant:normal;font-weight:normal;font-stretch:normal;font-size:64.8660202px;line-height:1em;font-family:'Nanum Pen Script OTF';-inkscape-font-specification:'Nanum Pen Script OTF';stroke-width:1.44146705"
         sodipodi:role="line">됐네 됐어!</tspan></text>
    <text
       id="text77"
       y="367.45834"
       x="1505.8394"
       style="font-style:normal;font-variant:normal;font-weight:normal;font-stretch:normal;font-size:16.3904686px;line-height:1em;font-family:'Nanum Pen Script OTF';-inkscape-font-specification:'Nanum Pen Script OTF';text-align:center;letter-spacing:0px;word-spacing:0px;text-anchor:middle;fill:#000000;fill-opacity:1;stroke:none;stroke-width:1.36587238"
       xml:space="preserve"><tspan
         id="tspan73"
         y="367.45834"
         x="1505.8394"
         style="font-style:normal;font-variant:normal;font-weight:normal;font-stretch:normal;font-size:61.4642601px;line-height:1em;font-family:'Nanum Pen Script OTF';-inkscape-font-specification:'Nanum Pen Script OTF';stroke-width:1.36587238"
         sodipodi:role="line">그래...</tspan><tspan
         id="tspan75"
         y="428.92261"
         x="1505.8394"
         style="font-style:normal;font-variant:normal;font-weight:normal;font-stretch:normal;font-size:61.4642601px;line-height:1em;font-family:'Nanum Pen Script OTF';-inkscape-font-specification:'Nanum Pen Script OTF';stroke-width:1.36587238"
         sodipodi:role="line">나도...</tspan></text>
    <text
       id="text89"
       y="1312.3809"
       x="382.66553"
       style="font-style:normal;font-variant:normal;font-weight:normal;font-stretch:normal;font-size:17.44538116px;line-height:1;font-family:'Nanum Pen Script OTF';-inkscape-font-specification:'Nanum Pen Script OTF';text-align:center;letter-spacing:0px;word-spacing:0px;text-anchor:middle;fill:#000000;fill-opacity:1;stroke:none;stroke-width:1.45378184"
       xml:space="preserve"><tspan
         id="tspan85"
         y="1312.3809"
         x="382.66553"
         style="font-style:normal;font-variant:normal;font-weight:normal;font-stretch:normal;font-size:65.42018127px;line-height:1;font-family:'Nanum Pen Script OTF';-inkscape-font-specification:'Nanum Pen Script OTF';stroke-width:1.45378184"
         sodipodi:role="line">괜찮아요,</tspan><tspan
         id="tspan87"
         y="1377.801"
         x="382.66553"
         style="font-style:normal;font-variant:normal;font-weight:normal;font-stretch:normal;font-size:65.42018127px;line-height:1;font-family:'Nanum Pen Script OTF';-inkscape-font-specification:'Nanum Pen Script OTF';stroke-width:1.45378184"
         sodipodi:role="line">제가 가지고 올게요!</tspan></text>
    <text
       id="text95"
       y="1507.3801"
       x="685.35028"
       style="font-style:normal;font-variant:normal;font-weight:normal;font-stretch:normal;font-size:15.7538662px;line-height:0%;font-family:Lavi;-inkscape-font-specification:Lavi;text-align:center;letter-spacing:0px;word-spacing:0px;text-anchor:middle;fill:#000000;fill-opacity:1;stroke:#000000;stroke-width:1.17135349;stroke-miterlimit:4;stroke-dasharray:none;stroke-opacity:1;"
       xml:space="preserve"><tspan
         id="tspan91"
         y="1507.3801"
         x="685.35028"
         style="font-style:normal;font-variant:normal;font-weight:normal;font-stretch:normal;font-size:79.79479218px;line-height:1;font-family:'Nanum Pen Script OTF';-inkscape-font-specification:'Nanum Pen Script OTF';stroke:#000000;stroke-width:1.17135349;stroke-miterlimit:4;stroke-dasharray:none;stroke-opacity:1;"
         sodipodi:role="line">후추야,</tspan><tspan
         id="tspan93"
         y="1587.1749"
         x="685.35028"
         style="font-style:normal;font-variant:normal;font-weight:normal;font-stretch:normal;font-size:79.79479218px;line-height:1;font-family:'Nanum Pen Script OTF';-inkscape-font-specification:'Nanum Pen Script OTF';stroke:#000000;stroke-width:1.17135349;stroke-miterlimit:4;stroke-dasharray:none;stroke-opacity:1;"
         sodipodi:role="line">잠시!</tspan></text>
    <text
       id="text99"
       y="1438.8334"
       x="1118.4927"
       style="font-style:normal;font-variant:normal;font-weight:normal;font-stretch:normal;font-size:17.19152832px;line-height:0%;font-family:'Nanum Pen Script OTF';-inkscape-font-specification:'Nanum Pen Script OTF';text-align:center;letter-spacing:0px;word-spacing:0px;text-anchor:middle;fill:#000000;fill-opacity:1;stroke:none;stroke-width:1.43262744"
       xml:space="preserve"><tspan
         id="tspan97"
         y="1438.8334"
         x="1118.4927"
         style="font-style:normal;font-variant:normal;font-weight:normal;font-stretch:normal;font-size:53.01247406px;line-height:1.25;font-family:'Nanum Pen Script OTF';-inkscape-font-specification:'Nanum Pen Script OTF';stroke-width:1.43262744"
         sodipodi:role="line">금방 와요!</tspan></text>
    <text
       id="text103"
       y="2187.1057"
       x="370.70877"
       style="font-style:normal;font-variant:normal;font-weight:normal;font-stretch:normal;font-size:14.84692097px;line-height:1em;font-family:'Nanum Pen Script OTF';-inkscape-font-specification:'Nanum Pen Script OTF';text-align:center;letter-spacing:0px;word-spacing:0px;text-anchor:middle;fill:#000000;fill-opacity:1;stroke:none;stroke-width:1.23724329"
       xml:space="preserve"><tspan
         id="tspan101"
         y="2187.1057"
         x="370.70877"
         style="font-style:normal;font-variant:normal;font-weight:normal;font-stretch:normal;font-size:55.67595291px;line-height:1em;font-family:'Nanum Pen Script OTF';-inkscape-font-specification:'Nanum Pen Script OTF';stroke-width:1.23724329"
         sodipodi:role="line">&quot;엄동설한&quot;, &quot;엄동설한&quot;!</tspan></text>
    <text
       id="text109"
       y="2279.7366"
       x="528.19983"
       style="font-style:normal;font-variant:normal;font-weight:normal;font-stretch:normal;font-size:14.84692097px;line-height:1em;font-family:'Nanum Pen Script OTF';-inkscape-font-specification:'Nanum Pen Script OTF';text-align:center;letter-spacing:0px;word-spacing:0px;text-anchor:middle;fill:#000000;fill-opacity:1;stroke:none;stroke-width:1.23724329"
       xml:space="preserve"><tspan
         id="tspan107"
         y="2279.7366"
         x="528.19983"
         style="font-style:normal;font-variant:normal;font-weight:normal;font-stretch:normal;font-size:55.67595291px;line-height:1em;font-family:'Nanum Pen Script OTF';-inkscape-font-specification:'Nanum Pen Script OTF';stroke-width:1.23724329"
         sodipodi:role="line">참 계집애들같이</tspan><tspan
         y="2335.4126"
         x="528.19983"
         style="font-style:normal;font-variant:normal;font-weight:normal;font-stretch:normal;font-size:55.67595291px;line-height:1em;font-family:'Nanum Pen Script OTF';-inkscape-font-specification:'Nanum Pen Script OTF';stroke-width:1.23724329"
         sodipodi:role="line"
         id="tspan123">구신다!</tspan></text>
    <text
       id="text119"
       y="3171.3467"
       x="1952.3059"
       style="font-style:normal;font-variant:normal;font-weight:normal;font-stretch:normal;font-size:14.84692097px;line-height:1em;font-family:'Nanum Pen Script OTF';-inkscape-font-specification:'Nanum Pen Script OTF';text-align:center;letter-spacing:0px;word-spacing:0px;text-anchor:middle;fill:#000000;fill-opacity:1;stroke:none;stroke-width:1.23724329"
       xml:space="preserve"><tspan
         id="tspan111"
         y="3171.3467"
         x="1952.3059"
         style="font-style:normal;font-variant:normal;font-weight:normal;font-stretch:normal;font-size:55.67595291px;line-height:1em;font-family:'Nanum Pen Script OTF';-inkscape-font-specification:'Nanum Pen Script OTF';stroke-width:1.23724329"
         sodipodi:role="line">야무진 플라이어랑,</tspan><tspan
         id="tspan113"
         y="3227.0227"
         x="1952.3059"
         style="font-style:normal;font-variant:normal;font-weight:normal;font-stretch:normal;font-size:55.67595291px;line-height:1em;font-family:'Nanum Pen Script OTF';-inkscape-font-specification:'Nanum Pen Script OTF';stroke-width:1.23724329"
         sodipodi:role="line">갑옷만 있으면,</tspan><tspan
         id="tspan115"
         y="3282.6985"
         x="1952.3059"
         style="font-style:normal;font-variant:normal;font-weight:normal;font-stretch:normal;font-size:55.67595291px;line-height:1em;font-family:'Nanum Pen Script OTF';-inkscape-font-specification:'Nanum Pen Script OTF';stroke-width:1.23724329"
         sodipodi:role="line">그깟 용 이빨쯤은</tspan><tspan
         id="tspan117"
         y="3338.3745"
         x="1952.3059"
         style="font-style:normal;font-variant:normal;font-weight:normal;font-stretch:normal;font-size:55.67595291px;line-height:1em;font-family:'Nanum Pen Script OTF';-inkscape-font-specification:'Nanum Pen Script OTF';stroke-width:1.23724329"
         sodipodi:role="line">얻고도 남지!</tspan></text>
  </g>
</svg>
