<?xml version="1.0" encoding="UTF-8" standalone="no"?>
<svg
   xmlns:dc="http://purl.org/dc/elements/1.1/"
   xmlns:cc="http://creativecommons.org/ns#"
   xmlns:rdf="http://www.w3.org/1999/02/22-rdf-syntax-ns#"
   xmlns:svg="http://www.w3.org/2000/svg"
   xmlns="http://www.w3.org/2000/svg"
   xmlns:xlink="http://www.w3.org/1999/xlink"
   xmlns:sodipodi="http://sodipodi.sourceforge.net/DTD/sodipodi-0.dtd"
   xmlns:inkscape="http://www.inkscape.org/namespaces/inkscape"
   id="svg2"
   version="1.1"
   inkscape:version="1.0.2 (e86c870879, 2021-01-15)"
   width="2481"
   height="3503"
   sodipodi:docname="E03P06.svg">
  <metadata
     id="metadata8">
    <rdf:RDF>
      <cc:Work
         rdf:about="">
        <dc:format>image/svg+xml</dc:format>
        <dc:type
           rdf:resource="http://purl.org/dc/dcmitype/StillImage" />
        <dc:title />
      </cc:Work>
    </rdf:RDF>
  </metadata>
  <defs
     id="defs6" />
  <sodipodi:namedview
     pagecolor="#ffffff"
     bordercolor="#666666"
     borderopacity="1"
     objecttolerance="10"
     gridtolerance="10"
     guidetolerance="10"
     inkscape:pageopacity="0"
     inkscape:pageshadow="2"
     inkscape:window-width="1920"
     inkscape:window-height="1022"
     id="namedview4"
     showgrid="false"
     inkscape:zoom="0.72124892"
     inkscape:cx="660.88783"
     inkscape:cy="881.4473"
     inkscape:window-x="0"
     inkscape:window-y="28"
     inkscape:window-maximized="1"
     inkscape:current-layer="layer1"
     inkscape:document-rotation="0" />
  <g
     inkscape:groupmode="layer"
     id="layer2"
     inkscape:label="artwork"
     sodipodi:insensitive="true">
    <image
       sodipodi:absref="/home/cherry/Workspace/peppercarrot/webcomics/ep03_The-secret-ingredients/lang/gfx_Pepper-and-Carrot_by-David-Revoy_E03P06.png"
       xlink:href="../gfx_Pepper-and-Carrot_by-David-Revoy_E03P06.png"
       y="0"
       x="0"
       id="image10"
       height="3503"
       width="2481" />
  </g>
  <g
     inkscape:groupmode="layer"
     id="layer3"
     inkscape:label="speechbubbles">
    <path
       style="fill:#ffffff;stroke:none;stroke-width:0.983372"
       d="m 138.75579,976.68996 c 8.00532,-58.70484 74.71586,-103.59677 125.41586,-113.09314 50.7,-9.49637 233.48688,-1.72661 252.16581,0 18.67905,1.72661 121.41326,26.7625 146.7632,57.84153 25.35006,31.07904 -10.67361,117.40965 -69.37894,137.26575 -58.70521,19.8561 -234.82107,35.3956 -260.17113,31.9424 -25.34995,-3.4532 -204.13421,-31.0791 -194.7948,-113.95654 z"
       id="path3021"
       inkscape:connector-curvature="0" />
    <path
       style="fill:#ffffff;stroke:none"
       d="m 733.88311,1085.2688 c -44.306,12.9389 -54.1082,2.7446 -64.3025,-9.8023 -10.1943,-12.5468 -18.0361,-25.0936 -28.6225,-25.8778 -10.5864,-0.7842 -23.9174,4.313 -33.3275,9.4101 -9.4102,5.0972 -16.507,-1.9213 -25.1329,-8.9789 -8.626,-7.0576 -62.695,-32.5825 -62.695,-32.5825 0,0 18.8203,41.1693 28.6225,51.7557 9.8022,10.5864 13.331,14.5073 18.4281,17.644 5.0972,3.1367 18.8203,9.0181 29.7988,6.2734 10.9785,-2.7446 19.9965,-10.5864 27.8383,-14.5072 7.8417,-3.9209 21.1532,-0.549 30.9554,7.2928 9.8022,7.8418 34.739,22.2706 51.9909,15.9972 17.2519,-6.2734 26.4464,-16.6245 26.4464,-16.6245 z"
       id="path3023"
       inkscape:connector-curvature="0"
       sodipodi:nodetypes="csssscssssssc" />
    <path
       style="fill:#ffffff;stroke:none;stroke-width:0.975848"
       d="m 1218.6472,3159.5463 c 2.0242,-88.2146 102.1797,-98.1053 153.9821,-103.3678 51.8024,-5.2625 189.278,-23.6812 241.0803,47.3624 51.8024,71.0437 23.9089,134.1937 -7.9694,152.6124 -31.8785,18.4188 -45.8253,52.6248 -69.7341,52.6248 -23.9088,0 -213.8557,6.641 -262.416,-28.56 -25.8966,-18.7725 -56.9671,-32.4572 -54.9429,-120.6718 z"
       id="path3100"
       inkscape:connector-curvature="0"
       sodipodi:nodetypes="zsssssz" />
    <path
       style="fill:#ffffff;stroke:none;stroke-width:1px;stroke-linecap:butt;stroke-linejoin:miter;stroke-opacity:1"
       d="m 1116.307,3102.8707 c 15.5043,16.6969 26.238,26.8343 36.3754,25.6417 10.1374,-1.1926 22.0637,-1.789 29.2196,-11.33 7.1558,-9.5411 22.0637,-19.6785 28.6232,-17.2933 6.5595,2.3853 30.4122,11.9264 38.7607,29.2196 8.3484,17.2932 25.0453,-21.4674 25.0453,-21.4674 0,0 -23.2564,-25.6417 -28.6232,-28.6233 -5.3669,-2.9816 -19.6785,-16.1006 -42.3386,-0.5963 -22.6601,15.5043 -33.3938,32.7975 -45.3202,36.9717 -11.9263,4.1742 -31.0085,0.5963 -41.7422,-12.5227 z"
       id="path3137"
       inkscape:connector-curvature="0" />
  </g>
  <g
     inkscape:groupmode="layer"
     id="layer1"
     inkscape:label="txt">
    <flowRoot
       xml:space="preserve"
       id="flowRoot35"
       style="font-style:normal;font-variant:normal;font-weight:normal;font-stretch:normal;line-height:1.25;font-family:'Xiaolai SC';-inkscape-font-specification:'Xiaolai SC';letter-spacing:0px;word-spacing:0px;fill:#000000;fill-opacity:1;stroke:none"
       transform="matrix(0.89850696,0,0,0.89850696,-14.277991,623.10392)"><flowRegion
         id="flowRegion27"
         style="font-style:normal;font-variant:normal;font-weight:normal;font-stretch:normal;font-family:'Xiaolai SC';-inkscape-font-specification:'Xiaolai SC'"><rect
           id="rect25"
           width="693.56396"
           height="261.75266"
           x="115.00391"
           y="284.95059"
           style="font-style:normal;font-variant:normal;font-weight:normal;font-stretch:normal;font-family:'Xiaolai SC';-inkscape-font-specification:'Xiaolai SC';" /></flowRegion><flowPara
         style="font-style:normal;font-variant:normal;font-weight:normal;font-stretch:normal;font-size:48px;font-family:'Xiaolai SC';-inkscape-font-specification:'Xiaolai SC';text-align:center;text-anchor:middle"
         id="flowPara29">...거기다</flowPara><flowPara
         style="font-style:normal;font-variant:normal;font-weight:normal;font-stretch:normal;font-size:48px;font-family:'Xiaolai SC';-inkscape-font-specification:'Xiaolai SC';text-align:center;text-anchor:middle"
         id="flowPara34">火山溪谷에 있는</flowPara><flowPara
         style="font-style:normal;font-variant:normal;font-weight:normal;font-stretch:normal;font-size:48px;font-family:'Xiaolai SC';-inkscape-font-specification:'Xiaolai SC';text-align:center;text-anchor:middle"
         id="flowPara33">不死鳥의 알 껍질이랑...</flowPara></flowRoot>
    <flowRoot
       xml:space="preserve"
       id="flowRoot45"
       style="font-style:normal;font-variant:normal;font-weight:normal;font-stretch:normal;line-height:1.25;font-family:'Xiaolai SC';-inkscape-font-specification:'Xiaolai SC';letter-spacing:0px;word-spacing:0px;fill:#000000;fill-opacity:1;stroke:none"
       transform="matrix(1.0081935,0,0,1.0081935,987.05507,2795.7956)"><flowRegion
         id="flowRegion39"
         style="font-style:normal;font-variant:normal;font-weight:normal;font-stretch:normal;font-family:'Xiaolai SC';-inkscape-font-specification:'Xiaolai SC'"><rect
           id="rect37"
           width="595.64185"
           height="183.61728"
           x="142.74695"
           y="287.72488"
           style="font-style:normal;font-variant:normal;font-weight:normal;font-stretch:normal;font-family:'Xiaolai SC';-inkscape-font-specification:'Xiaolai SC';" /></flowRegion><flowPara
         style="font-style:normal;font-variant:normal;font-weight:normal;font-stretch:normal;font-size:48px;font-family:'Xiaolai SC';-inkscape-font-specification:'Xiaolai SC';text-align:center;text-anchor:middle"
         id="flowPara41">...最終的으로</flowPara><flowPara
         style="font-style:normal;font-variant:normal;font-weight:normal;font-stretch:normal;font-size:48px;font-family:'Xiaolai SC';-inkscape-font-specification:'Xiaolai SC';text-align:center;text-anchor:middle"
         id="flowPara51">어린龍牛의牛乳</flowPara><flowPara
         style="font-style:normal;font-variant:normal;font-weight:normal;font-stretch:normal;font-size:48px;font-family:'Xiaolai SC';-inkscape-font-specification:'Xiaolai SC';text-align:center;text-anchor:middle"
         id="flowPara28">한 방울까지</flowPara></flowRoot>
  </g>
</svg>
