<?xml version="1.0" encoding="UTF-8" standalone="no"?>
<svg
   id="svg2"
   version="1.1"
   inkscape:version="1.3 (0e150ed6c4, 2023-07-21)"
   width="2481"
   height="3503"
   sodipodi:docname="E33P03.svg"
   xmlns:inkscape="http://www.inkscape.org/namespaces/inkscape"
   xmlns:sodipodi="http://sodipodi.sourceforge.net/DTD/sodipodi-0.dtd"
   xmlns:xlink="http://www.w3.org/1999/xlink"
   xmlns="http://www.w3.org/2000/svg"
   xmlns:svg="http://www.w3.org/2000/svg"
   xmlns:rdf="http://www.w3.org/1999/02/22-rdf-syntax-ns#"
   xmlns:cc="http://creativecommons.org/ns#"
   xmlns:dc="http://purl.org/dc/elements/1.1/">
  <metadata
     id="metadata8">
    <rdf:RDF>
      <cc:Work
         rdf:about="">
        <dc:format>image/svg+xml</dc:format>
        <dc:type
           rdf:resource="http://purl.org/dc/dcmitype/StillImage" />
        <dc:title />
      </cc:Work>
    </rdf:RDF>
  </metadata>
  <defs
     id="defs6">
    <filter
       style="color-interpolation-filters:sRGB"
       id="filter4375-4-1-1-1-9-5-8-8-3-3-3"
       inkscape:label="magic-Fx-blue_background"
       height="1.4684061"
       width="1.1814441"
       x="-0.092860443"
       y="-0.18253997">
      <feFlood
         id="feFlood4377-7-9-0-8-1-7-3-1-6-61-6"
         flood-opacity="1"
         flood-color="rgb(50,161,179)"
         result="flood"
         radius="5.0999999999999996" />
      <feComposite
         id="feComposite4379-3-8-8-2-77-4-1-0-7-2-7"
         in2="SourceGraphic"
         in="flood"
         operator="in"
         result="composite1"
         baseFrequency="0.053999999999999999 0.053999999999999999" />
      <feMorphology
         id="feMorphology4393-1-0-49-8-9-3-0-1-5-9-5"
         operator="dilate"
         radius="3.5152451489568604"
         result="result3" />
      <feComposite
         id="feComposite4385-9-5-7-0-8-8-7-5-3-3-3"
         in2="result3"
         in="SourceGraphic"
         operator="over"
         result="fbSourceGraphic"
         numOctaves="4" />
      <feColorMatrix
         result="fbSourceGraphicAlpha"
         in="fbSourceGraphic"
         values="0 0 0 -1 0 0 0 0 -1 0 0 0 0 -1 0 0 0 0 1 0"
         id="feColorMatrix4544-9-5-1-5" />
      <feTurbulence
         id="feTurbulence4546-3-6-9-6"
         type="fractalNoise"
         numOctaves="4.4123222748815163"
         seed="172"
         baseFrequency="0.062 0.054054054054054057"
         result="turbulence" />
      <feDisplacementMap
         id="feDisplacementMap4548-8-2-4-2"
         in2="turbulence"
         in="fbSourceGraphic"
         scale="9.5273399103047183"
         yChannelSelector="G"
         xChannelSelector="R"
         result="fbSourceGraphic" />
      <feColorMatrix
         result="fbSourceGraphicAlpha"
         in="fbSourceGraphic"
         values="0 0 0 -1 0 0 0 0 -1 0 0 0 0 -1 0 0 0 0 1 0"
         id="feColorMatrix4670-7-9-7-9"
         scale="10.800000000000001" />
      <feComposite
         id="feComposite4674-8-2-4-1"
         in2="fbSourceGraphic"
         in="flood"
         operator="in"
         result="composite1" />
      <feGaussianBlur
         id="feGaussianBlur4676-3-7-50-2"
         in="composite1"
         stdDeviation="1.5865199271065846"
         result="blur" />
      <feOffset
         id="feOffset4678-6-0-3-7"
         dx="-0.42771311737301687"
         dy="5.2374444725016502"
         result="offset" />
      <feComposite
         id="feComposite4680-4-9-6-0"
         in2="offset"
         in="fbSourceGraphic"
         operator="over"
         result="composite2" />
      <feGaussianBlur
         id="feGaussianBlur58-9"
         stdDeviation="0.01" />
      <feOffset
         id="feOffset60-3"
         dy="0"
         dx="0" />
    </filter>
    <filter
       x="-0.072349618"
       width="1.1403542"
       height="1.3584057"
       inkscape:label="magic-Fx-blue"
       id="filter4375-4-1-1-1-9-5-8-8-3-3-3-6"
       style="color-interpolation-filters:sRGB"
       y="-0.12842994">
      <feFlood
         radius="5.0999999999999996"
         result="flood"
         flood-color="rgb(50,161,179)"
         flood-opacity="1"
         id="feFlood4377-7-9-0-8-1-7-3-1-6-61-6-2" />
      <feComposite
         baseFrequency="0.053999999999999999 0.053999999999999999"
         result="composite1"
         operator="in"
         in="flood"
         in2="SourceGraphic"
         id="feComposite4379-3-8-8-2-77-4-1-0-7-2-7-6" />
      <feMorphology
         result="result3"
         radius="0.96959439099754563"
         operator="dilate"
         id="feMorphology4393-1-0-49-8-9-3-0-1-5-9-5-1" />
      <feComposite
         numOctaves="4"
         result="fbSourceGraphic"
         operator="over"
         in="SourceGraphic"
         in2="result3"
         id="feComposite4385-9-5-7-0-8-8-7-5-3-3-3-8" />
      <feColorMatrix
         id="feColorMatrix4544-9-5-1-5-7"
         values="0 0 0 -1 0 0 0 0 -1 0 0 0 0 -1 0 0 0 0 1 0"
         in="fbSourceGraphic"
         result="fbSourceGraphicAlpha" />
      <feTurbulence
         result="turbulence"
         baseFrequency="0.062 0.054054054054054057"
         seed="172"
         numOctaves="4.4123222748815163"
         type="fractalNoise"
         id="feTurbulence4546-3-6-9-6-9" />
      <feDisplacementMap
         result="fbSourceGraphic"
         xChannelSelector="R"
         yChannelSelector="G"
         scale="11.642079"
         in="fbSourceGraphic"
         in2="turbulence"
         id="feDisplacementMap4548-8-2-4-2-2" />
      <feColorMatrix
         scale="10.800000000000001"
         id="feColorMatrix4670-7-9-7-9-0"
         values="0 0 0 -1 0 0 0 0 -1 0 0 0 0 -1 0 0 0 0 1 0"
         in="fbSourceGraphic"
         result="fbSourceGraphicAlpha" />
      <feComposite
         result="composite1"
         operator="in"
         in="flood"
         in2="fbSourceGraphic"
         id="feComposite4674-8-2-4-1-2" />
      <feGaussianBlur
         result="blur"
         stdDeviation="1.5865199271065846"
         in="composite1"
         id="feGaussianBlur4676-3-7-50-2-3" />
      <feOffset
         result="offset"
         dy="5.2374444725016502"
         dx="-0.42771311737301687"
         id="feOffset4678-6-0-3-7-7" />
      <feComposite
         result="composite2"
         operator="over"
         in="fbSourceGraphic"
         in2="offset"
         id="feComposite4680-4-9-6-0-5" />
      <feGaussianBlur
         stdDeviation="0.60935760846819198"
         id="feGaussianBlur58-9-9" />
      <feOffset
         dx="0"
         dy="0"
         id="feOffset60-3-2" />
    </filter>
    <filter
       style="color-interpolation-filters:sRGB"
       id="filter4375-4-1-1-1-9-5-8-8-3-3-3-6-1"
       inkscape:label="magic-Fx-red"
       height="1.3675877"
       width="1.0857314"
       x="-0.044200861"
       y="-0.13302094">
      <feFlood
         id="feFlood4377-7-9-0-8-1-7-3-1-6-61-6-2-0"
         flood-opacity="1"
         flood-color="rgb(216,88,33)"
         result="flood"
         radius="5.0999999999999996" />
      <feComposite
         id="feComposite4379-3-8-8-2-77-4-1-0-7-2-7-6-6"
         in2="SourceGraphic"
         in="flood"
         operator="in"
         result="composite1"
         baseFrequency="0.053999999999999999 0.053999999999999999" />
      <feMorphology
         id="feMorphology4393-1-0-49-8-9-3-0-1-5-9-5-1-3"
         operator="dilate"
         radius="0.96959439099754563"
         result="result3" />
      <feComposite
         id="feComposite4385-9-5-7-0-8-8-7-5-3-3-3-8-2"
         in2="result3"
         in="SourceGraphic"
         operator="over"
         result="fbSourceGraphic"
         numOctaves="4" />
      <feColorMatrix
         result="fbSourceGraphicAlpha"
         in="fbSourceGraphic"
         values="0 0 0 -1 0 0 0 0 -1 0 0 0 0 -1 0 0 0 0 1 0"
         id="feColorMatrix4544-9-5-1-5-7-0" />
      <feTurbulence
         id="feTurbulence4546-3-6-9-6-9-6"
         type="fractalNoise"
         numOctaves="4.4123222748815163"
         seed="172"
         baseFrequency="0.062 0.054054054054054057"
         result="turbulence" />
      <feDisplacementMap
         id="feDisplacementMap4548-8-2-4-2-2-1"
         in2="turbulence"
         in="fbSourceGraphic"
         scale="11.642079"
         yChannelSelector="G"
         xChannelSelector="R"
         result="fbSourceGraphic" />
      <feColorMatrix
         result="fbSourceGraphicAlpha"
         in="fbSourceGraphic"
         values="0 0 0 -1 0 0 0 0 -1 0 0 0 0 -1 0 0 0 0 1 0"
         id="feColorMatrix4670-7-9-7-9-0-5"
         scale="10.800000000000001" />
      <feComposite
         id="feComposite4674-8-2-4-1-2-5"
         in2="fbSourceGraphic"
         in="flood"
         operator="in"
         result="composite1" />
      <feGaussianBlur
         id="feGaussianBlur4676-3-7-50-2-3-4"
         in="composite1"
         stdDeviation="1.5865199271065846"
         result="blur" />
      <feOffset
         id="feOffset4678-6-0-3-7-7-7"
         dx="-0.42771311737301687"
         dy="5.2374444725016502"
         result="offset" />
      <feComposite
         id="feComposite4680-4-9-6-0-5-6"
         in2="offset"
         in="fbSourceGraphic"
         operator="over"
         result="composite2" />
      <feGaussianBlur
         id="feGaussianBlur58-9-9-5"
         stdDeviation="0.60935760846819198" />
      <feOffset
         id="feOffset60-3-2-6"
         dy="0"
         dx="0" />
    </filter>
    <filter
       x="-0.078001099"
       width="1.1517254"
       height="1.4019346"
       inkscape:label="magic-Fx-red_background"
       id="filter4375-4-1-1-1-9-5-8-8-3-3-3-6-1-3"
       style="color-interpolation-filters:sRGB"
       y="-0.14930424">
      <feFlood
         radius="5.0999999999999996"
         result="flood"
         flood-color="rgb(216,88,33)"
         flood-opacity="1"
         id="feFlood4377-7-9-0-8-1-7-3-1-6-61-6-2-0-1" />
      <feComposite
         baseFrequency="0.053999999999999999 0.053999999999999999"
         result="composite1"
         operator="in"
         in="flood"
         in2="SourceGraphic"
         id="feComposite4379-3-8-8-2-77-4-1-0-7-2-7-6-6-4" />
      <feMorphology
         result="result3"
         radius="0.96959439099754563"
         operator="dilate"
         id="feMorphology4393-1-0-49-8-9-3-0-1-5-9-5-1-3-9" />
      <feComposite
         numOctaves="4"
         result="fbSourceGraphic"
         operator="over"
         in="SourceGraphic"
         in2="result3"
         id="feComposite4385-9-5-7-0-8-8-7-5-3-3-3-8-2-2" />
      <feColorMatrix
         id="feColorMatrix4544-9-5-1-5-7-0-0"
         values="0 0 0 -1 0 0 0 0 -1 0 0 0 0 -1 0 0 0 0 1 0"
         in="fbSourceGraphic"
         result="fbSourceGraphicAlpha" />
      <feTurbulence
         result="turbulence"
         baseFrequency="0.062 0.054054054054054057"
         seed="172"
         numOctaves="4.4123222748815163"
         type="fractalNoise"
         id="feTurbulence4546-3-6-9-6-9-6-6" />
      <feDisplacementMap
         result="fbSourceGraphic"
         xChannelSelector="R"
         yChannelSelector="G"
         scale="11.642079"
         in="fbSourceGraphic"
         in2="turbulence"
         id="feDisplacementMap4548-8-2-4-2-2-1-8" />
      <feColorMatrix
         scale="10.800000000000001"
         id="feColorMatrix4670-7-9-7-9-0-5-9"
         values="0 0 0 -1 0 0 0 0 -1 0 0 0 0 -1 0 0 0 0 1 0"
         in="fbSourceGraphic"
         result="fbSourceGraphicAlpha" />
      <feComposite
         result="composite1"
         operator="in"
         in="flood"
         in2="fbSourceGraphic"
         id="feComposite4674-8-2-4-1-2-5-2" />
      <feGaussianBlur
         result="blur"
         stdDeviation="1.5865199271065846"
         in="composite1"
         id="feGaussianBlur4676-3-7-50-2-3-4-6" />
      <feOffset
         result="offset"
         dy="5.2374444725016502"
         dx="-0.42771311737301687"
         id="feOffset4678-6-0-3-7-7-7-6" />
      <feComposite
         result="composite2"
         operator="over"
         in="fbSourceGraphic"
         in2="offset"
         id="feComposite4680-4-9-6-0-5-6-4" />
      <feGaussianBlur
         stdDeviation="0.76414472307477677"
         id="feGaussianBlur58-9-9-5-9" />
      <feOffset
         dx="0"
         dy="0"
         id="feOffset60-3-2-6-5" />
    </filter>
  </defs>
  <sodipodi:namedview
     pagecolor="#ffffff"
     bordercolor="#666666"
     borderopacity="1"
     objecttolerance="10"
     gridtolerance="10"
     guidetolerance="10"
     inkscape:pageopacity="0"
     inkscape:pageshadow="2"
     inkscape:window-width="1888"
     inkscape:window-height="1144"
     id="namedview4"
     showgrid="false"
     inkscape:zoom="0.32526912"
     inkscape:cx="973.04042"
     inkscape:cy="2331.9152"
     inkscape:window-x="32"
     inkscape:window-y="0"
     inkscape:window-maximized="1"
     inkscape:current-layer="layer3"
     inkscape:document-rotation="0"
     inkscape:snap-global="false"
     inkscape:pagecheckerboard="0"
     inkscape:showpageshadow="0"
     inkscape:deskcolor="#d1d1d1"
     showguides="false" />
  <g
     inkscape:groupmode="layer"
     id="layer2"
     inkscape:label="artwork"
     sodipodi:insensitive="true">
    <image
       xlink:href="../gfx_Pepper-and-Carrot_by-David-Revoy_E33P03.png"
       y="0"
       x="0"
       id="image10"
       height="3503"
       width="2481" />
  </g>
  <g
     inkscape:groupmode="layer"
     id="layer3"
     inkscape:label="speechbubbles"
     style="display:inline">
    <path
       sodipodi:nodetypes="ccscc"
       inkscape:connector-curvature="0"
       id="path4035-4"
       d="m 1289.9916,1596.2797 c 8.8976,45.5766 -43.6583,77.8188 -97.8244,67.3334 34.8149,20.2889 112.2862,16.8578 141.315,-55.013 20.1776,-49.9566 -21.9143,-18.2887 -21.9143,-18.2887 z"
       style="color:#000000;display:inline;overflow:visible;visibility:visible;fill:#c4c7f5;fill-opacity:1;fill-rule:nonzero;stroke:none;stroke-width:1px;marker:none;enable-background:accumulate" />
    <path
       style="color:#000000;display:inline;overflow:visible;visibility:visible;fill:#c4c7f5;fill-opacity:1;fill-rule:nonzero;stroke:none;stroke-width:0.815753px;marker:none;enable-background:accumulate"
       d="m 1338.0609,1447.0857 c -39.6278,1.3905 -79.7363,0.4357 -118.66,9.9622 -18.7741,5.3633 -34.3597,19.529 -46.3516,35.771 -12.5523,17.2645 -18.4482,40.9046 -13.1886,62.5002 4.3437,19.3689 16.7435,36.7936 33.7101,44.5884 22.1861,11.3977 46.9179,14.6273 71.1217,16.2261 34.3848,1.7925 68.8482,-0.3574 103.2154,2.0645 31.2415,0.9361 62.5704,-2.6617 93.0499,-10.1513 11.2963,-3.0398 22.9564,-6.7803 31.8702,-15.3734 17.9657,-16.7068 26.0451,-43.7579 23.9968,-69.0585 -1.1386,-14.7578 -6.5703,-29.366 -16.436,-39.7103 -13.4443,-14.5017 -31.4858,-22.9388 -49.8681,-26.6444 -11.6723,-2.3469 -23.5298,-3.2834 -35.3217,-4.6239 -22.415,-2.1968 -44.8815,-3.7297 -67.3271,-5.4611 -3.2693,-0.1085 -6.5406,-0.1184 -9.811,-0.089 z"
       id="path4040-40-3"
       inkscape:connector-curvature="0"
       sodipodi:nodetypes="zssssz" />
    <path
       sodipodi:nodetypes="cscccccsc"
       inkscape:connector-curvature="0"
       id="path3063-8"
       d="m 405.5873,1467.0731 c 0.69619,4.0279 2.03869,7.8716 2.94408,11.8485 4.03275,15.1379 7.95897,30.3197 11.44743,45.6444 26.28701,85.102 89.33029,126.0615 171.9921,122.634 -69.7059,-11.1103 -95.37649,-44.5011 -130.34103,-113.6104 -1.38388,-12.1551 -4.96605,-52.2369 -18.62913,-56.7919 -12.33011,-4.0443 -24.95595,-6.8504 -37.43828,-10.2285 0.008,0.1679 0.0165,0.3359 0.0248,0.5039 z"
       style="fill:#c4c7f5;stroke:none;stroke-width:0.999997;fill-opacity:1" />
    <path
       sodipodi:nodetypes="zssssz"
       inkscape:connector-curvature="0"
       id="path4040-40"
       d="m 355.27386,1370.6433 c -41.06445,0.4884 -82.25098,7.5218 -120.64881,22.442 -18.06079,7.2249 -33.04758,20.7381 -44.63275,36.277 -11.74454,15.0986 -21.68141,32.7408 -23.23979,52.2422 -1.92527,24.5544 7.872,49.9042 26.33036,66.1123 14.23137,13.0941 32.41939,20.6254 50.65311,26.0591 47.16574,14.778 97.01686,17.5676 146.09722,16.6822 38.47458,-0.6957 77.37831,-6.593 112.9482,-21.9567 29.38782,-13.2958 53.43625,-39.1828 63.07258,-70.4236 5.137,-18.3966 0.3828,-38.4629 -9.65809,-54.2891 -17.74382,-27.8482 -46.03312,-47.7116 -76.75773,-58.3931 -16.05303,-5.7486 -32.92704,-8.631 -49.81328,-10.4443 -17.62907,-1.8957 -35.32718,-3.152 -53.03656,-3.9512 -7.10165,-0.2615 -14.20803,-0.3924 -21.31446,-0.3568 z"
       style="color:#000000;display:inline;overflow:visible;visibility:visible;fill:#c4c7f5;fill-opacity:1;fill-rule:nonzero;stroke:none;stroke-width:0.849612px;marker:none;enable-background:accumulate" />
    <path
       inkscape:connector-curvature="0"
       id="path1297"
       d="m 231.78646,2437.7884 c 4.02908,-34.2355 21.15282,-51.3527 44.32027,-55.0214 23.16743,-3.6676 122.88808,-1.2218 135.98267,7.3363 13.09474,8.5591 40.29118,28.1221 28.20387,68.471 -12.0874,40.3489 -54.39312,34.2355 -75.54602,34.2355 -21.15282,0 -101.73511,3.6687 -114.82969,-12.2267 -13.09468,-15.8954 -17.12375,-3.6676 -18.1311,-42.7947 z"
       style="fill:#ffe4a0;fill-rule:evenodd;stroke:none;stroke-width:1.06991px;stroke-linecap:butt;stroke-linejoin:miter;stroke-opacity:1;fill-opacity:1" />
    <path
       inkscape:connector-curvature="0"
       id="path1299"
       d="m 367.80108,2472.207 c -50.04696,0.3757 -100.19733,-0.061 -150.10684,3.0829 -21.49925,1.7658 -43.56464,3.8106 -63.16042,10.9068 -10.82842,4.039 -19.79115,10.4541 -25.83425,18.1136 -11.58261,13.8362 -16.89299,30.3401 -15.61986,46.4746 2.08049,19.2444 16.70451,37.721 39.30563,48.0355 19.87078,9.5373 43.84692,12.9677 67.21699,14.3908 96.0801,7.3419 193.83939,6.3175 288.86601,-7.0294 17.07486,-2.4861 33.8085,-8.4485 44.55934,-18.6714 13.31213,-12.3294 17.8207,-28.6385 15.80553,-44.0117 -0.21035,-13.9702 -5.08812,-28.5979 -18.20798,-39.2199 -18.1378,-16.0239 -45.99562,-25.0413 -74.04123,-27.1095 -35.97084,-4.0057 -72.43364,-5.0919 -108.78292,-4.9623 z"
       style="fill:#ffe4a0;fill-rule:evenodd;stroke:none;stroke-width:1.25881px;stroke-linecap:butt;stroke-linejoin:miter;stroke-opacity:1;fill-opacity:1" />
    <path
       sodipodi:nodetypes="ccccscscsccc"
       inkscape:connector-curvature="0"
       id="path1301"
       d="m 370.49027,2589.9816 c -46.59416,0.5947 -93.69034,0.9779 -139.35331,10.0166 -37.52113,8.5118 -72.5784,28.2264 -93.4578,57.1125 -13.58499,20.3348 -16.42345,44.2177 -20.22557,67.0639 -3.82406,26.4357 -1.47842,54.4349 12.81921,78.4033 18.29275,31.8693 49.14577,59.0122 87.71002,71.7476 34.94182,11.6193 71.88575,19.087 109.33772,20.1908 22.19171,0.6289 44.38007,-0.8777 66.47675,-2.52 42.12229,-3.6363 84.6995,-9.4127 123.78651,-24.211 10.86638,-4.0687 21.61097,-8.8798 29.99807,-16.3129 8.88951,-7.3323 15.14195,-16.6659 19.94026,-26.3955 13.79941,-26.4115 20.12896,-55.431 21.63934,-84.3094 1.16734,-28.4309 -2.77674,-57.7743 -17.39255,-83.5284 -16.82972,-27.563 -47.20613,-48.3153 -81.6505,-56.6127 -37.20154,-9.909 -76.49728,-10.3073 -115.0553,-10.6708 -1.52427,0.01 -3.04856,0.018 -4.57285,0.026 z"
       style="fill:#ffe4a0;fill-rule:evenodd;stroke:none;stroke-width:1.07301px;stroke-linecap:butt;stroke-linejoin:miter;stroke-opacity:1;fill-opacity:1" />
    <path
       sodipodi:nodetypes="cccccccc"
       inkscape:connector-curvature="0"
       id="path1303"
       d="m 314.48548,2823.9382 c 0,0 40.07769,-10.737 62.91403,-9.5303 65.47757,22.7394 62.75811,63.2649 85.90234,77.6086 27.12418,16.7249 60.24335,4.6482 84.95704,-19.9743 -23.26738,37.863 -47.27697,53.8308 -87.47529,44.384 -28.47092,-9.6839 -61.55072,-45.8928 -74.16623,-49.3135 -12.6168,-3.4211 -40.97217,-15.237 -71.71515,0.7502 -30.74293,15.9872 -0.41674,-43.9247 -0.41674,-43.9247 z"
       style="fill:#ffe4a0;fill-rule:evenodd;stroke:none;stroke-width:1px;stroke-linecap:butt;stroke-linejoin:miter;stroke-opacity:1;fill-opacity:1" />
    <path
       sodipodi:nodetypes="csssssssscc"
       inkscape:connector-curvature="0"
       id="path1289"
       d="m 1934.3221,2942.9568 c -42.6705,1.9032 -85.1859,11.7501 -119.2404,30.2482 -14.3263,9.1003 -22.067,21.9528 -28.5141,34.4734 -11.9713,24.794 -16.3991,51.0515 -17.8455,77.1163 -0.9511,23.3164 0.7237,46.7527 6.3942,69.7534 3.0899,10.9129 7.8198,22.3252 19.3734,30.3567 13.493,9.5183 31.2162,15.1231 48.4221,20.4951 45.2879,13.4095 95.3988,17.2547 144.1052,14.4776 30.9924,-1.933 61.7006,-8.3132 88.3428,-19.7704 11.7504,-5.4318 20.3333,-13.5386 27.1952,-22.0503 9.1851,-11.1508 16.5776,-23.0797 21.5561,-35.4937 7.4306,-19.8547 7.2236,-40.6621 4.5524,-60.9698 -2.5076,-24.6886 -4.1422,-49.7522 -14.4116,-73.5906 -7.5437,-16.2569 -22.2222,-30.8862 -41.9261,-40.9287 -18.7314,-9.8563 -41.2418,-15.5619 -64.1124,-18.4097 -24.2711,-3.6306 -49.0363,-5.9924 -73.8913,-5.7075 z"
       style="fill:#ffe4a0;fill-opacity:1;fill-rule:evenodd;stroke:none;stroke-width:0.918601px;stroke-linecap:butt;stroke-linejoin:miter;stroke-opacity:1" />
    <path
       sodipodi:nodetypes="csccccc"
       inkscape:connector-curvature="0"
       id="path1291"
       d="m 2170.7156,3020.9486 c -6.101,13.0623 -13.9868,25.9773 -26.0872,34.287 -10.0716,6.895 -22.3859,9.4079 -34.3733,10.2491 -15.3319,1.751 -30.3429,5.9848 -44.4946,12.0831 -1.4531,0.2912 -1.4547,2.02 -0.7596,3.0252 1.2799,2.7989 3.5967,4.9748 4.8588,7.7885 6.0053,9.5165 12.0107,19.033 18.016,28.5495 4.0585,-4.1531 8.017,-8.5477 13.1368,-11.4274 14.4187,-9.7338 31.2987,-15.4299 44.9108,-26.4111 7.7153,-7.3493 12.3164,-17.1793 16.7571,-26.6914 4.5856,-10.7331 7.5703,-22.1261 9.0664,-33.6947 -0.3437,0.7474 -0.6875,1.4948 -1.0312,2.2422 z"
       style="fill:#ffe4a0;fill-rule:evenodd;stroke:none;stroke-width:1px;stroke-linecap:butt;stroke-linejoin:miter;stroke-opacity:1;fill-opacity:1" />
  </g>
  <g
     inkscape:groupmode="layer"
     id="layer1"
     inkscape:label="txt">
    <text
       xml:space="preserve"
       style="font-style:normal;font-variant:normal;font-weight:normal;font-stretch:normal;line-height:0%;font-family:Lavi;-inkscape-font-specification:Lavi;letter-spacing:3.03024px;word-spacing:0px;fill:#d4fffe;fill-opacity:1;stroke:#4082aa;stroke-width:0.768699;stroke-miterlimit:4;stroke-dasharray:none;stroke-opacity:1;filter:url(#filter4375-4-1-1-1-9-5-8-8-3-3-3-6)"
       x="787.65729"
       y="1584.5073"
       id="text4580-6-0-0-3-3-6-2"
       transform="matrix(1.641503,-0.13257132,-0.02464032,1.6990631,-755.89738,-2371.264)"
       inkscape:label="FXA-1"><tspan
         sodipodi:role="line"
         id="tspan4582-1-1-0-6-9-0-8"
         x="787.65729"
         y="1584.5073"
         style="font-style:normal;font-variant:normal;font-weight:bold;font-stretch:normal;font-size:70px;line-height:1.25;font-family:Drukah;-inkscape-font-specification:'Drukah Bold';fill:#d4fffe;fill-opacity:1;stroke:#4082aa;stroke-width:0.768699;stroke-miterlimit:4;stroke-dasharray:none;stroke-opacity:1">Fiiss!</tspan></text>
    <text
       xml:space="preserve"
       style="font-style:normal;font-variant:normal;font-weight:normal;font-stretch:normal;line-height:0%;font-family:Lavi;-inkscape-font-specification:Lavi;letter-spacing:3.03024px;word-spacing:0px;fill:#d4fffe;fill-opacity:1;stroke:#4082aa;stroke-width:0.908848;stroke-miterlimit:4;stroke-dasharray:none;stroke-opacity:1;filter:url(#filter4375-4-1-1-1-9-5-8-8-3-3-3-6)"
       x="787.65729"
       y="1584.5073"
       id="text4580-6-0-0-3-3"
       transform="matrix(1.4432721,-0.04864218,0.16344738,1.3752651,-381.83084,-1918.789)"
       inkscape:label="FXA-2"><tspan
         sodipodi:role="line"
         id="tspan4582-1-1-0-6-9"
         x="787.65729"
         y="1584.5073"
         style="font-style:normal;font-variant:normal;font-weight:bold;font-stretch:normal;font-size:70px;line-height:1.25;font-family:Drukah;-inkscape-font-specification:'Drukah Bold';fill:#d4fffe;fill-opacity:1;stroke:#4082aa;stroke-width:0.908848;stroke-miterlimit:4;stroke-dasharray:none;stroke-opacity:1">Čii!</tspan></text>
    <text
       transform="matrix(0.73086327,-0.10344101,-0.01097086,0.78115386,821.84576,-771.75516)"
       id="text4580-6-0-0-3-3-6"
       y="1584.5073"
       x="787.65729"
       style="font-style:normal;font-variant:normal;font-weight:normal;font-stretch:normal;line-height:0%;font-family:Lavi;-inkscape-font-specification:Lavi;letter-spacing:3.03024px;word-spacing:0px;opacity:0.805283;fill:#d4fffe;fill-opacity:1;stroke:#4082aa;stroke-width:3.02449;stroke-miterlimit:4;stroke-dasharray:none;stroke-opacity:1;paint-order:stroke fill markers;filter:url(#filter4375-4-1-1-1-9-5-8-8-3-3-3)"
       xml:space="preserve"
       inkscape:label="FXA-3"><tspan
         style="font-style:normal;font-variant:normal;font-weight:bold;font-stretch:normal;font-size:70px;line-height:1.25;font-family:Drukah;-inkscape-font-specification:'Drukah Bold';fill:#d4fffe;fill-opacity:1;stroke:#4082aa;stroke-width:3.02449;stroke-miterlimit:4;stroke-dasharray:none;stroke-opacity:1;paint-order:stroke fill markers"
         y="1584.5073"
         x="787.65729"
         id="tspan4582-1-1-0-6-9-0"
         sodipodi:role="line">Šii!</tspan></text>
    <text
       xml:space="preserve"
       style="font-style:normal;font-variant:normal;font-weight:normal;font-stretch:normal;line-height:0%;font-family:Lavi;-inkscape-font-specification:Lavi;letter-spacing:3.03024px;word-spacing:0px;opacity:0.805283;fill:#d4fffe;fill-opacity:1;stroke:#4082aa;stroke-width:3.81156;stroke-miterlimit:4;stroke-dasharray:none;stroke-opacity:1;paint-order:stroke fill markers;filter:url(#filter4375-4-1-1-1-9-5-8-8-3-3-3)"
       x="787.65729"
       y="1584.5073"
       id="text4580-6-0-0-3-3-6-3"
       transform="matrix(0.58809054,-0.08094382,-0.00882772,0.61126221,1040.8841,-449.34757)"
       inkscape:label="FXA-4"><tspan
         sodipodi:role="line"
         id="tspan4582-1-1-0-6-9-0-6"
         x="787.65729"
         y="1584.5073"
         style="font-style:normal;font-variant:normal;font-weight:bold;font-stretch:normal;font-size:70px;line-height:1.25;font-family:Drukah;-inkscape-font-specification:'Drukah Bold';fill:#d4fffe;fill-opacity:1;stroke:#4082aa;stroke-width:3.81156;stroke-miterlimit:4;stroke-dasharray:none;stroke-opacity:1;paint-order:stroke fill markers">Ffhii!</tspan></text>
    <text
       transform="matrix(1.5086209,-0.13257132,-0.02264565,1.6990631,202.41684,-1572.8785)"
       id="text4580-6-0-0-3-3-6-2-9"
       y="1584.5073"
       x="787.65729"
       style="font-style:normal;font-variant:normal;font-weight:normal;font-stretch:normal;line-height:0%;font-family:Lavi;-inkscape-font-specification:Lavi;letter-spacing:3.03024px;word-spacing:0px;fill:#ffffdb;fill-opacity:1;stroke:#aa7640;stroke-width:0.801839;stroke-miterlimit:4;stroke-dasharray:none;stroke-opacity:1;filter:url(#filter4375-4-1-1-1-9-5-8-8-3-3-3-6-1)"
       xml:space="preserve"
       inkscape:label="FXB-1"><tspan
         style="font-style:normal;font-variant:normal;font-weight:bold;font-stretch:normal;font-size:70px;line-height:1.25;font-family:Drukah;-inkscape-font-specification:'Drukah Bold';fill:#ffffdb;fill-opacity:1;stroke:#aa7640;stroke-width:0.801839;stroke-miterlimit:4;stroke-dasharray:none;stroke-opacity:1"
         y="1584.5073"
         x="787.65729"
         id="tspan4582-1-1-0-6-9-0-8-3"
         sodipodi:role="line">Čing!</tspan></text>
    <text
       xml:space="preserve"
       style="font-style:normal;font-variant:normal;font-weight:normal;font-stretch:normal;line-height:0%;font-family:Lavi;-inkscape-font-specification:Lavi;letter-spacing:3.03024px;word-spacing:0px;fill:#ffffdb;fill-opacity:1;stroke:#aa7640;stroke-width:1.24228;stroke-miterlimit:4;stroke-dasharray:none;stroke-opacity:1;filter:url(#filter4375-4-1-1-1-9-5-8-8-3-3-3-6-1)"
       x="787.65729"
       y="1584.5073"
       id="text4580-6-0-0-3-3-6-2-9-8"
       transform="matrix(0.99139269,-0.08404637,-0.01488163,1.0771567,361.73002,-762.46085)"
       inkscape:label="FXB-2"><tspan
         sodipodi:role="line"
         id="tspan4582-1-1-0-6-9-0-8-3-4"
         x="787.65729"
         y="1584.5073"
         style="font-style:normal;font-variant:normal;font-weight:bold;font-stretch:normal;font-size:70px;line-height:1.25;font-family:Drukah;-inkscape-font-specification:'Drukah Bold';fill:#ffffdb;fill-opacity:1;stroke:#aa7640;stroke-width:1.24228;stroke-miterlimit:4;stroke-dasharray:none;stroke-opacity:1">Fiiss!</tspan></text>
    <text
       transform="matrix(0.78114637,-0.07089707,-0.01172566,0.90863239,192.84955,-421.94011)"
       id="text4580-6-0-0-3-3-6-2-9-8-0"
       y="1584.5073"
       x="787.65729"
       style="font-style:normal;font-variant:normal;font-weight:normal;font-stretch:normal;line-height:0%;font-family:Lavi;-inkscape-font-specification:Lavi;letter-spacing:3.03024px;word-spacing:0px;fill:#ffffdb;fill-opacity:1;stroke:#aa7640;stroke-width:1.52377;stroke-miterlimit:4;stroke-dasharray:none;stroke-opacity:1;paint-order:stroke fill markers;filter:url(#filter4375-4-1-1-1-9-5-8-8-3-3-3-6-1-3)"
       xml:space="preserve"
       inkscape:label="FXB-3"><tspan
         style="font-style:normal;font-variant:normal;font-weight:bold;font-stretch:normal;font-size:70px;line-height:1.25;font-family:Drukah;-inkscape-font-specification:'Drukah Bold';fill:#ffffdb;fill-opacity:1;stroke:#aa7640;stroke-width:1.52377;stroke-miterlimit:4;stroke-dasharray:none;stroke-opacity:1;paint-order:stroke fill markers"
         y="1584.5073"
         x="787.65729"
         id="tspan4582-1-1-0-6-9-0-8-3-4-4"
         sodipodi:role="line">Šii!</tspan></text>
    <text
       xml:space="preserve"
       style="font-style:normal;font-variant:normal;font-weight:normal;font-stretch:normal;line-height:0%;font-family:Lavi;-inkscape-font-specification:Lavi;letter-spacing:3.03024px;word-spacing:0px;fill:#ffffdb;fill-opacity:1;stroke:#aa7640;stroke-width:1.91363;stroke-miterlimit:4;stroke-dasharray:none;stroke-opacity:1;paint-order:stroke fill markers;filter:url(#filter4375-4-1-1-1-9-5-8-8-3-3-3-6-1-3)"
       x="787.65729"
       y="1584.5073"
       id="text4580-6-0-0-3-3-6-2-9-8-0-4"
       transform="matrix(0.63960761,-0.05489999,-0.00960104,0.70361026,133.75269,-120.38078)"
       inkscape:label="FXB-4"><tspan
         sodipodi:role="line"
         id="tspan4582-1-1-0-6-9-0-8-3-4-4-9"
         x="787.65729"
         y="1584.5073"
         style="font-style:normal;font-variant:normal;font-weight:bold;font-stretch:normal;font-size:70px;line-height:1.25;font-family:Drukah;-inkscape-font-specification:'Drukah Bold';fill:#ffffdb;fill-opacity:1;stroke:#aa7640;stroke-width:1.91363;stroke-miterlimit:4;stroke-dasharray:none;stroke-opacity:1;paint-order:stroke fill markers">Ffhii!</tspan></text>
    <text
       id="text4246-7-6-4-6-4-5"
       y="1442.0474"
       x="371.02808"
       style="font-style:normal;font-variant:normal;font-weight:normal;font-stretch:normal;line-height:0%;font-family:Lavi;-inkscape-font-specification:Lavi;text-align:center;letter-spacing:0px;word-spacing:0px;text-anchor:middle;fill:#000000;fill-opacity:1;stroke:none"
       xml:space="preserve"
       inkscape:label="kingA"><tspan
         y="1442.0474"
         x="371.02808"
         style="font-size:45px;line-height:1.25"
         sodipodi:role="line"
         id="tspan29223">Predvidevam,</tspan><tspan
         y="1498.2974"
         x="371.02808"
         style="font-size:45px;line-height:1.25"
         sodipodi:role="line"
         id="tspan451">da ta urok ojača</tspan><tspan
         y="1554.5474"
         x="371.02808"
         style="font-size:45px;line-height:1.25"
         sodipodi:role="line"
         id="tspan516">naše meče …</tspan></text>
    <text
       xml:space="preserve"
       style="font-style:normal;font-variant:normal;font-weight:normal;font-stretch:normal;line-height:0%;font-family:Lavi;-inkscape-font-specification:Lavi;text-align:center;letter-spacing:0px;word-spacing:0px;text-anchor:middle;fill:#000000;fill-opacity:1;stroke:none"
       x="1341.9596"
       y="1515.2585"
       id="text4246-7-6-4-6-4-5-6"
       inkscape:label="kingB"><tspan
         sodipodi:role="line"
         style="font-size:45px;line-height:1.25"
         x="1341.9596"
         y="1515.2585"
         id="tspan931">… in oslabi</tspan><tspan
         sodipodi:role="line"
         style="font-size:45px;line-height:1.25"
         x="1341.9596"
         y="1571.5085"
         id="tspan510">sovražnikove?</tspan></text>
    <text
       transform="matrix(1.220434,-0.42657035,0.13821142,1.3324635,481.15335,-204.29182)"
       id="text4580-6-0-0-3-3-63"
       y="1584.5073"
       x="787.65729"
       style="font-style:normal;font-variant:normal;font-weight:normal;font-stretch:normal;line-height:0%;font-family:Lavi;-inkscape-font-specification:Lavi;letter-spacing:3.03024px;word-spacing:0px;fill:#d4fffe;fill-opacity:1;stroke:#4082aa;stroke-width:0.988344;stroke-miterlimit:4;stroke-dasharray:none;stroke-opacity:1;filter:url(#filter4375-4-1-1-1-9-5-8-8-3-3-3-6)"
       xml:space="preserve"
       inkscape:label="FXC"><tspan
         rotate="0 0 0 0 0 0 0 0 0"
         style="font-style:normal;font-variant:normal;font-weight:bold;font-stretch:normal;font-size:70px;line-height:1.25;font-family:Drukah;-inkscape-font-specification:'Drukah Bold';fill:#d4fffe;fill-opacity:1;stroke:#4082aa;stroke-width:0.988344;stroke-miterlimit:4;stroke-dasharray:none;stroke-opacity:1"
         y="1584.5073"
         x="787.65729"
         id="tspan4582-1-1-0-6-9-9"
         sodipodi:role="line">Čiing …</tspan></text>
    <text
       id="text4246-7-6-4-6-4-5-6-6"
       y="2452.0837"
       x="343.2887"
       style="font-style:normal;font-variant:normal;font-weight:normal;font-stretch:normal;font-size:13.3583px;line-height:0%;font-family:Lavi;-inkscape-font-specification:Lavi;text-align:center;letter-spacing:0px;word-spacing:0px;text-anchor:middle;fill:#000000;fill-opacity:1;stroke:none;stroke-width:1"
       xml:space="preserve"
       inkscape:label="pepperA"><tspan
         y="2452.0837"
         x="343.2887"
         style="font-size:50.0936px;line-height:1.25;stroke-width:1"
         sodipodi:role="line"
         id="tspan980">He he.</tspan><tspan
         y="2473.145"
         x="343.2887"
         style="font-size:50.0936px;line-height:1.25;stroke-width:1"
         sodipodi:role="line"
         id="tspan978" /></text>
    <text
       xml:space="preserve"
       style="font-style:normal;font-variant:normal;font-weight:normal;font-stretch:normal;font-size:14.0866px;line-height:0%;font-family:Lavi;-inkscape-font-specification:Lavi;text-align:center;letter-spacing:0px;word-spacing:0px;text-anchor:middle;fill:#000000;fill-opacity:1;stroke:none;stroke-width:1"
       x="341.25537"
       y="2560.8501"
       id="text4246-7-6-4-6-4-5-6-6-2"
       inkscape:label="pepperB"><tspan
         id="tspan978-0"
         sodipodi:role="line"
         style="font-size:52.8249px;line-height:1.25;stroke-width:1"
         x="341.25537"
         y="2560.8501">Boste že videli!</tspan></text>
    <text
       id="text4246-7-6-4-6-4-5-6-6-2-9"
       y="2665.4893"
       x="354.48276"
       style="font-style:normal;font-variant:normal;font-weight:normal;font-stretch:normal;line-height:0%;font-family:Lavi;-inkscape-font-specification:Lavi;text-align:center;letter-spacing:0px;word-spacing:0px;text-anchor:middle;fill:#000000;fill-opacity:1;stroke:none"
       xml:space="preserve"
       inkscape:label="pepperC"><tspan
         y="2665.4893"
         x="354.48276"
         style="font-size:45px;line-height:1.25"
         sodipodi:role="line"
         id="tspan54248">Lahko vam le</tspan><tspan
         y="2721.7393"
         x="354.48276"
         style="font-size:45px;line-height:1.25"
         sodipodi:role="line"
         id="tspan54412">povem, da danes</tspan><tspan
         y="2777.9893"
         x="354.48276"
         style="font-size:45px;line-height:1.25"
         sodipodi:role="line"
         id="tspan56250">ne boste izgubili</tspan><tspan
         y="2834.2393"
         x="354.48276"
         style="font-size:45px;line-height:1.25"
         sodipodi:role="line"
         id="tspan58044">nobenega vojaka.</tspan></text>
    <text
       xml:space="preserve"
       style="font-style:normal;font-variant:normal;font-weight:normal;font-stretch:normal;line-height:0%;font-family:Lavi;-inkscape-font-specification:Lavi;text-align:center;letter-spacing:0px;word-spacing:0px;text-anchor:middle;fill:#000000;fill-opacity:1;stroke:none"
       x="1949.9956"
       y="3013.979"
       id="text4246-7-6-4-6-4-5-6-6-2-9-6"
       inkscape:label="pepperD"><tspan
         sodipodi:role="line"
         style="font-size:45px;line-height:1.25"
         x="1949.9956"
         y="3013.979"
         id="tspan74987">A še vedno</tspan><tspan
         sodipodi:role="line"
         style="font-size:45px;line-height:1.25"
         x="1949.9956"
         y="3070.229"
         id="tspan587">se morate</tspan><tspan
         sodipodi:role="line"
         style="font-size:45px;line-height:1.25"
         x="1949.9956"
         y="3126.479"
         id="tspan589">boriti in dati vse</tspan><tspan
         sodipodi:role="line"
         style="font-size:45px;line-height:1.25"
         x="1949.9956"
         y="3182.729"
         id="tspan585">od sebe!</tspan></text>
  </g>
</svg>
