<?xml version="1.0" encoding="UTF-8" standalone="no"?>
<!-- Created with Inkscape (http://www.inkscape.org/) -->

<svg
   id="svg2"
   version="1.1"
   inkscape:version="1.3 (0e150ed6c4, 2023-07-21)"
   width="2481"
   height="3503"
   sodipodi:docname="E13P01.svg"
   xmlns:inkscape="http://www.inkscape.org/namespaces/inkscape"
   xmlns:sodipodi="http://sodipodi.sourceforge.net/DTD/sodipodi-0.dtd"
   xmlns:xlink="http://www.w3.org/1999/xlink"
   xmlns="http://www.w3.org/2000/svg"
   xmlns:svg="http://www.w3.org/2000/svg"
   xmlns:rdf="http://www.w3.org/1999/02/22-rdf-syntax-ns#"
   xmlns:cc="http://creativecommons.org/ns#"
   xmlns:dc="http://purl.org/dc/elements/1.1/">
  <metadata
     id="metadata8">
    <rdf:RDF>
      <cc:Work
         rdf:about="">
        <dc:format>image/svg+xml</dc:format>
        <dc:type
           rdf:resource="http://purl.org/dc/dcmitype/StillImage" />
        <dc:title />
      </cc:Work>
    </rdf:RDF>
  </metadata>
  <defs
     id="defs6" />
  <sodipodi:namedview
     pagecolor="#ffffff"
     bordercolor="#666666"
     borderopacity="1"
     objecttolerance="10"
     gridtolerance="10"
     guidetolerance="10"
     inkscape:pageopacity="0"
     inkscape:pageshadow="2"
     inkscape:window-width="1920"
     inkscape:window-height="1012"
     id="namedview4"
     showgrid="false"
     inkscape:zoom="0.34782609"
     inkscape:cx="1328.25"
     inkscape:cy="2268.375"
     inkscape:window-x="0"
     inkscape:window-y="0"
     inkscape:window-maximized="1"
     inkscape:current-layer="layer1"
     inkscape:showpageshadow="0"
     inkscape:pagecheckerboard="0"
     inkscape:deskcolor="#d1d1d1" />
  <g
     inkscape:groupmode="layer"
     id="layer2"
     inkscape:label="artwork"
     sodipodi:insensitive="true">
    <image
       xlink:href="../gfx_Pepper-and-Carrot_by-David-Revoy_E13P01.png"
       width="2481"
       height="3503"
       id="image10"
       x="0"
       y="0" />
  </g>
  <g
     inkscape:groupmode="layer"
     id="layer3"
     inkscape:label="speechbubbles" />
  <g
     inkscape:groupmode="layer"
     id="layer1"
     inkscape:label="txt">
    <path
       style="fill:#ffffff;fill-opacity:1;stroke:none"
       d="M 717.80334,774.26331 C 728.56619,715.8626 659.86577,714.5295 531.01621,710.7578 c -123.15479,-3.6049 -147.59936,9.0774 -164.20957,33.63651 -19.17918,28.3574 -25.58937,73.8614 72.62101,88.2487 78.08081,11.4386 216.48911,0.6814 234.20072,-11.7527 17.7116,-12.4341 38.78082,-15.271 44.17497,-46.627 z"
       id="path3238-1-6"
       inkscape:connector-curvature="0"
       sodipodi:nodetypes="cssssc" />
    <path
       style="fill:#ffffff;fill-opacity:1;stroke:none"
       d="m 731.34137,1112.0514 c 10.76285,-58.4007 -57.93757,-59.7338 -186.78713,-63.5055 -123.15478,-3.6049 -147.59935,9.0774 -164.20956,33.6365 -19.17918,28.3574 -25.58937,73.8614 72.62101,88.2487 78.0808,11.4386 216.4891,0.6814 234.20071,-11.7527 17.7116,-12.4341 38.78082,-15.271 44.17497,-46.627 z"
       id="path3238-1"
       inkscape:connector-curvature="0"
       sodipodi:nodetypes="cssssc" />
    <path
       style="fill:#ffffff;stroke:none;stroke-width:0.944697"
       d="m 1991.4038,3342.7061 c -10.5691,-60.705 12.6235,-111.7226 28.0543,-124.7524 15.4309,-13.0298 42.2168,-29.2892 55.7123,-32.5799 13.4956,-3.2908 228.0842,-18.1391 241.0919,-10.7639 13.0078,7.3751 71.3992,33.7889 85.0434,71.1652 13.6442,37.3762 32.6007,146.43 15.9276,168.2106 -16.6734,21.7805 -59.789,9.5917 -157.4198,18.1921 -97.6306,8.6005 -214.9008,8.8568 -243.693,-34.9815 -16.2315,-24.7135 -24.7167,-54.4902 -24.7167,-54.4902 z"
       id="path3286"
       inkscape:connector-curvature="0"
       sodipodi:nodetypes="csssssssc" />
    <path
       style="color:#000000;display:inline;overflow:visible;visibility:visible;fill:#ffffff;fill-opacity:1;fill-rule:nonzero;stroke:none;stroke-width:1px;marker:none;enable-background:accumulate"
       d="m 2065.3434,2908.9931 c 59.1369,57.7184 84.0546,81.7232 70.3501,131.5639 -13.7043,49.8409 29.5777,21.853 29.5777,21.853 0,0 27.6302,-106.7588 -99.9278,-153.4169 z"
       id="path3984"
       inkscape:connector-curvature="0"
       sodipodi:nodetypes="cscc" />
    <path
       style="color:#000000;display:inline;overflow:visible;visibility:visible;fill:#ffffff;fill-opacity:1;fill-rule:nonzero;stroke:none;stroke-width:1px;marker:none;enable-background:accumulate"
       d="m 2076.1426,3096.0642 c 1.169,-41.691 28.1557,-68.3929 56.6177,-74.4527 29.2207,-6.2213 44.4407,-3.8201 52.5548,-1.5513 8.1142,2.2688 71.0308,-3.1397 95.246,0.7026 23.3129,3.6992 58.1858,27.6571 55.9728,80.9733 -2.213,53.3162 -35.4075,76.004 -69.3394,79.4071 -33.9321,3.4032 -95.1503,2.2779 -112.9291,1.4931 -26.3622,-1.1633 -72.9591,0.7757 -78.1228,-86.5723 z"
       id="path5034"
       inkscape:connector-curvature="0"
       sodipodi:nodetypes="cscsssscc" />
    <path
       style="fill:#ffffff;fill-opacity:1;stroke:none"
       d="m 813.23055,1445.8788 c 11.47066,-62.3885 -61.74776,-63.8126 -199.07094,-67.8419 -131.2539,-3.851 -157.30603,9.6973 -175.00859,35.9334 -20.44047,30.2937 -27.27222,78.9049 77.39684,94.2746 83.21568,12.2197 230.72622,0.7279 249.60261,-12.5552 18.87638,-13.2831 41.33119,-16.3138 47.08008,-49.8109 z"
       id="path3238"
       inkscape:connector-curvature="0"
       sodipodi:nodetypes="cssssc" />
    <path
       style="color:#000000;display:inline;overflow:visible;visibility:visible;fill:#ffffff;fill-opacity:1;fill-rule:nonzero;stroke:none;stroke-width:1px;marker:none;enable-background:accumulate"
       d="M 537.20621,747.31481 C 497.18166,1119.9729 723.58268,1848.6244 747.8049,2074.1644 760.10221,1890.5729 526.40737,1185.705 565.75742,742.84162 c -24.19123,-4.10336 -28.55121,4.47319 -28.55121,4.47319 z"
       id="path4008"
       inkscape:connector-curvature="0"
       sodipodi:nodetypes="cccc" />
    <text
       xml:space="preserve"
       style="color:#000000;font-style:normal;font-variant:normal;font-weight:normal;font-stretch:normal;line-height:0%;font-family:Lavi;-inkscape-font-specification:Lavi;text-indent:0;text-align:center;text-decoration:none;text-decoration-line:none;text-decoration-style:solid;text-decoration-color:#000000;letter-spacing:0px;word-spacing:0px;text-transform:none;writing-mode:lr-tb;direction:ltr;baseline-shift:baseline;text-anchor:middle;white-space:normal;clip-rule:nonzero;display:inline;overflow:visible;visibility:visible;opacity:1;isolation:auto;mix-blend-mode:normal;color-interpolation:sRGB;color-interpolation-filters:linearRGB;solid-color:#000000;solid-opacity:1;fill:#000000;fill-opacity:1;fill-rule:nonzero;stroke:none;stroke-width:1;stroke-linecap:butt;stroke-linejoin:miter;stroke-miterlimit:4;stroke-dasharray:none;stroke-dashoffset:0;stroke-opacity:1;color-rendering:auto;image-rendering:auto;shape-rendering:auto;text-rendering:auto;enable-background:accumulate"
       x="2209.4524"
       y="3084.9578"
       id="text4159"><tspan
         sodipodi:role="line"
         x="2209.4524"
         y="3084.9578"
         id="tspan4175"
         style="font-size:45px;line-height:1.25">¡Esto es </tspan><tspan
         sodipodi:role="line"
         x="2209.4524"
         y="3141.2078"
         id="tspan4181"
         style="font-size:45px;line-height:1.25">genial!</tspan></text>
    <text
       xml:space="preserve"
       style="color:#000000;font-style:normal;font-variant:normal;font-weight:normal;font-stretch:normal;line-height:0%;font-family:Lavi;-inkscape-font-specification:Lavi;text-indent:0;text-align:center;text-decoration:none;text-decoration-line:none;text-decoration-style:solid;text-decoration-color:#000000;letter-spacing:0px;word-spacing:0px;text-transform:none;writing-mode:lr-tb;direction:ltr;baseline-shift:baseline;text-anchor:middle;white-space:normal;clip-rule:nonzero;display:inline;overflow:visible;visibility:visible;opacity:1;isolation:auto;mix-blend-mode:normal;color-interpolation:sRGB;color-interpolation-filters:linearRGB;solid-color:#000000;solid-opacity:1;fill:#000000;fill-opacity:1;fill-rule:nonzero;stroke:none;stroke-width:1;stroke-linecap:butt;stroke-linejoin:miter;stroke-miterlimit:4;stroke-dasharray:none;stroke-dashoffset:0;stroke-opacity:1;color-rendering:auto;image-rendering:auto;shape-rendering:auto;text-rendering:auto;enable-background:accumulate"
       x="2192.926"
       y="3266.3879"
       id="text4177"><tspan
         sodipodi:role="line"
         x="2192.926"
         y="3266.3879"
         id="tspan4189"
         style="font-size:45px;line-height:1.25">¡Muchas gracias</tspan><tspan
         sodipodi:role="line"
         x="2192.926"
         y="3322.6379"
         id="tspan4177"
         style="font-size:45px;line-height:1.25">por invitarnos,</tspan><tspan
         sodipodi:role="line"
         x="2192.926"
         y="3378.8879"
         id="tspan4179"
         style="font-size:45px;line-height:1.25">Celandria!</tspan></text>
    <text
       xml:space="preserve"
       style="color:#000000;font-style:normal;font-variant:normal;font-weight:normal;font-stretch:normal;line-height:0%;font-family:Lavi;-inkscape-font-specification:Lavi;text-indent:0;text-align:center;text-decoration:none;text-decoration-line:none;text-decoration-style:solid;text-decoration-color:#000000;letter-spacing:0px;word-spacing:0px;text-transform:none;writing-mode:lr-tb;direction:ltr;baseline-shift:baseline;text-anchor:middle;white-space:normal;clip-rule:nonzero;display:inline;overflow:visible;visibility:visible;opacity:1;isolation:auto;mix-blend-mode:normal;color-interpolation:sRGB;color-interpolation-filters:linearRGB;solid-color:#000000;solid-opacity:1;fill:#000000;fill-opacity:1;fill-rule:nonzero;stroke:#000000;stroke-width:1.15539;stroke-linecap:butt;stroke-linejoin:miter;stroke-miterlimit:4;stroke-dasharray:none;stroke-dashoffset:0;stroke-opacity:1;color-rendering:auto;image-rendering:auto;shape-rendering:auto;text-rendering:auto;enable-background:accumulate"
       x="627.89648"
       y="1448.4253"
       id="text4201"
       transform="scale(0.99121656,1.0088613)"><tspan
         sodipodi:role="line"
         x="627.89648"
         y="1448.4253"
         id="tspan4183"
         style="font-size:47.266px;line-height:1.25;stroke-width:1.15539">...¡de mi vida!</tspan></text>
    <text
       xml:space="preserve"
       style="color:#000000;font-style:normal;font-variant:normal;font-weight:normal;font-stretch:normal;line-height:0%;font-family:Lavi;-inkscape-font-specification:Lavi;text-indent:0;text-align:center;text-decoration:none;text-decoration-line:none;text-decoration-style:solid;text-decoration-color:#000000;letter-spacing:0px;word-spacing:0px;text-transform:none;writing-mode:lr-tb;direction:ltr;baseline-shift:baseline;text-anchor:middle;white-space:normal;clip-rule:nonzero;display:inline;overflow:visible;visibility:visible;opacity:1;isolation:auto;mix-blend-mode:normal;color-interpolation:sRGB;color-interpolation-filters:linearRGB;solid-color:#000000;solid-opacity:1;fill:#000000;fill-opacity:1;fill-rule:nonzero;stroke:none;stroke-width:1;stroke-linecap:butt;stroke-linejoin:miter;stroke-miterlimit:4;stroke-dasharray:none;stroke-dashoffset:0;stroke-opacity:1;color-rendering:auto;image-rendering:auto;shape-rendering:auto;text-rendering:auto;enable-background:accumulate"
       x="547.33362"
       y="781.7851"
       id="text4201-8"><tspan
         sodipodi:role="line"
         x="547.33362"
         y="781.7851"
         id="tspan4183-9"
         style="font-size:45px;line-height:1.25">Las mejores...</tspan></text>
    <text
       xml:space="preserve"
       style="color:#000000;font-style:normal;font-variant:normal;font-weight:normal;font-stretch:normal;line-height:0%;font-family:Lavi;-inkscape-font-specification:Lavi;text-indent:0;text-align:center;text-decoration:none;text-decoration-line:none;text-decoration-style:solid;text-decoration-color:#000000;letter-spacing:0px;word-spacing:0px;text-transform:none;writing-mode:lr-tb;direction:ltr;baseline-shift:baseline;text-anchor:middle;white-space:normal;clip-rule:nonzero;display:inline;overflow:visible;visibility:visible;opacity:1;isolation:auto;mix-blend-mode:normal;color-interpolation:sRGB;color-interpolation-filters:linearRGB;solid-color:#000000;solid-opacity:1;fill:#000000;fill-opacity:1;fill-rule:nonzero;stroke:none;stroke-width:1;stroke-linecap:butt;stroke-linejoin:miter;stroke-miterlimit:4;stroke-dasharray:none;stroke-dashoffset:0;stroke-opacity:1;color-rendering:auto;image-rendering:auto;shape-rendering:auto;text-rendering:auto;enable-background:accumulate"
       x="552.08148"
       y="1121.1799"
       id="text4201-2"><tspan
         sodipodi:role="line"
         x="552.08148"
         y="1121.1799"
         id="tspan4183-92"
         style="font-size:45px;line-height:1.25">...vacaciones...</tspan></text>
  </g>
</svg>
