<?xml version="1.0" encoding="UTF-8" standalone="no"?>
<!-- Created with Inkscape (http://www.inkscape.org/) -->

<svg
   id="svg2"
   version="1.1"
   inkscape:version="1.2.2 (b0a8486541, 2022-12-01)"
   width="2481"
   height="3503"
   sodipodi:docname="E38P01.svg"
   xmlns:inkscape="http://www.inkscape.org/namespaces/inkscape"
   xmlns:sodipodi="http://sodipodi.sourceforge.net/DTD/sodipodi-0.dtd"
   xmlns:xlink="http://www.w3.org/1999/xlink"
   xmlns="http://www.w3.org/2000/svg"
   xmlns:svg="http://www.w3.org/2000/svg"
   xmlns:rdf="http://www.w3.org/1999/02/22-rdf-syntax-ns#"
   xmlns:cc="http://creativecommons.org/ns#"
   xmlns:dc="http://purl.org/dc/elements/1.1/">
  <metadata
     id="metadata8">
    <rdf:RDF>
      <cc:Work
         rdf:about="">
        <dc:format>image/svg+xml</dc:format>
        <dc:type
           rdf:resource="http://purl.org/dc/dcmitype/StillImage" />
        <dc:title />
      </cc:Work>
    </rdf:RDF>
  </metadata>
  <defs
     id="defs6" />
  <sodipodi:namedview
     pagecolor="#ffffff"
     bordercolor="#666666"
     borderopacity="1"
     objecttolerance="10"
     gridtolerance="10"
     guidetolerance="10"
     inkscape:pageopacity="0"
     inkscape:pageshadow="2"
     inkscape:window-width="2160"
     inkscape:window-height="1357"
     id="namedview4"
     showgrid="false"
     inkscape:zoom="0.57564339"
     inkscape:cx="1365.4287"
     inkscape:cy="3186.0003"
     inkscape:window-x="0"
     inkscape:window-y="0"
     inkscape:window-maximized="1"
     inkscape:current-layer="layer1"
     inkscape:showpageshadow="0"
     inkscape:pagecheckerboard="0"
     inkscape:deskcolor="#d1d1d1" />
  <g
     inkscape:groupmode="layer"
     id="layer2"
     inkscape:label="artwork"
     sodipodi:insensitive="true">
    <image
       xlink:href="../gfx_Pepper-and-Carrot_by-David-Revoy_E38P01.png"
       y="0"
       x="0"
       id="image10"
       height="3503"
       width="2481" />
  </g>
  <g
     inkscape:groupmode="layer"
     id="layer3"
     inkscape:label="speechbubbles">
    <path
       style="display:inline;fill:#ffffff;fill-rule:evenodd;stroke:none;stroke-width:1.1839px;stroke-linecap:butt;stroke-linejoin:miter;stroke-opacity:1"
       d="m 1919.057,2823.7857 c 14.6024,-12.8494 24.0842,-27.8094 11.6283,-35.4155 l -2.9462,-4.8919 -39.8193,-57.5913 c 44.6515,13.0979 92.4955,29.9281 63.8961,-42.602 41.9276,36.1281 76.2111,54.2583 80.9445,2.8147 17.1656,22.851 33.7591,58.9265 52.9536,34.8767 8.6511,11.7728 16.7835,7.0951 24.3724,-14.8154 11.332,26.8604 28.6702,10.2614 47.7058,-18.6212 18.044,29.3239 37.1743,53.6416 70.4091,12.9665 -2.8347,30.1977 16.2389,28.6932 45.215,12.8595 -3.345,13.1355 2.203,17.445 37.1238,6.6788 -8.3468,12.7517 -23.8189,13.9903 13.7118,16.3815 -3.2575,12.4157 -26.5416,22.5757 19.6675,40.5624 -46.1872,-4.6132 -11.7222,17.4098 -9.7644,28.697 -30.0801,-6.5408 -43.4281,-3.4934 -11.1469,25.7006 -15.3326,-0.3509 -58.7267,-32.2377 -36.3432,9.7978 -25.6433,-23.4746 -49.2128,5.2194 -35.7624,6.2019 l -54.7815,8.8413 -87.6866,-7.3731 -61.8846,0.4398 -51.4456,5.5096 c 6.7512,-18.4296 -10.5598,-11.9095 -24.2757,-9.117 -4.648,-5.389 4.7313,-18.4753 -24.9291,-10.1391 0.3985,-13.3273 -14.2182,-11.5415 -26.8424,-11.7616 z"
       id="path1058"
       sodipodi:nodetypes="ccccccccccccccccccccccccc" />
    <path
       style="display:inline;fill:#ffffff;fill-rule:evenodd;stroke:none;stroke-width:1.1494px;stroke-linecap:butt;stroke-linejoin:miter;stroke-opacity:1"
       d="m 1891.7552,2909.8635 c 39.8391,1.2167 34.5607,23.7094 20.2138,50.4789 11.0369,-1.8007 36.85,-26.5978 21.544,12.6005 33.4208,-14.241 12.8311,14.573 10.1154,29.0615 13.472,-3.0498 21.719,10.0733 5.3339,58.8841 16.5455,-11.4869 41.8292,-54.6134 39.9448,0.6339 13.3947,-6.8576 30.9935,-33.2798 33.2272,11.8007 17.7062,-22.2551 41.6293,-41.2421 42.0723,28.5795 9.2182,-59.7693 43.4469,-79.0469 48.3689,6.7632 6.6245,-77.9225 36.8625,-53.2177 56.5614,3.7833 -5.7508,-45.1526 2.9794,-73.1646 67.4236,-35.2324 -0.4675,-39.7521 12.98,-57.5349 66.7211,-11.6991 -11.422,-26.4572 -39.0368,-68.5799 25.2475,-21.7973 -33.8086,-56.3224 -12.7607,-77.0271 15.3903,-114.3378 -34.2784,26.0188 -24.4068,-12.1151 -11.4918,-41.8036 -42.2843,13.0436 -50.9243,-12.1316 -18.5874,-49.1548 -48.9595,15.4486 -47.7564,-5.9478 -38.1874,-24.4036 -70.941,36.4654 -41.3538,-21.2499 -34.8032,-43.7481 -51.3895,101.0785 -36.2804,38.6627 -30.6077,-0.5522 -29.1745,60.2499 -42.1544,49.9626 -36.5874,-9.2892 l -57.8597,40.6007 -140.3007,31.2621 c -21.052,31.3389 -27.1262,26.281 -71.1342,33.7087 58.3287,17.6103 23.9828,37.7579 -12.6047,43.861 z"
       id="path961"
       sodipodi:nodetypes="cccccccccccccccccccccccc" />
    <path
       style="display:inline;fill:#ffffff;fill-rule:evenodd;stroke:none;stroke-width:0.954738px;stroke-linecap:butt;stroke-linejoin:miter;stroke-opacity:1"
       d="m 2000.6694,2716.7252 c -31.651,13.0747 -66.0394,18.8224 -102.4949,19.037 l 17.6113,45.3908 c -18.364,3.6732 -29.918,0.9666 -70.6388,2.2181 l 6.282,21.8742 -102.3938,-5.104 121.1041,21.825 -4.8924,-18.0382 86.3709,-1.8936 -21.7145,-39.3473 c 30.9126,-19.0725 69.7849,-11.308 104.7266,-16.7953 z"
       id="path957"
       sodipodi:nodetypes="cccccccccccc" />
    <path
       style="color:#000000;display:inline;overflow:visible;visibility:visible;fill:#ffffff;fill-opacity:1;fill-rule:nonzero;stroke:none;stroke-width:0.999995px;marker:none;enable-background:accumulate"
       d="m 154.18291,2746.3221 c 12.36192,-16.9283 38.3645,-31.1634 72.46639,-36.9339 34.10182,-5.7713 97.1903,-4.2327 108.27341,-2.3084 11.08308,1.9235 72.04008,8.8486 85.25453,18.467 13.2146,9.6175 31.11795,21.5442 34.95442,33.8558 3.83653,12.3116 0.42629,41.9355 -11.93563,48.4757 -12.36191,6.5403 -68.62992,20.7754 -101.45306,21.5451 -32.823,0.7689 -109.12586,-5.3865 -130.86583,-9.6184 -21.73989,-4.2318 -44.75869,-9.6183 -51.57895,-23.0836 -6.82041,-13.4654 -19.60863,-31.1634 -5.11528,-50.3993 z"
       id="path3533-6"
       inkscape:connector-curvature="0" />
    <path
       style="color:#000000;display:inline;overflow:visible;visibility:visible;fill:#ffffff;fill-opacity:1;fill-rule:nonzero;stroke:none;stroke-width:1px;marker:none;enable-background:accumulate"
       d="m 449.68921,2694.176 c -5.4692,18.044 -36.31667,19.557 -47.67251,15.89 22.89062,20.186 22.09264,32.728 -8.98652,34.675 52.12022,36.381 9.5283,30.876 1.12737,40.101 40.92404,12.538 22.61417,28.141 15.32823,43.674 47.03817,0.534 31.64473,25.433 33.62731,45.263 3.98771,-9.305 22.93203,-37.635 24.07187,-6.092 31.11301,-30.093 68.58777,-49.532 71.56343,3.132 12.53592,-26.494 25.03422,-37.691 24.07196,-6.092 31.06008,-41.099 58.97184,-26.305 87.04913,-14.689 7.37431,-12.405 8.23362,-31.462 32.09131,-26.996 -3.34509,-12.295 4.71021,-20.747 22.90194,-25.766 -24.17387,-7.427 -28.62902,-15.088 16.25642,-23.332 -34.15525,-0.798 -66.00523,-2.432 -25.93368,-30.547 -12.57158,-0.681 -42.39883,22.78 -28.49222,-45.878 -21.61743,21.98 -44.68133,34.111 -73.60556,-11.931 -13.68835,23.002 -37.43051,34.384 -47.75962,5.653 -3.71242,12.248 -19.10628,16.855 -32.17455,17.413 -5.05353,-4.865 -10.26568,-11.473 -15.70469,-20.131 -8.88976,18.179 -22.18782,30.457 -47.75962,5.653 z"
       id="path3549-3-7-3"
       inkscape:connector-curvature="0"
       sodipodi:nodetypes="cccccccccccccccccccc" />
    <path
       style="fill:#ffffff;stroke:none;stroke-width:0.999987"
       d="m 630.35038,2847.8624 c -6.18297,-41.564 12.47702,-88.7068 25.89185,-103.5788 13.41484,-14.8722 37.42815,-24.0661 59.73171,-32.6 18.4762,-7.0706 100.69495,-6.8273 159.07275,-5.8452 48.89807,0.8231 101.29359,27.5396 113.15512,70.201 11.86149,42.6599 8.34071,118.828 -6.15421,143.6879 -14.4948,24.8609 -28.74593,51.8242 -113.62133,61.6411 -84.87544,9.8156 -190.05517,-5.7495 -215.08573,-55.786 -14.11076,-28.2083 -22.99016,-77.72 -22.99016,-77.72 z"
       id="path3286-6"
       inkscape:connector-curvature="0"
       sodipodi:nodetypes="csssssssc" />
    <path
       style="display:inline;fill:#ffffff;fill-rule:evenodd;stroke:none;stroke-width:1px;stroke-linecap:butt;stroke-linejoin:miter;stroke-opacity:1"
       d="m 770.17916,2905.8157 c -37.0534,20.4212 33.28706,75.895 22.46288,93.9658 -7.4722,12.4745 -47.82201,-4.0185 -75.22579,52.2357 35.72049,-40.0521 72.16531,-14.9218 89.72928,-30.2585 33.3584,-29.127 -11.25452,-70.4044 -14.74009,-81.3044 -4.66176,-14.5778 -22.22628,-34.6386 -22.22628,-34.6386 z"
       id="path4186-80"
       inkscape:connector-curvature="0"
       sodipodi:nodetypes="cscssc" />
    <path
       style="fill:#ffffff;stroke:none;stroke-width:0.999993"
       d="m 1731.427,1829.8608 c -4.941,-33.4036 9.9702,-71.2905 20.6904,-83.2427 10.7197,-11.9521 29.9091,-19.3409 47.7321,-26.1993 14.7642,-5.6824 80.466,-5.4868 127.1162,-4.6978 39.0748,0.6616 80.9444,22.1326 90.4231,56.4181 9.4787,34.2843 6.6652,95.4979 -4.9177,115.4769 -11.5831,19.9799 -22.9712,41.6494 -90.7958,49.5389 -67.8245,7.8884 -151.8747,-4.6207 -171.8767,-44.8332 -11.2761,-22.6701 -18.3716,-62.4609 -18.3716,-62.4609 z"
       id="path3286-6-3"
       inkscape:connector-curvature="0"
       sodipodi:nodetypes="csssssssc" />
    <path
       style="fill:#ffffff;stroke:none;stroke-width:1"
       d="m 1750.8078,1692.3594 c -3.5277,-14.4312 7.9431,-30.5858 16.0989,-35.6193 8.1557,-5.0335 22.6715,-8.0145 36.1539,-10.7814 11.1687,-2.2924 60.7178,-1.524 95.8954,-0.6985 29.4651,0.6917 60.9143,10.3707 67.859,25.2288 6.9449,14.8577 4.4591,41.1799 -4.3952,49.6599 -8.8543,8.4806 -17.5717,17.6903 -68.77,20.3804 -51.1981,2.6895 -114.5119,-3.5708 -129.358,-21.0902 -8.3694,-9.8764 -13.484,-27.0797 -13.484,-27.0797 z"
       id="path3286-6-3-2"
       inkscape:connector-curvature="0"
       sodipodi:nodetypes="csssssssc" />
    <path
       style="color:#000000;display:inline;overflow:visible;visibility:visible;fill:#ffffff;fill-opacity:1;fill-rule:nonzero;stroke:none;stroke-width:1.176px;marker:none;enable-background:accumulate"
       d="m 1760.1714,2335.0153 c -2.1987,-14.4836 31.8236,-78.8761 165.958,-69.2201 134.1344,9.6559 153.2123,44.1745 154.5492,76.1883 -2.3177,32.9908 -29.2104,57.061 -49.0007,61.8893 -19.7903,4.8276 -49.5374,11.5288 -104.4491,12.5521 -63.4387,0.043 -100.836,-1.9822 -141.0064,-28.279 -38.3177,-23.3248 -23.852,-49.2684 -26.051,-53.1306 z"
       id="path3365-7"
       inkscape:connector-curvature="0"
       sodipodi:nodetypes="cscsccc" />
    <path
       style="fill:#ffffff;stroke:none;stroke-width:1.02124"
       d="m 1871.9103,2038.6335 c -38.2464,0.3008 -76.4913,10.8384 -107.203,30.4854 -18.1722,12.239 -32.4828,29.6912 -36.0391,49.5546 -2.8713,14.5821 -2.9293,29.4172 -4.2183,44.1312 -1.4734,27.0319 1.5696,54.6377 12.8003,80.0861 12.6282,26.1384 41.2257,46.3112 73.8767,51.0654 26.4214,4.6474 53.5474,4.0721 80.2657,6.5735 42.416,2.8829 85.1719,4.375 127.5769,0.5432 33.0133,-2.1665 66.6358,-3.9086 98.1408,-13.3629 22.9481,-7.4002 44.541,-20.0603 57.1217,-38.4749 12.3303,-17.9988 15.7949,-39.2679 16.0988,-59.8283 0.9325,-26.6561 -2.6687,-54.079 -16.0969,-78.416 -13.3321,-21.498 -36.8702,-37.1813 -62.5585,-46.8142 -39.9123,-15.4903 -83.3912,-24.6545 -127.2917,-25.0643 -34.3261,-0.8966 -68.6713,-0.1149 -103.0046,-0.4793 -3.1562,-0.011 -6.3125,-0.011 -9.4688,5e-4 z"
       id="path3280-8-0-3"
       inkscape:connector-curvature="0"
       sodipodi:nodetypes="csssc" />
    <path
       style="color:#000000;display:inline;overflow:visible;visibility:visible;fill:#ffffff;fill-opacity:1;fill-rule:nonzero;stroke:none;stroke-width:1px;marker:none;enable-background:accumulate"
       d="m 2043.5678,2501.161 c -35.0529,-23.7474 -46.172,-34.2743 -37.5356,-84.9721 8.6364,-50.6978 -9.5224,-52.9142 -9.5224,-52.9142 l -22.7877,26.3611 c 0,0 -11.1894,109.1725 69.8457,111.5252 z"
       id="path3072-6"
       inkscape:connector-curvature="0" />
    <path
       style="color:#000000;display:inline;overflow:visible;visibility:visible;fill:#ffffff;fill-opacity:1;fill-rule:nonzero;stroke:none;stroke-width:1px;marker:none;enable-background:accumulate"
       d="m 2005.9605,1984.9453 c -38.4707,-17.6819 -51.1646,-26.2444 -50.9531,-77.6721 0.2114,-51.4277 -18.0652,-50.6383 -18.0652,-50.6383 l -18.1596,29.7391 c 0,0 6.8528,109.5303 87.1779,98.5713 z"
       id="path3072-6-3"
       inkscape:connector-curvature="0" />
  </g>
  <g
     inkscape:groupmode="layer"
     id="layer1"
     inkscape:label="txt">
    <text
       id="text4178-3"
       y="1703.0369"
       x="1796.0411"
       style="font-style:normal;font-variant:normal;font-weight:normal;font-stretch:normal;line-height:0%;font-family:Lavi;-inkscape-font-specification:Lavi;text-align:start;letter-spacing:0px;word-spacing:0px;text-anchor:start;fill:#000000;fill-opacity:1;stroke:none"
       xml:space="preserve"><tspan
         y="1703.0369"
         x="1796.0411"
         style="font-size:40.6767px;line-height:1.25;text-align:start;text-anchor:start"
         sodipodi:role="line"
         id="tspan646">Al fin...</tspan></text>
    <text
       id="text4178-3-36"
       y="1792.8582"
       x="1879.2559"
       style="font-style:normal;font-variant:normal;font-weight:normal;font-stretch:normal;line-height:0%;font-family:Lavi;-inkscape-font-specification:Lavi;text-align:start;letter-spacing:0px;word-spacing:0px;text-anchor:start;fill:#000000;fill-opacity:1;stroke:none"
       xml:space="preserve"><tspan
         y="1792.8582"
         x="1879.2559"
         style="font-size:40.6767px;line-height:1.25;text-align:center;text-anchor:middle"
         sodipodi:role="line"
         id="tspan441">¡Sí que nos</tspan><tspan
         y="1843.704"
         x="1879.2559"
         style="font-size:40.6767px;line-height:1.25;text-align:center;text-anchor:middle"
         sodipodi:role="line"
         id="tspan1777">costó acabar</tspan><tspan
         y="1894.5499"
         x="1879.2559"
         style="font-size:40.6767px;line-height:1.25;text-align:center;text-anchor:middle"
         sodipodi:role="line"
         id="tspan1779">con éste!</tspan></text>
    <text
       id="text4178-3-3"
       y="2111.8545"
       x="1955.0306"
       style="font-style:normal;font-variant:normal;font-weight:normal;font-stretch:normal;line-height:0%;font-family:Lavi;-inkscape-font-specification:Lavi;text-align:start;letter-spacing:0px;word-spacing:0px;text-anchor:start;fill:#000000;fill-opacity:1;stroke:none"
       xml:space="preserve"><tspan
         y="2111.8545"
         x="1955.0306"
         style="font-size:40.6767px;line-height:1.25;text-align:center;text-anchor:middle"
         sodipodi:role="line"
         id="tspan509">Sí, fue difícil. Pero</tspan><tspan
         y="2162.7004"
         x="1955.0306"
         style="font-size:40.6767px;line-height:1.25;text-align:center;text-anchor:middle"
         sodipodi:role="line"
         id="tspan513"> ahora sabemos por </tspan><tspan
         y="2213.5461"
         x="1955.0306"
         style="font-size:40.6767px;line-height:1.25;text-align:center;text-anchor:middle"
         sodipodi:role="line"
         id="tspan505">qué tantos aventureros </tspan><tspan
         y="2264.3921"
         x="1955.0306"
         style="font-size:40.6767px;line-height:1.25;text-align:center;text-anchor:middle"
         sodipodi:role="line"
         id="tspan527">acabaron aquí.</tspan></text>
    <text
       id="text4178-3-3-8"
       y="2335.8096"
       x="1922.3928"
       style="font-style:normal;font-variant:normal;font-weight:normal;font-stretch:normal;line-height:0%;font-family:Lavi;-inkscape-font-specification:Lavi;text-align:center;letter-spacing:0px;word-spacing:0px;text-anchor:middle;fill:#000000;fill-opacity:1;stroke:none"
       xml:space="preserve"><tspan
         y="2335.8096"
         x="1922.3928"
         style="font-size:40.6767px;line-height:1.25;text-align:center;text-anchor:middle"
         sodipodi:role="line"
         id="tspan875-2">¿Cómo está </tspan><tspan
         y="2386.6555"
         x="1922.3928"
         style="font-size:40.6767px;line-height:1.25;text-align:center;text-anchor:middle"
         sodipodi:role="line"
         id="tspan988">Brasic?</tspan></text>
    <text
       id="text4178-3-3-8-3"
       y="2786.842"
       x="177.46754"
       style="font-style:normal;font-variant:normal;font-weight:normal;font-stretch:normal;font-size:16.0044px;line-height:0%;font-family:Lavi;-inkscape-font-specification:Lavi;text-align:start;letter-spacing:0px;word-spacing:0px;text-anchor:start;fill:#000000;fill-opacity:1;stroke:none;stroke-width:1"
       xml:space="preserve"><tspan
         y="2786.842"
         x="177.46754"
         style="font-size:54.2508px;line-height:1.25;text-align:start;text-anchor:start;stroke-width:1"
         sodipodi:role="line"
         id="tspan875-2-7">¿Brasic?   <tspan
   style="font-weight:bold;stroke-width:1"
   id="tspan1258">¡Brasic! </tspan></tspan></text>
    <text
       id="text4178-3-3-8-5"
       y="2786.1531"
       x="819.88513"
       style="font-style:normal;font-variant:normal;font-weight:normal;font-stretch:normal;font-size:12.743px;line-height:0%;font-family:Lavi;-inkscape-font-specification:Lavi;text-align:start;letter-spacing:0px;word-spacing:0px;text-anchor:start;fill:#000000;fill-opacity:1;stroke:none;stroke-width:1"
       xml:space="preserve"><tspan
         y="2786.1531"
         x="819.88513"
         style="font-size:43.1951px;line-height:1.25;text-align:center;text-anchor:middle;stroke-width:1"
         sodipodi:role="line"
         id="tspan454">¡Rayos! No me  </tspan><tspan
         y="2840.147"
         x="819.88513"
         style="font-size:43.1951px;line-height:1.25;text-align:center;text-anchor:middle;stroke-width:1"
         sodipodi:role="line"
         id="tspan545">dí cuenta de que</tspan><tspan
         y="2894.1409"
         x="819.88513"
         style="font-size:43.1951px;line-height:1.25;text-align:center;text-anchor:middle;stroke-width:1"
         sodipodi:role="line"
         id="tspan547"> estabas tan </tspan><tspan
         y="2948.1348"
         x="819.88513"
         style="font-size:43.1951px;line-height:1.25;text-align:center;text-anchor:middle;stroke-width:1"
         sodipodi:role="line"
         id="tspan549">herido!</tspan></text>
    <text
       id="text4178-3-3-8-3-2"
       y="2801.0317"
       x="1958.5537"
       style="font-style:normal;font-variant:normal;font-weight:normal;font-stretch:normal;font-size:17.5168px;line-height:0%;font-family:Lavi;-inkscape-font-specification:Lavi;text-align:start;letter-spacing:0px;word-spacing:0px;text-anchor:start;fill:#000000;fill-opacity:1;stroke:none;stroke-width:1"
       xml:space="preserve"><tspan
         y="2801.0317"
         x="1958.5537"
         style="font-size:59.3774px;line-height:1.25;text-align:start;text-anchor:start;stroke-width:1"
         sodipodi:role="line"
         id="tspan875-2-7-2">¡Curandera!</tspan></text>
    <text
       id="text4178-3-3-8-3-2-9"
       y="2893.6733"
       x="2125.4182"
       style="font-style:normal;font-variant:normal;font-weight:normal;font-stretch:normal;font-size:15.6623px;line-height:0%;font-family:Lavi;-inkscape-font-specification:Lavi;text-align:start;letter-spacing:0px;word-spacing:0px;text-anchor:start;fill:#000000;fill-opacity:1;stroke:none;stroke-width:1"
       xml:space="preserve"><tspan
         y="2893.6733"
         x="2125.4182"
         style="font-size:53.0911px;line-height:1.25;text-align:center;text-anchor:middle;stroke-width:1"
         sodipodi:role="line"
         id="tspan747">¡Necesitamos </tspan><tspan
         y="2960.0371"
         x="2125.4182"
         style="font-size:53.0911px;line-height:1.25;text-align:center;text-anchor:middle;stroke-width:1"
         sodipodi:role="line"
         id="tspan992">tu ayuda, <tspan
   style="font-weight:bold"
   id="tspan749" /></tspan><tspan
         y="3026.4011"
         x="2125.4182"
         style="font-size:53.0911px;line-height:1.25;text-align:center;text-anchor:middle;stroke-width:1"
         sodipodi:role="line"
         id="tspan995"><tspan
           style="font-weight:bold"
           id="tspan997">RÁPIDO!</tspan></tspan></text>
  </g>
</svg>
