<?xml version="1.0" encoding="UTF-8" standalone="no"?>
<!-- Created with Inkscape (http://www.inkscape.org/) -->

<svg
   id="svg2"
   version="1.1"
   inkscape:version="1.2.2 (b0a8486541, 2022-12-01)"
   width="2481"
   height="3503"
   sodipodi:docname="E38P07.svg"
   xmlns:inkscape="http://www.inkscape.org/namespaces/inkscape"
   xmlns:sodipodi="http://sodipodi.sourceforge.net/DTD/sodipodi-0.dtd"
   xmlns:xlink="http://www.w3.org/1999/xlink"
   xmlns="http://www.w3.org/2000/svg"
   xmlns:svg="http://www.w3.org/2000/svg"
   xmlns:rdf="http://www.w3.org/1999/02/22-rdf-syntax-ns#"
   xmlns:cc="http://creativecommons.org/ns#"
   xmlns:dc="http://purl.org/dc/elements/1.1/">
  <metadata
     id="metadata8">
    <rdf:RDF>
      <cc:Work
         rdf:about="">
        <dc:format>image/svg+xml</dc:format>
        <dc:type
           rdf:resource="http://purl.org/dc/dcmitype/StillImage" />
        <dc:title />
      </cc:Work>
    </rdf:RDF>
  </metadata>
  <defs
     id="defs6">
    <linearGradient
       inkscape:collect="always"
       xlink:href="#linearGradient4546"
       id="linearGradient4294-2"
       x1="754.64325"
       y1="1552.0063"
       x2="1186.035"
       y2="1552.0063"
       gradientUnits="userSpaceOnUse" />
    <linearGradient
       inkscape:collect="always"
       id="linearGradient4546">
      <stop
         style="stop-color:#ffffff;stop-opacity:1;"
         offset="0"
         id="stop4548" />
      <stop
         style="stop-color:#fffad3;stop-opacity:1"
         offset="1"
         id="stop4550" />
    </linearGradient>
    <filter
       style="color-interpolation-filters:sRGB"
       id="filter4375-4-1-1-1-9-5-8-8-5-6"
       inkscape:label="soundFX-Creature"
       x="-0.019199573"
       y="-0.069375969"
       width="1.0569794"
       height="1.20589">
      <feFlood
         id="feFlood4377-7-9-0-8-1-7-3-1-2-52"
         flood-opacity="1"
         flood-color="rgb(243,227,152)"
         result="flood" />
      <feComposite
         id="feComposite4379-3-8-8-2-77-4-1-0-6-6"
         in2="SourceGraphic"
         in="flood"
         operator="in"
         result="composite1"
         baseFrequency="0.053999999999999999 0.053999999999999999" />
      <feMorphology
         id="feMorphology4393-1-0-49-8-9-3-0-1-9-5"
         operator="dilate"
         radius="6.2000000000000002"
         result="result3" />
      <feComposite
         id="feComposite4385-9-5-7-0-8-8-7-5-4-8"
         in2="result3"
         in="SourceGraphic"
         operator="over"
         result="fbSourceGraphic" />
      <feColorMatrix
         result="fbSourceGraphicAlpha"
         in="fbSourceGraphic"
         values="0 0 0 -1 0 0 0 0 -1 0 0 0 0 -1 0 0 0 0 1 0"
         id="feColorMatrix4544-9-4-7" />
      <feTurbulence
         id="feTurbulence4546-3-6-0"
         type="fractalNoise"
         numOctaves="5"
         seed="174"
         baseFrequency="0.053999999999999999 0.054054054054054057"
         result="turbulence" />
      <feDisplacementMap
         id="feDisplacementMap4548-8-0-3"
         in2="turbulence"
         in="fbSourceGraphic"
         scale="6.6"
         yChannelSelector="G"
         xChannelSelector="R"
         result="fbSourceGraphic" />
      <feColorMatrix
         result="fbSourceGraphicAlpha"
         in="fbSourceGraphic"
         values="0 0 0 -1 0 0 0 0 -1 0 0 0 0 -1 0 0 0 0 1 0"
         id="feColorMatrix4670-7-7-9" />
      <feFlood
         id="feFlood4672-4-4-60"
         flood-opacity="1"
         flood-color="rgb(175,144,94)"
         result="flood"
         in="fbSourceGraphic" />
      <feComposite
         id="feComposite4674-8-3-4"
         in2="fbSourceGraphic"
         in="flood"
         operator="in"
         result="composite1" />
      <feGaussianBlur
         id="feGaussianBlur4676-3-7-1"
         in="composite1"
         stdDeviation="0"
         result="blur" />
      <feOffset
         id="feOffset4678-6-9-0"
         dx="6"
         dy="6"
         result="offset" />
      <feComposite
         id="feComposite4680-4-0-4"
         in2="offset"
         in="fbSourceGraphic"
         operator="over"
         result="composite2" />
    </filter>
    <filter
       y="-0.19725009"
       height="1.3945002"
       inkscape:label="scream"
       inkscape:menu="Distort"
       inkscape:menu-tooltip="Create a turbulent contour around"
       style="color-interpolation-filters:sRGB;"
       id="filter983"
       x="-0.025180391"
       width="1.0503608">
      <feMorphology
         radius="7"
         operator="dilate"
         result="result8"
         in="SourceGraphic"
         id="feMorphology973" />
      <feComposite
         in2="result8"
         result="result10"
         in="SourceGraphic"
         operator="arithmetic"
         k1="0.5"
         k3="0.5"
         id="feComposite975" />
      <feTurbulence
         result="result11"
         type="fractalNoise"
         numOctaves="3"
         baseFrequency="0.07"
         id="feTurbulence977" />
      <feDisplacementMap
         result="result12"
         in2="result11"
         in="result10"
         xChannelSelector="R"
         scale="10"
         id="feDisplacementMap979" />
      <feComposite
         operator="arithmetic"
         result="result13"
         in="SourceGraphic"
         in2="result12"
         k1="0.25"
         k2="0.25"
         k3="0.75"
         id="feComposite981" />
    </filter>
  </defs>
  <sodipodi:namedview
     pagecolor="#ffffff"
     bordercolor="#666666"
     borderopacity="1"
     objecttolerance="10"
     gridtolerance="10"
     guidetolerance="10"
     inkscape:pageopacity="0"
     inkscape:pageshadow="2"
     inkscape:window-width="2160"
     inkscape:window-height="1357"
     id="namedview4"
     showgrid="false"
     inkscape:zoom="0.41894612"
     inkscape:cx="1318.7853"
     inkscape:cy="1467.9692"
     inkscape:window-x="0"
     inkscape:window-y="0"
     inkscape:window-maximized="1"
     inkscape:current-layer="layer1"
     inkscape:showpageshadow="0"
     inkscape:pagecheckerboard="0"
     inkscape:deskcolor="#d1d1d1" />
  <g
     inkscape:groupmode="layer"
     id="layer2"
     inkscape:label="artwork"
     sodipodi:insensitive="true">
    <image
       xlink:href="../gfx_Pepper-and-Carrot_by-David-Revoy_E38P07.png"
       y="0"
       x="0"
       id="image10"
       height="3503"
       width="2481" />
  </g>
  <g
     inkscape:groupmode="layer"
     id="layer3"
     inkscape:label="speechbubbles">
    <path
       style="fill:none;fill-rule:evenodd;stroke:#000000;stroke-width:1px;stroke-linecap:butt;stroke-linejoin:miter;stroke-opacity:1"
       d="m 52.137608,-189.13041 c 442.911262,-41.30437 378.026172,-32.60872 527.543992,-34.78264 149.5178,-2.17391 296.21453,52.17394 457.0167,50.00004 160.8022,-2.1739 335.7099,-67.39134 496.5121,-69.56525 160.8022,-2.17392 344.1731,80.43475 547.2916,71.73915 203.1186,-8.6957 440.0902,-73.91307 662.9564,-78.26089 222.8661,-4.34783 338.5309,8.69566 338.5309,8.69566"
       id="path1405"
       sodipodi:nodetypes="csssssc" />
    <path
       style="fill:none;fill-rule:evenodd;stroke:#000000;stroke-width:1px;stroke-linecap:butt;stroke-linejoin:miter;stroke-opacity:1"
       d="m 1537.8717,-42.982885 c 113.1209,1.078738 146.3785,-7.510067 198.5936,-11.619542 208.8604,-16.437889 322.3714,-16.43791 433.6123,-8.21896 111.2409,8.21896 429.1706,-47.526983 517.7091,-80.402793"
       id="path1020"
       sodipodi:nodetypes="cssc" />
    <path
       style="fill:#ffffff;stroke:none;stroke-width:0.999993"
       d="m 1711.1701,1921.0979 c -21.3515,0.8296 -42.7241,0.6252 -64.0871,0.8845 -16.0974,0.3073 -32.2718,0.8893 -48.1567,3.4587 -18.1099,3.4195 -35.5462,11.6731 -47.6503,24.7164 -7.9926,8.5388 -12.9281,19.4068 -13.8832,30.6418 -1.1354,11.7441 2.1088,23.7297 8.9158,33.7052 8.6913,13.1286 22.81,22.8263 38.5211,27.8088 22.6586,8.3149 47.3604,9.7979 71.4969,10.2188 32.3177,0.1719 64.5281,-3.409 96.853,-2.731 18.6371,-0.2695 37.8546,-3.2093 53.9551,-12.3168 15.4619,-8.5418 28.1584,-22.3328 32.1274,-38.758 3.3747,-15.2937 -1.5133,-31.3358 -10.5708,-44.2554 -9.0129,-12.3256 -23.5213,-20.7658 -39.1341,-24.1476 -23.1095,-6.2132 -47.2402,-8.5586 -71.24,-9.1805 -2.3824,-0.04 -4.7644,-0.055 -7.1471,-0.045 z"
       id="path3280-81-4"
       inkscape:connector-curvature="0"
       sodipodi:nodetypes="csssc" />
    <path
       style="fill:#ffffff;stroke:none;stroke-width:1"
       d="m 1752.3951,2212.7401 c -29.1996,-28.3355 -25.3776,-48.9 -18.4598,-65.8757 6.9152,-16.9743 5.4331,-34.8074 1.6513,-45.16 -3.7818,-10.3527 -15.458,-24.2791 -24.0065,-30.0394 -8.5495,-5.76 -2.463,-24.988 0.8184,-37.0866 4.3344,-15.985 14.1991,-18.8659 14.1991,-18.8659 0,0 -19.9194,-61.2958 -25.246,-45.8521 -5.3255,15.4433 -13.7202,67.8625 -14.37,74.4864 -0.6488,6.6235 -0.2538,26.7575 6.8528,35.3801 7.1075,8.6222 19.9088,11.1437 26.3236,22.4562 6.6084,11.6536 7.0082,21.5786 4.1393,35.3916 -2.8689,13.813 -5.234,45.0397 7.6892,57.4247 12.9241,12.3845 20.4086,17.7407 20.4086,17.7407 z"
       id="path3023-9"
       inkscape:connector-curvature="0"
       sodipodi:nodetypes="csssscssssssc" />
    <path
       style="fill:none;fill-rule:evenodd;stroke:#000000;stroke-width:1px;stroke-linecap:butt;stroke-linejoin:miter;stroke-opacity:1"
       d="m 114.94018,-52.779968 c 490.25946,-69.039202 581.45326,-76.614922 779.68861,-56.889442 49.55884,4.93137 137.08611,10.684638 243.56441,16.283798 106.4782,5.599161 231.9074,16.715294 357.2699,21.030244 125.3626,4.31495 157.5093,3.719076 263.7211,4.797814"
       id="path20863" />
    <path
       style="display:inline;fill:#ffffff;fill-rule:evenodd;stroke:none;stroke-width:1.22881px;stroke-linecap:butt;stroke-linejoin:miter;stroke-opacity:1"
       d="m 766.24011,2914.6587 c 47.09598,21.1367 23.71452,35.2676 -28.94711,28.0824 75.44722,26.7358 63.1331,36.4971 -3.88316,37.051 44.98779,11.8549 75.15305,25.0901 -8.51152,43.17 59.8504,3.1963 82.57945,15.0647 9.72746,38.6258 39.33181,-1.2698 118.32103,-12.0241 68.05424,25.9723 86.85627,-18.9017 122.58538,-16.7723 77.62311,30.411 43.65714,-13.8955 115.43114,-49.1109 89.97927,-10.6033 20.00216,-12.298 45.4582,-16.9524 91.1956,6.8164 -8.919,-17.1418 -35.7906,-44.3092 44.9896,-11.3604 -24.4201,-25.7812 -29.2824,-39.7495 52.2852,-1.5147 -12.151,-19.4392 -74.0654,-35.6073 25.7306,-55.0466 -59.9533,-6.1239 -28.3758,-22.8974 5.8839,-34.3228 -63.8806,-10.482 -37.841,-19.8196 7.2956,-30.2948 -45.8027,-6.449 -77.1667,-17.0727 -9.7276,-46.9566 -101.3785,24.354 -66.6321,-7.4552 -58.3649,-28.0226 -37.4643,17.6427 -75.2258,48.8846 -89.9794,-6.059 -63.80938,43.7217 -84.47213,13.2926 -105.78682,-0.7573 -34.41585,52.7061 -80.05894,12.5699 -108.85046,-1.6446 26.04838,29.8283 10.69086,35.3686 -58.71361,16.4538 z"
       id="path1096"
       inkscape:connector-curvature="0"
       sodipodi:nodetypes="cccccccccccccccccccc" />
    <path
       style="color:#000000;display:inline;overflow:visible;visibility:visible;fill:#ffffff;fill-opacity:1;fill-rule:nonzero;stroke:none;stroke-width:1.08594px;marker:none;enable-background:accumulate"
       d="m 1007.4679,3013.9941 c -35.34866,3.0045 -70.32455,15.0401 -96.56279,36.6118 -24.64864,20.6762 -40.80904,49.9677 -41.04424,80.3054 0.16873,19.9702 1.48585,40.3537 9.1608,59.3075 13.40755,26.3083 41.7443,46.0355 73.64269,51.6157 32.76757,7.0822 66.64534,8.9815 100.27234,9.106 34.694,-0.026 69.365,-1.998 103.8666,-5.1449 21.5106,-2.4898 43.6243,-6.6526 61.7638,-17.7718 21.1985,-13.3533 34.0608,-35.622 36.355,-58.3851 3.3237,-23.6777 0.9809,-47.8523 -5.5347,-70.9507 -4.6806,-15.7823 -12.6148,-31.3093 -26.0856,-42.7353 -16.6233,-14.809 -38.7806,-23.388 -61.0104,-29.375 -29.8535,-7.73 -60.9904,-10.1681 -91.8525,-12.4777 -20.9614,-1.2008 -42.0026,-1.1409 -62.971,-0.1059 z"
       id="path3525"
       inkscape:connector-curvature="0" />
    <path
       style="color:#000000;display:inline;overflow:visible;visibility:visible;fill:#ffffff;fill-opacity:1;fill-rule:nonzero;stroke:none;stroke-width:0.93549px;marker:none;enable-background:accumulate"
       d="m 742.4467,2826.7563 c -7.47142,-43.3324 12.45237,-158.4342 165.61712,-148.9553 153.16458,9.479 178.06958,63.6445 181.80528,79.8942 3.7357,16.2496 36.112,108.3311 -83.4311,132.7057 -119.54331,24.3744 -226.63399,-1.3542 -263.9913,-63.6446 z"
       id="path3525-6"
       inkscape:connector-curvature="0" />
    <path
       style="color:#000000;display:inline;overflow:visible;visibility:visible;fill:#ffffff;fill-opacity:1;fill-rule:nonzero;stroke:none;stroke-width:1.09768px;marker:none;enable-background:accumulate"
       d="m 2176.5262,2684.0863 c -28.4165,0.016 -57.2254,1.6608 -84.5455,10.1443 -7.2675,2.322 -14.5469,4.8978 -21.1832,8.7177 -10.327,6.6357 -16.6314,18.6446 -17.2216,30.866 -0.9844,11.2634 0.4474,22.9199 5.0816,33.2743 4.4536,9.027 12.5257,15.9863 21.8593,19.5043 13.4721,5.7282 28.1067,7.6345 42.4595,9.7825 31.3798,4.0615 63.1454,2.9114 94.5863,0.2186 21.8376,-1.8054 43.6664,-4.3546 65.1219,-8.9098 10.3626,-2.2961 21.2502,-5.6921 28.6228,-13.8257 7.6931,-8.7386 10.1981,-20.7178 10.8324,-32.0679 0.4507,-8.3973 0.18,-17.3087 -4.1418,-24.7698 -3.5541,-6.738 -10.3518,-10.7665 -16.997,-13.8792 -7.8036,-3.462 -16.0077,-5.8843 -24.0839,-8.5976 -25.9803,-7.9741 -53.2788,-10.7968 -80.3658,-10.4524 -6.6749,-0.013 -13.35,-0.01 -20.025,-0.01 z"
       id="path4546-6-0"
       inkscape:connector-curvature="0"
       sodipodi:nodetypes="cssssscsc" />
    <path
       style="color:#000000;display:inline;overflow:visible;visibility:visible;fill:#ffffff;fill-opacity:1;fill-rule:nonzero;stroke:none;stroke-width:1px;marker:none;enable-background:accumulate"
       d="m 2144.6292,2863.8279 c 38.981,-27.949 41.8709,-87.4857 24.9722,-108.5692 -4.3141,-34.7008 25.4997,-3.9606 25.4997,-3.9606 0,0 8.2154,3.3721 8.9152,11.4037 2.0851,23.9328 1.5994,80.4533 -59.3871,101.1261 z"
       id="path3072-7"
       inkscape:connector-curvature="0"
       sodipodi:nodetypes="cccsc" />
    <path
       style="color:#000000;display:inline;overflow:visible;visibility:visible;fill:#ffffff;fill-opacity:1;fill-rule:nonzero;stroke:none;stroke-width:0.999999px;marker:none;enable-background:accumulate"
       d="m 652.82725,2832.4766 c 35.33649,-33.7584 111.05065,-36.7285 137.96153,-22.3639 44.16284,3.4287 4.89767,-21.9668 4.89767,-21.9668 0,0 -4.33452,-7.0393 -14.55445,-7.576 -30.45374,-1.5989 -102.34461,-0.7214 -128.30475,51.9067 z"
       id="path3072-7-2"
       inkscape:connector-curvature="0"
       sodipodi:nodetypes="cccsc" />
    <path
       style="color:#000000;display:inline;overflow:visible;visibility:visible;fill:#ffffff;fill-opacity:1;fill-rule:nonzero;stroke:none;stroke-width:1px;marker:none;enable-background:accumulate"
       d="m 749.2899,3113.326 c 24.21517,16.3962 28.22208,16.2995 39.31406,6.8343 11.09189,-9.4652 23.88747,-26.5184 50.34854,-24.5624 26.46108,1.956 36.66181,14.2093 43.92044,21.8169 5.94319,-17.5954 37.01916,-50.3075 30.82533,-62.6575 -6.19381,-12.3501 47.58234,32.1315 47.58234,32.1315 0,0 -33.61565,39.5866 -53.5733,53.0391 -19.95754,13.4525 -51.10207,-16.4552 -69.12341,-20.5014 -18.02125,-4.0462 -37.05005,18.5815 -51.91623,18.2325 -14.86627,-0.3489 -27.69951,-14.1896 -37.37777,-24.333 z"
       id="path4538"
       inkscape:connector-curvature="0"
       sodipodi:nodetypes="csscscsssc" />
  </g>
  <g
     inkscape:groupmode="layer"
     id="layer1"
     inkscape:label="txt">
    <text
       xml:space="preserve"
       style="color:#000000;font-style:normal;font-variant:normal;font-weight:normal;font-stretch:normal;font-size:127.104px;line-height:0.01%;font-family:Lavi;-inkscape-font-specification:'Lavi, Normal';font-variant-ligatures:normal;font-variant-caps:normal;font-variant-numeric:normal;font-feature-settings:normal;text-align:start;letter-spacing:18.632px;word-spacing:0px;writing-mode:lr-tb;text-anchor:start;display:inline;overflow:visible;visibility:visible;fill:#ffffff;fill-opacity:1;fill-rule:nonzero;stroke:#000000;stroke-width:16.3943;stroke-linecap:butt;stroke-linejoin:miter;stroke-miterlimit:4;stroke-dasharray:none;stroke-dashoffset:0;stroke-opacity:1;marker:none;paint-order:stroke markers fill;filter:url(#filter983);enable-background:accumulate"
       id="text1702"
       transform="matrix(0.71492825,0,0,1.1709411,8.1453058,396.61083)"><textPath
         xlink:href="#path20863"
         id="textPath1053"
         style="stroke-width:16.3943">CRe<tspan
   style="font-style:italic;font-variant:normal;font-weight:normal;font-stretch:normal;font-size:114.132px;font-family:Lavi;-inkscape-font-specification:'Lavi Italic';stroke:#000000;stroke-width:16.3943;stroke-dasharray:none;paint-order:stroke markers fill"
   id="tspan19293">eee</tspan><tspan
   id="tspan19301"
   style="font-style:italic;font-variant:normal;font-weight:normal;font-stretch:normal;font-size:103.322px;font-family:Lavi;-inkscape-font-specification:'Lavi Italic';stroke:#000000;stroke-width:16.3943;stroke-dasharray:none;paint-order:stroke markers fill">eee</tspan>eee<tspan
   style="font-style:italic;font-variant:normal;font-weight:normal;font-stretch:normal;font-size:108.727px;font-family:Lavi;-inkscape-font-specification:'Lavi Italic';stroke:#000000;stroke-width:16.3943;stroke-dasharray:none;paint-order:stroke markers fill"
   id="tspan19305">eee</tspan><tspan
   id="tspan19309"
   style="font-style:italic;font-variant:normal;font-weight:normal;font-stretch:normal;font-size:87.1066px;font-family:Lavi;-inkscape-font-specification:'Lavi Italic';stroke:#000000;stroke-width:16.3943;stroke-dasharray:none;paint-order:stroke markers fill">ee<tspan
   style="font-size:77.1066px;stroke-width:16.3943;stroke-dasharray:none"
   id="tspan1168">e</tspan><tspan
   id="tspan1172"
   style="font-size:67.1066px;stroke-width:16.3943;stroke-dasharray:none">ee</tspan></tspan></textPath></text>
    <text
       xml:space="preserve"
       style="color:#000000;font-style:normal;font-variant:normal;font-weight:normal;font-stretch:normal;font-size:127.104px;line-height:0.01%;font-family:Lavi;-inkscape-font-specification:'Lavi, Normal';font-variant-ligatures:normal;font-variant-caps:normal;font-variant-numeric:normal;font-feature-settings:normal;text-align:start;letter-spacing:18.632px;word-spacing:0px;writing-mode:lr-tb;text-anchor:start;display:inline;overflow:visible;visibility:visible;fill:#ffffff;fill-opacity:1;fill-rule:nonzero;stroke:#000000;stroke-width:15.2545;stroke-linecap:butt;stroke-linejoin:miter;stroke-miterlimit:4;stroke-dasharray:none;stroke-dashoffset:0;stroke-opacity:1;marker:none;paint-order:stroke markers fill;filter:url(#filter983);enable-background:accumulate"
       id="text1702-5"
       transform="matrix(0.83262047,0,-0.06932396,1.1613002,179.06909,370.94397)"><textPath
         xlink:href="#path1020"
         id="textPath1059"
         style="stroke-width:15.2545"><tspan
           id="tspan19309-2"
           style="font-style:italic;font-variant:normal;font-weight:normal;font-stretch:normal;font-size:87.1066px;font-family:Lavi;-inkscape-font-specification:'Lavi Italic';stroke:#000000;stroke-width:15.2545;stroke-dasharray:none;paint-order:stroke markers fill"><tspan
   id="tspan21251-7"
   style="font-style:italic;font-variant:normal;font-weight:normal;font-stretch:normal;font-size:67.1066px;font-family:Lavi;-inkscape-font-specification:'Lavi Italic';stroke-width:15.2545;stroke-dasharray:none;paint-order:stroke markers fill">ee</tspan><tspan
   style="font-style:italic;font-variant:normal;font-weight:normal;font-stretch:normal;font-size:77.1066px;font-family:Lavi;-inkscape-font-specification:'Lavi Italic';stroke-width:15.2545;stroke-dasharray:none;paint-order:stroke markers fill"
   id="tspan21243-0">e</tspan>eee<tspan
   style="font-style:italic;font-variant:normal;font-weight:normal;font-stretch:normal;font-size:97.1066px;font-family:Lavi;-inkscape-font-specification:'Lavi Italic';stroke-width:15.2545;stroke-dasharray:none;paint-order:stroke markers fill"
   id="tspan21235-9">e<tspan
   style="font-style:italic;font-variant:normal;font-weight:normal;font-stretch:normal;font-size:117.107px;font-family:Lavi;-inkscape-font-specification:'Lavi Italic';stroke-width:15.2545;stroke-dasharray:none;paint-order:stroke markers fill"
   id="tspan21239-3">ee<tspan
   style="font-size:132.45px;stroke-width:15.2545"
   id="tspan964">ee</tspan>e</tspan>e</tspan>eeee</tspan></textPath></text>
    <text
       xml:space="preserve"
       style="color:#000000;font-style:normal;font-variant:normal;font-weight:normal;font-stretch:normal;font-size:155.442px;line-height:0.01%;font-family:Lavi;-inkscape-font-specification:'Lavi, Normal';font-variant-ligatures:normal;font-variant-caps:normal;font-variant-numeric:normal;font-feature-settings:normal;text-align:start;letter-spacing:22.786px;word-spacing:0px;writing-mode:lr-tb;text-anchor:start;display:inline;overflow:visible;visibility:visible;fill:#ffffff;fill-opacity:1;fill-rule:nonzero;stroke:#000000;stroke-width:16.7674;stroke-linecap:butt;stroke-linejoin:miter;stroke-miterlimit:4;stroke-dasharray:none;stroke-dashoffset:0;stroke-opacity:1;marker:none;paint-order:stroke markers fill;filter:url(#filter983);enable-background:accumulate"
       id="text1702-5-5"
       transform="matrix(0.7650768,0.01927012,-0.33341018,1.0376403,-25.270495,1175.6044)"><textPath
         xlink:href="#path1405"
         id="textPath1458"
         style="stroke-width:16.7674;stroke-dasharray:none"><tspan
           id="tspan19309-2-2"
           style="font-style:italic;font-variant:normal;font-weight:normal;font-stretch:normal;font-size:106.527px;font-family:Lavi;-inkscape-font-specification:'Lavi Italic';stroke:#000000;stroke-width:16.7674;stroke-dasharray:none;paint-order:stroke markers fill"><tspan
   id="tspan21251-7-9"
   style="font-style:italic;font-variant:normal;font-weight:normal;font-stretch:normal;font-size:82.0679px;font-family:Lavi;-inkscape-font-specification:'Lavi Italic';stroke-width:16.7674;stroke-dasharray:none;paint-order:stroke markers fill">ee</tspan><tspan
   style="font-style:italic;font-variant:normal;font-weight:normal;font-stretch:normal;font-size:94.2974px;font-family:Lavi;-inkscape-font-specification:'Lavi Italic';stroke-width:16.7674;stroke-dasharray:none;paint-order:stroke markers fill"
   id="tspan21243-0-1">e</tspan>eee<tspan
   style="font-style:italic;font-variant:normal;font-weight:normal;font-stretch:normal;font-size:118.756px;font-family:Lavi;-inkscape-font-specification:'Lavi Italic';stroke-width:16.7674;stroke-dasharray:none;paint-order:stroke markers fill"
   id="tspan21235-9-2">e<tspan
   style="font-style:italic;font-variant:normal;font-weight:normal;font-stretch:normal;font-size:143.216px;font-family:Lavi;-inkscape-font-specification:'Lavi Italic';stroke-width:16.7674;stroke-dasharray:none;paint-order:stroke markers fill"
   id="tspan21239-3-7">eeeeeee</tspan>e</tspan>eeeee<tspan
   id="tspan1334"
   style="font-size:130.986px;stroke-width:16.7674;stroke-dasharray:none">ee</tspan><tspan
   style="font-size:155.445px;stroke-width:16.7674;stroke-dasharray:none"
   id="tspan1318">eeee</tspan><tspan
   id="tspan1336"
   style="font-size:130.986px;stroke-width:16.7674;stroke-dasharray:none">ee</tspan>eeeee<tspan
   style="font-size:82.0679px;stroke-width:16.7674;stroke-dasharray:none"
   id="tspan1340">eeee</tspan></tspan></textPath></text>
    <text
       xml:space="preserve"
       style="color:#000000;font-style:normal;font-variant:normal;font-weight:normal;font-stretch:normal;font-size:6.09923px;line-height:0%;font-family:Arial;-inkscape-font-specification:Arial;letter-spacing:0.013901px;word-spacing:0px;clip-rule:nonzero;display:inline;overflow:visible;visibility:visible;isolation:auto;mix-blend-mode:normal;color-interpolation:sRGB;color-interpolation-filters:linearRGB;solid-color:#000000;solid-opacity:1;fill:#d7e3f4;fill-opacity:1;fill-rule:nonzero;stroke:#1e90ff;stroke-width:8.99996;stroke-linecap:butt;stroke-linejoin:miter;stroke-miterlimit:4;stroke-dasharray:none;stroke-dashoffset:0;stroke-opacity:1;marker:none;paint-order:stroke markers fill;color-rendering:auto;image-rendering:auto;shape-rendering:auto;text-rendering:auto;enable-background:accumulate"
       x="1669.2567"
       y="1015.4174"
       id="text4251-9-3-1-9-5-4-7"
       transform="matrix(0.76116187,-0.1181876,-0.08454105,1.3269079,0,0)"
       inkscape:transform-center-x="-111.86567"
       inkscape:transform-center-y="-94.18204"><tspan
         sodipodi:role="line"
         id="tspan4253-3-7-8-7-0-7-4"
         x="1669.2567"
         y="1015.4174"
         style="font-style:normal;font-variant:normal;font-weight:normal;font-stretch:normal;font-size:81.3838px;line-height:1.25;font-family:Lavi;-inkscape-font-specification:Lavi;fill:#d7e3f4;fill-opacity:1;stroke:#1e90ff;stroke-width:8.99996;stroke-dasharray:none;paint-order:stroke markers fill"><tspan
           style="font-size:45.7442px;fill:#d7e3f4;fill-opacity:1;stroke:#1e90ff;stroke-width:8.99996;stroke-dasharray:none;paint-order:stroke markers fill"
           id="tspan4349-9-9-7-3-3-6-4">¡ ¡ ¡CR<tspan
   style="font-size:37.0603px;stroke-width:8.99996"
   id="tspan1087">R</tspan>R<tspan
   style="font-size:30.9816px;stroke-width:8.99996"
   id="tspan1091">R</tspan></tspan><tspan
           id="tspan4365-0-3-9-6-6-5-3"
           style="font-size:23.1654px;fill:#d7e3f4;fill-opacity:1;stroke:#1e90ff;stroke-width:8.99996;stroke-dasharray:none;paint-order:stroke markers fill">! </tspan><tspan
           id="tspan4311-9-7-2-1-1-6-0"
           style="font-size:28.3838px;fill:#d7e3f4;fill-opacity:1;stroke:#1e90ff;stroke-width:8.99996;stroke-dasharray:none;paint-order:stroke markers fill">! </tspan><tspan
           id="tspan4369-2-8-0-2-0-9-7"
           style="font-size:36.8564px;fill:#d7e3f4;fill-opacity:1;stroke:#1e90ff;stroke-width:8.99996;stroke-dasharray:none;paint-order:stroke markers fill">!</tspan></tspan></text>
    <text
       xml:space="preserve"
       style="color:#000000;font-style:normal;font-variant:normal;font-weight:normal;font-stretch:normal;font-size:6.09923px;line-height:0%;font-family:Arial;-inkscape-font-specification:Arial;letter-spacing:0.013901px;word-spacing:0px;clip-rule:nonzero;display:inline;overflow:visible;visibility:visible;isolation:auto;mix-blend-mode:normal;color-interpolation:sRGB;color-interpolation-filters:linearRGB;solid-color:#000000;solid-opacity:1;fill:#d7e3f4;fill-opacity:1;fill-rule:nonzero;stroke:#1e90ff;stroke-width:8.99996;stroke-linecap:butt;stroke-linejoin:miter;stroke-miterlimit:4;stroke-dasharray:none;stroke-dashoffset:0;stroke-opacity:1;marker:none;paint-order:stroke markers fill;color-rendering:auto;image-rendering:auto;shape-rendering:auto;text-rendering:auto;enable-background:accumulate"
       x="473.21915"
       y="1593.8789"
       id="text4251-9-3-1-9-5-4-7-6"
       transform="matrix(0.55734135,-0.53170135,0.68836615,1.1375341,0,0)"
       inkscape:transform-center-x="-36.030766"
       inkscape:transform-center-y="-141.19759"><tspan
         sodipodi:role="line"
         id="tspan4253-3-7-8-7-0-7-4-7"
         x="473.21915"
         y="1593.8789"
         style="font-style:normal;font-variant:normal;font-weight:normal;font-stretch:normal;font-size:81.3838px;line-height:1.25;font-family:Lavi;-inkscape-font-specification:Lavi;fill:#d7e3f4;fill-opacity:1;stroke:#1e90ff;stroke-width:8.99996;stroke-dasharray:none;paint-order:stroke markers fill"><tspan
           style="font-size:45.7442px;fill:#d7e3f4;fill-opacity:1;stroke:#1e90ff;stroke-width:8.99996;stroke-dasharray:none;paint-order:stroke markers fill"
           id="tspan4349-9-9-7-3-3-6-4-5">¡ ¡ ¡CR<tspan
   style="font-size:37.0603px;stroke-width:8.99996"
   id="tspan1087-3">R</tspan>R<tspan
   style="font-size:30.9816px;stroke-width:8.99996"
   id="tspan1091-5">R</tspan></tspan><tspan
           id="tspan4365-0-3-9-6-6-5-3-6"
           style="font-size:23.1654px;fill:#d7e3f4;fill-opacity:1;stroke:#1e90ff;stroke-width:8.99996;stroke-dasharray:none;paint-order:stroke markers fill">! </tspan><tspan
           id="tspan4311-9-7-2-1-1-6-0-2"
           style="font-size:28.3838px;fill:#d7e3f4;fill-opacity:1;stroke:#1e90ff;stroke-width:8.99996;stroke-dasharray:none;paint-order:stroke markers fill">! </tspan><tspan
           id="tspan4369-2-8-0-2-0-9-7-9"
           style="font-size:36.8564px;fill:#d7e3f4;fill-opacity:1;stroke:#1e90ff;stroke-width:8.99996;stroke-dasharray:none;paint-order:stroke markers fill">!</tspan></tspan></text>
    <text
       xml:space="preserve"
       style="color:#000000;font-style:normal;font-variant:normal;font-weight:normal;font-stretch:normal;font-size:6.09923px;line-height:0%;font-family:Arial;-inkscape-font-specification:Arial;letter-spacing:0.013901px;word-spacing:0px;clip-rule:nonzero;display:inline;overflow:visible;visibility:visible;isolation:auto;mix-blend-mode:normal;color-interpolation:sRGB;color-interpolation-filters:linearRGB;solid-color:#000000;solid-opacity:1;fill:#d7e3f4;fill-opacity:1;fill-rule:nonzero;stroke:#1e90ff;stroke-width:8.99996;stroke-linecap:butt;stroke-linejoin:miter;stroke-miterlimit:4;stroke-dasharray:none;stroke-dashoffset:0;stroke-opacity:1;marker:none;paint-order:stroke markers fill;color-rendering:auto;image-rendering:auto;shape-rendering:auto;text-rendering:auto;enable-background:accumulate"
       x="1401.0199"
       y="1299.3007"
       id="text4251-9-3-1-9-5-4-7-6-1"
       transform="matrix(0.68062479,-0.36067383,0.35416319,1.2815616,0,0)"
       inkscape:transform-center-x="-73.866401"
       inkscape:transform-center-y="-125.59373"><tspan
         sodipodi:role="line"
         id="tspan4253-3-7-8-7-0-7-4-7-2"
         x="1401.0199"
         y="1299.3007"
         style="font-style:normal;font-variant:normal;font-weight:normal;font-stretch:normal;font-size:81.3838px;line-height:1.25;font-family:Lavi;-inkscape-font-specification:Lavi;fill:#d7e3f4;fill-opacity:1;stroke:#1e90ff;stroke-width:8.99996;stroke-dasharray:none;paint-order:stroke markers fill"><tspan
           style="font-size:45.7442px;fill:#d7e3f4;fill-opacity:1;stroke:#1e90ff;stroke-width:8.99996;stroke-dasharray:none;paint-order:stroke markers fill"
           id="tspan4349-9-9-7-3-3-6-4-5-7">¡ ¡ ¡CR<tspan
   style="font-size:37.0603px;stroke-width:8.99996"
   id="tspan1087-3-0">R</tspan>R<tspan
   style="font-size:30.9816px;stroke-width:8.99996"
   id="tspan1091-5-9">R</tspan></tspan><tspan
           id="tspan4365-0-3-9-6-6-5-3-6-3"
           style="font-size:23.1654px;fill:#d7e3f4;fill-opacity:1;stroke:#1e90ff;stroke-width:8.99996;stroke-dasharray:none;paint-order:stroke markers fill">! </tspan><tspan
           id="tspan4311-9-7-2-1-1-6-0-2-6"
           style="font-size:28.3838px;fill:#d7e3f4;fill-opacity:1;stroke:#1e90ff;stroke-width:8.99996;stroke-dasharray:none;paint-order:stroke markers fill">! </tspan><tspan
           id="tspan4369-2-8-0-2-0-9-7-9-0"
           style="font-size:36.8564px;fill:#d7e3f4;fill-opacity:1;stroke:#1e90ff;stroke-width:8.99996;stroke-dasharray:none;paint-order:stroke markers fill">!</tspan></tspan></text>
    <text
       xml:space="preserve"
       style="color:#000000;font-style:normal;font-variant:normal;font-weight:normal;font-stretch:normal;font-size:7.84858px;line-height:0%;font-family:Arial;-inkscape-font-specification:Arial;letter-spacing:0.017888px;word-spacing:0px;clip-rule:nonzero;display:inline;overflow:visible;visibility:visible;isolation:auto;mix-blend-mode:normal;color-interpolation:sRGB;color-interpolation-filters:linearRGB;solid-color:#000000;solid-opacity:1;fill:#d7e3f4;fill-opacity:1;fill-rule:nonzero;stroke:#1e90ff;stroke-width:13;stroke-linecap:butt;stroke-linejoin:miter;stroke-miterlimit:4;stroke-dasharray:none;stroke-dashoffset:0;stroke-opacity:1;marker:none;paint-order:stroke markers fill;color-rendering:auto;image-rendering:auto;shape-rendering:auto;text-rendering:auto;enable-background:accumulate"
       x="3224.2419"
       y="706.92328"
       id="text4251-9-3"
       transform="matrix(0.81111136,0.08644936,-0.62443961,1.1663227,0,0)"><tspan
         sodipodi:role="line"
         id="tspan4253-3-7"
         x="3224.2419"
         y="706.92328"
         style="font-style:normal;font-variant:normal;font-weight:normal;font-stretch:normal;font-size:104.726px;line-height:1.25;font-family:Lavi;-inkscape-font-specification:Lavi;fill:#d7e3f4;fill-opacity:1;stroke:#1e90ff;stroke-width:13;stroke-dasharray:none;paint-order:stroke markers fill"><tspan
           style="font-size:58.8643px;fill:#d7e3f4;fill-opacity:1;stroke:#1e90ff;stroke-width:13;stroke-dasharray:none;paint-order:stroke markers fill"
           id="tspan4349-9-9">¡ ¡ ¡Crack</tspan><tspan
           id="tspan4365-0-3"
           style="font-size:29.8097px;fill:#d7e3f4;fill-opacity:1;stroke:#1e90ff;stroke-width:13;stroke-dasharray:none;paint-order:stroke markers fill">! </tspan><tspan
           id="tspan4311-9-7"
           style="font-size:36.5247px;fill:#d7e3f4;fill-opacity:1;stroke:#1e90ff;stroke-width:13;stroke-dasharray:none;paint-order:stroke markers fill">! </tspan><tspan
           id="tspan4369-2-8"
           style="font-size:47.4274px;fill:#d7e3f4;fill-opacity:1;stroke:#1e90ff;stroke-width:13;stroke-dasharray:none;paint-order:stroke markers fill">!</tspan></tspan></text>
    <text
       xml:space="preserve"
       style="color:#000000;font-style:normal;font-variant:normal;font-weight:normal;font-stretch:normal;font-size:7.99304px;line-height:0%;font-family:Arial;-inkscape-font-specification:Arial;letter-spacing:0.0182172px;word-spacing:0px;clip-rule:nonzero;display:inline;overflow:visible;visibility:visible;isolation:auto;mix-blend-mode:normal;color-interpolation:sRGB;color-interpolation-filters:linearRGB;solid-color:#000000;solid-opacity:1;fill:#d7e3f4;fill-opacity:1;fill-rule:nonzero;stroke:#1e90ff;stroke-width:13;stroke-linecap:butt;stroke-linejoin:miter;stroke-miterlimit:4;stroke-dasharray:none;stroke-dashoffset:0;stroke-opacity:1;marker:none;paint-order:stroke markers fill;color-rendering:auto;image-rendering:auto;shape-rendering:auto;text-rendering:auto;enable-background:accumulate"
       x="2887.2581"
       y="1491.0859"
       id="text4251-9-3-1"
       transform="matrix(0.70615116,-0.23002193,0.08328681,1.3889975,0,0)"><tspan
         sodipodi:role="line"
         id="tspan4253-3-7-8"
         x="2887.2581"
         y="1491.0859"
         style="font-style:normal;font-variant:normal;font-weight:normal;font-stretch:normal;font-size:106.654px;line-height:1.25;font-family:Lavi;-inkscape-font-specification:Lavi;fill:#d7e3f4;fill-opacity:1;stroke:#1e90ff;stroke-width:13;stroke-dasharray:none;paint-order:stroke markers fill"><tspan
           style="font-size:59.9478px;fill:#d7e3f4;fill-opacity:1;stroke:#1e90ff;stroke-width:13;stroke-dasharray:none;paint-order:stroke markers fill"
           id="tspan4349-9-9-7">¡ ¡ ¡Crack</tspan><tspan
           id="tspan4365-0-3-9"
           style="font-size:30.3583px;fill:#d7e3f4;fill-opacity:1;stroke:#1e90ff;stroke-width:13;stroke-dasharray:none;paint-order:stroke markers fill">! </tspan><tspan
           id="tspan4311-9-7-2"
           style="font-size:37.1969px;fill:#d7e3f4;fill-opacity:1;stroke:#1e90ff;stroke-width:13;stroke-dasharray:none;paint-order:stroke markers fill">! </tspan><tspan
           id="tspan4369-2-8-0"
           style="font-size:48.3004px;fill:#d7e3f4;fill-opacity:1;stroke:#1e90ff;stroke-width:13;stroke-dasharray:none;paint-order:stroke markers fill">!</tspan></tspan></text>
    <text
       xml:space="preserve"
       style="color:#000000;font-style:normal;font-variant:normal;font-weight:normal;font-stretch:normal;font-size:8.08201px;line-height:0%;font-family:Arial;-inkscape-font-specification:Arial;letter-spacing:0.01842px;word-spacing:0px;clip-rule:nonzero;display:inline;overflow:visible;visibility:visible;isolation:auto;mix-blend-mode:normal;color-interpolation:sRGB;color-interpolation-filters:linearRGB;solid-color:#000000;solid-opacity:1;fill:#d7e3f4;fill-opacity:1;fill-rule:nonzero;stroke:#1e90ff;stroke-width:13;stroke-linecap:butt;stroke-linejoin:miter;stroke-miterlimit:4;stroke-dasharray:none;stroke-dashoffset:0;stroke-opacity:1;marker:none;paint-order:stroke markers fill;color-rendering:auto;image-rendering:auto;shape-rendering:auto;text-rendering:auto;enable-background:accumulate"
       x="1929.5681"
       y="1620.251"
       id="text4251-9-3-1-3"
       transform="matrix(0.66640502,-0.36607994,0.46139571,1.2471279,0,0)"><tspan
         sodipodi:role="line"
         id="tspan4253-3-7-8-74"
         x="1929.5681"
         y="1620.251"
         style="font-style:normal;font-variant:normal;font-weight:normal;font-stretch:normal;font-size:107.842px;line-height:1.25;font-family:Lavi;-inkscape-font-specification:Lavi;fill:#d7e3f4;fill-opacity:1;stroke:#1e90ff;stroke-width:13;stroke-dasharray:none;paint-order:stroke markers fill"><tspan
           style="font-size:60.6151px;fill:#d7e3f4;fill-opacity:1;stroke:#1e90ff;stroke-width:13;stroke-dasharray:none;paint-order:stroke markers fill"
           id="tspan4349-9-9-7-5">¡ ¡ ¡Crack</tspan><tspan
           id="tspan4365-0-3-9-2"
           style="font-size:30.6963px;fill:#d7e3f4;fill-opacity:1;stroke:#1e90ff;stroke-width:13;stroke-dasharray:none;paint-order:stroke markers fill">! </tspan><tspan
           id="tspan4311-9-7-2-5"
           style="font-size:37.611px;fill:#d7e3f4;fill-opacity:1;stroke:#1e90ff;stroke-width:13;stroke-dasharray:none;paint-order:stroke markers fill">! </tspan><tspan
           id="tspan4369-2-8-0-4"
           style="font-size:48.838px;fill:#d7e3f4;fill-opacity:1;stroke:#1e90ff;stroke-width:13;stroke-dasharray:none;paint-order:stroke markers fill">!</tspan></tspan></text>
    <text
       xml:space="preserve"
       style="color:#000000;font-style:normal;font-variant:normal;font-weight:normal;font-stretch:normal;font-size:7.85383px;line-height:0%;font-family:Arial;-inkscape-font-specification:Arial;letter-spacing:0.0178999px;word-spacing:0px;clip-rule:nonzero;display:inline;overflow:visible;visibility:visible;isolation:auto;mix-blend-mode:normal;color-interpolation:sRGB;color-interpolation-filters:linearRGB;solid-color:#000000;solid-opacity:1;fill:#d7e3f4;fill-opacity:1;fill-rule:nonzero;stroke:#1e90ff;stroke-width:13;stroke-linecap:butt;stroke-linejoin:miter;stroke-miterlimit:4;stroke-dasharray:none;stroke-dashoffset:0;stroke-opacity:1;marker:none;paint-order:stroke markers fill;color-rendering:auto;image-rendering:auto;shape-rendering:auto;text-rendering:auto;enable-background:accumulate"
       x="2891.4795"
       y="900.3266"
       id="text4251-9-3-1-9"
       transform="matrix(0.78390293,-0.02757059,-0.37349781,1.2888044,0,0)"><tspan
         sodipodi:role="line"
         id="tspan4253-3-7-8-7"
         x="2891.4795"
         y="900.3266"
         style="font-style:normal;font-variant:normal;font-weight:normal;font-stretch:normal;font-size:104.797px;line-height:1.25;font-family:Lavi;-inkscape-font-specification:Lavi;fill:#d7e3f4;fill-opacity:1;stroke:#1e90ff;stroke-width:13;stroke-dasharray:none;paint-order:stroke markers fill"><tspan
           style="font-size:58.9037px;fill:#d7e3f4;fill-opacity:1;stroke:#1e90ff;stroke-width:13;stroke-dasharray:none;paint-order:stroke markers fill"
           id="tspan4349-9-9-7-3">¡ ¡ ¡Crack</tspan><tspan
           id="tspan4365-0-3-9-6"
           style="font-size:29.8295px;fill:#d7e3f4;fill-opacity:1;stroke:#1e90ff;stroke-width:13;stroke-dasharray:none;paint-order:stroke markers fill">! </tspan><tspan
           id="tspan4311-9-7-2-1"
           style="font-size:36.5492px;fill:#d7e3f4;fill-opacity:1;stroke:#1e90ff;stroke-width:13;stroke-dasharray:none;paint-order:stroke markers fill">! </tspan><tspan
           id="tspan4369-2-8-0-2"
           style="font-size:47.4592px;fill:#d7e3f4;fill-opacity:1;stroke:#1e90ff;stroke-width:13;stroke-dasharray:none;paint-order:stroke markers fill">!</tspan></tspan></text>
    <text
       xml:space="preserve"
       style="color:#000000;font-style:normal;font-variant:normal;font-weight:normal;font-stretch:normal;font-size:8.7752px;line-height:0%;font-family:Arial;-inkscape-font-specification:Arial;letter-spacing:0.0199998px;word-spacing:0px;clip-rule:nonzero;display:inline;overflow:visible;visibility:visible;isolation:auto;mix-blend-mode:normal;color-interpolation:sRGB;color-interpolation-filters:linearRGB;solid-color:#000000;solid-opacity:1;fill:#d7e3f4;fill-opacity:1;fill-rule:nonzero;stroke:#1e90ff;stroke-width:13;stroke-linecap:butt;stroke-linejoin:miter;stroke-miterlimit:4;stroke-dasharray:none;stroke-dashoffset:0;stroke-opacity:1;marker:none;paint-order:stroke markers fill;color-rendering:auto;image-rendering:auto;shape-rendering:auto;text-rendering:auto;enable-background:accumulate"
       x="2010.15"
       y="1437.974"
       id="text4251-9-3-1-9-5"
       transform="matrix(0.70574997,-0.2585977,0.19389686,1.3458856,0,0)"
       inkscape:transform-center-x="-125.50887"
       inkscape:transform-center-y="-165.47732"><tspan
         sodipodi:role="line"
         id="tspan4253-3-7-8-7-0"
         x="2010.15"
         y="1437.974"
         style="font-style:normal;font-variant:normal;font-weight:normal;font-stretch:normal;font-size:117.09px;line-height:1.25;font-family:Lavi;-inkscape-font-specification:Lavi;fill:#d7e3f4;fill-opacity:1;stroke:#1e90ff;stroke-width:13;stroke-dasharray:none;paint-order:stroke markers fill"><tspan
           style="font-size:65.8141px;fill:#d7e3f4;fill-opacity:1;stroke:#1e90ff;stroke-width:13;stroke-dasharray:none;paint-order:stroke markers fill"
           id="tspan4349-9-9-7-3-3">¡ ¡ ¡Crack</tspan><tspan
           id="tspan4365-0-3-9-6-6"
           style="font-size:33.329px;fill:#d7e3f4;fill-opacity:1;stroke:#1e90ff;stroke-width:13;stroke-dasharray:none;paint-order:stroke markers fill">! </tspan><tspan
           id="tspan4311-9-7-2-1-1"
           style="font-size:40.8369px;fill:#d7e3f4;fill-opacity:1;stroke:#1e90ff;stroke-width:13;stroke-dasharray:none;paint-order:stroke markers fill">! </tspan><tspan
           id="tspan4369-2-8-0-2-0"
           style="font-size:53.0269px;fill:#d7e3f4;fill-opacity:1;stroke:#1e90ff;stroke-width:13;stroke-dasharray:none;paint-order:stroke markers fill">!</tspan></tspan></text>
    <text
       xml:space="preserve"
       style="color:#000000;font-style:normal;font-variant:normal;font-weight:normal;font-stretch:normal;font-size:8.85924px;line-height:0%;font-family:Arial;-inkscape-font-specification:Arial;letter-spacing:0.0201914px;word-spacing:0px;clip-rule:nonzero;display:inline;overflow:visible;visibility:visible;isolation:auto;mix-blend-mode:normal;color-interpolation:sRGB;color-interpolation-filters:linearRGB;solid-color:#000000;solid-opacity:1;fill:#d7e3f4;fill-opacity:1;fill-rule:nonzero;stroke:#1e90ff;stroke-width:13;stroke-linecap:butt;stroke-linejoin:miter;stroke-miterlimit:4;stroke-dasharray:none;stroke-dashoffset:0;stroke-opacity:1;marker:none;paint-order:stroke markers fill;color-rendering:auto;image-rendering:auto;shape-rendering:auto;text-rendering:auto;enable-background:accumulate"
       x="1999.8002"
       y="1312.2661"
       id="text4251-9-3-1-9-5-4"
       transform="matrix(0.71247951,-0.25615519,0.19574571,1.3331734,0,0)"
       inkscape:transform-center-x="-127.91888"
       inkscape:transform-center-y="-165.48401"><tspan
         sodipodi:role="line"
         id="tspan4253-3-7-8-7-0-7"
         x="1999.8002"
         y="1312.2661"
         style="font-style:normal;font-variant:normal;font-weight:normal;font-stretch:normal;font-size:118.211px;line-height:1.25;font-family:Lavi;-inkscape-font-specification:Lavi;fill:#d7e3f4;fill-opacity:1;stroke:#1e90ff;stroke-width:13;stroke-dasharray:none;paint-order:stroke markers fill"><tspan
           style="font-size:66.4443px;fill:#d7e3f4;fill-opacity:1;stroke:#1e90ff;stroke-width:13;stroke-dasharray:none;paint-order:stroke markers fill"
           id="tspan4349-9-9-7-3-3-6">¡ ¡ ¡Crack</tspan><tspan
           id="tspan4365-0-3-9-6-6-5"
           style="font-size:33.6482px;fill:#d7e3f4;fill-opacity:1;stroke:#1e90ff;stroke-width:13;stroke-dasharray:none;paint-order:stroke markers fill">! </tspan><tspan
           id="tspan4311-9-7-2-1-1-6"
           style="font-size:41.228px;fill:#d7e3f4;fill-opacity:1;stroke:#1e90ff;stroke-width:13;stroke-dasharray:none;paint-order:stroke markers fill">! </tspan><tspan
           id="tspan4369-2-8-0-2-0-9"
           style="font-size:53.5346px;fill:#d7e3f4;fill-opacity:1;stroke:#1e90ff;stroke-width:13;stroke-dasharray:none;paint-order:stroke markers fill">!</tspan></tspan></text>
    <text
       xml:space="preserve"
       style="color:#000000;font-style:normal;font-variant:normal;font-weight:normal;font-stretch:normal;font-size:127.104px;line-height:0.01%;font-family:Lavi;-inkscape-font-specification:'Lavi, Normal';font-variant-ligatures:normal;font-variant-caps:normal;font-variant-numeric:normal;font-feature-settings:normal;text-align:start;letter-spacing:18.632px;word-spacing:0px;writing-mode:lr-tb;text-anchor:start;display:inline;overflow:visible;visibility:visible;fill:#ffffff;fill-opacity:1;fill-rule:nonzero;stroke:#000000;stroke-width:14.2382;stroke-linecap:butt;stroke-linejoin:miter;stroke-miterlimit:4;stroke-dasharray:none;stroke-dashoffset:0;stroke-opacity:1;marker:none;paint-order:stroke markers fill;filter:url(#filter983);enable-background:accumulate"
       id="text1702-5-8"
       transform="matrix(0.72969175,0.13265355,-0.39532797,1.4491407,-1066.8892,1640.8488)"><textPath
         xlink:href="#path1020"
         id="textPath1059-6"
         style="font-style:italic;font-variant:normal;font-weight:normal;font-stretch:normal;font-size:87.1066px;font-family:Lavi;-inkscape-font-specification:'Lavi Italic';stroke:#000000;stroke-width:14.2382;stroke-dasharray:none;paint-order:stroke markers fill"><tspan
           style="font-style:italic;font-variant:normal;font-weight:normal;font-stretch:normal;font-size:120.107px;font-family:Lavi;-inkscape-font-specification:'Lavi Italic';stroke-width:14.2382;stroke-dasharray:none;paint-order:stroke markers fill"
           id="tspan21235-9-3">e</tspan><tspan
           id="tspan6629"
           style="font-style:italic;font-variant:normal;font-weight:normal;font-stretch:normal;font-size:117.107px;font-family:Lavi;-inkscape-font-specification:'Lavi Italic';stroke-width:14.2382;stroke-dasharray:none;paint-order:stroke markers fill">ee<tspan
   style="font-size:80.1068px;stroke-width:14.2382;stroke-dasharray:none"
   id="tspan6631">ee</tspan><tspan
   id="tspan6643"
   style="font-size:60.1068px;stroke-width:14.2382;stroke-dasharray:none">e</tspan></tspan><tspan
           style="font-size:60.1068px;stroke-width:14.2382;stroke-dasharray:none"
           id="tspan6633">e</tspan><tspan
           id="tspan6647"
           style="font-size:40.1068px;stroke-width:14.2382;stroke-dasharray:none">e...</tspan></textPath></text>
    <text
       xml:space="preserve"
       style="font-style:normal;font-variant:normal;font-weight:normal;font-stretch:normal;line-height:0%;font-family:Lavi;-inkscape-font-specification:Lavi;letter-spacing:0px;word-spacing:0px;fill:url(#linearGradient4294-2);fill-opacity:1;stroke:none;stroke-width:0.645144;stroke-miterlimit:4;stroke-dasharray:none;stroke-opacity:0;filter:url(#filter4375-4-1-1-1-9-5-8-8-5-6)"
       x="787.65729"
       y="1584.5073"
       id="text4580-6-0-0-0-2"
       transform="matrix(1.1379897,-0.30816684,-0.38734342,1.6685777,919.08311,-505.2977)"><tspan
         sodipodi:role="line"
         id="tspan4582-1-1-0-2-4"
         x="787.65729"
         y="1584.5073"
         style="font-size:93.1495px;line-height:1.25;fill:url(#linearGradient4294-2);fill-opacity:1;stroke:none;stroke-width:0.645144;stroke-miterlimit:4;stroke-dasharray:none;stroke-opacity:0">¡¡¡Dze<tspan
   style="font-size:70.7783px;fill:url(#linearGradient4294-2);fill-opacity:1;stroke-width:0.645144"
   id="tspan4630">ey<tspan
   style="font-size:54.5522px;fill:url(#linearGradient4294-2);stroke-width:0.645144"
   id="tspan5447">o</tspan><tspan
   id="tspan5453"
   style="font-size:41.0427px;fill:url(#linearGradient4294-2);stroke-width:0.645144">o</tspan></tspan><tspan
   style="font-size:55.9281px;fill:url(#linearGradient4294-2);fill-opacity:1;stroke-width:0.645144"
   id="tspan4638"><tspan
   style="font-size:41.0427px;fill:url(#linearGradient4294-2);stroke-width:0.645144"
   id="tspan5451"> </tspan>!!</tspan></tspan></text>
    <text
       id="text4178-0-0"
       y="1977.5039"
       x="1688.3267"
       style="font-style:normal;font-variant:normal;font-weight:normal;font-stretch:normal;font-size:10.372px;line-height:0%;font-family:Lavi;-inkscape-font-specification:Lavi;text-align:center;letter-spacing:0px;word-spacing:0px;text-anchor:middle;fill:#000000;fill-opacity:1;stroke:none;stroke-width:0.999997"
       xml:space="preserve"
       transform="scale(0.99978425,1.0002158)"><tspan
         y="1977.5039"
         x="1688.3267"
         style="font-size:35.1581px;line-height:1.25;stroke-width:0.999997"
         sodipodi:role="line"
         id="tspan1803">¡Ay, pero qué</tspan><tspan
         y="2021.4515"
         x="1688.3267"
         style="font-size:35.1581px;line-height:1.25;stroke-width:0.999997"
         sodipodi:role="line"
         id="tspan2631">alboroto!</tspan><tspan
         y="2036.5114"
         x="1688.3267"
         style="font-size:35.1581px;line-height:1.25;stroke-width:0.999997"
         sodipodi:role="line"
         id="tspan6943" /></text>
    <text
       id="text4178-0"
       y="2753.8049"
       x="924.35651"
       style="font-style:normal;font-variant:normal;font-weight:normal;font-stretch:normal;line-height:0%;font-family:Lavi;-inkscape-font-specification:Lavi;text-align:center;letter-spacing:0px;word-spacing:0px;text-anchor:middle;fill:#000000;fill-opacity:1;stroke:none"
       xml:space="preserve"><tspan
         y="2753.8049"
         x="924.35651"
         style="font-size:40.6767px;line-height:1.25"
         sodipodi:role="line"
         id="tspan614">Cúbreme.</tspan><tspan
         y="2804.6509"
         x="924.35651"
         style="font-size:40.6767px;line-height:1.25"
         sodipodi:role="line"
         id="tspan610">¡Lo callaré por </tspan><tspan
         y="2855.4966"
         x="924.35651"
         style="font-size:40.6767px;line-height:1.25"
         sodipodi:role="line"
         id="tspan2637">el bien!</tspan></text>
    <text
       id="text4178-0-4-4"
       y="2985.575"
       x="963.41571"
       style="font-style:normal;font-variant:normal;font-weight:normal;font-stretch:normal;line-height:0%;font-family:Lavi;-inkscape-font-specification:Lavi;text-align:center;letter-spacing:0px;word-spacing:0px;text-anchor:middle;fill:#000000;fill-opacity:1;stroke:none"
       xml:space="preserve"><tspan
         y="2985.575"
         x="963.41571"
         style="font-weight:bold;font-size:40.6767px;line-height:1.25"
         sodipodi:role="line"
         id="tspan2150">¡¿Escuchaste eso,</tspan><tspan
         y="3036.4209"
         x="963.41571"
         style="font-weight:bold;font-size:40.6767px;line-height:1.25"
         sodipodi:role="line"
         id="tspan785"> monstruo?!</tspan></text>
    <text
       id="text4178-0-4"
       y="3094.2876"
       x="1066.3303"
       style="font-style:normal;font-variant:normal;font-weight:normal;font-stretch:normal;line-height:0%;font-family:Lavi;-inkscape-font-specification:Lavi;text-align:center;letter-spacing:0px;word-spacing:0px;text-anchor:middle;fill:#000000;fill-opacity:1;stroke:none"
       xml:space="preserve"><tspan
         y="3094.2876"
         x="1066.3303"
         style="font-size:40.6767px;line-height:1.25"
         sodipodi:role="line"
         id="tspan2644">Estate pendiente</tspan><tspan
         y="3145.1335"
         x="1066.3303"
         style="font-size:40.6767px;line-height:1.25"
         sodipodi:role="line"
         id="tspan2650"> de mí, solo por si</tspan><tspan
         y="3195.9792"
         x="1066.3303"
         style="font-size:40.6767px;line-height:1.25"
         sodipodi:role="line"
         id="tspan2652"> acaso, Curandera...</tspan></text>
    <text
       id="text4178-0-4-8"
       y="2753.7615"
       x="2187.4517"
       style="font-style:normal;font-variant:normal;font-weight:normal;font-stretch:normal;line-height:0%;font-family:Lavi;-inkscape-font-specification:Lavi;text-align:center;letter-spacing:0px;word-spacing:0px;text-anchor:middle;fill:#000000;fill-opacity:1;stroke:none"
       xml:space="preserve"><tspan
         y="2753.7615"
         x="2187.4517"
         style="font-size:40.6767px;line-height:1.25"
         sodipodi:role="line"
         id="tspan6957-7">¿Curandera?</tspan></text>
  </g>
</svg>
