<?xml version="1.0" encoding="UTF-8" standalone="no"?>
<!-- Created with Inkscape (http://www.inkscape.org/) -->

<svg
   xmlns:dc="http://purl.org/dc/elements/1.1/"
   xmlns:cc="http://creativecommons.org/ns#"
   xmlns:rdf="http://www.w3.org/1999/02/22-rdf-syntax-ns#"
   xmlns:svg="http://www.w3.org/2000/svg"
   xmlns="http://www.w3.org/2000/svg"
   xmlns:xlink="http://www.w3.org/1999/xlink"
   xmlns:sodipodi="http://sodipodi.sourceforge.net/DTD/sodipodi-0.dtd"
   xmlns:inkscape="http://www.inkscape.org/namespaces/inkscape"
   id="svg2"
   version="1.1"
   inkscape:version="0.92.4 (5da689c313, 2019-01-14)"
   width="2481"
   height="3503"
   sodipodi:docname="E38P05.svg">
  <metadata
     id="metadata8">
    <rdf:RDF>
      <cc:Work
         rdf:about="">
        <dc:format>image/svg+xml</dc:format>
        <dc:type
           rdf:resource="http://purl.org/dc/dcmitype/StillImage" />
        <dc:title />
      </cc:Work>
    </rdf:RDF>
  </metadata>
  <defs
     id="defs6">
    <filter
       inkscape:label="underwater"
       inkscape:menu="Distort"
       inkscape:menu-tooltip="Something like a water noise"
       height="1.0511301"
       y="-0.025565068"
       width="1.0310469"
       x="-0.015523466"
       style="color-interpolation-filters:sRGB"
       id="filter4172">
      <feTurbulence
         numOctaves="1"
         seed="196"
         type="fractalNoise"
         baseFrequency="0.017000000000000001"
         result="result1"
         id="feTurbulence4174" />
      <feGaussianBlur
         stdDeviation="2"
         result="result2"
         id="feGaussianBlur4176" />
      <feDisplacementMap
         scale="50"
         yChannelSelector="B"
         xChannelSelector="R"
         in="SourceGraphic"
         in2="result2"
         id="feDisplacementMap4178" />
    </filter>
  </defs>
  <sodipodi:namedview
     pagecolor="#ffffff"
     bordercolor="#666666"
     borderopacity="1"
     objecttolerance="10"
     gridtolerance="10"
     guidetolerance="10"
     inkscape:pageopacity="0"
     inkscape:pageshadow="2"
     inkscape:window-width="1858"
     inkscape:window-height="1057"
     id="namedview4"
     showgrid="false"
     inkscape:zoom="0.529"
     inkscape:cx="1123.8185"
     inkscape:cy="-67.107754"
     inkscape:window-x="54"
     inkscape:window-y="-8"
     inkscape:window-maximized="1"
     inkscape:current-layer="layer1"
     inkscape:showpageshadow="0"
     inkscape:pagecheckerboard="0"
     inkscape:deskcolor="#d1d1d1" />
  <g
     inkscape:groupmode="layer"
     id="layer2"
     inkscape:label="artwork"
     sodipodi:insensitive="true">
    <image
       sodipodi:absref="D:\Documents\code\webcomics\ep38_The-Healer\lang\id\../gfx_Pepper-and-Carrot_by-David-Revoy_E38P05.png"
       xlink:href="../gfx_Pepper-and-Carrot_by-David-Revoy_E38P05.png"
       width="2481"
       height="3503"
       id="image10"
       x="0"
       y="0" />
  </g>
  <g
     inkscape:groupmode="layer"
     id="layer3"
     inkscape:label="speechbubbles">
    <path
       style="color:#000000;display:inline;overflow:visible;visibility:visible;fill:#ffffff;fill-opacity:1;fill-rule:nonzero;stroke:none;stroke-width:0.87803px;marker:none;enable-background:accumulate"
       d="m 415.26074,861.85541 c -32.14715,-0.39133 -64.74611,3.68408 -94.90825,16.27852 -12.26967,5.68774 -22.60695,17.62545 -25.12251,32.22598 -1.75134,14.18982 2.74012,29.4125 12.33808,39.29599 8.1203,7.71869 18.71726,11.03443 28.88,14.03256 22.87643,6.12722 46.54678,6.58282 69.94819,7.42257 16.43678,0.44389 32.89643,1.02123 49.32691,0.18965 20.56266,-1.25412 41.27143,-4.01601 60.82556,-11.33492 10.53535,-3.97961 20.9392,-10.35159 27.09539,-20.85727 6.40088,-10.81583 7.80732,-25.38577 2.30908,-37.02396 -4.92963,-11.06531 -14.42716,-19.00579 -24.81867,-23.22021 -19.48796,-9.3576 -40.85083,-12.04706 -61.77436,-14.66739 -14.661,-1.51389 -29.38907,-1.91463 -44.09942,-2.34152 z"
       id="path4040-4-4"
       inkscape:connector-curvature="0"
       sodipodi:nodetypes="zssssz" />
    <path
       style="fill:#ffffff;fill-rule:evenodd;stroke:none;stroke-width:0.999992px;stroke-linecap:butt;stroke-linejoin:miter;stroke-opacity:1"
       d="m 435.26341,563.21672 c 16.27678,-7.70306 54.74615,26.14786 39.58227,51.34243 -8.28227,13.76087 -48.97093,53.80439 -43.9925,66.35898 8.40555,21.19708 75.83803,24.06425 75.34563,52.97874 -1.26904,74.51888 -53.41279,72.33106 -59.81975,139.52761 -3.58819,37.63308 -34.40093,22.34932 -33.33057,3.73049 4.2792,-74.43645 66.79894,-75.39649 71.06678,-137.361 1.53877,-22.34137 -67.05507,-30.56749 -73.83163,-54.62707 -6.77656,-24.05958 42.65978,-65.6915 48.95364,-74.90388 19.06934,-27.91202 -17.29835,-49.15245 -23.97387,-47.0463 z"
       id="path4324-2"
       inkscape:connector-curvature="0"
       sodipodi:nodetypes="cssssssssc" />
    <path
       style="display:inline;fill:#ffffff;fill-opacity:1;stroke:none;stroke-width:1.07453907"
       d="m 1186.5296,625.51532 c -53.5894,-0.44449 -107.395,4.77227 -156.8701,20.20367 -53.03812,17.21023 -89.0395,62.35193 -91.92195,111.03199 -1.67156,26.09684 5.91558,53.70051 24.69936,75.88049 15.82824,18.55125 37.76459,32.89748 61.13339,43.84802 28.6674,13.32012 59.7491,21.91586 90.985,28.41944 30.3068,6.13903 61.0314,10.18038 91.7749,12.65777 58.094,4.17213 115.9818,1.70112 173.493,-1.53212 40.6755,-3.53102 80.1432,-13.19668 116.1096,-28.33515 21.6609,-8.43608 43.2179,-18.3178 58.8359,-33.7499 18.0395,-17.1472 28.9842,-39.53822 31.1663,-63.03449 2.7229,-23.27877 -1.3177,-48.12875 -15.6137,-69.38667 -13.0272,-18.86911 -32.0598,-34.19466 -51.3876,-48.47463 -17.683,-12.45719 -38.5491,-21.7632 -60.6475,-25.87571 -38.9335,-8.65875 -78.7029,-12.49669 -118.2806,-15.91163 -51.1723,-4.04148 -102.3718,-5.19828 -153.476,-5.74108 z"
       id="path3238-0"
       inkscape:connector-curvature="0"
       sodipodi:nodetypes="cssssc" />
    <path
       style="color:#000000;display:inline;overflow:visible;visibility:visible;fill:#ffffff;fill-opacity:1;fill-rule:nonzero;stroke:none;stroke-width:0.999996px;marker:none;enable-background:accumulate"
       d="m 1148.6419,483.92962 c -46.7972,0.23302 -94.0361,6.91259 -138.1168,24.81261 -23.08452,9.25073 -43.40723,28.17604 -53.61798,53.03997 -4.18925,10.55254 -3.4092,22.64185 -0.90706,33.57163 4.01616,19.25685 16.01614,35.92224 31.47746,45.68574 9.9195,6.47307 21.34458,9.1346 32.50078,11.69854 21.5853,4.48658 43.5863,5.71587 65.4902,6.74437 24.7303,1.04107 49.4888,1.68274 74.1545,4.04214 47.3042,3.71231 95.0488,6.46939 142.2345,-0.39796 31.9219,-4.24248 63.8579,-10.13143 94.4376,-21.33927 12.3783,-5.01913 23.185,-14.62578 30.4565,-26.73159 6.5874,-10.81062 9.4837,-24.15057 8.215,-37.08249 -1.5828,-19.02165 -10.8861,-37.05529 -24.955,-48.23051 -14.4123,-12.26074 -31.1725,-20.81411 -48.4156,-27.00832 -22.3978,-7.69969 -45.9237,-9.86872 -69.2219,-11.43138 -47.8332,-3.92125 -95.7416,-7.49363 -143.7322,-7.37348 z"
       id="path3365-74"
       inkscape:connector-curvature="0"
       sodipodi:nodetypes="csssssc" />
    <path
       style="color:#000000;display:inline;overflow:visible;visibility:visible;fill:#ffffff;fill-opacity:1;fill-rule:nonzero;stroke:none;stroke-width:1.09534764px;marker:none;enable-background:accumulate"
       d="m 1076.5244,293.64527 c -40.6139,0.78137 -81.98704,3.75385 -119.75133,14.63141 -41.67758,12.04826 -78.27721,33.25357 -99.58297,60.72162 -18.14177,24.74876 -18.75672,54.53598 -4.95706,80.33079 9.4508,18.61656 27.79037,35.26384 52.34987,45.76542 22.49361,10.01407 49.1937,14.7031 75.7428,16.12186 27.55579,1.63823 55.25079,0.84655 82.85899,1.68912 49.1453,0.96314 98.2378,2.8797 147.3769,3.94552 36.557,0.69769 73.2622,0.79259 109.6627,-1.90057 36.3906,-3.96596 70.5878,-13.91816 103.8676,-24.34574 25.8766,-8.91617 48.1749,-23.19775 60.838,-41.13289 13.6939,-17.98639 19.9777,-39.16139 13.6067,-59.17363 -6.0012,-16.56212 -21.6182,-30.64086 -39.4797,-42.2039 -35.3652,-23.51357 -81.2341,-39.86001 -130.1596,-44.96004 -26.1035,-2.87335 -52.5498,-3.74758 -78.8598,-5.32116 -57.2177,-2.84135 -114.5935,-4.28316 -171.9622,-4.19268 -0.517,0.008 -1.0339,0.0166 -1.5509,0.0248 z"
       id="path4546-6-3"
       inkscape:connector-curvature="0"
       sodipodi:nodetypes="cssssssc" />
    <path
       style="fill:#ffffff;fill-rule:evenodd;stroke:none;stroke-width:0.999999px;stroke-linecap:butt;stroke-linejoin:miter;stroke-opacity:1"
       d="m 1097.2088,1498.1612 c -50.1074,232.9948 317.2826,138.0065 348.2465,127.5914 25.2848,-6.3546 42.8921,-91.6966 9.8197,-155.958 -17.4489,-37.4489 -309.4186,-95.437 -358.0662,28.3666 z"
       id="path4430-0"
       inkscape:connector-curvature="0"
       sodipodi:nodetypes="cccc" />
    <path
       style="fill:#ffffff;fill-rule:evenodd;stroke:none;stroke-width:0.999998px;stroke-linecap:butt;stroke-linejoin:miter;stroke-opacity:1"
       d="m 1665.3875,867.24265 c -47.6883,36.63018 -121.3078,34.71042 -164.497,-19.84273 -42.9447,-54.24437 -27.7187,24.61422 -27.7187,24.61422 0,0 103.5598,86.80674 192.2157,-4.77149 z"
       id="path914"
       inkscape:connector-curvature="0"
       sodipodi:nodetypes="cscc" />
    <path
       style="color:#000000;display:inline;overflow:visible;visibility:visible;fill:#ffffff;fill-opacity:1;fill-rule:nonzero;stroke:none;stroke-width:1.44363px;marker:none;enable-background:accumulate"
       d="m 1339.0908,1623.6053 c -58.6804,0.7716 -117.9182,6.3674 -173.7688,23.2029 -39.056,11.7174 -75.767,32.549 -99.7864,62.9309 -25.4822,32.6695 -35.8918,73.5289 -33.0035,112.9859 2.4111,35.318 21.0757,70.136 52.5086,92.0639 24.6399,16.5738 54.5232,25.2096 84.1737,31.5645 39.5562,7.9396 79.9915,11.3785 120.2296,15.2699 62.4515,4.5786 125.1516,2.1194 187.7156,1.7622 31.0345,-0.5514 62.1379,-0.3682 93.0804,-2.836 47.6638,-4.5312 94.4812,-15.8603 138.3732,-33.0327 24.6554,-10.4657 46.3447,-27.858 57.4651,-50.4275 11.3144,-22.3863 13.191,-47.5547 11.0884,-71.7607 -2.2808,-30.3048 -10.4975,-60.9643 -29.1653,-86.6937 -18.4601,-25.5733 -46.6932,-44.7019 -77.8665,-56.4505 -50.5455,-19.4654 -105.7263,-25.8509 -160.0486,-30.6564 -55.8598,-4.8701 -111.9624,-7.8675 -168.0983,-7.9531 -0.9657,0.01 -1.9314,0.021 -2.8972,0.031 z"
       id="path4546-6-5-3"
       inkscape:connector-curvature="0"
       sodipodi:nodetypes="cssssc" />
    <path
       style="color:#000000;display:inline;overflow:visible;visibility:visible;fill:#ffffff;fill-opacity:1;fill-rule:nonzero;stroke:none;stroke-width:1px;marker:none;enable-background:accumulate"
       d="m 1734.4698,1831.6628 c 62.1287,15.8148 150.4475,-33.6088 136.8651,-118.9732 -8.8478,92.8343 -96.9988,91.9805 -130.0298,76.4776 -19.3706,-12.294 -6.8353,42.4956 -6.8353,42.4956 z"
       id="path3978-4"
       inkscape:connector-curvature="0"
       sodipodi:nodetypes="cccc" />
    <path
       style="display:inline;fill:#ffffff;stroke:none;stroke-width:1"
       d="m 917.38033,2397.4226 c -5.2069,-10.7866 -17.1717,-15.0052 -25.6304,-13.039 -8.45839,1.9675 -11.4441,2.5263 -18.2896,8.7513 -6.8457,6.2252 -25.67917,11.3207 -33.31721,7.9632 -7.63783,-3.3561 -47.89164,-12.1144 -47.89164,-12.1144 0,0 20.67765,21.3567 29.65507,27.1533 8.97867,5.7973 6.3573,2.1556 10.75117,3.341 4.39314,1.1846 20.97342,-0.094 30.05862,-2.4708 7.13511,-1.8659 16.12447,-3.9027 23.29985,-12.6861 4.76574,-5.8354 18.47194,-4.2799 21.40374,4.5948 3.2536,9.8488 10.0144,11.0209 24.9122,8.2211 13.8184,-2.5977 34.3544,-11.9913 34.3544,-11.9913 -47.4943,6.1566 -43.47,4.3673 -49.3062,-7.7231 z"
       id="path3023-0"
       inkscape:connector-curvature="0"
       sodipodi:nodetypes="sssscsssssscs" />
    <path
       id="path3549-3-8"
       style="color:#000000;display:inline;overflow:visible;visibility:visible;opacity:1;fill:#ffffff;fill-opacity:1;fill-rule:nonzero;stroke:none;stroke-width:1.07841384px;marker:none;enable-background:accumulate"
       d="m 102.15625,2217.2109 v 305.347 c 43.63182,-6.8201 58.51526,11.8528 36.8605,61.5112 57.75046,-77.1815 84.65088,-4.3579 82.73347,43.7475 33.24395,-79.7051 82.26539,-71.4912 103.34976,22.1591 34.62963,-133.5824 72.58651,-97.5712 107.53912,-31.4335 -13.34796,-64.898 3.36003,-142.6058 63.1786,-50.3723 -30.4244,-77.8607 -12.15315,-102.699 9.80756,-112.9836 v -49.1788 c -7.56976,-22.2099 -9.78628,-50.3328 0,-76.2785 v -112.5181 z"
       inkscape:connector-curvature="0" />
    <path
       style="fill:#ffffff;fill-rule:evenodd;stroke:none;stroke-width:0.999998px;stroke-linecap:butt;stroke-linejoin:miter;stroke-opacity:1"
       d="m 614.98881,2331.2948 c 6.57512,-4.5025 30.9863,6.1034 47.23431,-14.5751 16.19068,-5.8238 33.06234,8.5107 49.40116,1.3841 14.33141,-9.4751 32.46796,-10.8364 45.27819,1.061 14.36386,11.2529 34.42337,-0.9091 49.44359,7.0829 6.24188,10.2604 6.48874,24.2764 25.17031,26.9861 20.09836,6.5494 -1.65107,22.3736 -0.26812,33.4774 1.29355,11.641 17.1596,30.782 -7.21514,34.0234 -16.96883,3.6696 -17.31233,19.095 -31.90536,26.234 -11.7402,6.8974 -35.28869,-4.7334 -52.1666,2.2019 -13.26157,2.3364 -24.06652,16.2037 -32.02042,2.0306 -13.94698,-10.4421 -35.59419,-14.7145 -53.8245,-9.226 -18.76606,-1.2476 -17.91699,-24.2238 -38.31236,-23.6428 -19.06357,0.857 -30.24122,-11.0952 -21.50112,-24.5407 4.04556,-12.2665 -22.30758,-21.9987 -7.48377,-32.292 14.25762,-6.1411 16.87054,-24.2606 28.16983,-30.2048 z"
       id="path16024"
       sodipodi:nodetypes="cccccccccccccccc" />
    <path
       style="color:#000000;display:inline;overflow:visible;visibility:visible;fill:#ffffff;fill-opacity:1;fill-rule:nonzero;stroke:none;stroke-width:1px;marker:none;enable-background:accumulate"
       d="m 2087.9681,3285.9397 c 0.5382,-35.4026 11.0244,-68.8822 103.9813,-67.7236 69.6996,0.8683 88.2609,28.1452 89.8052,63.9302 1.0883,25.2186 -36.6197,48.5616 -96.5036,47.3246 -57.2375,-1.1819 -93.0971,-16.5325 -97.2829,-43.5312 z"
       id="path5026-3"
       inkscape:connector-curvature="0"
       sodipodi:nodetypes="csssc" />
    <path
       style="display:inline;fill:#ffffff;fill-rule:evenodd;stroke:none;stroke-width:1px;stroke-linecap:butt;stroke-linejoin:miter;stroke-opacity:1"
       d="m 2216.2701,3274.5534 c -61.8984,-21.049 28.9638,-64.9043 19.6446,-80.7113 -6.8485,-11.6163 -47.2918,2.0303 -76.0255,-47.5276 36.5257,35.7762 71.9507,15.1139 89.789,28.9312 33.8795,26.2412 -13.779,72.8752 -16.93,82.2108 -4.2143,12.4859 -16.4781,17.0969 -16.4781,17.0969 z"
       id="path4186-80"
       inkscape:connector-curvature="0"
       sodipodi:nodetypes="cscssc" />
    <path
       style="display:inline;fill:#ffffff;stroke:none;stroke-width:1.09083581"
       d="m 131.43443,197.02745 c -0.66931,-16.53428 20.93357,-62.27919 113.52449,-57.01611 92.59092,5.26308 121.16411,24.09797 123.18606,53.50769 3.19874,46.52623 -45.8452,57.79921 -115.9278,59.61049 -72.24766,1.86792 -116.83152,-14.27969 -120.78275,-56.10207 z"
       id="path3280-9"
       inkscape:connector-curvature="0"
       sodipodi:nodetypes="csssc" />
    <path
       style="color:#000000;display:inline;overflow:visible;visibility:visible;fill:#ffffff;fill-opacity:1;fill-rule:nonzero;stroke:none;stroke-width:1px;marker:none;enable-background:accumulate"
       d="m 243.93137,340.60992 c -25.02662,-22.16944 -37.57619,-65.64997 -6.57569,-106.68443 31.00051,-41.03445 15.89917,-51.35957 15.89917,-51.35957 l -32.36315,12.91552 c 0,0 -47.82019,105.74427 23.03967,145.12848 z"
       id="path3072-6"
       inkscape:connector-curvature="0"
       sodipodi:nodetypes="csccc" />
    <path
       style="fill:#ffffff;stroke:none;stroke-width:1.1243"
       d="m 953.9822,259.61165 c -0.9247,-49.31229 26.6861,-60.38495 54.7056,-67.32626 28.0194,-6.94013 115.1003,0.75255 108.7035,61.09627 -6.3968,60.34256 -48.53,68.70534 -83.3415,66.03787 -34.81158,-2.66747 -75.0164,-13.08297 -80.0676,-59.80788 z"
       id="path3938-8-5"
       inkscape:connector-curvature="0"
       sodipodi:nodetypes="csssc" />
  </g>
  <g
     inkscape:groupmode="layer"
     id="layer1"
     inkscape:label="txt">
    <text
       id="text4178-0-7"
       y="210.26805"
       x="250.5466"
       style="font-style:normal;font-variant:normal;font-weight:normal;font-stretch:normal;line-height:0%;font-family:Lavi;-inkscape-font-specification:Lavi;text-align:center;letter-spacing:0px;word-spacing:0px;text-anchor:middle;fill:#000000;fill-opacity:1;stroke:none"
       xml:space="preserve"><tspan
         y="210.26805"
         x="250.5466"
         style="font-size:40.67670059px;line-height:1.25"
         sodipodi:role="line"
         id="tspan13656-7">Begitulah.</tspan></text>
    <text
       id="text4178-0"
       y="927.02161"
       x="423.54248"
       style="font-style:normal;font-variant:normal;font-weight:normal;font-stretch:normal;font-size:11.37469959px;line-height:0%;font-family:Lavi;-inkscape-font-specification:Lavi;text-align:center;letter-spacing:0px;word-spacing:0px;text-anchor:middle;fill:#000000;fill-opacity:1;stroke:none;stroke-width:1"
       xml:space="preserve"><tspan
         y="927.02161"
         x="423.54248"
         style="font-size:38.55720139px;line-height:1.25;stroke-width:1"
         sodipodi:role="line"
         id="tspan463">Ada lagi?</tspan></text>
    <text
       id="text4178-0-7-3"
       y="273.96155"
       x="1011.0895"
       style="font-style:normal;font-variant:normal;font-weight:normal;font-stretch:normal;font-size:14.03660011px;line-height:0%;font-family:Lavi;-inkscape-font-specification:Lavi;text-align:center;letter-spacing:0px;word-spacing:0px;text-anchor:middle;fill:#000000;fill-opacity:1;stroke:none;stroke-width:1"
       xml:space="preserve"
       transform="scale(1.0254518,0.97517992)"><tspan
         y="273.96155"
         x="1011.0895"
         style="font-weight:bold;font-size:47.5802002px;line-height:1.25;stroke-width:1"
         sodipodi:role="line"
         id="tspan13656-7-6">Ya.</tspan></text>
    <text
       id="text4178-0-3"
       y="368.85971"
       x="1161.1416"
       style="font-style:normal;font-variant:normal;font-weight:normal;font-stretch:normal;line-height:0%;font-family:Lavi;-inkscape-font-specification:Lavi;text-align:center;letter-spacing:0px;word-spacing:0px;text-anchor:middle;fill:#000000;fill-opacity:1;stroke:none"
       xml:space="preserve"><tspan
         y="368.85971"
         x="1161.1416"
         style="font-size:40.67670059px;line-height:1.25"
         sodipodi:role="line"
         id="tspan13828">Ketika kita mulai</tspan><tspan
         y="419.7056"
         x="1161.1416"
         style="font-size:40.67670059px;line-height:1.25"
         sodipodi:role="line"
         id="tspan553">dicari-cari otoritas itu <tspan
   style="font-weight:bold"
   id="tspan559">normal</tspan></tspan><tspan
         y="470.55145"
         x="1161.1416"
         style="font-size:40.67670059px;line-height:1.25"
         sodipodi:role="line"
         id="tspan557">untuk penyihir Chaosah.</tspan></text>
    <text
       id="text4178-0-3-7"
       y="560.37183"
       x="1194.0856"
       style="font-style:normal;font-variant:normal;font-weight:normal;font-stretch:normal;line-height:0%;font-family:Lavi;-inkscape-font-specification:Lavi;text-align:center;letter-spacing:0px;word-spacing:0px;text-anchor:middle;fill:#000000;fill-opacity:1;stroke:none"
       xml:space="preserve"><tspan
         y="560.37183"
         x="1194.0856"
         style="font-size:40.67670059px;line-height:1.25"
         sodipodi:role="line"
         id="tspan13908">Bahkan itu artinya</tspan><tspan
         y="611.21771"
         x="1194.0856"
         style="font-size:40.67670059px;line-height:1.25"
         sodipodi:role="line"
         id="tspan563"><tspan
           style="font-weight:bold"
           id="tspan565">pertanda bagus.</tspan></tspan></text>
    <text
       id="text4178-0-3-7-4"
       y="699.81525"
       x="1263.552"
       style="font-style:normal;font-variant:normal;font-weight:normal;font-stretch:normal;line-height:0%;font-family:Lavi;-inkscape-font-specification:Lavi;text-align:center;letter-spacing:0px;word-spacing:0px;text-anchor:middle;fill:#000000;fill-opacity:1;stroke:none"
       xml:space="preserve"><tspan
         y="699.81525"
         x="1270.0269"
         style="font-size:40.67670059px;line-height:1.25"
         sodipodi:role="line"
         id="tspan13969">Tidak usah pedulikan </tspan><tspan
         y="750.66113"
         x="1263.552"
         style="font-size:40.67670059px;line-height:1.25"
         sodipodi:role="line"
         id="tspan656">yang pesimis ato apa, dan</tspan><tspan
         y="801.50702"
         x="1263.552"
         style="font-size:40.67670059px;line-height:1.25"
         sodipodi:role="line"
         id="tspan660">buat <tspan
   style="font-weight:bold"
   id="tspan666">karirmu sendiri</tspan> kalau</tspan><tspan
         y="852.35284"
         x="1263.552"
         style="font-size:40.67670059px;line-height:1.25"
         sodipodi:role="line"
         id="tspan662">tidak ada yang mau kasih.</tspan></text>
    <text
       id="text4178-0-3-7-4-4-9"
       y="1500.6082"
       x="1291.115"
       style="font-style:normal;font-variant:normal;font-weight:normal;font-stretch:normal;font-size:13.06159973px;line-height:0%;font-family:Lavi;-inkscape-font-specification:Lavi;text-align:center;letter-spacing:0px;word-spacing:0px;text-anchor:middle;fill:#000000;fill-opacity:1;stroke:none;stroke-width:1"
       xml:space="preserve"><tspan
         y="1500.6082"
         x="1291.115"
         style="font-weight:normal;font-size:44.27539825px;line-height:1.25;stroke-width:1"
         sodipodi:role="line"
         id="tspan14405">Dan terutama:</tspan><tspan
         y="1555.9524"
         x="1291.115"
         style="font-weight:bold;font-size:44.27539825px;line-height:1.25;stroke-width:1"
         sodipodi:role="line"
         id="tspan982">kamu bukan</tspan><tspan
         y="1611.2966"
         x="1291.115"
         style="font-weight:bold;font-size:44.27539825px;line-height:1.25;stroke-width:1"
         sodipodi:role="line"
         id="tspan75">dokter.</tspan></text>
    <text
       id="text4178-0-3-7-4-6"
       y="1717.0682"
       x="1407.6429"
       style="font-style:normal;font-variant:normal;font-weight:normal;font-stretch:normal;line-height:0%;font-family:Lavi;-inkscape-font-specification:Lavi;text-align:center;letter-spacing:0px;word-spacing:0px;text-anchor:middle;fill:#000000;fill-opacity:1;stroke:none;stroke-width:1.39999998;stroke-dasharray:none"
       xml:space="preserve"><tspan
         y="1717.0682"
         x="1407.6429"
         style="font-size:40.67670059px;line-height:1.25;stroke-width:1.39999998;stroke-dasharray:none"
         sodipodi:role="line"
         id="tspan1088">Suatu saat mereka akan sadar,</tspan><tspan
         y="1767.9141"
         x="1407.6429"
         style="font-size:40.67670059px;line-height:1.25;stroke-width:1.39999998;stroke-dasharray:none"
         sodipodi:role="line"
         id="tspan1100">ketika kamu kehabisan segitu</tspan><tspan
         y="1818.76"
         x="1407.6429"
         style="font-size:40.67670059px;line-height:1.25;stroke-width:1.39999998;stroke-dasharray:none"
         sodipodi:role="line"
         id="tspan86">banyak Air Mata Phoenix yang</tspan><tspan
         y="1869.6058"
         x="1407.6429"
         style="font-size:40.67670059px;line-height:1.25;stroke-width:1.39999998;stroke-dasharray:none"
         sodipodi:role="line"
         id="tspan1096">kamu bawa-bawa. Pura-puranya</tspan><tspan
         y="1920.4518"
         x="1407.6429"
         style="font-size:40.67670059px;line-height:1.25;stroke-width:1.39999998;stroke-dasharray:none"
         sodipodi:role="line"
         id="tspan104">kamu punya kekuatan baru.</tspan></text>
    <text
       id="text4178-0-3-7-4-4-9-8"
       y="2304.5208"
       x="299.76089"
       style="font-style:normal;font-variant:normal;font-weight:normal;font-stretch:normal;font-size:19.68330002px;line-height:0%;font-family:Lavi;-inkscape-font-specification:Lavi;text-align:center;letter-spacing:0px;word-spacing:0px;text-anchor:middle;fill:#000000;fill-opacity:1;stroke:none;stroke-width:1"
       xml:space="preserve"><tspan
         y="2304.5208"
         x="299.76089"
         style="font-weight:bold;font-size:66.72119904px;line-height:1.25;stroke-width:1"
         sodipodi:role="line"
         id="tspan14981">Hah... ?</tspan></text>
    <text
       id="text4178-0-3-7-4-4-9-8-2"
       y="2377.3582"
       x="298.4072"
       style="font-style:normal;font-variant:normal;font-weight:normal;font-stretch:normal;font-size:17.92239952px;line-height:0%;font-family:Lavi;-inkscape-font-specification:Lavi;text-align:center;letter-spacing:0px;word-spacing:0px;text-anchor:middle;fill:#000000;fill-opacity:1;stroke:none;stroke-width:1"
       xml:space="preserve"><tspan
         y="2377.3582"
         x="298.4072"
         style="font-weight:bold;font-size:60.7521019px;line-height:1.25;stroke-width:1"
         sodipodi:role="line"
         id="tspan1834">Gimana</tspan><tspan
         y="2453.2983"
         x="298.4072"
         style="font-weight:bold;font-size:60.7521019px;line-height:1.25;stroke-width:1"
         sodipodi:role="line"
         id="tspan108">kamu</tspan><tspan
         y="2529.2385"
         x="298.4072"
         style="font-weight:bold;font-size:60.7521019px;line-height:1.25;stroke-width:1"
         sodipodi:role="line"
         id="tspan114">bisa...</tspan></text>
    <text
       id="text4178-0-3-7-4-6-2"
       y="2380.6519"
       x="721.09253"
       style="font-style:normal;font-variant:normal;font-weight:normal;font-stretch:normal;font-size:13.06980038px;line-height:0%;font-family:Lavi;-inkscape-font-specification:Lavi;text-align:center;letter-spacing:0px;word-spacing:0px;text-anchor:middle;fill:#000000;fill-opacity:1;stroke:none;stroke-width:0.99999899"
       xml:space="preserve"
       transform="scale(0.99716257,1.0028455)"><tspan
         y="2380.6519"
         x="721.09253"
         style="font-size:44.3030014px;line-height:1.25;stroke-width:0.99999899"
         sodipodi:role="line"
         id="tspan14909-4">...tebak.</tspan></text>
    <text
       id="text4178-0-3-7-4-6-2-9"
       y="3394.865"
       x="2115.7561"
       style="font-style:normal;font-variant:normal;font-weight:normal;font-stretch:normal;font-size:15.5528px;line-height:0%;font-family:Lavi;-inkscape-font-specification:Lavi;text-align:center;letter-spacing:0px;word-spacing:0px;text-anchor:middle;fill:#000000;fill-opacity:1;stroke:none;stroke-width:1"
       xml:space="preserve"
       transform="scale(1.0311049,0.96983341)"><tspan
         y="3394.865"
         x="2115.7561"
         style="font-size:52.7197px;line-height:1.25;stroke-width:1"
         sodipodi:role="line"
         id="tspan14909-4-0">Tsk!</tspan></text>
  </g>
</svg>
