<?xml version="1.0" encoding="UTF-8" standalone="no"?>
<!-- Created with Inkscape (http://www.inkscape.org/) -->

<svg
   id="svg2"
   version="1.1"
   inkscape:version="1.1.1 (3bf5ae0d25, 2021-09-20)"
   width="2481"
   height="3503"
   sodipodi:docname="E37P08.svg"
   xmlns:inkscape="http://www.inkscape.org/namespaces/inkscape"
   xmlns:sodipodi="http://sodipodi.sourceforge.net/DTD/sodipodi-0.dtd"
   xmlns:xlink="http://www.w3.org/1999/xlink"
   xmlns="http://www.w3.org/2000/svg"
   xmlns:svg="http://www.w3.org/2000/svg"
   xmlns:rdf="http://www.w3.org/1999/02/22-rdf-syntax-ns#"
   xmlns:cc="http://creativecommons.org/ns#"
   xmlns:dc="http://purl.org/dc/elements/1.1/">
  <metadata
     id="metadata8">
    <rdf:RDF>
      <cc:Work
         rdf:about="">
        <dc:format>image/svg+xml</dc:format>
        <dc:type
           rdf:resource="http://purl.org/dc/dcmitype/StillImage" />
      </cc:Work>
    </rdf:RDF>
  </metadata>
  <defs
     id="defs6">
    <linearGradient
       inkscape:collect="always"
       id="linearGradient10401">
      <stop
         style="stop-color:#000000;stop-opacity:1;"
         offset="0"
         id="stop10397" />
      <stop
         style="stop-color:#000000;stop-opacity:0;"
         offset="1"
         id="stop10399" />
    </linearGradient>
    <filter
       style="color-interpolation-filters:sRGB"
       id="filter4375-4-1-1-15-1-3-5"
       inkscape:label="deevad outline effect"
       x="-0.0010983899"
       y="-0.0045733851"
       width="1.0021968"
       height="1.0091468">
      <feFlood
         id="feFlood4377-7-9-0-4-4-4-9"
         flood-opacity="1"
         flood-color="rgb(0,0,0)"
         result="flood" />
      <feComposite
         id="feComposite4379-3-8-8-6-0-7-7"
         in2="SourceGraphic"
         in="flood"
         operator="in"
         result="composite1" />
      <feMorphology
         id="feMorphology4393-1-0-49-8-2-7-7"
         operator="dilate"
         radius="0.69999999999999996"
         result="result3" />
      <feComposite
         id="feComposite4385-9-5-7-2-1-2-6"
         in2="result3"
         in="SourceGraphic"
         operator="over"
         result="composite2" />
    </filter>
    <filter
       style="color-interpolation-filters:sRGB"
       id="filter4375-4-1-1-15-1-3-5-1"
       inkscape:label="deevad outline effect"
       x="-0.0017880683"
       y="-0.0034836332"
       width="1.0035761"
       height="1.0069673">
      <feFlood
         id="feFlood4377-7-9-0-4-4-4-9-2"
         flood-opacity="1"
         flood-color="rgb(0,0,0)"
         result="flood" />
      <feComposite
         id="feComposite4379-3-8-8-6-0-7-7-7"
         in2="SourceGraphic"
         in="flood"
         operator="in"
         result="composite1" />
      <feMorphology
         id="feMorphology4393-1-0-49-8-2-7-7-0"
         operator="dilate"
         radius="0.69999999999999996"
         result="result3" />
      <feComposite
         id="feComposite4385-9-5-7-2-1-2-6-9"
         in2="result3"
         in="SourceGraphic"
         operator="over"
         result="composite2" />
    </filter>
    <filter
       style="color-interpolation-filters:sRGB"
       id="filter4375-4-1-1-1-9-30-2-7-9"
       inkscape:label="Roughen"
       x="0"
       y="0"
       width="1"
       height="1">
      <feFlood
         id="feFlood4377-7-9-0-8-1-78-6-7-8"
         flood-opacity="1"
         flood-color="rgb(0,0,0)"
         result="flood" />
      <feComposite
         id="feComposite4379-3-8-8-2-77-68-1-1-4"
         in2="SourceGraphic"
         in="flood"
         operator="in"
         result="composite1" />
      <feMorphology
         id="feMorphology4393-1-0-49-8-9-8-0-1-8"
         operator="dilate"
         radius="4"
         result="result3" />
      <feComposite
         id="feComposite4385-9-5-7-0-8-4-6-5-1"
         in2="result3"
         in="SourceGraphic"
         operator="over"
         result="fbSourceGraphic" />
      <feColorMatrix
         result="fbSourceGraphicAlpha"
         in="fbSourceGraphic"
         values="0 0 0 -1 0 0 0 0 -1 0 0 0 0 -1 0 0 0 0 1 0"
         id="feColorMatrix333-3-1-9-0" />
      <feTurbulence
         id="feTurbulence335-1-5-7-3"
         type="fractalNoise"
         numOctaves="5"
         seed="1"
         baseFrequency="0.013 0.013"
         result="turbulence" />
      <feDisplacementMap
         in2="turbulence"
         id="feDisplacementMap337-4-9-7-0"
         in="fbSourceGraphic"
         scale="6.6"
         yChannelSelector="G"
         xChannelSelector="R"
         result="fbSourceGraphic" />
      <feColorMatrix
         result="fbSourceGraphicAlpha"
         in="fbSourceGraphic"
         values="0 0 0 -1 0 0 0 0 -1 0 0 0 0 -1 0 0 0 0 1 0"
         id="feColorMatrix435-92-4-6-4" />
      <feTurbulence
         id="feTurbulence437-06-9-7-4"
         type="fractalNoise"
         numOctaves="5"
         seed="27"
         baseFrequency="0.001 0.4414"
         result="turbulence" />
      <feDisplacementMap
         in2="turbulence"
         id="feDisplacementMap439-8-0-3-4"
         in="fbSourceGraphic"
         scale="4.27461"
         yChannelSelector="G"
         xChannelSelector="R" />
    </filter>
    <linearGradient
       inkscape:collect="always"
       xlink:href="#linearGradient10401"
       id="linearGradient10403"
       x1="1412.6727"
       y1="148.40623"
       x2="1576.7669"
       y2="148.40623"
       gradientUnits="userSpaceOnUse" />
  </defs>
  <sodipodi:namedview
     pagecolor="#ffffff"
     bordercolor="#666666"
     borderopacity="1"
     objecttolerance="10"
     gridtolerance="10"
     guidetolerance="10"
     inkscape:pageopacity="0"
     inkscape:pageshadow="2"
     inkscape:window-width="1536"
     inkscape:window-height="795"
     id="namedview4"
     showgrid="false"
     inkscape:zoom="0.24595019"
     inkscape:cx="945.31334"
     inkscape:cy="772.51413"
     inkscape:window-x="0"
     inkscape:window-y="32"
     inkscape:window-maximized="1"
     inkscape:current-layer="layer1"
     inkscape:pagecheckerboard="0"
     inkscape:showpageshadow="0"
     inkscape:deskcolor="#d1d1d1" />
  <g
     inkscape:groupmode="layer"
     id="layer2"
     inkscape:label="artwork"
     sodipodi:insensitive="true">
    <image
       xlink:href="../gfx_Pepper-and-Carrot_by-David-Revoy_E37P08.png"
       y="0"
       x="0"
       id="image10"
       height="3503"
       width="2481" />
  </g>
  <g
     inkscape:groupmode="layer"
     id="layer3"
     inkscape:label="speechbubbles">
    <path
       style="color:#000000;display:inline;overflow:visible;visibility:visible;fill:#ffffff;fill-opacity:1;fill-rule:nonzero;stroke:none;stroke-width:0.631324px;marker:none;enable-background:accumulate"
       d="m 167.04953,135.32326 c 2.92284,-3.47216 8.27226,-0.94728 12.07463,-2.67999 3.80243,-1.73323 6.0578,-7.72454 9.8949,-9.00489 13.28242,-3.67137 27.66814,2.62188 41.24267,1.31925 13.57466,-1.30213 26.33818,-10.20068 39.92729,-10.0798 12.93841,0.3564 24.64026,9.12472 37.53501,11.00113 12.89468,1.87589 26.98234,-3.14118 39.36567,1.68343 5.89235,2.30959 5.52575,10.19444 10.73489,14.32648 5.20913,4.13205 15.99391,4.51128 19.33044,11.03383 5.6129,10.63903 2.36684,23.26496 3.31187,35.68237 0.94511,12.41738 6.08118,24.62571 3.59986,36.56479 -1.88633,8.46331 -12.08885,13.33822 -15.87677,21.02335 -3.78783,7.68513 -1.16098,18.18047 -7.57358,22.93296 -6.07795,3.87577 -16.58905,-1.10706 -23.26722,0.69931 -6.67817,1.80638 -9.52341,10.403 -16.25027,11.53444 -16.44852,2.28727 -33.87516,-5.65256 -50.42904,-5.40304 -16.55387,0.25005 -32.23483,8.69 -48.74341,7.42523 -7.92401,-0.84301 -13.76033,-10.01495 -21.68757,-11.3866 -7.92717,-1.37111 -17.94511,5.05806 -25.35431,1.24196 -5.17433,-2.58195 -6.23824,-11.88565 -10.00414,-16.79794 -3.7659,-4.91227 -10.23374,-5.43312 -12.01134,-11.80782 -2.25912,-7.83506 3.92317,-17.55016 3.05809,-25.76029 -0.86514,-8.21065 -8.77756,-14.91633 -9.04075,-23.14202 -0.007,-11.18167 10.49225,-17.28143 14.04415,-27.48937 3.55191,-10.20844 0.16022,-24.52455 6.11893,-32.91677 z"
       id="path4040-4-5"
       inkscape:connector-curvature="0"
       sodipodi:nodetypes="cscscscscscscscscscscscsc" />
    <path
       style="color:#000000;display:inline;overflow:visible;visibility:visible;fill:#ffffff;fill-opacity:1;fill-rule:nonzero;stroke:none;stroke-width:0.807789px;marker:none;enable-background:accumulate"
       d="m 198.3849,333.05693 c 3.24876,-2.23687 9.19471,-0.61026 13.42108,-1.72653 4.22642,-1.11661 6.73329,-4.97637 10.99826,-5.80122 14.76352,-2.36517 30.75339,1.68911 45.8416,0.84992 15.08836,-0.83887 29.27513,-6.57156 44.37955,-6.49369 14.38116,0.2296 27.38786,5.87842 41.72049,7.08724 14.33256,1.2085 29.99114,-2.02364 43.75532,1.08451 6.54939,1.48789 6.14193,6.56753 11.9319,9.22951 5.79001,2.66196 17.7774,2.9063 21.48596,7.1083 6.23882,6.85395 2.63077,14.98793 3.6812,22.98756 1.05049,7.99963 6.75929,15.86458 4.00127,23.55605 -2.09667,5.4523 -13.43689,8.59286 -17.64717,13.54382 -4.21022,4.95098 -1.29043,11.71236 -8.41812,14.77404 -6.75569,2.49689 -18.43887,-0.71319 -25.86171,0.45052 -7.42287,1.16372 -10.58536,6.7019 -18.06231,7.4308 -18.2827,1.47353 -37.65258,-3.64153 -56.05235,-3.48078 -18.3998,0.16108 -35.82931,5.59833 -54.17875,4.78353 -8.8076,-0.54309 -15.29473,-6.4519 -24.10594,-7.33554 -8.81111,-0.88332 -19.94614,3.25855 -28.18154,0.80008 -5.7513,-1.66335 -6.93386,-7.65704 -11.11969,-10.82169 -4.18583,-3.16461 -11.37489,-3.50015 -13.35071,-7.60693 -2.51103,-5.04754 4.36065,-11.3063 3.39907,-16.59547 -0.96159,-5.28954 -9.75631,-9.60953 -10.04886,-14.90871 -0.007,-7.20358 11.66225,-11.1332 15.61021,-17.70943 3.94798,-6.57655 0.17807,-15.7994 6.80124,-21.20589 z"
       id="path4040-4-5-5"
       inkscape:connector-curvature="0"
       sodipodi:nodetypes="cscscscscscscscscscscscsc" />
    <path
       style="color:#000000;display:inline;overflow:visible;visibility:visible;fill:#ffffff;fill-opacity:1;fill-rule:nonzero;stroke:none;stroke-width:1px;marker:none;enable-background:accumulate"
       d="M 248.60156 229.58203 C 244.39892 229.98448 241.3875 233.85856 240.47519 237.75004 C 239.37916 241.79267 241.34033 245.7317 242.02336 249.66032 C 249.14144 280.69184 255.56648 312.03167 266.61848 341.97015 C 270.54885 352.2806 275.2506 362.27439 279.89538 372.27648 C 286.60214 386.36532 293.8784 400.22398 302.4333 413.28668 C 312.21154 425.54126 325.33528 434.57193 338.87446 442.20971 C 347.30329 447.12997 355.71022 452.10469 363.78516 457.59375 C 367.15748 462.3499 366.92193 468.81374 364.63436 473.97432 C 363.20776 478.79123 361.79543 484.10452 363.59389 489.01582 C 367.05325 495.85037 374.7656 499.72306 382.24414 499.86914 C 389.10791 500.39517 396.04583 500.09655 402.84766 501.30664 C 406.74858 503.4322 408.22032 507.89592 410.02468 511.66104 C 413.40285 518.84343 419.15291 525.37394 426.87375 527.8922 C 435.05955 530.69638 444.22435 528.98089 451.63807 524.82257 C 457.91976 521.88721 464.15756 518.8258 470.67383 516.43359 C 459.91483 517.79013 449.73813 522.43753 438.80273 522.60547 C 429.27116 521.61609 421.21593 513.86243 419.00927 504.66886 C 417.80185 500.37952 415.78134 495.82905 411.63821 493.65685 C 406.78201 490.76048 400.87265 491.07377 395.46928 491.72699 C 390.0183 492.26335 384.07323 492.62468 379.17984 489.70927 C 375.67117 487.49889 374.49265 482.84505 375.55219 478.98918 C 376.59113 475.02548 379.28898 471.75457 380.38477 467.80469 C 381.89521 463.30556 382.13682 458.10466 379.70119 453.87495 C 376.86537 448.48729 371.69106 444.8869 366.47298 442.04054 C 353.39351 433.89207 339.60337 426.46274 328.53129 415.56384 C 317.03507 403.43023 309.22498 388.47156 301.64138 373.73051 C 289.09435 349.13379 276.86605 324.12236 269.45508 297.41992 C 266.72368 287.68483 265.19715 277.19384 267.89844 267.27539 C 269.04475 263.06294 271.79926 259.48584 274.98828 256.58984 C 276.26643 254.49474 274.72734 252.1689 273.76973 250.2899 C 271.32404 245.94145 268.03597 242.15398 265.14853 238.10669 C 261.11379 233.15191 255.16362 229.43373 248.60156 229.58203 z "
       id="path4496-8"
       inkscape:connector-curvature="0"
       sodipodi:nodetypes="cccccccccccccccccccc" />
    <path
       style="color:#000000;display:inline;overflow:visible;visibility:visible;fill:#ffffff;fill-opacity:1;fill-rule:nonzero;stroke:none;stroke-width:1.45441px;marker:none;enable-background:accumulate"
       d="m 1512.9819,406.76922 c 5.8495,-80.6842 74.1095,-139.57501 251.0176,-124.00646 94.7613,8.33895 202.3781,13.90845 194.9084,132.10657 -7.4698,118.19912 -162.1678,114.82169 -194.1169,117.51613 -31.9492,2.69542 -198.2486,-10.06517 -227.1869,-50.34065 -18.1143,-25.21129 -25.2386,-50.28538 -24.6222,-75.27559 z"
       id="path4546-6-5"
       inkscape:connector-curvature="0"
       sodipodi:nodetypes="cssssc" />
    <path
       style="color:#000000;display:inline;overflow:visible;visibility:visible;fill:#ffffff;fill-opacity:1;fill-rule:nonzero;stroke:none;stroke-width:0.868074px;marker:none;enable-background:accumulate"
       d="m 1645.5054,158.97689 c -2.7686,-47.53199 -46.523,-83.05074 -162.1017,-76.175874 -61.9101,3.682315 -132.1684,5.569868 -128.8296,75.187564 3.3389,69.61827 104.2744,69.62741 125.0761,71.62436 20.8019,1.99755 129.4254,-3.36261 148.8208,-26.67837 12.1409,-14.595 17.1124,-29.25108 17.0344,-43.95768 z"
       id="path4546-6-5-1"
       inkscape:connector-curvature="0"
       sodipodi:nodetypes="cssssc" />
    <path
       style="color:#000000;display:inline;overflow:visible;visibility:visible;fill:#ffffff;fill-opacity:1;fill-rule:nonzero;stroke:none;stroke-width:1.07081px;marker:none;enable-background:accumulate"
       d="m 1779.4949,268.96116 c -2.9004,-44.77306 -48.7352,-78.23018 -169.8093,-71.75436 -64.8536,3.46859 -138.4525,5.24658 -134.9549,70.82341 3.4976,65.57739 109.2322,65.58599 131.0231,67.46704 21.7908,1.88159 135.5791,-3.16744 155.8966,-25.12987 12.7182,-13.74785 17.926,-27.55324 17.8445,-41.40622 z"
       id="path4546-6-5-1-8"
       inkscape:connector-curvature="0"
       sodipodi:nodetypes="cssssc" />
    <path
       style="color:#000000;display:inline;overflow:visible;visibility:visible;fill:#ffffff;fill-opacity:1;fill-rule:nonzero;stroke:none;stroke-width:1px;marker:none;enable-background:accumulate"
       d="m 2018.8206,511.0015 c -51.3767,17.83879 -68.4993,6.34741 -81.938,-0.51893 1.8074,-4.91322 3.398,-13.94466 3.398,-13.94466 0,0 -28.1056,-10.91524 -36.7749,-18.72038 -8.6693,-7.80512 2.3879,-20.08689 2.3879,-20.08689 0,0 55.4168,19.80712 69.2171,20.45989 -5.4935,13.36641 -6.5058,20.30249 -10.4087,24.63746 5.8519,6.57618 35.837,13.95092 54.1186,8.17351 z"
       id="path4456-3"
       inkscape:connector-curvature="0" />
    <path
       style="color:#000000;display:inline;overflow:visible;visibility:visible;fill:#ffffff;fill-opacity:1;fill-rule:nonzero;stroke:none;stroke-width:0.866914px;marker:none;enable-background:accumulate"
       d="m 610.08396,1592.2113 c -14.03516,-5.2851 -54.50488,-47.1466 -4.87064,-44.9601 -36.52947,-17.614 -31.67345,-52.6687 -1.65442,-73.1426 -39.37456,4.1847 -68.594,-4.552 -48.30535,-40.7324 -58.24164,23.1697 -84.08995,27.8941 -71.98626,-22.9244 -26.82956,41.9338 -52.56405,34.1074 -59.19344,-14.9474 -6.04599,36.5637 -18.95277,56.5467 -57.42602,10.5097 -2.83201,13.4158 -10.86565,55.8724 -93.82589,43.6898 31.43971,25.5724 51.41149,41.9413 -2.08956,52.7596 27.26609,11.5042 44.65408,27.088 2.15897,51.8466 27.53481,7.8196 71.09596,5.5272 18.19758,52.8806 34.8754,-22.3804 93.05142,-6.2099 67.97673,29.8898 68.34121,-40.5626 81.4854,-29.7469 91.80471,-0.6825 25.41055,-42.5575 62.13338,-37.7373 83.49306,-12.9989 -10.38368,-37.7137 44.3388,-31.2038 75.72053,-31.1878 z"
       id="path3549-3-78-5"
       inkscape:connector-curvature="0"
       sodipodi:nodetypes="ccccccccccccccc" />
    <path
       style="color:#000000;display:inline;overflow:visible;visibility:visible;fill:#ffffff;fill-opacity:1;fill-rule:nonzero;stroke:none;stroke-width:0.959944px;marker:none;enable-background:accumulate"
       d="m 379.74497,1694.667 c 19.63276,-5.2024 76.24286,-46.4087 6.81318,-44.2565 51.09838,-17.3383 44.30566,-51.8444 2.31425,-71.9979 55.07818,4.1192 95.95109,-4.4807 67.57079,-40.0949 81.46994,22.8071 117.62724,27.4576 100.69626,-22.5656 37.5299,41.2775 73.52799,33.5736 82.80135,-14.7135 8.4573,35.9915 26.51163,55.6617 80.32904,10.3452 3.96147,13.2059 15.19914,54.998 131.24611,43.0061 -43.9787,25.1722 -71.91574,41.2849 2.92292,51.9339 -38.14051,11.3241 -62.46329,26.664 -3.02002,51.0352 -38.51641,7.6972 -99.4509,5.4407 -25.45524,52.053 -48.78463,-22.0302 -130.16279,-6.1127 -95.08765,29.422 -95.59747,-39.9278 -113.98391,-29.2814 -128.41883,-0.6718 -35.54495,-41.8915 -86.91381,-37.1467 -116.79229,-12.7955 14.52496,-37.1235 -62.02227,-30.7154 -105.91987,-30.6997 z"
       id="path3549-3-78-5-2"
       inkscape:connector-curvature="0"
       sodipodi:nodetypes="ccccccccccccccc" />
    <path
       style="color:#000000;display:inline;overflow:visible;visibility:visible;fill:#ffffff;fill-opacity:1;fill-rule:nonzero;stroke:none;stroke-width:1px;marker:none;enable-background:accumulate"
       d="m 730.6484,1672.3589 c 24.58889,17.0255 58.1857,36.9488 66.10452,35.8831 -8.27321,5.3495 -14.59566,11.5935 -19.61526,16.3705 10.8945,10.2124 55.72892,28.2136 80.79774,39.0726 -45.44587,-1.2883 -99.65783,-22.4232 -118.62671,-35.9648 9.69378,-3.5509 16.76376,-8.3846 19.55366,-12.4141 -5.41715,-10.5354 -45.88559,-24.0982 -46.46956,-23.6682 z"
       id="path5066-6"
       inkscape:connector-curvature="0"
       sodipodi:nodetypes="cccccccc" />
    <path
       style="color:#000000;display:inline;overflow:visible;visibility:visible;fill:#ffffff;fill-opacity:1;fill-rule:nonzero;stroke:none;stroke-width:1.31464px;marker:none;enable-background:accumulate"
       d="m 1869.1692,1496.0149 c -8.9684,29.3996 -59.552,31.8653 -78.1733,25.8896 37.536,32.8897 36.2276,53.3237 -14.7359,56.4975 85.4665,59.2757 15.6244,50.306 1.8485,65.3361 67.107,20.4287 38.9919,50.3725 27.0447,75.6811 65.4421,-13.0009 30.7815,6.0572 19.6586,52.1126 21.7957,-15.5991 77.3498,-65.0584 73.0471,7.1865 41.5478,-40.1175 88.6666,-58.3002 117.3493,5.1022 20.5564,-43.1669 41.7528,-67.1003 78.7679,-4.2353 -10.115,-67.6747 57.4074,-48.5498 103.4484,-29.6233 -10.9327,-18.0899 7.5706,-65.0514 52.6231,-43.9848 -30.6037,-29.5796 7.7239,-33.803 37.5546,-41.9798 -39.6403,-12.101 -46.9458,-24.5832 26.6571,-38.0157 -56.0076,-1.2997 -108.235,-3.9614 -42.5258,-49.7714 -20.6149,-1.1077 -69.5256,37.1158 -46.7215,-74.749 -35.4483,35.8121 -73.2682,55.5777 -120.6982,-19.4386 -22.4461,37.477 -61.3787,56.0224 -78.3162,9.2104 -6.0876,19.9562 -31.3304,27.4619 -52.7597,28.3725 -8.2867,-7.9279 -16.8336,-18.6948 -25.7525,-32.8011 -14.5774,29.6193 -36.3835,49.6245 -78.3162,9.2105 z"
       id="path3549-3-7-1"
       inkscape:connector-curvature="0"
       sodipodi:nodetypes="cccccccccccccccccccc" />
    <path
       style="color:#000000;display:inline;overflow:visible;visibility:visible;fill:#ffffff;fill-opacity:1;fill-rule:nonzero;stroke:none;stroke-width:2.00053px;marker:none;enable-background:accumulate"
       d="m 1889.8797,1704.1371 c -6.0848,-9.0445 -78.053,18.5831 -74.6462,27.8679 0,0 -29.3607,-6.4482 -34.6423,-5.6747 -9.9834,10.8034 -12.9296,25.7173 -12.9296,25.7173 l -58.0107,-10.8388 43.8646,-1.7548 5.4216,-32.5531 48.8388,1.1853 38.3888,-41.3739 z"
       id="path4448"
       inkscape:connector-curvature="0"
       sodipodi:nodetypes="cccccccccc" />
    <path
       style="color:#000000;display:inline;overflow:visible;visibility:visible;fill:#ffffff;fill-opacity:1;fill-rule:nonzero;stroke:none;stroke-width:1.12587px;marker:none;enable-background:accumulate"
       d="m 312.81004,2097.3398 c -8.53421,19.6296 -56.66835,21.2756 -74.38788,17.2855 35.71843,21.9594 34.47321,35.603 -14.02238,37.7214 81.32793,39.5764 14.86785,33.5875 1.75906,43.6231 63.85747,13.6388 70.22016,35.6244 15.85811,54.9407 73.41821,-13.4062 62.99053,4.264 34.80937,27.0645 36.65299,-13.8113 61.50543,-26.1972 63.28407,8.1162 47.7857,-31.1654 83.73017,-2.5727 80.36381,13.8984 19.56096,-28.8207 70.36628,-51.4937 68.86481,-17.1189 48.46595,-44.7087 92.01934,-28.6157 135.83082,-15.9794 11.50685,-13.494 12.84763,-34.225 50.07501,-29.3669 -5.2197,-13.375 7.34981,-22.569 35.736,-28.0288 -37.72072,-8.0794 -44.67252,-16.4134 25.36639,-25.3818 -53.29551,-0.8674 -102.99393,-2.6448 -40.46671,-33.23 -19.61652,-0.7401 -66.1588,24.781 -44.45895,-49.9069 -33.73171,23.9101 -69.72044,37.1069 -114.85351,-12.9791 -21.35928,25.0221 -58.40645,37.4039 -74.52379,6.1495 -5.79291,13.3243 -29.81338,18.3352 -50.20497,18.943 -7.88546,-5.2926 -16.0184,-12.4814 -24.50549,-21.8999 -13.87144,19.7763 -34.62161,33.1322 -74.52377,6.1494 z"
       id="path3549-3-7"
       inkscape:connector-curvature="0"
       sodipodi:nodetypes="cccccccccccccccccccc" />
    <path
       style="fill:#ffffff;fill-rule:evenodd;stroke:none;stroke-width:1.20047px;stroke-linecap:butt;stroke-linejoin:miter;stroke-opacity:1"
       d="m 363.32775,2241.16 c 39.94379,14.419 76.05021,23.3837 63.77474,-36.4215 70.70308,81.1945 60.56079,25.5874 71.74659,6.0702 42.03557,57.3555 78.20374,49.1819 109.61283,-12.1404 17.75599,88.4547 54.91225,45.5978 87.69024,32.3746 -0.0801,24.8748 -9.02963,53.3983 87.69034,38.445 -27.65476,22.4663 -41.66175,40.9596 20.22389,52.7307 -42.98847,18.0636 -62.90554,23.2179 -16.23801,46.6361 -24.79175,34.1145 -8.21003,54.3888 25.90846,68.7962 -79.88569,1.9952 -60.64733,20.7635 -47.83103,38.4451 -68.01421,-36.3532 -77.53019,-21.7987 -71.74653,6.0701 -31.65668,-15.9869 -41.87011,-55.0323 -98.42085,-5.3052 -16.81883,-16.5037 -45.50704,-36.0893 -82.93858,15.4223 -2.64055,-44.9322 -30.00761,-43.242 -69.75365,-18.2106 -10.48327,-42.1382 -49.84812,-20.7432 -91.67621,6.0703 34.14128,-41.1278 36.6153,-75.4867 -29.89441,-95.1009 64.45347,-23.5281 41.88849,-42.7579 6.58854,-52.5458 45.58876,1.8122 48.71755,-30.3123 27.99474,-47.8082 37.66357,5.1374 47.16917,-1.4158 7.2689,-43.528 z"
       id="path4582"
       inkscape:connector-curvature="0"
       sodipodi:nodetypes="ccccccccccccccccccc" />
    <path
       style="display:inline;fill:#ffffff;fill-rule:evenodd;stroke:none;stroke-width:1.2242px;stroke-linecap:butt;stroke-linejoin:miter;stroke-opacity:1"
       d="m 625.48512,2656.2353 32.7469,-152.6846 -42.63337,18.6917 12.11307,-117.5264 -34.31052,3.6874 3.18735,140.2064 35.4462,-15.7643 z"
       id="path4667-2"
       inkscape:connector-curvature="0"
       sodipodi:nodetypes="cccccccc" />
  </g>
  <g
     inkscape:groupmode="layer"
     id="layer1"
     inkscape:label="txt">
    <text
       xml:space="preserve"
       style="font-style:normal;font-variant:normal;font-weight:normal;font-stretch:normal;font-size:48.1069px;line-height:100%;font-family:'Nanum Pen Script OTF';-inkscape-font-specification:'Nanum Pen Script OTF';text-align:center;letter-spacing:0px;word-spacing:0px;text-anchor:middle;fill:#000000;fill-opacity:1;stroke:none;stroke-width:1.40422"
       x="313.16016"
       y="390.22659"
       id="text980"><tspan
         sodipodi:role="line"
         style="font-style:normal;font-variant:normal;font-weight:normal;font-stretch:normal;font-size:48.1069px;font-family:'Nanum Pen Script OTF';-inkscape-font-specification:'Nanum Pen Script OTF';stroke-width:1.40422"
         x="313.16016"
         y="390.22659"
         id="tspan978">빨리도 왔네...</tspan></text>
    <text
       xml:space="preserve"
       style="color:#000000;font-style:normal;font-variant:normal;font-weight:normal;font-stretch:normal;font-size:66.6887px;line-height:0.01%;font-family:'Xiaolai SC';-inkscape-font-specification:'Xiaolai SC';font-variant-ligatures:normal;font-variant-caps:normal;font-variant-numeric:normal;font-feature-settings:normal;text-align:start;letter-spacing:0.0113909px;word-spacing:0px;writing-mode:lr-tb;text-anchor:start;display:inline;overflow:visible;visibility:visible;fill:#ffffff;fill-opacity:1;fill-rule:nonzero;stroke:#000000;stroke-width:12;stroke-linecap:butt;stroke-linejoin:miter;stroke-miterlimit:4;stroke-dasharray:none;stroke-dashoffset:0;stroke-opacity:1;marker:none;paint-order:markers stroke fill;enable-background:accumulate"
       x="1186.1803"
       y="1892.3933"
       id="text1702-3"
       transform="matrix(0.76617461,-0.51781655,0.6039947,0.89697771,0,0)"><tspan
         sodipodi:role="line"
         id="tspan1032-6"
         x="1186.1803"
         y="1892.3933"
         style="font-style:normal;font-variant:normal;font-weight:normal;font-stretch:normal;font-family:'Xiaolai SC';-inkscape-font-specification:'Xiaolai SC';stroke:#000000;stroke-width:12;stroke-miterlimit:4;stroke-dasharray:none;stroke-opacity:1;paint-order:markers stroke fill">툭</tspan></text>
    <text
       xml:space="preserve"
       style="color:#000000;font-style:normal;font-variant:normal;font-weight:normal;font-stretch:normal;font-size:57.2464px;line-height:0.01%;font-family:'Xiaolai SC';-inkscape-font-specification:'Xiaolai SC';font-variant-ligatures:normal;font-variant-caps:normal;font-variant-numeric:normal;font-feature-settings:normal;text-align:start;letter-spacing:0.00977809px;word-spacing:0px;writing-mode:lr-tb;text-anchor:start;display:inline;overflow:visible;visibility:visible;fill:#ffffff;fill-opacity:1;fill-rule:nonzero;stroke:#000000;stroke-width:12;stroke-linecap:butt;stroke-linejoin:miter;stroke-miterlimit:4;stroke-dasharray:none;stroke-dashoffset:0;stroke-opacity:1;marker:none;paint-order:markers stroke fill;enable-background:accumulate"
       x="1290.0953"
       y="1974.2545"
       id="text1702-3-0"
       transform="matrix(0.73530329,-0.5395568,0.57965806,0.93463685,0,0)"><tspan
         sodipodi:role="line"
         id="tspan1032-6-6"
         x="1290.0953"
         y="1974.2545"
         style="font-style:normal;font-variant:normal;font-weight:normal;font-stretch:normal;font-family:'Xiaolai SC';-inkscape-font-specification:'Xiaolai SC';stroke:#000000;stroke-width:12;stroke-miterlimit:4;stroke-dasharray:none;stroke-opacity:1;paint-order:markers stroke fill">툭</tspan></text>
    <text
       xml:space="preserve"
       style="color:#000000;font-style:normal;font-variant:normal;font-weight:normal;font-stretch:normal;font-size:49.8591px;line-height:0.01%;font-family:'Xiaolai SC';-inkscape-font-specification:'Xiaolai SC';font-variant-ligatures:normal;font-variant-caps:normal;font-variant-numeric:normal;font-feature-settings:normal;text-align:start;letter-spacing:0.00851629px;word-spacing:0px;writing-mode:lr-tb;text-anchor:start;display:inline;overflow:visible;visibility:visible;fill:#ffffff;fill-opacity:1;fill-rule:nonzero;stroke:#000000;stroke-width:12;stroke-linecap:butt;stroke-linejoin:miter;stroke-miterlimit:4;stroke-dasharray:none;stroke-dashoffset:0;stroke-opacity:1;marker:none;paint-order:markers stroke fill;enable-background:accumulate"
       x="1383.9742"
       y="2054.8049"
       id="text1702-3-0-2"
       transform="matrix(0.7083762,-0.56006666,0.55843076,0.97016465,0,0)"><tspan
         sodipodi:role="line"
         id="tspan1032-6-6-6"
         x="1383.9742"
         y="2054.8049"
         style="font-style:normal;font-variant:normal;font-weight:normal;font-stretch:normal;font-family:'Xiaolai SC';-inkscape-font-specification:'Xiaolai SC';stroke:#000000;stroke-width:12;stroke-miterlimit:4;stroke-dasharray:none;stroke-opacity:1;paint-order:markers stroke fill" /><tspan
         sodipodi:role="line"
         x="1383.9742"
         y="2054.8098"
         style="font-style:normal;font-variant:normal;font-weight:normal;font-stretch:normal;font-family:'Xiaolai SC';-inkscape-font-specification:'Xiaolai SC';stroke:#000000;stroke-width:12;stroke-miterlimit:4;stroke-dasharray:none;stroke-opacity:1;paint-order:markers stroke fill"
         id="tspan37128">툭</tspan></text>
    <text
       xml:space="preserve"
       style="font-style:normal;font-variant:normal;font-weight:normal;font-stretch:normal;font-size:8.2445px;line-height:0%;font-family:'Xiaolai SC';-inkscape-font-specification:'Xiaolai SC';letter-spacing:0px;word-spacing:0px;fill:#000000;fill-opacity:1;stroke:#000000;stroke-width:12;stroke-linecap:square;stroke-miterlimit:4;stroke-dasharray:none;stroke-opacity:1;paint-order:stroke fill markers"
       x="798.03912"
       y="3198.8276"
       id="text4580-9-9-6-3"
       transform="matrix(0.93156536,-0.43055488,0.11148381,1.0219359,0,0)"><tspan
         sodipodi:role="line"
         id="tspan4582-26-1-5-0"
         x="798.03912"
         y="3198.8276"
         style="font-style:normal;font-variant:normal;font-weight:normal;font-stretch:normal;font-size:48.0929px;line-height:1.25;font-family:'Xiaolai SC';-inkscape-font-specification:'Xiaolai SC';fill:#ffffff;stroke-width:12;stroke-linecap:square;stroke-miterlimit:4;stroke-dasharray:none;paint-order:stroke fill markers">썩둑!</tspan></text>
    <text
       xml:space="preserve"
       style="font-style:normal;font-variant:normal;font-weight:normal;font-stretch:normal;font-size:8.2445px;line-height:0%;font-family:'Xiaolai SC';-inkscape-font-specification:'Xiaolai SC';letter-spacing:0px;word-spacing:0px;fill:#000000;fill-opacity:1;stroke:#000000;stroke-width:12;stroke-linecap:square;stroke-miterlimit:4;stroke-dasharray:none;stroke-opacity:1;paint-order:stroke fill markers"
       x="786.51398"
       y="3272.8726"
       id="text4580-9-9-6-3-3"
       transform="matrix(0.93156536,-0.43055488,0.11148381,1.0219359,0,0)"><tspan
         sodipodi:role="line"
         id="tspan4582-26-1-5-0-6"
         x="786.51398"
         y="3272.8726"
         style="font-style:normal;font-variant:normal;font-weight:normal;font-stretch:normal;font-size:48.0929px;line-height:1.25;font-family:'Xiaolai SC';-inkscape-font-specification:'Xiaolai SC';fill:#ffffff;stroke-width:12;stroke-linecap:square;stroke-miterlimit:4;stroke-dasharray:none;paint-order:stroke fill markers">썩둑!</tspan></text>
    <text
       xml:space="preserve"
       style="font-style:normal;font-variant:normal;font-weight:normal;font-stretch:normal;font-size:8.2445px;line-height:0%;font-family:'Xiaolai SC';-inkscape-font-specification:'Xiaolai SC';letter-spacing:0px;word-spacing:0px;fill:#000000;fill-opacity:1;stroke:#000000;stroke-width:12;stroke-linecap:square;stroke-miterlimit:4;stroke-dasharray:none;stroke-opacity:1;paint-order:stroke fill markers"
       x="769.24554"
       y="3348.0605"
       id="text4580-9-9-6-3-3-7"
       transform="matrix(0.93156536,-0.43055488,0.11148381,1.0219359,0,0)"><tspan
         sodipodi:role="line"
         id="tspan4582-26-1-5-0-6-5"
         x="769.24554"
         y="3348.0605"
         style="font-style:normal;font-variant:normal;font-weight:normal;font-stretch:normal;font-size:48.0929px;line-height:1.25;font-family:'Xiaolai SC';-inkscape-font-specification:'Xiaolai SC';fill:#ffffff;stroke-width:12;stroke-linecap:square;stroke-miterlimit:4;stroke-dasharray:none;paint-order:stroke fill markers">썩둑!</tspan></text>
    <text
       xml:space="preserve"
       style="font-style:normal;font-variant:normal;font-weight:normal;font-stretch:normal;font-size:56.8049px;line-height:100%;font-family:'Nanum Pen Script OTF';-inkscape-font-specification:'Nanum Pen Script OTF';text-align:center;letter-spacing:0px;word-spacing:0px;text-anchor:middle;fill:#000000;fill-opacity:1;stroke:none;stroke-width:1.25305"
       x="267.86237"
       y="189.45604"
       id="text976"><tspan
         sodipodi:role="line"
         style="font-style:normal;font-variant:normal;font-weight:normal;font-stretch:normal;font-size:56.8049px;font-family:'Nanum Pen Script OTF';-inkscape-font-specification:'Nanum Pen Script OTF';stroke-width:1.25305"
         x="267.86237"
         y="189.45604"
         id="tspan974">아! 또</tspan><tspan
         sodipodi:role="line"
         style="font-style:normal;font-variant:normal;font-weight:normal;font-stretch:normal;font-size:56.8049px;font-family:'Nanum Pen Script OTF';-inkscape-font-specification:'Nanum Pen Script OTF';stroke-width:1.25305"
         x="267.86237"
         y="246.26094"
         id="tspan3532">너로구나.</tspan></text>
    <text
       xml:space="preserve"
       style="font-style:normal;font-variant:normal;font-weight:normal;font-stretch:normal;font-size:50.7887px;line-height:100%;font-family:'Nanum Pen Script OTF';-inkscape-font-specification:'Nanum Pen Script OTF';text-align:center;letter-spacing:0px;word-spacing:0px;text-anchor:middle;fill:#000000;fill-opacity:1;stroke:#000000;stroke-width:1.12034;stroke-opacity:1"
       x="1496.2675"
       y="171.62495"
       id="text988"><tspan
         sodipodi:role="line"
         style="font-style:normal;font-variant:normal;font-weight:normal;font-stretch:normal;font-size:50.7887px;font-family:'Nanum Pen Script OTF';-inkscape-font-specification:'Nanum Pen Script OTF';stroke:#000000;stroke-width:1.12034;stroke-opacity:1"
         x="1496.2675"
         y="171.62495"
         id="tspan5359">철제 무기로?!</tspan></text>
    <text
       xml:space="preserve"
       style="font-style:normal;font-variant:normal;font-weight:normal;font-stretch:normal;font-size:61.1193px;line-height:100%;font-family:'Nanum Pen Script OTF';-inkscape-font-specification:'Nanum Pen Script OTF';text-align:center;letter-spacing:0px;word-spacing:0px;text-anchor:middle;fill:#000000;fill-opacity:1;stroke:none;stroke-width:1.34822"
       x="1685.2913"
       y="285.56799"
       id="text992"
       transform="skewX(-13.155779)"><tspan
         sodipodi:role="line"
         style="font-style:normal;font-variant:normal;font-weight:normal;font-stretch:normal;font-size:61.1193px;font-family:'Nanum Pen Script OTF';-inkscape-font-specification:'Nanum Pen Script OTF';stroke-width:1.34822"
         x="1685.2913"
         y="285.56799"
         id="tspan990">장난해?!</tspan></text>
    <text
       xml:space="preserve"
       style="font-style:normal;font-variant:normal;font-weight:normal;font-stretch:normal;font-size:59.6909px;line-height:100%;font-family:'Nanum Pen Script OTF';-inkscape-font-specification:'Nanum Pen Script OTF';text-align:center;letter-spacing:0px;word-spacing:0px;text-anchor:middle;fill:#000000;fill-opacity:1;stroke:none;stroke-width:1.31671"
       x="1741.8174"
       y="368.15381"
       id="text1000"><tspan
         sodipodi:role="line"
         style="font-style:normal;font-variant:normal;font-weight:normal;font-stretch:normal;font-size:59.6909px;font-family:'Nanum Pen Script OTF';-inkscape-font-specification:'Nanum Pen Script OTF';stroke-width:1.31671"
         x="1741.8174"
         y="368.15381"
         id="tspan998">내 몸에 쇳덩이를</tspan><tspan
         sodipodi:role="line"
         style="font-style:normal;font-variant:normal;font-weight:normal;font-stretch:normal;font-size:59.6909px;font-family:'Nanum Pen Script OTF';-inkscape-font-specification:'Nanum Pen Script OTF';stroke-width:1.31671"
         x="1741.8174"
         y="427.8447"
         id="tspan11538">꽂는다고 그게</tspan><tspan
         sodipodi:role="line"
         style="font-style:normal;font-variant:normal;font-weight:normal;font-stretch:normal;font-size:59.6909px;font-family:'Nanum Pen Script OTF';-inkscape-font-specification:'Nanum Pen Script OTF';stroke-width:1.31671"
         x="1741.8174"
         y="487.53561"
         id="tspan11542">남아날 것 같니...</tspan></text>
    <text
       xml:space="preserve"
       style="font-style:normal;font-variant:normal;font-weight:normal;font-stretch:normal;font-size:99.2722px;line-height:100%;font-family:'Nanum Pen Script OTF';-inkscape-font-specification:'Nanum Pen Script OTF';text-align:center;letter-spacing:0px;word-spacing:0px;text-anchor:middle;fill:#000000;fill-opacity:1;stroke:#000000;stroke-width:2.18982;stroke-opacity:1"
       x="437.29218"
       y="1551.7234"
       id="text1004"><tspan
         sodipodi:role="line"
         style="font-style:normal;font-variant:normal;font-weight:normal;font-stretch:normal;font-size:99.2722px;font-family:'Nanum Pen Script OTF';-inkscape-font-specification:'Nanum Pen Script OTF';stroke:#000000;stroke-width:2.18982;stroke-opacity:1"
         x="437.29218"
         y="1551.7234"
         id="tspan1002">야!</tspan></text>
    <text
       xml:space="preserve"
       style="font-style:normal;font-variant:normal;font-weight:normal;font-stretch:normal;font-size:93.3107px;line-height:100%;font-family:'Nanum Pen Script OTF';-inkscape-font-specification:'Nanum Pen Script OTF';text-align:center;letter-spacing:0px;word-spacing:0px;text-anchor:middle;fill:#000000;fill-opacity:1;stroke:#000000;stroke-width:2.05831;stroke-opacity:1"
       x="625.18475"
       y="1661.094"
       id="text1008"><tspan
         sodipodi:role="line"
         style="font-style:normal;font-variant:normal;font-weight:normal;font-stretch:normal;font-size:93.3107px;font-family:'Nanum Pen Script OTF';-inkscape-font-specification:'Nanum Pen Script OTF';stroke:#000000;stroke-width:2.05831;stroke-opacity:1"
         x="625.18475"
         y="1661.094"
         id="tspan1006">그건 안 돼!</tspan></text>
    <text
       xml:space="preserve"
       style="font-style:normal;font-variant:normal;font-weight:normal;font-stretch:normal;font-size:94.1767px;line-height:100%;font-family:'Nanum Pen Script OTF';-inkscape-font-specification:'Nanum Pen Script OTF';text-align:center;letter-spacing:0px;word-spacing:0px;text-anchor:middle;fill:#000000;fill-opacity:1;stroke:#000000;stroke-width:2.07742;stroke-opacity:1"
       x="2026.8092"
       y="1611.9926"
       id="text1014"><tspan
         sodipodi:role="line"
         style="font-style:normal;font-variant:normal;font-weight:normal;font-stretch:normal;font-size:94.1767px;font-family:'Nanum Pen Script OTF';-inkscape-font-specification:'Nanum Pen Script OTF';stroke:#000000;stroke-width:2.07742;stroke-opacity:1"
         x="2026.8092"
         y="1611.9926"
         id="tspan1012">이건</tspan><tspan
         sodipodi:role="line"
         style="font-style:normal;font-variant:normal;font-weight:normal;font-stretch:normal;font-size:94.1767px;font-family:'Nanum Pen Script OTF';-inkscape-font-specification:'Nanum Pen Script OTF';stroke:#000000;stroke-width:2.07742;stroke-opacity:1"
         x="2026.8092"
         y="1706.1692"
         id="tspan23602">너무하잖아!</tspan></text>
    <text
       xml:space="preserve"
       style="font-style:normal;font-variant:normal;font-weight:normal;font-stretch:normal;font-size:73.9868px;line-height:100%;font-family:'Nanum Pen Script OTF';-inkscape-font-specification:'Nanum Pen Script OTF';text-align:center;letter-spacing:0px;word-spacing:0px;text-anchor:middle;fill:#000000;fill-opacity:1;stroke:#000000;stroke-width:1.69432;stroke-opacity:1"
       x="467.55569"
       y="2208.9512"
       id="text1018"><tspan
         sodipodi:role="line"
         style="font-style:normal;font-variant:normal;font-weight:normal;font-stretch:normal;font-size:73.9868px;font-family:'Nanum Pen Script OTF';-inkscape-font-specification:'Nanum Pen Script OTF';stroke-width:1.69432;stroke:#000000;stroke-opacity:1"
         x="467.55569"
         y="2208.9512"
         id="tspan1016">얼른 움직여 당근!</tspan></text>
    <text
       xml:space="preserve"
       style="font-style:normal;font-variant:normal;font-weight:normal;font-stretch:normal;font-size:65.5078px;line-height:100%;font-family:'Nanum Pen Script OTF';-inkscape-font-specification:'Nanum Pen Script OTF';text-align:center;letter-spacing:0px;word-spacing:0px;text-anchor:middle;fill:#000000;fill-opacity:1;stroke:none;stroke-width:1.44502"
       x="568.16937"
       y="2351.4229"
       id="text1024"><tspan
         sodipodi:role="line"
         style="font-style:normal;font-variant:normal;font-weight:normal;font-stretch:normal;font-size:65.5078px;font-family:'Nanum Pen Script OTF';-inkscape-font-specification:'Nanum Pen Script OTF';stroke-width:1.44502"
         x="568.16937"
         y="2351.4229"
         id="tspan1022">눈물을 최대한</tspan><tspan
         sodipodi:role="line"
         style="font-style:normal;font-variant:normal;font-weight:normal;font-stretch:normal;font-size:65.5078px;font-family:'Nanum Pen Script OTF';-inkscape-font-specification:'Nanum Pen Script OTF';stroke-width:1.44502"
         x="568.16937"
         y="2416.9307"
         id="tspan31764">많이 담아야 돼!</tspan></text>
    <text
       transform="matrix(0.85852879,0,-0.29243083,1.1647833,0,0)"
       id="text1028"
       y="2994.7271"
       x="2455.1672"
       style="font-style:normal;font-variant:normal;font-weight:normal;font-stretch:normal;font-size:15.5383px;line-height:100%;font-family:'Nanum Pen Script OTF';-inkscape-font-specification:'Nanum Pen Script OTF';text-align:center;letter-spacing:0px;word-spacing:0px;text-anchor:middle;display:inline;fill:#000000;fill-opacity:1;stroke:#000000;stroke-width:0.996738;stroke-miterlimit:4;stroke-dasharray:none;stroke-opacity:1"
       xml:space="preserve"><tspan
         style="font-style:normal;font-variant:normal;font-weight:normal;font-stretch:normal;font-size:93.4641px;font-family:'Nanum Pen Script OTF';-inkscape-font-specification:'Nanum Pen Script OTF';fill:#000000;fill-opacity:1;stroke:#000000;stroke-width:0.996738;stroke-miterlimit:4;stroke-dasharray:none;stroke-opacity:1"
         y="2994.7271"
         x="2455.1672"
         id="tspan1026"
         sodipodi:role="line">- 끝 -</tspan></text>
  </g>
</svg>
