<?xml version="1.0" encoding="UTF-8" standalone="no"?>
<svg
   xmlns:dc="http://purl.org/dc/elements/1.1/"
   xmlns:cc="http://creativecommons.org/ns#"
   xmlns:rdf="http://www.w3.org/1999/02/22-rdf-syntax-ns#"
   xmlns:svg="http://www.w3.org/2000/svg"
   xmlns="http://www.w3.org/2000/svg"
   xmlns:xlink="http://www.w3.org/1999/xlink"
   xmlns:sodipodi="http://sodipodi.sourceforge.net/DTD/sodipodi-0.dtd"
   xmlns:inkscape="http://www.inkscape.org/namespaces/inkscape"
   sodipodi:docname="E38P02.svg"
   height="3503"
   width="2481"
   inkscape:version="1.0 (4035a4fb49, 2020-05-01)"
   version="1.1"
   id="svg2">
  <metadata
     id="metadata8">
    <rdf:RDF>
      <cc:Work
         rdf:about="">
        <dc:format>image/svg+xml</dc:format>
        <dc:type
           rdf:resource="http://purl.org/dc/dcmitype/StillImage" />
        <dc:title />
      </cc:Work>
    </rdf:RDF>
  </metadata>
  <defs
     id="defs6">
    <filter
       height="1.2192212"
       width="1.0739263"
       y="-0.085412804"
       x="-0.043542961"
       inkscape:label="Drop Shadow"
       id="filter4375-4-1-1-1-9-5-8-8-3-3"
       style="color-interpolation-filters:sRGB">
      <feFlood
         radius="5.0999999999999996"
         result="flood"
         flood-color="rgb(87,166,204)"
         flood-opacity="1"
         id="feFlood4377-7-9-0-8-1-7-3-1-6-61" />
      <feComposite
         baseFrequency="0.053999999999999999 0.053999999999999999"
         result="composite1"
         operator="in"
         in="flood"
         in2="SourceGraphic"
         id="feComposite4379-3-8-8-2-77-4-1-0-7-2" />
      <feMorphology
         result="result3"
         radius="5.1272503082614058"
         operator="dilate"
         id="feMorphology4393-1-0-49-8-9-3-0-1-5-9" />
      <feComposite
         numOctaves="4"
         result="fbSourceGraphic"
         operator="over"
         in="SourceGraphic"
         in2="result3"
         id="feComposite4385-9-5-7-0-8-8-7-5-3-3" />
      <feColorMatrix
         id="feColorMatrix4544-9-5-1"
         values="0 0 0 -1 0 0 0 0 -1 0 0 0 0 -1 0 0 0 0 1 0"
         in="fbSourceGraphic"
         result="fbSourceGraphicAlpha" />
      <feTurbulence
         result="turbulence"
         baseFrequency="0.062 0.054054054054054057"
         seed="172"
         numOctaves="4.4123222748815163"
         type="fractalNoise"
         id="feTurbulence4546-3-6-9" />
      <feDisplacementMap
         result="fbSourceGraphic"
         xChannelSelector="R"
         yChannelSelector="G"
         scale="10.781991"
         in="fbSourceGraphic"
         in2="turbulence"
         id="feDisplacementMap4548-8-2-4" />
      <feColorMatrix
         scale="10.800000000000001"
         id="feColorMatrix4670-7-9-7"
         values="0 0 0 -1 0 0 0 0 -1 0 0 0 0 -1 0 0 0 0 1 0"
         in="fbSourceGraphic"
         result="fbSourceGraphicAlpha" />
      <feFlood
         dx="-2.3999999999999999"
         in="fbSourceGraphic"
         result="flood"
         flood-color="rgb(45,8,0)"
         flood-opacity="0"
         id="feFlood4672-4-1-8" />
      <feComposite
         result="composite1"
         operator="in"
         in="flood"
         in2="fbSourceGraphic"
         id="feComposite4674-8-2-4" />
      <feGaussianBlur
         result="blur"
         stdDeviation="0"
         in="composite1"
         id="feGaussianBlur4676-3-7-50" />
      <feOffset
         result="offset"
         dy="3.1000000000000001"
         dx="-2.3696682464454994"
         id="feOffset4678-6-0-3" />
      <feComposite
         result="composite2"
         operator="over"
         in="fbSourceGraphic"
         in2="offset"
         id="feComposite4680-4-9-6" />
    </filter>
  </defs>
  <sodipodi:namedview
     inkscape:document-rotation="0"
     inkscape:deskcolor="#d1d1d1"
     inkscape:pagecheckerboard="0"
     inkscape:showpageshadow="0"
     inkscape:current-layer="layer1"
     inkscape:window-maximized="1"
     inkscape:window-y="-9"
     inkscape:window-x="-9"
     inkscape:cy="2591.1835"
     inkscape:cx="1184.059"
     inkscape:zoom="0.45"
     showgrid="false"
     id="namedview4"
     inkscape:window-height="701"
     inkscape:window-width="1366"
     inkscape:pageshadow="2"
     inkscape:pageopacity="0"
     guidetolerance="10"
     gridtolerance="10"
     objecttolerance="10"
     borderopacity="1"
     bordercolor="#666666"
     pagecolor="#ffffff" />
  <g
     sodipodi:insensitive="true"
     inkscape:label="artwork"
     id="layer2"
     inkscape:groupmode="layer">
    <image
       sodipodi:absref="C:\Users\ZR\Desktop\new-ep38_WIP\lang\gfx_Pepper-and-Carrot_by-David-Revoy_E38P02.png"
       xlink:href="../gfx_Pepper-and-Carrot_by-David-Revoy_E38P02.png"
       y="0"
       x="0"
       id="image10"
       height="3503"
       width="2481" />
  </g>
  <g
     inkscape:label="speechbubbles"
     id="layer3"
     inkscape:groupmode="layer">
    <path
       sodipodi:nodetypes="ccccccccccccccccccccccccc"
       inkscape:connector-curvature="0"
       id="path4289-9-3-6"
       d="m 2326.8897,2490.7032 c -35.3083,15.233 -13.8654,38.4243 19.2597,45.0289 -34.5264,6.3232 -26.912,31.5282 -3.4722,41.2418 -48.8749,3.2242 -72.5308,43.1968 -51.6907,66.062 -40.4921,-13.3148 -69.877,-15.8556 -59.2296,14.81 -15.9719,-31.0061 -23.9015,-34.6285 -18.2558,-5.0289 -11.6708,-12.503 -28.5117,-39.4051 -33.1377,-5.374 -9.6828,-26.5366 -24.8333,-16.2953 -41.0979,-5.1249 1.3379,-15.9852 -39.8893,-7.0495 -49.6821,8.8033 -6.9669,19.3062 -11.999,14.1235 -5.9801,-6.155 9.149,-13.6124 -42.4768,-3.694 -48.8877,6.7775 3.0985,-15.2585 -12.4495,-13.6568 -29.4489,0.9691 -2.6863,-24.1052 -11.9662,-18.1485 -43.3352,-5.347 11.5532,-12.8457 17.826,-31.258 -33.6941,-27.1225 20.2769,-5.8266 34.7418,-34.4726 -15.7196,-28.8785 30.6532,-10.6624 13.1226,-34.9965 -1.5933,-51.8425 49.407,-9.3544 31.8177,-36.8508 16.7139,-60.9349 33.4475,13.1207 59.9817,24.6616 68.9877,-9.769 36.8271,33.4005 44.296,5.0014 40.2994,-8.2823 29.7277,34.7497 30.1325,5.9076 39.2692,-3.9977 85.5028,45.9753 85.5352,4.604 105.5632,-16.3333 3.6269,47.6424 23.6879,30.7245 43.817,13.5399 -3.7705,39.8122 3.4983,26.1598 15.3549,16.4017 0.091,17.2937 15.5986,25.8953 40.3337,16.1193 -18.1221,12.9242 -7.788,16.0772 45.6262,4.437 z"
       style="display:inline;fill:#ffffff;fill-rule:evenodd;stroke:none;stroke-width:0.873424px;stroke-linecap:butt;stroke-linejoin:miter;stroke-opacity:1" />
    <path
       sodipodi:nodetypes="ccccccccccccccccccccccccc"
       inkscape:connector-curvature="0"
       id="path4289-9-3-6-7"
       d="m 1866.3152,2732.3845 c 38.6969,-13.5102 17.0531,-37.706 -18.0548,-45.8999 37.3492,-4.6496 30.6348,-30.1895 6.0803,-41.0212 52.543,-0.8625 80.1731,-39.6426 59.1565,-63.4836 42.616,15.2508 73.9499,19.2058 64.2988,-11.9339 15.3356,31.7365 23.623,35.7368 19.2692,5.903 11.787,13.0498 28.2884,40.7296 35.192,6.9655 8.854,26.9694 25.6705,17.4721 43.7338,7.1006 -2.3484,15.9001 42.3289,8.9645 53.7271,-6.3955 8.5687,-18.9453 13.6627,-13.5265 6.0541,6.4356 -10.5803,13.1535 45.2928,5.7381 52.76,-4.4107 -4.1928,15.0894 12.5552,14.2397 31.6034,0.4526 1.4979,24.2038 11.7804,18.7024 46.1179,7.4305 -13.1119,12.2718 -20.8859,30.3579 34.543,28.7128 -22.0556,4.841 -39.1912,32.7524 15.187,29.5995 -33.4482,9.1701 -16.061,34.3185 -1.2606,51.8526 -53.4639,6.9592 -36.1949,35.2686 -21.3932,60.0502 -35.0804,-14.7171 -62.8453,-27.5231 -74.464,6.4288 -37.5401,-35.1339 -47.1669,-7.1316 -43.6458,6.3278 -29.8574,-36.1389 -48.54,-14.3392 -42.297,2.0983 -32.876,-50.5777 -93.6389,-32.1755 -129.9175,4.1138 27.6048,-48.4666 -16.7315,-32.2396 -39.2789,-16.0481 21.3336,-28.301 -5.2533,-17.8363 -18.5135,-8.6627 12.9042,-21.9751 -34.2476,6.2801 -61.3052,14.8504 20.1535,-12.0334 40.295,-49.5151 -17.5926,-40.4664 z"
       style="display:inline;fill:#ffffff;fill-rule:evenodd;stroke:none;stroke-width:0.873424px;stroke-linecap:butt;stroke-linejoin:miter;stroke-opacity:1" />
    <path
       sodipodi:nodetypes="cssssc"
       inkscape:connector-curvature="0"
       id="path4546-6-5"
       d="m 1773.3575,2275.2592 c -56.7224,0.6469 -114.2747,7.8859 -163.0479,24.7464 -49.2294,17.2831 -75.7683,53.3444 -60.7577,85.1684 7.5564,17.0195 28.6966,32.6716 58.3021,38.8782 32.6119,7.4188 67.8094,9.6594 101.9878,13.6821 61.896,5.497 124.9737,3.4687 186.9539,-0.4868 43.3251,-2.9144 87.0021,-9.5786 123.2628,-23.7562 24.0368,-9.7123 39.363,-26.329 37.7384,-43.1404 -0.5402,-23.9044 -23.4215,-46.347 -55.4765,-61.3806 -30.0646,-14.3059 -67.8445,-22.2089 -105.8287,-26.871 -40.3244,-5.2268 -81.831,-7.0525 -123.1342,-6.8401 z"
       style="color:#000000;display:inline;overflow:visible;visibility:visible;fill:#ffffff;fill-opacity:1;fill-rule:nonzero;stroke:none;stroke-width:1.58218px;marker:none;enable-background:accumulate" />
    <path
       sodipodi:nodetypes="cccccccc"
       inkscape:connector-curvature="0"
       id="path5066-8"
       d="m 1730.8262,2420.5301 c 6.9926,29.8076 18.6468,64.1129 22.1431,71.987 6.9925,-7.8741 25.192,-15.9494 31.0192,-20.4483 5.2444,15.1842 10.3157,90.3585 -41.7451,151.3743 75.7752,-73.0554 60.9745,-148.5099 50.4857,-172.6929 -8.7406,4.4989 -24.0266,12.5222 -28.6883,14.7716 -5.8271,-11.81 -16.316,-53.9894 -16.316,-53.9894 z"
       style="color:#000000;display:inline;overflow:visible;visibility:visible;fill:#ffffff;fill-opacity:1;fill-rule:nonzero;stroke:none;stroke-width:1px;marker:none;enable-background:accumulate" />
    <path
       sodipodi:nodetypes="ccsccscsc"
       inkscape:connector-curvature="0"
       id="path891"
       d="m 1964.0773,2883.7318 c 45.1876,-35.5067 85.571,-88.3706 91.9435,-99.1494 -29.2434,6.0571 -35.5635,6.8258 -37.506,0.8095 -1.9423,-6.0163 77.997,-127.2212 77.997,-127.2212 l 34.1125,6.4808 c 0,0 -45.8842,48.0721 -65.8722,73.2263 -12.2121,15.3687 -24.0776,37.3165 -24.0776,37.3165 0,0 23.3653,-5.1149 27.6634,-5.865 20.6338,-3.6012 -2.4761,50.755 -104.2606,114.4025 z"
       style="fill:#ffffff;fill-rule:evenodd;stroke:none;stroke-width:1px;stroke-linecap:butt;stroke-linejoin:miter;stroke-opacity:1" />
    <path
       d="m 95.707033,2263.3965 v 118.5643 c 31.116927,27.6248 91.011297,43.0991 153.869637,41.0153 86.5472,-2.8693 161.40626,-5.7821 163.27041,-79.6078 0.99233,-39.3007 -13.23965,-64.4532 -42.22951,-79.9718 z"
       style="fill:#ffffff;stroke:none;stroke-width:0.928018"
       id="path3280-81" />
    <path
       sodipodi:nodetypes="csssc"
       inkscape:connector-curvature="0"
       id="path3280-81-3"
       d="m 314.52334,2468.4433 c 0.79694,-75.4301 -5.34133,-88.4399 202.55052,-86.206 137.86307,1.4814 207.6564,20.705 205.28625,88.0788 -2.24129,63.7066 -92.24468,66.2207 -196.30034,68.6967 -107.27008,2.5523 -207.46075,-25.3897 -211.53643,-70.5695 z"
       style="fill:#ffffff;stroke:none;stroke-width:0.929281" />
    <path
       sodipodi:nodetypes="cccc"
       inkscape:connector-curvature="0"
       id="path4035-4"
       d="m 494.17744,2446.3438 c 51.55764,73.5011 80.22705,174.4048 2.98718,203.1998 87.30859,-21.8078 96.44645,-110.3127 41.91237,-227.0906 -12.14937,-42.2577 -24.66054,10.9291 -44.89955,23.8908 z"
       style="color:#000000;display:inline;overflow:visible;visibility:visible;fill:#ffffff;fill-opacity:1;fill-rule:nonzero;stroke:none;stroke-width:1px;marker:none;enable-background:accumulate" />
    <path
       sodipodi:nodetypes="ccccssscssc"
       inkscape:connector-curvature="0"
       id="path4291"
       d="m 705.84822,3175.9942 c -32.94863,0.827 -66.1865,2.0016 -98.43054,10.4221 -25.4797,7.556 -48.57195,26.4139 -61.57387,52.518 -6.08243,14.6042 -4.25038,32.3976 3.09418,45.9806 10.25129,19.7561 29.03162,32.9775 48.92237,36.2993 34.69215,7.0969 70.06567,7.129 105.19245,8.1082 23.04525,0.2706 46.08525,0.9551 69.12547,1.4942 22.25254,-0.1336 44.60266,-0.892 66.59431,-5.0372 12.20984,-2.2832 24.32446,-5.4183 36.06958,-9.8483 7.72915,-3.2564 14.72504,-8.8607 19.63814,-16.399 11.98492,-17.4746 15.08324,-42.7096 6.43586,-62.7709 -3.38859,-8.2618 -8.78792,-15.1628 -14.39953,-21.58 -13.02318,-14.5343 -29.9829,-24.3372 -47.92739,-28.2217 -12.72301,-3.0364 -25.62523,-5.0022 -38.52685,-6.7682 -31.27201,-3.9152 -62.7861,-4.2571 -94.21418,-4.1971 z"
       style="display:inline;fill:#ffffff;fill-rule:evenodd;stroke:none;stroke-width:0.867519px;stroke-linecap:butt;stroke-linejoin:miter;stroke-opacity:1" />
    <path
       sodipodi:nodetypes="ccccccccccccccccccc"
       inkscape:connector-curvature="0"
       id="path3549-3-7-8"
       d="m 2014.7779,2375.0601 c -5.3846,15.034 -35.7537,16.2951 -46.9335,13.2392 22.5358,16.8183 21.7501,27.268 -8.847,28.8898 51.312,30.3117 9.3805,25.7248 1.1099,33.4104 40.2893,10.4462 26.9353,26.2784 1.0747,33.5561 46.3087,0.4446 -1.3465,24.616 -18.8789,39.9688 20.5036,-10.0515 88.577,-30.7819 89.6993,-4.5017 29.708,-22.9579 45.0359,-22.5108 55.779,3.4498 8.9737,-22.3859 39.5298,-26.6942 51.2138,-2.5519 10.0651,-32.6733 45.9782,-28.0733 67.356,-12.2384 -12.0006,-11.1755 -3.8173,-29.5772 37.0967,-25.8558 -3.2932,-10.2445 1.8857,-23.1746 22.5468,-21.4672 -23.7991,-6.1877 -28.185,-12.5711 16.0043,-19.44 -33.6255,-0.6638 -64.9817,-2.0254 -25.5315,-25.4506 -12.3766,-0.5668 -41.7414,18.9798 -28.0504,-38.2225 -36.2483,16.8671 -74.3382,25.4898 -72.4642,-9.9406 -13.4761,19.1641 -36.8502,28.647 -47.0191,4.71 -8.3944,22.3606 -33.8916,12.9974 -47.1369,-2.2646 -8.7518,15.1458 -21.8437,25.3754 -47.019,4.7092 z"
       style="color:#000000;display:inline;overflow:visible;visibility:visible;fill:#ffffff;fill-opacity:1;fill-rule:nonzero;stroke:none;stroke-width:0.999998px;marker:none;enable-background:accumulate" />
    <path
       inkscape:transform-center-y="-9.1957583"
       inkscape:transform-center-x="-10.62037"
       sodipodi:nodetypes="ccscc"
       inkscape:connector-curvature="0"
       id="path4064-6"
       d="m 613.6967,3242.1546 c -45.84039,33.0435 -96.09041,45.4564 -121.01898,-53.4867 -9.12126,82.2936 58.68778,158.1279 153.07948,78.9046 48.17517,-40.4335 47.74258,-58.4665 47.74258,-58.4665 z"
       style="color:#000000;display:inline;overflow:visible;visibility:visible;fill:#ffffff;fill-opacity:1;fill-rule:nonzero;stroke:none;stroke-width:1.09098px;marker:none;enable-background:accumulate" />
    <path
       sodipodi:nodetypes="csssc"
       inkscape:connector-curvature="0"
       id="path3280-81-3-1"
       d="m 869.69794,622.75275 c -31.28003,0.80503 -63.16403,5.25019 -91.28605,18.09663 -14.09322,7.61167 -21.80382,22.19268 -23.16444,36.50571 -1.69604,13.28003 4.82575,27.35879 17.27671,34.98064 15.20936,10.8087 33.92008,16.57517 52.38298,21.26639 29.48883,6.45955 60.06768,4.74642 90.1471,5.43186 40.76562,0.4897 81.65567,0.43847 122.24006,-3.42421 18.5736,-2.1541 37.5368,-7.52962 51.4447,-19.19973 10.6018,-9.54102 13.6319,-24.07194 11.2335,-36.9903 -2.7155,-15.04295 -13.3806,-28.63798 -28.1333,-36.23148 -7.6323,-4.19016 -16.3313,-6.3321 -24.9582,-8.19578 -50.48681,-12.14398 -103.20085,-11.42364 -155.04944,-12.16575 -7.37753,-0.077 -14.75565,-0.0977 -22.13362,-0.074 z"
       style="fill:#ffffff;stroke:none;stroke-width:0.999999" />
    <path
       sodipodi:nodetypes="cccc"
       inkscape:connector-curvature="0"
       id="path4035-4-9"
       d="m 900.02327,671.19991 c 91.6633,40.10272 117.58643,129.77771 79.9982,191.17722 56.92493,-63.39039 51.42053,-142.19167 -64.39752,-216.52752 -33.65115,-29.84166 0.1749,6.90048 -15.60068,25.3503 z"
       style="color:#000000;display:inline;overflow:visible;visibility:visible;fill:#ffffff;fill-opacity:1;fill-rule:nonzero;stroke:none;stroke-width:0.999996px;marker:none;enable-background:accumulate" />
  </g>
  <g
     inkscape:label="txt"
     id="layer1"
     inkscape:groupmode="layer">
    <text
       xml:space="preserve"
       style="font-style:normal;font-variant:normal;font-weight:normal;font-stretch:normal;line-height:0%;font-family:'Xiaolai SC';-inkscape-font-specification:'Xiaolai SC';text-align:center;letter-spacing:0px;word-spacing:0px;text-anchor:middle;fill:#000000;fill-opacity:1;stroke:none"
       x="933.53021"
       y="693.27759"
       id="text4178-36-4"><tspan
         id="tspan4307-5-7"
         sodipodi:role="line"
         style="font-style:normal;font-variant:normal;font-weight:normal;font-stretch:normal;font-size:40.6767px;line-height:1.25;font-family:'Xiaolai SC';-inkscape-font-specification:'Xiaolai SC'"
         x="933.53021"
         y="693.27759">你们让开……</tspan></text>
    <text
       transform="matrix(0.74083092,-0.35642121,0.14558873,1.2591067,40.891484,217.84741)"
       id="text4580-6-0-0-3"
       y="1584.5073"
       x="787.65729"
       style="font-style:normal;font-variant:normal;font-weight:normal;font-stretch:normal;line-height:0%;font-family:'Xiaolai SC';-inkscape-font-specification:'Xiaolai SC';letter-spacing:3.02325px;word-spacing:0px;fill:#daf9ff;fill-opacity:1;stroke:#00bfff;stroke-width:0.687796;stroke-miterlimit:4;stroke-dasharray:none;stroke-opacity:1;filter:url(#filter4375-4-1-1-1-9-5-8-8-3-3)"
       xml:space="preserve"><tspan
         style="font-style:normal;font-variant:normal;font-weight:normal;font-stretch:normal;font-size:70px;line-height:1.25;font-family:'Xiaolai SC';-inkscape-font-specification:'Xiaolai SC';fill:#daf9ff;fill-opacity:1;stroke:#00bfff;stroke-width:0.687796;stroke-opacity:1"
         y="1584.5073"
         x="787.65729"
         id="tspan4582-1-1-0-6"
         sodipodi:role="line"><tspan
           id="tspan853-6"
           style="font-style:normal;font-variant:normal;font-weight:normal;font-stretch:normal;font-size:68.6116px;font-family:'Xiaolai SC';-inkscape-font-specification:'Xiaolai SC';fill:#daf9ff;fill-opacity:1;stroke:#00bfff;stroke-width:0.687796;stroke-opacity:1">呼~~~~</tspan></tspan></text>
    <text
       xml:space="preserve"
       style="font-style:normal;font-variant:normal;font-weight:normal;font-stretch:normal;line-height:0%;font-family:'Xiaolai SC';-inkscape-font-specification:'Xiaolai SC';text-align:center;letter-spacing:0px;word-spacing:0px;text-anchor:middle;fill:#000000;fill-opacity:1;stroke:none"
       x="240.00258"
       y="2323.7849"
       id="text4178"><tspan
         id="tspan449"
         sodipodi:role="line"
         style="font-style:normal;font-variant:normal;font-weight:normal;font-stretch:normal;font-size:40.6767px;line-height:1.25;font-family:'Xiaolai SC';-inkscape-font-specification:'Xiaolai SC'"
         x="240.00258"
         y="2323.7849">我的伤口竟然</tspan><tspan
         id="tspan298"
         sodipodi:role="line"
         style="font-style:normal;font-variant:normal;font-weight:normal;font-stretch:normal;font-size:40.6767px;line-height:1.25;font-family:'Xiaolai SC';-inkscape-font-specification:'Xiaolai SC'"
         x="240.00258"
         y="2374.6309">愈合了…</tspan></text>
    <text
       xml:space="preserve"
       style="font-style:normal;font-variant:normal;font-weight:normal;font-stretch:normal;line-height:0%;font-family:'Xiaolai SC';-inkscape-font-specification:'Xiaolai SC';text-align:center;letter-spacing:0px;word-spacing:0px;text-anchor:middle;fill:#000000;fill-opacity:1;stroke:none"
       x="509.46494"
       y="2440.6235"
       id="text4178-36"><tspan
         id="tspan450"
         sodipodi:role="line"
         style="font-style:normal;font-variant:normal;font-weight:normal;font-stretch:normal;font-size:40.6767px;line-height:1.25;font-family:'Xiaolai SC';-inkscape-font-specification:'Xiaolai SC'"
         x="509.46494"
         y="2440.6235">…真是奇迹啊！</tspan><tspan
         id="tspan302"
         sodipodi:role="line"
         style="font-style:normal;font-variant:normal;font-weight:normal;font-stretch:normal;font-size:40.6767px;line-height:1.25;font-family:'Xiaolai SC';-inkscape-font-specification:'Xiaolai SC'"
         x="509.46494"
         y="2491.4695">每次都是这样。</tspan></text>
    <text
       xml:space="preserve"
       style="font-style:normal;font-variant:normal;font-weight:normal;font-stretch:normal;line-height:0%;font-family:'Xiaolai SC';-inkscape-font-specification:'Xiaolai SC';text-align:center;letter-spacing:0px;word-spacing:0px;text-anchor:middle;fill:#000000;fill-opacity:1;stroke:none"
       x="724.08319"
       y="3251.0986"
       id="text4178-3"><tspan
         id="tspan568"
         sodipodi:role="line"
         style="font-style:normal;font-variant:normal;font-weight:normal;font-stretch:normal;font-size:40.6767px;line-height:1.25;font-family:'Xiaolai SC';-inkscape-font-specification:'Xiaolai SC'"
         x="724.08319"
         y="3251.0986">愈疗师，你的能力</tspan><tspan
         id="tspan308"
         sodipodi:role="line"
         style="font-style:normal;font-variant:normal;font-weight:normal;font-stretch:normal;font-size:40.6767px;line-height:1.25;font-family:'Xiaolai SC';-inkscape-font-specification:'Xiaolai SC'"
         x="724.08319"
         y="3301.9446">太不可思议了！</tspan></text>
    <text
       xml:space="preserve"
       style="font-style:normal;font-variant:normal;font-weight:normal;font-stretch:normal;line-height:0%;font-family:'Xiaolai SC';-inkscape-font-specification:'Xiaolai SC';text-align:center;letter-spacing:0px;word-spacing:0px;text-anchor:middle;fill:#000000;fill-opacity:1;stroke:none"
       x="1812.0963"
       y="2350.165"
       id="text4178-3-5-1-7"><tspan
         id="tspan647"
         sodipodi:role="line"
         style="font-style:normal;font-variant:normal;font-weight:normal;font-stretch:normal;font-size:40.6767px;line-height:1.25;font-family:'Xiaolai SC';-inkscape-font-specification:'Xiaolai SC'"
         x="1812.0963"
         y="2350.165">那就别再拖拖拉拉的了，</tspan><tspan
         id="tspan314"
         sodipodi:role="line"
         style="font-style:normal;font-variant:normal;font-weight:normal;font-stretch:normal;font-size:40.6767px;line-height:1.25;font-family:'Xiaolai SC';-inkscape-font-specification:'Xiaolai SC'"
         x="1812.0963"
         y="2401.011">还有报酬等着咱们呢！</tspan></text>
    <text
       xml:space="preserve"
       style="font-style:normal;font-variant:normal;font-weight:normal;font-stretch:normal;font-size:14.5904px;line-height:0%;font-family:'Xiaolai SC';-inkscape-font-specification:'Xiaolai SC';text-align:center;letter-spacing:0px;word-spacing:0px;text-anchor:middle;fill:#000000;fill-opacity:1;stroke:none;stroke-width:1"
       x="2135.1731"
       y="2454.324"
       id="text4178-3-5"><tspan
         id="tspan4378-9"
         sodipodi:role="line"
         style="font-style:normal;font-variant:normal;font-weight:normal;font-stretch:normal;font-size:49.4575px;line-height:1.25;font-family:'Xiaolai SC';-inkscape-font-specification:'Xiaolai SC';stroke-width:1"
         x="2135.1731"
         y="2454.324">说的对！</tspan></text>
    <text
       xml:space="preserve"
       style="font-style:normal;font-variant:normal;font-weight:normal;font-stretch:normal;line-height:0%;font-family:'Xiaolai SC';-inkscape-font-specification:'Xiaolai SC';text-align:center;letter-spacing:0px;word-spacing:0px;text-anchor:middle;fill:#000000;fill-opacity:1;stroke:none"
       x="2138.4785"
       y="2531.4917"
       id="text4178-3-5-1"><tspan
         id="tspan613"
         sodipodi:role="line"
         style="font-style:normal;font-variant:normal;font-weight:normal;font-stretch:normal;font-size:40.6767px;line-height:1.25;font-family:'Xiaolai SC';-inkscape-font-specification:'Xiaolai SC'"
         x="2138.4785"
         y="2531.4917">有她在，</tspan><tspan
         id="tspan318"
         sodipodi:role="line"
         style="font-style:normal;font-variant:normal;font-weight:normal;font-stretch:normal;font-size:40.6767px;line-height:1.25;font-family:'Xiaolai SC';-inkscape-font-specification:'Xiaolai SC'"
         x="2138.4785"
         y="2582.3376">咱们就是天下无敌！</tspan></text>
    <text
       xml:space="preserve"
       style="font-style:normal;font-variant:normal;font-weight:normal;font-stretch:normal;line-height:0%;font-family:'Xiaolai SC';-inkscape-font-specification:'Xiaolai SC';text-align:center;letter-spacing:0px;word-spacing:0px;text-anchor:middle;fill:#000000;fill-opacity:1;stroke:none"
       x="2094.5093"
       y="2658.6558"
       id="text4178-3-5-1-3"><tspan
         id="tspan611"
         sodipodi:role="line"
         style="font-style:normal;font-variant:normal;font-weight:normal;font-stretch:normal;font-size:40.6767px;line-height:1.25;font-family:'Xiaolai SC';-inkscape-font-specification:'Xiaolai SC'"
         x="2094.5093"
         y="2658.6558">上路！</tspan><tspan
         id="tspan322"
         sodipodi:role="line"
         style="font-style:normal;font-variant:normal;font-weight:normal;font-stretch:normal;font-size:40.6767px;line-height:1.25;font-family:'Xiaolai SC';-inkscape-font-specification:'Xiaolai SC'"
         x="2094.5093"
         y="2709.5017">去打下一个怪兽！</tspan></text>
  </g>
</svg>
