<?xml version="1.0" encoding="UTF-8" standalone="no"?>
<svg
   xmlns:dc="http://purl.org/dc/elements/1.1/"
   xmlns:cc="http://creativecommons.org/ns#"
   xmlns:rdf="http://www.w3.org/1999/02/22-rdf-syntax-ns#"
   xmlns:svg="http://www.w3.org/2000/svg"
   xmlns="http://www.w3.org/2000/svg"
   xmlns:xlink="http://www.w3.org/1999/xlink"
   xmlns:sodipodi="http://sodipodi.sourceforge.net/DTD/sodipodi-0.dtd"
   xmlns:inkscape="http://www.inkscape.org/namespaces/inkscape"
   sodipodi:docname="E38P04.svg"
   height="3503"
   width="2481"
   inkscape:version="1.0 (4035a4fb49, 2020-05-01)"
   version="1.1"
   id="svg2">
  <metadata
     id="metadata8">
    <rdf:RDF>
      <cc:Work
         rdf:about="">
        <dc:format>image/svg+xml</dc:format>
        <dc:type
           rdf:resource="http://purl.org/dc/dcmitype/StillImage" />
        <dc:title />
      </cc:Work>
    </rdf:RDF>
  </metadata>
  <defs
     id="defs6">
    <filter
       height="1.2211023"
       width="1.0745954"
       y="-0.086353334"
       x="-0.043877529"
       inkscape:label="Drop Shadow"
       id="filter4375-4-1-1-1-9-5-8-8-3-3"
       style="color-interpolation-filters:sRGB">
      <feFlood
         radius="5.0999999999999996"
         result="flood"
         flood-color="rgb(87,166,204)"
         flood-opacity="1"
         id="feFlood4377-7-9-0-8-1-7-3-1-6-61" />
      <feComposite
         baseFrequency="0.053999999999999999 0.053999999999999999"
         result="composite1"
         operator="in"
         in="flood"
         in2="SourceGraphic"
         id="feComposite4379-3-8-8-2-77-4-1-0-7-2" />
      <feMorphology
         result="result3"
         radius="5.1272503082614058"
         operator="dilate"
         id="feMorphology4393-1-0-49-8-9-3-0-1-5-9" />
      <feComposite
         numOctaves="4"
         result="fbSourceGraphic"
         operator="over"
         in="SourceGraphic"
         in2="result3"
         id="feComposite4385-9-5-7-0-8-8-7-5-3-3" />
      <feColorMatrix
         id="feColorMatrix4544-9-5-1"
         values="0 0 0 -1 0 0 0 0 -1 0 0 0 0 -1 0 0 0 0 1 0"
         in="fbSourceGraphic"
         result="fbSourceGraphicAlpha" />
      <feTurbulence
         result="turbulence"
         baseFrequency="0.062 0.054054054054054057"
         seed="172"
         numOctaves="4.4123222748815163"
         type="fractalNoise"
         id="feTurbulence4546-3-6-9" />
      <feDisplacementMap
         result="fbSourceGraphic"
         xChannelSelector="R"
         yChannelSelector="G"
         scale="10.781991"
         in="fbSourceGraphic"
         in2="turbulence"
         id="feDisplacementMap4548-8-2-4" />
      <feColorMatrix
         scale="10.800000000000001"
         id="feColorMatrix4670-7-9-7"
         values="0 0 0 -1 0 0 0 0 -1 0 0 0 0 -1 0 0 0 0 1 0"
         in="fbSourceGraphic"
         result="fbSourceGraphicAlpha" />
      <feFlood
         dx="-2.3999999999999999"
         in="fbSourceGraphic"
         result="flood"
         flood-color="rgb(45,8,0)"
         flood-opacity="0"
         id="feFlood4672-4-1-8" />
      <feComposite
         result="composite1"
         operator="in"
         in="flood"
         in2="fbSourceGraphic"
         id="feComposite4674-8-2-4" />
      <feGaussianBlur
         result="blur"
         stdDeviation="0"
         in="composite1"
         id="feGaussianBlur4676-3-7-50" />
      <feOffset
         result="offset"
         dy="3.1000000000000001"
         dx="-2.3696682464454994"
         id="feOffset4678-6-0-3" />
      <feComposite
         result="composite2"
         operator="over"
         in="fbSourceGraphic"
         in2="offset"
         id="feComposite4680-4-9-6" />
    </filter>
  </defs>
  <sodipodi:namedview
     inkscape:document-rotation="0"
     inkscape:deskcolor="#d1d1d1"
     inkscape:pagecheckerboard="0"
     inkscape:showpageshadow="0"
     inkscape:current-layer="layer1"
     inkscape:window-maximized="1"
     inkscape:window-y="-9"
     inkscape:window-x="-9"
     inkscape:cy="2077.1739"
     inkscape:cx="1209.1439"
     inkscape:zoom="0.45"
     showgrid="false"
     id="namedview4"
     inkscape:window-height="701"
     inkscape:window-width="1366"
     inkscape:pageshadow="2"
     inkscape:pageopacity="0"
     guidetolerance="10"
     gridtolerance="10"
     objecttolerance="10"
     borderopacity="1"
     bordercolor="#666666"
     pagecolor="#ffffff" />
  <g
     sodipodi:insensitive="true"
     inkscape:label="artwork"
     id="layer2"
     inkscape:groupmode="layer">
    <image
       sodipodi:absref="C:\Users\ZR\Desktop\new-ep38_WIP\lang\gfx_Pepper-and-Carrot_by-David-Revoy_E38P04.png"
       xlink:href="../gfx_Pepper-and-Carrot_by-David-Revoy_E38P04.png"
       y="0"
       x="0"
       id="image10"
       height="3503"
       width="2481" />
  </g>
  <path
     sodipodi:nodetypes="cccccsscc"
     inkscape:connector-curvature="0"
     id="path4538-7"
     d="m 1707.5542,2031.0517 c -33.7241,86.288 24.3827,161.6365 22.7214,224.0306 -1.747,56.5345 3.233,81.3805 -4.3176,97.0072 17.6416,12.3945 24.5002,64.0279 36.8009,50.5952 12.3008,-13.4333 -14.2555,45.5813 -14.2555,45.5813 0,0 -48.406,-3.2408 -62.0153,-45.6293 -13.6092,-42.3886 16.053,-109.3925 19.9573,-147.9407 3.9042,-38.5479 -18.8728,-78.7992 -18.6406,-110.548 0.2313,-31.7496 -0.8231,-80.519 19.7494,-113.0963 z"
     style="color:#000000;display:inline;overflow:visible;visibility:visible;fill:#ffffff;fill-opacity:1;fill-rule:nonzero;stroke:none;stroke-width:0.999999px;marker:none;enable-background:accumulate" />
  <path
     sodipodi:nodetypes="ccscccsscc"
     inkscape:connector-curvature="0"
     id="path4538-7-3"
     d="m 406.82848,1748.757 c -26.98194,-16.9102 -52.89928,-28.2216 -53.40136,-50.8671 -2.29747,-17.9336 26.57239,-40.7034 24.36276,-64.3894 -2.20836,-23.6863 -27.4773,-40.3025 -37.02194,-46.8495 22.30057,-5.193 52.6529,-19.2733 68.20209,-13.6453 15.54933,5.6281 -18.02024,-19.0973 -18.02024,-19.0973 0,0 -61.18955,1.3579 -78.39293,19.1173 -17.20326,17.7596 33.76744,45.8323 38.70283,61.9829 4.93526,16.1504 -22.06026,39.7456 -21.76674,53.0474 0.29238,38.4776 64.6098,53.8459 77.33553,60.701 z"
     style="color:#000000;display:inline;overflow:visible;visibility:visible;fill:#ffffff;fill-opacity:1;fill-rule:nonzero;stroke:none;stroke-width:1px;marker:none;enable-background:accumulate" />
  <g
     inkscape:label="speechbubbles"
     id="layer3"
     inkscape:groupmode="layer">
    <path
       sodipodi:nodetypes="csssc"
       inkscape:connector-curvature="0"
       id="path3280-5"
       d="m 1155.4607,2105.346 c -114.8669,-2.8122 -229.57543,33.5668 -243.15893,83.1681 -15.67339,40.3879 5.04941,81.4446 -6.65433,121.9424 4.47265,37.292 21.7402,83.5096 110.72326,101.1536 82.0633,16.5057 178.2784,16.1124 265.977,9.5741 81.5551,-6.3483 153.7438,-32.728 167.9014,-68.305 26.6562,-52.3945 -2.2216,-105.9265 -9.8979,-158.5748 -4.57,-31.6748 -40.3318,-64.6337 -114.4368,-76.5442 -53.0823,-10.4026 -112.6778,-12.7143 -170.4537,-12.4142 z"
       style="display:inline;fill:#ffffff;stroke:none;stroke-width:0.864501" />
    <path
       sodipodi:nodetypes="ccscc"
       inkscape:connector-curvature="0"
       id="path4035-4"
       d="m 1188.7086,2160.5818 c 45.8361,-19.5196 82.587,-105.5394 -49.1007,-120.7493 127.103,-6.1934 159.2541,38.4346 96.4979,159.5477 -28.3877,54.7848 -31.2357,-25.6942 -31.2357,-25.6942 z"
       style="color:#000000;display:inline;overflow:visible;visibility:visible;fill:#ffffff;fill-opacity:1;fill-rule:nonzero;stroke:none;stroke-width:0.999999px;marker:none;enable-background:accumulate" />
    <path
       sodipodi:nodetypes="csssc"
       inkscape:connector-curvature="0"
       id="path3280-10"
       d="m 815.85442,144.31304 c -30.02448,0.24114 -60.65488,2.45344 -88.90181,12.76758 -26.92973,10.1501 -45.81069,35.6673 -48.50241,62.6674 -2.206,21.1681 3.04593,43.6754 17.55279,60.3432 13.85487,15.7324 34.451,24.9198 55.39551,28.94 20.09984,3.8265 40.65056,4.9192 61.10321,5.5228 23.26301,0.4799 46.55131,-0.1369 69.76511,-1.5572 22.56511,-2.4681 45.06879,-10.7227 61.2393,-26.1426 14.35134,-13.2877 23.51985,-32.1555 22.2616,-51.3185 -0.67577,-21.9245 -9.18173,-44.0357 -25.41965,-59.98155 -12.85275,-11.50473 -30.06986,-17.07178 -46.82911,-21.40324 -25.26932,-6.50133 -51.4427,-10.13503 -77.66454,-9.83789 z"
       style="fill:#ffffff;stroke:none;stroke-width:1" />
    <path
       sodipodi:nodetypes="cscccc"
       inkscape:connector-curvature="0"
       id="path3063-1-6"
       d="m 1266.7324,547.49961 c -43.6866,-16.7148 -73.9387,-64.6419 -41.3589,-116.27864 19.7402,-31.2873 35.1022,-48.40898 35.1022,-48.40898 l -37.5089,2.15924 -24.2698,34.33821 c 0,0 -40.3372,98.02142 68.0354,128.19017 z"
       style="display:inline;fill:#ffffff;stroke:none;stroke-width:1" />
    <path
       sodipodi:nodetypes="ccssscccccc"
       inkscape:connector-curvature="0"
       id="path4272-2"
       d="m 2151.4643,1034.3276 c 3.813,13.612 19.8117,22.2508 22.7974,32.4416 0.4278,4.9156 -2.7714,8.4856 -4.8902,12.015 -3.7283,5.4459 -18.0962,30.0091 -18.5828,37.712 -0.1397,9.1352 8.308,16.0816 14.6894,12.2332 4.8705,-2.3897 8.8711,-0.1294 9.728,-6.4196 2.4151,-8.411 16.5023,-41.9245 20.2796,-49.1746 2.4202,-6.4816 0.7708,-14.7433 -3.4765,-19.2722 -6.907,-9.4821 -17.1682,-11.5411 -25.2954,-18.8894 -10.7486,-11.6758 9.6447,-50.61274 16.4743,-64.02001 -6.1842,2.90653 -37.7876,56.72531 -31.7238,63.37401 z"
       style="fill:#ffffff;fill-rule:evenodd;stroke:none;stroke-width:1px;stroke-linecap:butt;stroke-linejoin:miter;stroke-opacity:1" />
    <path
       sodipodi:nodetypes="zsssssz"
       inkscape:connector-curvature="0"
       id="path3100-98"
       d="m 832.10955,251.49072 c -27.32132,1.24389 -52.84957,10.77674 -78.0918,19.25977 -19.83019,6.75449 -40.2556,13.93786 -55.89461,27.09542 -15.27482,13.72262 -23.76928,31.97511 -30.07726,50.09382 -10.8953,33.07255 -9.42009,68.58731 -0.0345,101.79181 6.96749,25.29083 15.3903,50.83526 31.582,72.85756 18.50222,23.67198 48.75794,39.09277 80.58752,43.90482 31.64196,5.09543 64.16368,3.69576 95.83155,-0.45487 29.24728,-4.38641 56.44017,-16.97146 78.82029,-33.97866 14.95191,-11.56873 28.06279,-25.24639 37.25356,-40.87751 10.4029,-17.80233 15.518,-37.88988 15.3011,-57.90059 0.9954,-25.03937 1.3846,-50.24293 -2.4421,-75.12403 -4.0232,-22.22041 -14.82162,-43.74068 -32.44679,-60.15124 -17.48789,-16.78264 -40.49152,-28.60903 -65.01774,-35.3985 -24.20899,-7.29954 -49.75649,-11.37193 -75.37123,-11.1178 z"
       style="fill:#ffffff;stroke:none;stroke-width:0.940212" />
    <path
       inkscape:connector-curvature="0"
       id="path1285"
       d="m 2065.4067,1164.022 c 3.9583,-40.5756 49.6079,-62.9767 86.6041,-56.2686 30.7499,-0.7003 70.0601,1.3934 86.4514,32.1313 14.8147,33.8594 -17.2656,75.5913 -53.6657,70.7876 -40.723,3.6661 -89.5358,1.0688 -116.8494,-34.0162 -2.2737,-3.7437 -3.2218,-8.2961 -2.5404,-12.6341 z"
       style="fill:#ffffff;fill-rule:evenodd;stroke:none;stroke-width:0.999997px;stroke-linecap:butt;stroke-linejoin:miter;stroke-opacity:1" />
    <path
       sodipodi:nodetypes="csssssssscc"
       inkscape:connector-curvature="0"
       id="path1289"
       d="m 1308.9251,122.16597 c -35.8748,0.008 -72.1765,-0.73204 -107.2258,6.58627 -29.065,6.68024 -56.7222,20.28105 -77.6539,41.21185 -8.8374,9.24743 -14.4878,20.97031 -19.3395,32.7112 -10.7427,27.09001 -12.7141,57.8385 -5.0729,86.61137 8.9004,35.53212 31.1745,68.77649 63.0032,88.38522 15.8941,9.62532 34.4099,14.48762 52.6953,14.41065 23.3615,1.05092 46.6971,0.41717 70.0526,1.00769 33.3872,0.0111 67.2189,-0.5496 99.4262,-8.95516 22.1782,-5.96688 43.2013,-17.56339 57.3947,-35.57666 17.6687,-21.52842 26.0957,-49.91639 25.0033,-78.04095 -0.1845,-32.83939 -8.8385,-66.36311 -27.1878,-94.52957 -14.1965,-19.71975 -35.88,-32.91267 -58.4072,-40.95081 -23.369,-8.50147 -48.1345,-12.30126 -72.6882,-12.8711 z"
       style="fill:#ffffff;fill-rule:evenodd;stroke:none;stroke-width:0.862352px;stroke-linecap:butt;stroke-linejoin:miter;stroke-opacity:1" />
    <path
       sodipodi:nodetypes="ccccc"
       inkscape:connector-curvature="0"
       id="path3072-56"
       d="m 706.43911,648.85466 c 87.47824,25.22196 118.2227,-49.3761 112.21322,-112.92574 -6.00987,-63.54864 3.224,-38.16167 3.224,-38.16167 l 31.92043,14.08395 c 0,0 11.24914,205.16933 -147.35765,137.00346 z"
       style="color:#000000;display:inline;overflow:visible;visibility:visible;fill:#ffffff;fill-opacity:1;fill-rule:nonzero;stroke:none;stroke-width:1px;marker:none;enable-background:accumulate" />
    <path
       inkscape:transform-center-y="8.0335027"
       inkscape:transform-center-x="-4.1291461"
       sodipodi:nodetypes="cccscccc"
       inkscape:connector-curvature="0"
       id="path4456-3"
       d="m 1083.3423,1796.2709 c 46.4378,6.848 72.1287,-9.9568 84.9916,-22.9791 -3.3421,-5.4461 -12.3203,-21.4734 -12.3203,-21.4734 -2.9694,-0.642 38.2293,-17.701 48.172,-30.028 9.0834,-11.2616 -11.5309,-29.4873 -11.5309,-29.4873 -14.2164,-16.9604 9.1287,12.7285 -70.3691,48.6913 9.7254,14.621 15.6982,22.6585 19.4108,29.6818 -3.9586,3.8647 -36.6798,26.5229 -58.3541,25.5947 z"
       style="color:#000000;display:inline;overflow:visible;visibility:visible;fill:#ffffff;fill-opacity:1;fill-rule:nonzero;stroke:none;stroke-width:1px;marker:none;enable-background:accumulate" />
    <path
       sodipodi:nodetypes="ccccccccccsccccccccc"
       inkscape:connector-curvature="0"
       id="path3549-3-7-8"
       d="m 1089.2276,1556.5968 c -7.5759,17.6473 -50.3049,19.1276 -66.0346,15.5406 31.7074,19.7418 30.602,32.008 -12.4477,33.9117 72.1952,35.5806 13.1983,30.1965 1.5615,39.2179 56.6866,12.2622 37.8977,30.8465 1.5122,39.3893 65.1557,0.5218 49.3824,13.0453 24.7147,31.0668 28.8481,-11.7987 73.3495,-20.2831 74.9284,10.5654 41.7988,-26.9486 63.3649,-26.4238 78.4802,4.0494 12.6259,-26.2772 55.6176,-31.3343 72.0569,-2.9955 14.1613,-38.3528 64.6906,-32.9531 94.7688,-14.3658 -8.4422,-6.559 -25.7136,-36.1563 51.5125,-23.282 17.3431,2.8914 27.023,-4.2166 14.2839,-11.7166 -22.5307,-13.5746 -16.6759,-17.9062 12.394,-15.9019 -33.485,-7.2634 -33.9289,-19.4048 28.2449,-27.4678 -47.3107,-0.7791 -91.4282,-2.3773 -35.9225,-29.8745 -17.4136,-0.6654 -109.5576,-7.548 -25.1484,-40.993 -77.1395,19.1478 -100.7446,14.5042 -70.2969,-18.6176 -89.377,35.4091 -103.66,38.3609 -112.1322,8.6042 -11.8108,26.2475 -47.6849,15.2566 -66.3208,-2.6583 -12.3137,17.7785 -30.7337,29.7863 -66.1549,5.5277 z"
       style="color:#000000;display:inline;overflow:visible;visibility:visible;fill:#ffffff;fill-opacity:1;fill-rule:nonzero;stroke:none;stroke-width:0.956052px;marker:none;enable-background:accumulate" />
    <path
       sodipodi:nodetypes="csssc"
       inkscape:connector-curvature="0"
       id="path3280-7"
       d="m 328.94602,1438.9987 c -16.5454,1.2905 -32.4845,5.6576 -49.27967,5.4632 -14.07941,-0.7087 -27.57549,-4.6611 -41.81298,-4.2219 -11.22793,1.2007 -20.83969,5.7249 -30.53442,9.5504 -16.32963,6.5351 -34.64392,10.1639 -53.01906,12.6097 -8.12514,1.4913 -15.97664,5.1559 -19.23016,10.7567 -3.57395,6.7396 -2.27627,14.0367 -2.29851,21.0602 0.29267,7.0117 -1.12397,14.033 -4.0015,20.7472 -1.56357,4.2801 -3.57151,8.8104 -1.88709,13.2239 2.16315,4.9166 7.69796,8.5779 13.22889,11.7391 7.97202,5.0286 15.01194,11.1302 18.18697,18.4119 2.71063,4.9142 5.14904,10.2358 10.88925,13.8792 9.37057,5.0647 20.446,8.2723 29.96586,13.1826 12.44214,5.517 26.53108,9.1306 41.05322,10.7844 36.71445,5.5097 74.72466,6.7303 112.007,3.6058 31.13365,-2.2353 62.04017,-5.9421 92.54666,-10.8165 7.27649,-1.2703 15.02361,-2.5452 20.7386,-6.166 5.83174,-3.5951 9.41715,-8.5026 13.28938,-13.1221 4.67313,-5.2003 10.97306,-9.8262 18.90298,-12.5847 7.26982,-3.0054 15.27478,-5.7982 20.08811,-10.8639 7.30015,-7.9217 6.94862,-18.5967 0.38949,-26.6922 -4.77114,-7.2776 -8.44273,-15.249 -7.3546,-23.3537 0.32403,-6.8798 1.60982,-14.005 -1.63718,-20.661 -3.90247,-6.6046 -13.42073,-10.9718 -23.31422,-12.0316 -18.31967,-3.2845 -34.41377,-10.5338 -51.86894,-15.3764 -9.24823,-1.9076 -18.98269,-0.5326 -28.14025,0.9417 -9.53671,1.4987 -19.62846,2.8883 -29.27151,1.0191 -14.48284,-2.6644 -26.99927,-9.2445 -41.93911,-10.8803 -1.89019,-0.1607 -3.79344,-0.2271 -5.69721,-0.2048 z"
       style="fill:#ffffff;stroke:none;stroke-width:0.855226" />
    <path
       sodipodi:nodetypes="cccccccccc"
       inkscape:connector-curvature="0"
       id="path3280-7-1"
       d="m 1008.4672,1536.7272 c 22.0466,-7.4164 31.3108,-17.5204 28.0952,-30.248 43.208,3.927 52.9991,0.086 80.3885,-15.8906 44.5642,4.6526 97.1295,10.4048 161.0442,5.3039 7.6401,13.7468 24.5791,30.778 46.8954,41.902 -35.9025,19.7291 -22.5844,36.2849 -21.4332,51.708 -41.655,-3.6645 -44.11,3.0965 -82.951,11.1655 l -118.2776,-3.3918 c -11.8191,-12.1745 -37.2538,-13.805 -63.6663,-14.6784 3.748,-15.1257 -6.3574,-35.7215 -30.0952,-45.8706 z"
       style="fill:#ffffff;stroke:none;stroke-width:0.732206" />
    <path
       sodipodi:nodetypes="csssssc"
       inkscape:connector-curvature="0"
       id="path3365-90"
       d="m 1722.1283,1431.1586 c -46.1008,-0.145 -93.4595,4.172 -135.568,21.3157 -39.5795,15.3042 -63.2015,53.5235 -60.5978,90.1082 0.9198,17.6405 7.3023,35.0839 19.0312,49.652 12.8756,16.4548 31.8548,29.1856 53.4481,36.1929 40.3422,14.5689 84.4947,19.1093 127.9257,20.1005 55.6938,0.659 111.4823,-6.8826 164.3952,-21.7315 20.3566,-6.2395 41.1247,-15.7414 52.0851,-32.4513 16.7849,-25.0606 18.4605,-56.1364 9.0002,-83.4963 -5.912,-17.5709 -18.2243,-33.4482 -35.0104,-44.7528 -19.8321,-13.8424 -44.6663,-20.6544 -69.0943,-25.9318 -41.0695,-8.4298 -83.5988,-9.1585 -125.615,-9.0056 z"
       style="color:#000000;display:inline;overflow:visible;visibility:visible;fill:#ffffff;fill-opacity:1;fill-rule:nonzero;stroke:none;stroke-width:0.82039px;marker:none;enable-background:accumulate" />
    <path
       sodipodi:nodetypes="csssssc"
       inkscape:connector-curvature="0"
       id="path3365-90-4"
       d="m 1676.5708,2459.9488 c -26.6611,0.136 -53.9275,1.3386 -78.9542,7.547 -22.4178,5.7558 -39.5608,18.075 -48.0315,32.1125 -8.0099,13.3269 -12.5324,27.9319 -8.3014,42.1007 4.4484,15.6004 24.0657,28.8907 48.2726,33.3704 21.3603,4.5546 43.488,7.6512 65.8192,9.6286 27.0019,2.2891 54.3122,3.2276 81.55,2.7298 36.7698,-1.0824 73.2791,-5.1325 108.5628,-11.6542 15.7436,-3.2755 31.0009,-8.9229 40.1373,-17.8215 12.0574,-11.2265 15.9971,-25.3285 13.4041,-38.6199 -2.6883,-12.2833 -12.7651,-23.7976 -27.5877,-32.005 -17.4505,-9.9338 -39.7578,-15.7276 -62.2115,-19.6902 -43.0748,-7.5465 -88.2799,-7.7479 -132.6597,-7.6982 z"
       style="color:#000000;display:inline;overflow:visible;visibility:visible;fill:#ffffff;fill-opacity:1;fill-rule:nonzero;stroke:none;stroke-width:0.949543px;marker:none;enable-background:accumulate" />
    <path
       sodipodi:nodetypes="csssssc"
       inkscape:connector-curvature="0"
       id="path3365-90-4-4"
       d="m 1669.9468,2348.7431 c -26.0636,0.1521 -52.7191,1.4982 -77.1849,8.447 -21.9154,6.4422 -38.674,20.2306 -46.9551,35.9422 -7.8303,14.9162 -12.2518,31.2631 -8.1153,47.1216 4.3487,17.4608 23.5265,32.3362 47.1907,37.3501 20.8817,5.0978 42.5134,8.5636 64.3445,10.7769 26.3967,2.5622 53.095,3.6125 79.7223,3.0554 35.9458,-1.2116 71.6371,-5.7446 106.1299,-13.0442 15.3907,-3.666 30.3062,-9.987 39.2379,-19.9468 11.7873,-12.5653 15.6385,-28.3491 13.1037,-43.2257 -2.6279,-13.7481 -12.4791,-26.6357 -26.9694,-35.8217 -17.0595,-11.1186 -38.8669,-17.6035 -60.8175,-22.0385 -42.1096,-8.4465 -86.3016,-8.672 -129.6868,-8.6163 z"
       style="color:#000000;display:inline;overflow:visible;visibility:visible;fill:#ffffff;fill-opacity:1;fill-rule:nonzero;stroke:none;stroke-width:1.12916px;marker:none;enable-background:accumulate" />
    <path
       sodipodi:nodetypes="cccccccccccccccccccc"
       inkscape:connector-curvature="0"
       id="path3549-3-7-1"
       d="m 1606.5429,2270.2082 c -6.0613,13.8086 -40.2479,14.9667 -52.833,12.16 25.3685,15.4478 24.484,25.0453 -9.9593,26.536 57.7622,27.8408 10.5597,23.628 1.2493,30.6874 45.354,9.595 28.3206,13.1088 9.6561,23.6995 52.1299,0.4078 45.7635,9.9209 23.8762,23.8282 32.652,-7.9748 50.3084,-18.0619 47.4005,15.8705 28.0799,-18.8427 59.9249,-27.3828 79.31,2.3964 13.893,-20.2749 28.2184,-31.5161 53.235,-1.9893 -6.8361,-31.7858 38.7985,-22.8031 69.9151,-13.9136 -7.3888,-8.4966 5.1166,-30.5537 35.5651,-20.659 -20.6834,-13.8931 5.2201,-15.8768 25.3811,-19.7172 -26.7907,-5.6837 -31.7281,-11.5464 18.0161,-17.8555 -37.8524,-0.6104 -73.1501,-1.8606 -28.7409,-23.3768 -13.9325,-0.5204 -46.9885,17.4327 -31.5765,-35.1085 -23.9575,16.8204 -49.518,26.104 -81.5733,-9.1301 -33.709,27.437 -38.3927,-0.7321 -49.8398,-22.7189 -4.1143,9.3731 -20.5566,36.0096 -35.0395,36.4373 -5.6006,-3.7237 -15.0847,-4.8469 -21.1125,-11.4724 -9.8522,13.9117 -24.5897,23.3079 -52.9297,4.326 z"
       style="color:#000000;display:inline;overflow:visible;visibility:visible;fill:#ffffff;fill-opacity:1;fill-rule:nonzero;stroke:none;stroke-width:0.892033px;marker:none;enable-background:accumulate" />
    <path
       sodipodi:nodetypes="cssc"
       inkscape:connector-curvature="0"
       id="path4293"
       d="m 1925.4048,1697.5674 c -93.4377,8.5967 -114.3494,-49.7115 -111.6672,-70.3366 2.6821,-20.6246 32.8105,-64.2763 29.2259,-48.3189 -5.3873,23.9834 -8.0152,106.4989 82.4413,118.6555 z"
       style="display:inline;fill:#ffffff;fill-rule:evenodd;stroke:none;stroke-width:0.999998px;stroke-linecap:butt;stroke-linejoin:miter;stroke-opacity:1" />
  </g>
  <g
     inkscape:label="txt"
     id="layer1"
     inkscape:groupmode="layer">
    <text
       xml:space="preserve"
       style="font-style:normal;font-variant:normal;font-weight:normal;font-stretch:normal;line-height:0%;font-family:'Xiaolai SC';-inkscape-font-specification:'Xiaolai SC';text-align:center;letter-spacing:0px;word-spacing:0px;text-anchor:middle;fill:#000000;fill-opacity:1;stroke:none"
       x="825.65967"
       y="209.84189"
       id="text4178-0"><tspan
         id="tspan10031"
         sodipodi:role="line"
         style="font-style:normal;font-variant:normal;font-weight:normal;font-stretch:normal;font-size:40.6767px;line-height:1.25;font-family:'Xiaolai SC';-inkscape-font-specification:'Xiaolai SC'"
         x="825.65967"
         y="209.84189">呃，这不是</tspan><tspan
         id="tspan624"
         sodipodi:role="line"
         style="font-style:normal;font-variant:normal;font-weight:normal;font-stretch:normal;font-size:40.6767px;line-height:1.25;font-family:'Xiaolai SC';-inkscape-font-specification:'Xiaolai SC'"
         x="825.65967"
         y="260.68777">显而易见么？</tspan></text>
    <text
       xml:space="preserve"
       style="font-style:normal;font-variant:normal;font-weight:normal;font-stretch:normal;line-height:0%;font-family:'Xiaolai SC';-inkscape-font-specification:'Xiaolai SC';text-align:center;letter-spacing:0px;word-spacing:0px;text-anchor:middle;fill:#000000;fill-opacity:1;stroke:none"
       x="849.0675"
       y="350.92868"
       id="text4178-0-9"><tspan
         id="tspan21211"
         sodipodi:role="line"
         style="font-style:normal;font-variant:normal;font-weight:normal;font-stretch:normal;font-size:40.6767px;line-height:1.25;font-family:'Xiaolai SC';-inkscape-font-specification:'Xiaolai SC'"
         x="849.0675"
         y="350.92868">我就是决定</tspan><tspan
         id="tspan636"
         sodipodi:role="line"
         style="font-style:normal;font-variant:normal;font-weight:normal;font-stretch:normal;font-size:40.6767px;line-height:1.25;font-family:'Xiaolai SC';-inkscape-font-specification:'Xiaolai SC'"
         x="849.0675"
         y="401.77457">摒弃曾经所有，</tspan><tspan
         id="tspan634"
         sodipodi:role="line"
         style="font-style:normal;font-variant:normal;font-weight:normal;font-stretch:normal;font-size:40.6767px;line-height:1.25;font-family:'Xiaolai SC';-inkscape-font-specification:'Xiaolai SC'"
         x="849.0675"
         y="452.62042">开启一个</tspan><tspan
         id="tspan638"
         sodipodi:role="line"
         style="font-style:normal;font-variant:normal;font-weight:normal;font-stretch:normal;font-size:40.6767px;line-height:1.25;font-family:'Xiaolai SC';-inkscape-font-specification:'Xiaolai SC'"
         x="849.0675"
         y="503.46631">新的职业生涯！</tspan></text>
    <text
       xml:space="preserve"
       style="font-style:normal;font-variant:normal;font-weight:normal;font-stretch:normal;line-height:0%;font-family:'Xiaolai SC';-inkscape-font-specification:'Xiaolai SC';text-align:center;letter-spacing:0px;word-spacing:0px;text-anchor:middle;fill:#000000;fill-opacity:1;stroke:none"
       x="1284.7451"
       y="195.80524"
       id="text4178-0-8"><tspan
         id="tspan10031-7"
         sodipodi:role="line"
         style="font-style:normal;font-variant:normal;font-weight:normal;font-stretch:normal;font-size:40.6767px;line-height:1.25;font-family:'Xiaolai SC';-inkscape-font-specification:'Xiaolai SC'"
         x="1284.7451"
         y="195.80524">如你所见，</tspan><tspan
         id="tspan640"
         sodipodi:role="line"
         style="font-style:normal;font-variant:normal;font-weight:normal;font-stretch:normal;font-size:40.6767px;line-height:1.25;font-family:'Xiaolai SC';-inkscape-font-specification:'Xiaolai SC'"
         x="1284.7451"
         y="246.65111">从今以后，</tspan><tspan
         id="tspan642"
         sodipodi:role="line"
         style="font-style:normal;font-variant:normal;font-weight:normal;font-stretch:normal;font-size:40.6767px;line-height:1.25;font-family:'Xiaolai SC';-inkscape-font-specification:'Xiaolai SC'"
         x="1284.7451"
         y="297.49698">我就是大愈疗师</tspan><tspan
         id="tspan16217"
         sodipodi:role="line"
         style="font-style:normal;font-variant:normal;font-weight:normal;font-stretch:normal;font-size:40.6767px;line-height:1.25;font-family:'Xiaolai SC';-inkscape-font-specification:'Xiaolai SC'"
         x="1284.7451"
         y="348.34286">“阿椒”。</tspan></text>
    <text
       xml:space="preserve"
       style="font-style:normal;font-variant:normal;font-weight:normal;font-stretch:normal;font-size:18.1011px;line-height:0%;font-family:'Xiaolai SC';-inkscape-font-specification:'Xiaolai SC';text-align:center;letter-spacing:0px;word-spacing:0px;text-anchor:middle;fill:#000000;fill-opacity:1;stroke:none;stroke-width:1;"
       x="2158.5315"
       y="1164.1686"
       id="text4178-0-8-3"><tspan
         id="tspan10165-3"
         sodipodi:role="line"
         style="font-size:61.3576px;line-height:1.25;stroke-width:1;-inkscape-font-specification:'Xiaolai SC';font-family:'Xiaolai SC';font-weight:normal;font-style:normal;font-stretch:normal;font-variant:normal;"
         x="2158.5315"
         y="1164.1686">...</tspan></text>
    <text
       xml:space="preserve"
       style="font-style:normal;font-variant:normal;font-weight:normal;font-stretch:normal;line-height:0%;font-family:'Xiaolai SC';-inkscape-font-specification:'Xiaolai SC';text-align:center;letter-spacing:0px;word-spacing:0px;text-anchor:middle;fill:#000000;fill-opacity:1;stroke:none;stroke-width:1.2;stroke-dasharray:none"
       x="322.41052"
       y="1515.3843"
       id="text4178-0-8-1"><tspan
         id="tspan495"
         sodipodi:role="line"
         style="font-style:normal;font-variant:normal;font-weight:normal;font-stretch:normal;font-size:40.6767px;line-height:1.25;font-family:'Xiaolai SC';-inkscape-font-specification:'Xiaolai SC';stroke-width:1.2;stroke-dasharray:none"
         x="322.41052"
         y="1515.3843">你肯定要问我</tspan><tspan
         id="tspan659"
         sodipodi:role="line"
         style="font-style:normal;font-variant:normal;font-weight:normal;font-stretch:normal;font-size:40.6767px;line-height:1.25;font-family:'Xiaolai SC';-inkscape-font-specification:'Xiaolai SC';stroke-width:1.2;stroke-dasharray:none"
         x="322.41052"
         y="1566.2301">“为什么？”</tspan></text>
    <text
       xml:space="preserve"
       style="font-style:normal;font-variant:normal;font-weight:normal;font-stretch:normal;line-height:0%;font-family:'Xiaolai SC';-inkscape-font-specification:'Xiaolai SC';text-align:center;letter-spacing:0px;word-spacing:0px;text-anchor:middle;fill:#000000;fill-opacity:1;stroke:none"
       x="1178.1179"
       y="1564.9478"
       id="text4178-0-8-1-5"><tspan
         id="tspan10454"
         sodipodi:role="line"
         style="font-style:normal;font-variant:normal;font-weight:normal;font-stretch:normal;font-size:40.6767px;line-height:1.25;font-family:'Xiaolai SC';-inkscape-font-specification:'Xiaolai SC'"
         x="1178.1179"
         y="1564.9478">其实很简单！</tspan></text>
    <text
       xml:space="preserve"
       style="font-style:normal;font-variant:normal;font-weight:normal;font-stretch:normal;font-size:15.4314px;line-height:0%;font-family:'Xiaolai SC';-inkscape-font-specification:'Xiaolai SC';text-align:center;letter-spacing:1px;word-spacing:0px;text-anchor:middle;fill:#000000;fill-opacity:1;stroke:#000000;stroke-width:1.7;stroke-dasharray:none;stroke-opacity:1"
       x="1241.4072"
       y="1663.2153"
       id="text4178-0-8-1-5-0"><tspan
         id="tspan10511"
         sodipodi:role="line"
         style="font-style:normal;font-variant:normal;font-weight:normal;font-stretch:normal;font-size:52.3081px;line-height:1.25;font-family:'Xiaolai SC';-inkscape-font-specification:'Xiaolai SC';stroke:#000000;stroke-width:1.7;stroke-dasharray:none;stroke-opacity:1"
         x="1241.9072"
         y="1663.2153">我受够了！！</tspan></text>
    <text
       xml:space="preserve"
       style="font-style:normal;font-variant:normal;font-weight:normal;font-stretch:normal;line-height:0%;font-family:'Xiaolai SC';-inkscape-font-specification:'Xiaolai SC';text-align:center;letter-spacing:0px;word-spacing:0px;text-anchor:middle;fill:#000000;fill-opacity:1;stroke:none"
       x="1195.2832"
       y="2168.0447"
       id="text4178-0-8-1-5-2"><tspan
         id="tspan10624"
         sodipodi:role="line"
         style="font-style:normal;font-variant:normal;font-weight:normal;font-stretch:normal;font-size:40.6767px;line-height:1.25;font-family:'Xiaolai SC';-inkscape-font-specification:'Xiaolai SC'"
         x="1195.2832"
         y="2168.0447">受够了被到处通缉，</tspan><tspan
         id="tspan683"
         sodipodi:role="line"
         style="font-style:normal;font-variant:normal;font-weight:normal;font-stretch:normal;font-size:40.6767px;line-height:1.25;font-family:'Xiaolai SC';-inkscape-font-specification:'Xiaolai SC'"
         x="1195.2832"
         y="2218.8906">受够了被人耻笑我的魔咒，</tspan><tspan
         id="tspan685"
         sodipodi:role="line"
         style="font-style:normal;font-variant:normal;font-weight:normal;font-stretch:normal;font-size:40.6767px;line-height:1.25;font-family:'Xiaolai SC';-inkscape-font-specification:'Xiaolai SC'"
         x="1195.2832"
         y="2269.7363">最重要的是：</tspan><tspan
         id="tspan687"
         sodipodi:role="line"
         style="font-style:normal;font-variant:normal;font-weight:normal;font-stretch:normal;font-size:40.6767px;line-height:1.25;font-family:'Xiaolai SC';-inkscape-font-specification:'Xiaolai SC'"
         x="1195.2832"
         y="2320.5823">受够了学习魔法这么多年</tspan><tspan
         id="tspan689"
         sodipodi:role="line"
         style="font-style:normal;font-variant:normal;font-weight:normal;font-stretch:normal;font-size:40.6767px;line-height:1.25;font-family:'Xiaolai SC';-inkscape-font-specification:'Xiaolai SC'"
         x="1195.2832"
         y="2371.4282">却一直找不到合适的职业！</tspan></text>
    <text
       xml:space="preserve"
       style="font-style:normal;font-variant:normal;font-weight:normal;font-stretch:normal;line-height:0%;font-family:'Xiaolai SC';-inkscape-font-specification:'Xiaolai SC';text-align:center;letter-spacing:0px;word-spacing:0px;text-anchor:middle;fill:#000000;fill-opacity:1;stroke:none"
       x="1749.4691"
       y="1495.3773"
       id="text4178-0-5-4-6-9"><tspan
         id="tspan12109"
         sodipodi:role="line"
         style="font-style:normal;font-variant:normal;font-weight:normal;font-stretch:normal;font-size:40.6767px;line-height:1.25;font-family:'Xiaolai SC';-inkscape-font-specification:'Xiaolai SC'"
         x="1749.4691"
         y="1495.3773">至少，在这里，</tspan><tspan
         id="tspan697"
         sodipodi:role="line"
         style="font-style:normal;font-variant:normal;font-weight:normal;font-stretch:normal;font-size:40.6767px;line-height:1.25;font-family:'Xiaolai SC';-inkscape-font-specification:'Xiaolai SC'"
         x="1749.4691"
         y="1546.2231">他们需要我，</tspan><tspan
         id="tspan699"
         sodipodi:role="line"
         style="font-style:normal;font-variant:normal;font-weight:normal;font-stretch:normal;font-size:40.6767px;line-height:1.25;font-family:'Xiaolai SC';-inkscape-font-specification:'Xiaolai SC'"
         x="1749.4691"
         y="1597.0691">他们赞誉我的能力！</tspan></text>
    <text
       xml:space="preserve"
       style="font-style:normal;font-variant:normal;font-weight:normal;font-stretch:normal;font-size:12.0531px;line-height:0%;font-family:'Xiaolai SC';-inkscape-font-specification:'Xiaolai SC';text-align:center;letter-spacing:0px;word-spacing:0px;text-anchor:middle;fill:#000000;fill-opacity:1;stroke:none;stroke-width:1"
       x="1723.9517"
       y="2344.896"
       id="text4178-0-5"><tspan
         id="tspan4245-6-6-5"
         sodipodi:role="line"
         style="font-style:normal;font-variant:normal;font-weight:normal;font-stretch:normal;font-size:40.8567px;line-height:1.25;font-family:'Xiaolai SC';-inkscape-font-specification:'Xiaolai SC';stroke-width:1"
         x="1723.9517"
         y="2344.896">愈疗师！</tspan></text>
    <text
       xml:space="preserve"
       style="font-style:normal;font-variant:normal;font-weight:normal;font-stretch:normal;font-size:10.4011px;line-height:0%;font-family:'Xiaolai SC';-inkscape-font-specification:'Xiaolai SC';text-align:center;letter-spacing:0px;word-spacing:0px;text-anchor:middle;fill:#000000;fill-opacity:1;stroke:none;stroke-width:1"
       x="1722.2692"
       y="2436.3254"
       id="text4178-0-5-4"><tspan
         id="tspan1008"
         sodipodi:role="line"
         style="font-style:normal;font-variant:normal;font-weight:normal;font-stretch:normal;font-size:35.2567px;line-height:1.25;font-family:'Xiaolai SC';-inkscape-font-specification:'Xiaolai SC';stroke-width:1"
         x="1722.2692"
         y="2436.3254">不要离我们太远！</tspan></text>
    <text
       xml:space="preserve"
       style="font-style:normal;font-variant:normal;font-weight:normal;font-stretch:normal;font-size:10.4011px;line-height:0%;font-family:'Xiaolai SC';-inkscape-font-specification:'Xiaolai SC';text-align:center;letter-spacing:0px;word-spacing:0px;text-anchor:middle;fill:#000000;fill-opacity:1;stroke:none;stroke-width:1"
       x="1722.809"
       y="2533.437"
       id="text4178-0-5-4-6"><tspan
         id="tspan15177"
         sodipodi:role="line"
         style="font-style:normal;font-variant:normal;font-weight:normal;font-stretch:normal;font-size:35.2567px;line-height:1.25;font-family:'Xiaolai SC';-inkscape-font-specification:'Xiaolai SC';stroke-width:1"
         x="1722.809"
         y="2533.437">湾雅伤的不轻。</tspan></text>
    <text
       transform="matrix(0.63625061,-0.3004975,0.12503652,1.0615485,234.6135,1589.0183)"
       id="text4580-6-0-0-3"
       y="1584.5073"
       x="787.65729"
       style="font-style:normal;font-variant:normal;font-weight:normal;font-stretch:normal;line-height:0%;font-family:'Xiaolai SC';-inkscape-font-specification:'Xiaolai SC';letter-spacing:3.02325px;word-spacing:0px;fill:#daf9ff;fill-opacity:1;stroke:#00bfff;stroke-width:0.808288;stroke-miterlimit:4;stroke-dasharray:none;stroke-opacity:1;filter:url(#filter4375-4-1-1-1-9-5-8-8-3-3)"
       xml:space="preserve"><tspan
         style="font-style:normal;font-variant:normal;font-weight:normal;font-stretch:normal;font-size:70px;line-height:1.25;font-family:'Xiaolai SC';-inkscape-font-specification:'Xiaolai SC';fill:#daf9ff;fill-opacity:1;stroke:#00bfff;stroke-width:0.808288;stroke-opacity:1"
         y="1584.5073"
         x="787.65729"
         id="tspan4582-1-1-0-6"
         sodipodi:role="line"><tspan
           id="tspan853-6"
           style="font-style:normal;font-variant:normal;font-weight:normal;font-stretch:normal;font-size:68.6116px;font-family:'Xiaolai SC';-inkscape-font-specification:'Xiaolai SC';fill:#daf9ff;fill-opacity:1;stroke:#00bfff;stroke-width:0.808288;stroke-opacity:1">呼~~~</tspan></tspan></text>
  </g>
</svg>
