<?xml version="1.0" encoding="UTF-8" standalone="no"?>
<!-- Created with Inkscape (http://www.inkscape.org/) -->

<svg
   id="svg2"
   version="1.1"
   inkscape:version="1.3.2 (091e20ef0f, 2023-11-25)"
   width="2481"
   height="3503"
   sodipodi:docname="E39P06.svg"
   xmlns:inkscape="http://www.inkscape.org/namespaces/inkscape"
   xmlns:sodipodi="http://sodipodi.sourceforge.net/DTD/sodipodi-0.dtd"
   xmlns:xlink="http://www.w3.org/1999/xlink"
   xmlns="http://www.w3.org/2000/svg"
   xmlns:svg="http://www.w3.org/2000/svg"
   xmlns:rdf="http://www.w3.org/1999/02/22-rdf-syntax-ns#"
   xmlns:cc="http://creativecommons.org/ns#"
   xmlns:dc="http://purl.org/dc/elements/1.1/">
  <metadata
     id="metadata8">
    <rdf:RDF>
      <cc:Work
         rdf:about="">
        <dc:format>image/svg+xml</dc:format>
        <dc:type
           rdf:resource="http://purl.org/dc/dcmitype/StillImage" />
        <dc:title />
      </cc:Work>
    </rdf:RDF>
  </metadata>
  <defs
     id="defs6">
    <filter
       inkscape:collect="always"
       style="color-interpolation-filters:sRGB"
       id="filter22-5"
       x="-0.095086425"
       y="-0.21340188"
       width="1.1901728"
       height="1.4268038"
       inkscape:label="Felt Feather">
      <feGaussianBlur
         inkscape:collect="always"
         stdDeviation="7.512575"
         id="feGaussianBlur22-4"
         result="fbSourceGraphic" />
      <feColorMatrix
         result="fbSourceGraphicAlpha"
         in="fbSourceGraphic"
         values="0 0 0 -1 0 0 0 0 -1 0 0 0 0 -1 0 0 0 0 1 0"
         id="feColorMatrix22-7" />
      <feGaussianBlur
         id="feGaussianBlur23-6"
         stdDeviation="15 15"
         result="blur"
         in="fbSourceGraphic" />
      <feComposite
         id="feComposite23-5"
         in="fbSourceGraphic"
         in2="blur"
         operator="atop"
         result="composite1" />
      <feComposite
         id="feComposite24-6"
         in2="composite1"
         operator="in"
         result="composite2" />
      <feComposite
         id="feComposite25-9"
         in2="composite2"
         operator="in"
         result="composite3" />
      <feTurbulence
         id="feTurbulence25-3"
         type="fractalNoise"
         numOctaves="3"
         seed="1"
         baseFrequency="0.05 0.05"
         result="turbulence" />
      <feDisplacementMap
         id="feDisplacementMap25-7"
         in="composite3"
         in2="turbulence"
         xChannelSelector="R"
         scale="30"
         yChannelSelector="G"
         result="map" />
      <feColorMatrix
         id="feColorMatrix25-4"
         values="1 0 0 0 0 0 1 0 0 0 0 0 1 0 0 0 0 0 1 -0 "
         result="colormatrix" />
      <feComposite
         id="feComposite26-5"
         in="composite3"
         in2="colormatrix"
         operator="atop"
         result="composite4" />
    </filter>
    <filter
       inkscape:collect="always"
       style="color-interpolation-filters:sRGB"
       id="filter22-5-0"
       x="-0.095086425"
       y="-0.21340188"
       width="1.1901728"
       height="1.4268038"
       inkscape:label="Felt Feather">
      <feGaussianBlur
         inkscape:collect="always"
         stdDeviation="7.512575"
         id="feGaussianBlur22-4-6"
         result="fbSourceGraphic" />
      <feColorMatrix
         result="fbSourceGraphicAlpha"
         in="fbSourceGraphic"
         values="0 0 0 -1 0 0 0 0 -1 0 0 0 0 -1 0 0 0 0 1 0"
         id="feColorMatrix22-7-1" />
      <feGaussianBlur
         id="feGaussianBlur23-6-5"
         stdDeviation="15 15"
         result="blur"
         in="fbSourceGraphic" />
      <feComposite
         id="feComposite23-5-9"
         in="fbSourceGraphic"
         in2="blur"
         operator="atop"
         result="composite1" />
      <feComposite
         id="feComposite24-6-4"
         in2="composite1"
         operator="in"
         result="composite2" />
      <feComposite
         id="feComposite25-9-9"
         in2="composite2"
         operator="in"
         result="composite3" />
      <feTurbulence
         id="feTurbulence25-3-0"
         type="fractalNoise"
         numOctaves="3"
         seed="1"
         baseFrequency="0.05 0.05"
         result="turbulence" />
      <feDisplacementMap
         id="feDisplacementMap25-7-9"
         in="composite3"
         in2="turbulence"
         xChannelSelector="R"
         scale="30"
         yChannelSelector="G"
         result="map" />
      <feColorMatrix
         id="feColorMatrix25-4-1"
         values="1 0 0 0 0 0 1 0 0 0 0 0 1 0 0 0 0 0 1 -0 "
         result="colormatrix" />
      <feComposite
         id="feComposite26-5-7"
         in="composite3"
         in2="colormatrix"
         operator="atop"
         result="composite4" />
    </filter>
    <filter
       inkscape:collect="always"
       style="color-interpolation-filters:sRGB"
       id="filter22-5-0-7"
       x="-0.095086425"
       y="-0.21340188"
       width="1.1901728"
       height="1.4268038"
       inkscape:label="Felt Feather">
      <feGaussianBlur
         inkscape:collect="always"
         stdDeviation="7.512575"
         id="feGaussianBlur22-4-6-6"
         result="fbSourceGraphic" />
      <feColorMatrix
         result="fbSourceGraphicAlpha"
         in="fbSourceGraphic"
         values="0 0 0 -1 0 0 0 0 -1 0 0 0 0 -1 0 0 0 0 1 0"
         id="feColorMatrix22-7-1-7" />
      <feGaussianBlur
         id="feGaussianBlur23-6-5-3"
         stdDeviation="15 15"
         result="blur"
         in="fbSourceGraphic" />
      <feComposite
         id="feComposite23-5-9-6"
         in="fbSourceGraphic"
         in2="blur"
         operator="atop"
         result="composite1" />
      <feComposite
         id="feComposite24-6-4-5"
         in2="composite1"
         operator="in"
         result="composite2" />
      <feComposite
         id="feComposite25-9-9-6"
         in2="composite2"
         operator="in"
         result="composite3" />
      <feTurbulence
         id="feTurbulence25-3-0-3"
         type="fractalNoise"
         numOctaves="3"
         seed="1"
         baseFrequency="0.05 0.05"
         result="turbulence" />
      <feDisplacementMap
         id="feDisplacementMap25-7-9-9"
         in="composite3"
         in2="turbulence"
         xChannelSelector="R"
         scale="30"
         yChannelSelector="G"
         result="map" />
      <feColorMatrix
         id="feColorMatrix25-4-1-4"
         values="1 0 0 0 0 0 1 0 0 0 0 0 1 0 0 0 0 0 1 -0 "
         result="colormatrix" />
      <feComposite
         id="feComposite26-5-7-8"
         in="composite3"
         in2="colormatrix"
         operator="atop"
         result="composite4" />
    </filter>
  </defs>
  <sodipodi:namedview
     pagecolor="#ffffff"
     bordercolor="#666666"
     borderopacity="1"
     objecttolerance="10"
     gridtolerance="10"
     guidetolerance="10"
     inkscape:pageopacity="0"
     inkscape:pageshadow="2"
     inkscape:window-width="1920"
     inkscape:window-height="1056"
     id="namedview4"
     showgrid="false"
     inkscape:zoom="0.46000002"
     inkscape:cx="1681.5217"
     inkscape:cy="1545.6521"
     inkscape:window-x="1920"
     inkscape:window-y="0"
     inkscape:window-maximized="1"
     inkscape:current-layer="layer1"
     inkscape:showpageshadow="0"
     inkscape:pagecheckerboard="0"
     inkscape:deskcolor="#d1d1d1" />
  <g
     inkscape:groupmode="layer"
     id="layer2"
     inkscape:label="artwork"
     sodipodi:insensitive="true">
    <image
       xlink:href="../gfx_Pepper-and-Carrot_by-David-Revoy_E39P06.png"
       y="0"
       x="0"
       id="image10"
       height="3503"
       width="2481" />
  </g>
  <g
     inkscape:groupmode="layer"
     id="layer3"
     inkscape:label="speechbubbles">
    <path
       style="font-variation-settings:normal;mix-blend-mode:normal;vector-effect:none;fill:#ffffff;fill-opacity:1;stroke:none;stroke-width:0.761069;stroke-linecap:butt;stroke-linejoin:miter;stroke-miterlimit:4;stroke-dasharray:none;stroke-dashoffset:0;stroke-opacity:1;-inkscape-stroke:none;filter:url(#filter22-5);stop-color:#000000"
       d="m 517.99023,540.30273 c -41.98571,1.83315 -83.85901,6.62922 -125.07864,14.86581 -12.26578,2.3784 -24.65285,5.09437 -35.83103,10.88487 -24.1119,11.94845 -42.9223,33.94863 -51.15014,59.55346 -7.59277,23.37935 -5.66679,49.83106 5.97695,71.56444 11.19376,21.62021 24.89122,42.52175 43.769,58.22048 6.31036,5.37763 13.38115,9.91353 21.19311,12.77358 13.85172,5.31683 28.74929,6.64774 43.29395,8.93868 23.19385,3.37416 46.3794,6.83627 69.6704,9.48804 58.50598,6.80135 117.82913,9.87936 176.48602,3.06412 15.62938,-1.85129 31.41918,-3.69237 47.15825,-2.08481 17.96936,1.31092 36.23817,4.23841 54.12522,0.60429 13.04692,-2.83198 24.67285,-9.83827 35.37061,-17.57771 13.2666,-9.29196 26.27539,-18.95046 39.68599,-28.03664 8.01003,-5.65882 15.41151,-12.6071 19.80091,-21.51212 5.67221,-10.62379 7.58314,-22.87313 7.08605,-34.80785 -0.0576,-17.33285 -1.89161,-34.62996 -4.67186,-51.72267 -2.9566,-15.33378 -9.40832,-30.20409 -19.91872,-41.88755 -17.32828,-20.18624 -41.69779,-33.47993 -67.28638,-39.99248 -21.87484,-5.47455 -44.54653,-5.63706 -66.92615,-6.95957 -34.21521,-1.61259 -68.42802,-3.35173 -102.67297,-4.2087 -30.01915,-0.82182 -60.05006,-1.22857 -90.08057,-1.16767 z"
       id="path3278-1-2"
       inkscape:connector-curvature="0"
       sodipodi:nodetypes="ccssssssc"
       transform="matrix(1.2942204,0.01955544,0,1.3339635,-121.44557,-30.093044)" />
    <path
       style="font-variation-settings:normal;mix-blend-mode:normal;vector-effect:none;fill:#ffffff;fill-opacity:1;stroke:none;stroke-width:0.768788;stroke-linecap:butt;stroke-linejoin:miter;stroke-miterlimit:4;stroke-dasharray:none;stroke-dashoffset:0;stroke-opacity:1;-inkscape-stroke:none;filter:url(#filter22-5);stop-color:#000000"
       d="m 517.99023,540.30273 c -41.98571,1.83315 -83.85901,6.62922 -125.07864,14.86581 -12.26578,2.3784 -24.65285,5.09437 -35.83103,10.88487 -24.1119,11.94845 -42.9223,33.94863 -51.15014,59.55346 -7.59277,23.37935 -5.66679,49.83106 5.97695,71.56444 11.19376,21.62021 24.89122,42.52175 43.769,58.22048 6.31036,5.37763 13.38115,9.91353 21.19311,12.77358 13.85172,5.31683 28.74929,6.64774 43.29395,8.93868 23.19385,3.37416 46.3794,6.83627 69.6704,9.48804 58.50598,6.80135 117.82913,9.87936 176.48602,3.06412 15.62938,-1.85129 31.41918,-3.69237 47.15825,-2.08481 17.96936,1.31092 36.23817,4.23841 54.12522,0.60429 13.04692,-2.83198 24.67285,-9.83827 35.37061,-17.57771 13.2666,-9.29196 26.27539,-18.95046 39.68599,-28.03664 8.01003,-5.65882 15.41151,-12.6071 19.80091,-21.51212 5.67221,-10.62379 7.58314,-22.87313 7.08605,-34.80785 -0.0576,-17.33285 -1.89161,-34.62996 -4.67186,-51.72267 -2.9566,-15.33378 -9.40832,-30.20409 -19.91872,-41.88755 -17.32828,-20.18624 -41.69779,-33.47993 -67.28638,-39.99248 -21.87484,-5.47455 -44.54653,-5.63706 -66.92615,-6.95957 -34.21521,-1.61259 -68.42802,-3.35173 -102.67297,-4.2087 -30.01915,-0.82182 -60.05006,-1.22857 -90.08057,-1.16767 z"
       id="path10"
       inkscape:connector-curvature="0"
       sodipodi:nodetypes="ccssssssc"
       transform="matrix(1.4163716,0.01751191,0,1.1945649,1074.3319,403.98594)" />
    <path
       style="font-variation-settings:normal;mix-blend-mode:normal;vector-effect:none;fill:#ffffff;fill-opacity:1;stroke:none;stroke-width:0.76253;stroke-linecap:butt;stroke-linejoin:miter;stroke-miterlimit:4;stroke-dasharray:none;stroke-dashoffset:0;stroke-opacity:1;-inkscape-stroke:none;filter:url(#filter22-5-0-7);stop-color:#000000"
       d="m 517.99023,540.30273 c -41.98571,1.83315 -83.85901,6.62922 -125.07864,14.86581 -12.26578,2.3784 -24.65285,5.09437 -35.83103,10.88487 -24.1119,11.94845 -42.9223,33.94863 -51.15014,59.55346 -7.59277,23.37935 -5.66679,49.83106 5.97695,71.56444 11.19376,21.62021 24.89122,42.52175 43.769,58.22048 6.31036,5.37763 13.38115,9.91353 21.19311,12.77358 13.85172,5.31683 28.74929,6.64774 43.29395,8.93868 23.19385,3.37416 46.3794,6.83627 69.6704,9.48804 58.50598,6.80135 117.82913,9.87936 176.48602,3.06412 15.62938,-1.85129 31.41918,-3.69237 47.15825,-2.08481 17.96936,1.31092 36.23817,4.23841 54.12522,0.60429 13.04692,-2.83198 24.67285,-9.83827 35.37061,-17.57771 13.2666,-9.29196 26.27539,-18.95046 39.68599,-28.03664 8.01003,-5.65882 15.41151,-12.6071 19.80091,-21.51212 5.67221,-10.62379 7.58314,-22.87313 7.08605,-34.80785 -0.0576,-17.33285 -1.89161,-34.62996 -4.67186,-51.72267 -2.9566,-15.33378 -9.40832,-30.20409 -19.91872,-41.88755 -17.32828,-20.18624 -41.69779,-33.47993 -67.28638,-39.99248 -21.87484,-5.47455 -44.54653,-5.63706 -66.92615,-6.95957 -34.21521,-1.61259 -68.42802,-3.35173 -102.67297,-4.2087 -30.01915,-0.82182 -60.05006,-1.22857 -90.08057,-1.16767 z"
       id="path10-7-1"
       inkscape:connector-curvature="0"
       sodipodi:nodetypes="ccssssssc"
       transform="matrix(1.4995526,0.01681311,0,1.1468977,-269.51993,1609.1554)" />
    <path
       style="font-variation-settings:normal;mix-blend-mode:normal;vector-effect:none;fill:#ffffff;fill-opacity:1;stroke:none;stroke-width:0.827129;stroke-linecap:butt;stroke-linejoin:miter;stroke-miterlimit:4;stroke-dasharray:none;stroke-dashoffset:0;stroke-opacity:1;-inkscape-stroke:none;filter:url(#filter22-5-0);stop-color:#000000"
       d="m 517.99023,540.30273 c -41.98571,1.83315 -83.85901,6.62922 -125.07864,14.86581 -12.26578,2.3784 -24.65285,5.09437 -35.83103,10.88487 -24.1119,11.94845 -42.9223,33.94863 -51.15014,59.55346 -7.59277,23.37935 -5.66679,49.83106 5.97695,71.56444 11.19376,21.62021 24.89122,42.52175 43.769,58.22048 6.31036,5.37763 13.38115,9.91353 21.19311,12.77358 13.85172,5.31683 28.74929,6.64774 43.29395,8.93868 23.19385,3.37416 46.3794,6.83627 69.6704,9.48804 58.50598,6.80135 117.82913,9.87936 176.48602,3.06412 15.62938,-1.85129 31.41918,-3.69237 47.15825,-2.08481 17.96936,1.31092 36.23817,4.23841 54.12522,0.60429 13.04692,-2.83198 24.67285,-9.83827 35.37061,-17.57771 13.2666,-9.29196 26.27539,-18.95046 39.68599,-28.03664 8.01003,-5.65882 15.41151,-12.6071 19.80091,-21.51212 5.67221,-10.62379 7.58314,-22.87313 7.08605,-34.80785 -0.0576,-17.33285 -1.89161,-34.62996 -4.67186,-51.72267 -2.9566,-15.33378 -9.40832,-30.20409 -19.91872,-41.88755 -17.32828,-20.18624 -41.69779,-33.47993 -67.28638,-39.99248 -21.87484,-5.47455 -44.54653,-5.63706 -66.92615,-6.95957 -34.21521,-1.61259 -68.42802,-3.35173 -102.67297,-4.2087 -30.01915,-0.82182 -60.05006,-1.22857 -90.08057,-1.16767 z"
       id="path10-7"
       inkscape:connector-curvature="0"
       sodipodi:nodetypes="ccssssssc"
       transform="matrix(1.2844427,0.01668253,0,1.1379898,681.27318,1158.6756)" />
    <path
       style="font-variation-settings:normal;mix-blend-mode:normal;vector-effect:none;fill:#ffffff;fill-opacity:1;stroke:none;stroke-width:0.988246;stroke-linecap:butt;stroke-linejoin:miter;stroke-miterlimit:4;stroke-dasharray:none;stroke-dashoffset:0;stroke-opacity:1;-inkscape-stroke:none;filter:url(#filter22-5-0-7);stop-color:#000000"
       d="m 517.99023,540.30273 c -41.98571,1.83315 -83.85901,6.62922 -125.07864,14.86581 -12.26578,2.3784 -24.65285,5.09437 -35.83103,10.88487 -24.1119,11.94845 -42.9223,33.94863 -51.15014,59.55346 -7.59277,23.37935 -5.66679,49.83106 5.97695,71.56444 11.19376,21.62021 24.89122,42.52175 43.769,58.22048 6.31036,5.37763 13.38115,9.91353 21.19311,12.77358 13.85172,5.31683 28.74929,6.64774 43.29395,8.93868 23.19385,3.37416 46.3794,6.83627 69.6704,9.48804 58.50598,6.80135 117.82913,9.87936 176.48602,3.06412 15.62938,-1.85129 31.41918,-3.69237 47.15825,-2.08481 17.96936,1.31092 36.23817,4.23841 54.12522,0.60429 13.04692,-2.83198 24.67285,-9.83827 35.37061,-17.57771 13.2666,-9.29196 26.27539,-18.95046 39.68599,-28.03664 8.01003,-5.65882 15.41151,-12.6071 19.80091,-21.51212 5.67221,-10.62379 7.58314,-22.87313 7.08605,-34.80785 -0.0576,-17.33285 -1.89161,-34.62996 -4.67186,-51.72267 -2.9566,-15.33378 -9.40832,-30.20409 -19.91872,-41.88755 -17.32828,-20.18624 -41.69779,-33.47993 -67.28638,-39.99248 -21.87484,-5.47455 -44.54653,-5.63706 -66.92615,-6.95957 -34.21521,-1.61259 -68.42802,-3.35173 -102.67297,-4.2087 -30.01915,-0.82182 -60.05006,-1.22857 -90.08057,-1.16767 z"
       id="path22"
       inkscape:connector-curvature="0"
       sodipodi:nodetypes="ccssssssc"
       transform="matrix(1.0874003,0.01380395,0,0.94162888,1385.8217,2246.3588)" />
  </g>
  <g
     inkscape:groupmode="layer"
     id="layer1"
     inkscape:label="txt">
    <text
       xml:space="preserve"
       style="font-style:normal;font-variant:normal;font-weight:normal;font-stretch:normal;line-height:0%;font-family:Lavi;-inkscape-font-specification:Lavi;text-align:center;letter-spacing:0px;word-spacing:0px;text-anchor:middle;white-space:pre;inline-size:607.727;display:inline;fill:#000000;fill-opacity:1;stroke:none"
       x="638.63513"
       y="795.55969"
       id="text4246-3-2-2-5"><tspan
         x="638.63513"
         y="795.55969"
         id="tspan22"><tspan
   style="font-size:45px;line-height:1.25"
   id="tspan7">Because a witch of the Light,</tspan> <tspan
   style="font-size:45px;line-height:1.25"
   id="tspan18">a</tspan><tspan
   y="795.55969"
   id="tspan23"> </tspan></tspan><tspan
         x="638.63513"
         y="851.80971"
         id="tspan27"><tspan
   style="font-size:45px;line-height:1.25"
   id="tspan26">prodigy raised by the white</tspan><tspan
   y="851.80971"
   id="tspan28"> </tspan></tspan><tspan
         x="638.63513"
         y="908.05971"
         id="tspan30"><tspan
   style="font-size:45px;line-height:1.25"
   id="tspan29">dragons, clearly dominated</tspan><tspan
   y="908.05971"
   id="tspan31"> </tspan></tspan><tspan
         x="638.63513"
         y="964.30971"
         id="tspan46"><tspan
           style="font-size:45px;line-height:1.25"
           id="tspan32">every battle.</tspan></tspan></text>
    <text
       xml:space="preserve"
       style="font-style:normal;font-variant:normal;font-weight:normal;font-stretch:normal;line-height:0%;font-family:Lavi;-inkscape-font-specification:Lavi;text-align:center;letter-spacing:0px;word-spacing:0px;text-anchor:middle;white-space:pre;inline-size:627.985;display:inline;fill:#000000;fill-opacity:1;stroke:none"
       x="1881.8663"
       y="1124.3285"
       id="text13"
       transform="translate(23.913043,26.086956)"><tspan
         x="1881.8663"
         y="1124.3285"
         id="tspan48"><tspan
   style="font-size:45px;line-height:1.25"
   id="tspan47">In the euphoria of victory and</tspan><tspan
   y="1124.3285"
   id="tspan49"> </tspan></tspan><tspan
         x="1881.8663"
         y="1180.5785"
         id="tspan51"><tspan
   style="font-size:45px;line-height:1.25"
   id="tspan50">power, this one nevertheless</tspan><tspan
   y="1180.5785"
   id="tspan52"> </tspan></tspan><tspan
         x="1881.8663"
         y="1236.8285"
         id="tspan54"><tspan
           style="font-size:45px;line-height:1.25"
           id="tspan53">broke a taboo in a final battle:</tspan></tspan></text>
    <text
       xml:space="preserve"
       style="font-style:normal;font-variant:normal;font-weight:normal;font-stretch:normal;font-size:45px;line-height:1.25;font-family:Lavi;-inkscape-font-specification:Lavi;text-align:center;letter-spacing:0px;word-spacing:0px;text-anchor:middle;white-space:pre;inline-size:571.27;display:inline;fill:#000000;fill-opacity:1;stroke:none"
       x="1435.7101"
       y="1888.3223"
       id="text13-1"><tspan
         x="1435.7101"
         y="1888.3223"
         id="tspan55">And killed our three witches,<tspan
   y="1888.3223"
   id="tspan56"> </tspan></tspan><tspan
         x="1435.7101"
         y="1944.5723"
         id="tspan57">eradicating the entire<tspan
   y="1944.5723"
   id="tspan58"> </tspan></tspan><tspan
         x="1435.7101"
         y="2000.8223"
         id="tspan59">School of Chaos.</tspan></text>
    <text
       xml:space="preserve"
       style="font-style:normal;font-variant:normal;font-weight:normal;font-stretch:normal;line-height:0%;font-family:Lavi;-inkscape-font-specification:Lavi;text-align:center;letter-spacing:0px;word-spacing:0px;text-anchor:middle;white-space:pre;inline-size:703.065;fill:#000000;fill-opacity:1;stroke:none"
       x="617.47876"
       y="2336.5535"
       id="text13-1-2"
       transform="translate(-8.6956518,6.5217389)"><tspan
         x="617.47876"
         y="2336.5535"
         id="tspan61"><tspan
   style="font-size:45px;line-height:1.25"
   id="tspan60">This macabre event chilled the</tspan><tspan
   y="2336.5535"
   id="tspan62"> </tspan></tspan><tspan
         x="617.47876"
         y="2392.8034"
         id="tspan64"><tspan
   style="font-size:45px;line-height:1.25"
   id="tspan63">blood of all belligerents, and the</tspan><tspan
   y="2392.8034"
   id="tspan65"> </tspan></tspan><tspan
         x="617.47876"
         y="2449.0534"
         id="tspan67"><tspan
           style="font-size:45px;line-height:1.25"
           id="tspan66">war came to an end.</tspan></tspan></text>
    <text
       xml:space="preserve"
       style="font-style:normal;font-variant:normal;font-weight:normal;font-stretch:normal;line-height:0%;font-family:Lavi;-inkscape-font-specification:Lavi;text-align:center;letter-spacing:0px;word-spacing:0px;text-anchor:middle;white-space:pre;inline-size:460.68;fill:#000000;fill-opacity:1;stroke:none"
       x="2032.1475"
       y="2860.5474"
       id="text25"
       transform="translate(-2.173913,8.6956518)"><tspan
         x="2032.1475"
         y="2860.5474"
         id="tspan69"><tspan
   style="font-size:45px;line-height:1.25"
   id="tspan68">Light then dominated</tspan><tspan
   y="2860.5474"
   id="tspan70"> </tspan></tspan><tspan
         x="2032.1475"
         y="2916.7973"
         id="tspan72"><tspan
           style="font-size:45px;line-height:1.25"
           id="tspan71">all other magic.</tspan></tspan></text>
  </g>
</svg>
