<?xml version="1.0" encoding="UTF-8" standalone="no"?>
<!-- Created With Inkscape (http://www.inkscape.org/) -->

<svg
   xmlns:dc="http://purl.org/dc/elements/1.1/"
   xmlns:cc="http://creativecommons.org/ns#"
   xmlns:rdf="http://www.w3.org/1999/02/22-rdf-syntax-ns#"
   xmlns:svg="http://www.w3.org/2000/svg"
   xmlns="http://www.w3.org/2000/svg"
   xmlns:xlink="http://www.w3.org/1999/xlink"
   xmlns:sodipodi="http://sodipodi.sourceforge.net/DTD/sodipodi-0.dtd"
   xmlns:inkscape="http://www.inkscape.org/namespaces/inkscape"
   id="svg2"
   version="1.1"
   inkscape:version="0.92.5 (2060ec1f9f, 2020-04-08)"
   width="2481"
   height="3503"
   sodipodi:docname="E13P03.svg"
   viewBox="0 0 2481 3503">
  <metadata
     id="metadata8">
    <rdf:RDF>
      <cc:Work
         rdf:about="">
        <dc:format>image/svg+xml</dc:format>
        <dc:type
           rdf:resource="http://purl.org/dc/dcmitype/StillImage" />
        <dc:title />
      </cc:Work>
    </rdf:RDF>
  </metadata>
  <defs
     id="defs6">
    <filter
       style="color-interpolation-filters:sRGB"
       id="filter5561-7-8-9"
       inkscape:label="Roughen">
      <feFlood
         id="feFlood5563-4-9-0"
         flood-opacity="1"
         flood-color="rgb(88,149,175)"
         result="flood" />
      <feComposite
         id="feComposite5565-6-3-0"
         in2="SourceGraphic"
         in="flood"
         operator="in"
         result="composite1" />
      <feMorphology
         id="feMorphology5567-3-48-3"
         operator="dilate"
         radius="5.5"
         result="result3" />
      <feComposite
         id="feComposite5569-6-6-5"
         in2="result3"
         in="SourceGraphic"
         operator="over"
         result="fbSourceGraphic" />
      <feColorMatrix
         result="fbSourceGraphicAlpha"
         in="fbSourceGraphic"
         values="0 0 0 -1 0 0 0 0 -1 0 0 0 0 -1 0 0 0 0 1 0"
         id="feColorMatrix4681-5-3" />
      <feTurbulence
         id="feTurbulence4683-3-9"
         type="fractalNoise"
         numOctaves="1"
         seed="33"
         baseFrequency="0.001 0.0199"
         result="turbulence" />
      <feDisplacementMap
         id="feDisplacementMap4685-0-6"
         in2="turbulence"
         in="fbSourceGraphic"
         scale="37.8"
         yChannelSelector="G"
         xChannelSelector="R" />
    </filter>
    <filter
       style="color-interpolation-filters:sRGB"
       id="filter5561-7-8-9-5"
       inkscape:label="Roughen">
      <feFlood
         id="feFlood5563-4-9-0-1"
         flood-opacity="1"
         flood-color="rgb(88,149,175)"
         result="flood" />
      <feComposite
         id="feComposite5565-6-3-0-8"
         in2="SourceGraphic"
         in="flood"
         operator="in"
         result="composite1" />
      <feMorphology
         id="feMorphology5567-3-48-3-8"
         operator="dilate"
         radius="5.5"
         result="result3" />
      <feComposite
         id="feComposite5569-6-6-5-6"
         in2="result3"
         in="SourceGraphic"
         operator="over"
         result="fbSourceGraphic" />
      <feColorMatrix
         result="fbSourceGraphicAlpha"
         in="fbSourceGraphic"
         values="0 0 0 -1 0 0 0 0 -1 0 0 0 0 -1 0 0 0 0 1 0"
         id="feColorMatrix4681-5-3-1" />
      <feTurbulence
         id="feTurbulence4683-3-9-7"
         type="fractalNoise"
         numOctaves="1"
         seed="33"
         baseFrequency="0.001 0.0199"
         result="turbulence" />
      <feDisplacementMap
         id="feDisplacementMap4685-0-6-9"
         in2="turbulence"
         in="fbSourceGraphic"
         scale="37.8"
         yChannelSelector="G"
         xChannelSelector="R" />
    </filter>
    <filter
       style="color-interpolation-filters:sRGB"
       id="filter5561-1"
       inkscape:label="deevad outline effect">
      <feFlood
         id="feFlood5563-9"
         flood-opacity="1"
         flood-color="rgb(0,0,0)"
         result="flood" />
      <feComposite
         id="feComposite5565-0"
         in2="SourceGraphic"
         in="flood"
         operator="in"
         result="composite1" />
      <feMorphology
         id="feMorphology5567-7"
         operator="dilate"
         radius="1.8999999999999999 6.0999999999999996"
         result="result3" />
      <feComposite
         id="feComposite5569-2"
         in2="result3"
         in="SourceGraphic"
         operator="over"
         result="composite2" />
    </filter>
  </defs>
  <sodipodi:namedview
     pagecolor="#ffffff"
     bordercolor="#666666"
     borderopacity="1"
     objecttolerance="10"
     gridtolerance="10"
     guidetolerance="10"
     inkscape:pageopacity="0"
     inkscape:pageshadow="2"
     inkscape:window-width="1866"
     inkscape:window-height="1016"
     id="namedview4"
     showgrid="false"
     inkscape:zoom="0.40000001"
     inkscape:cx="1733.2121"
     inkscape:cy="1346.7068"
     inkscape:window-x="54"
     inkscape:window-y="27"
     inkscape:window-maximized="1"
     inkscape:current-layer="layer1" />
  <g
     inkscape:groupmode="layer"
     id="layer2"
     inkscape:label="artwork"
     sodipodi:insensitive="true">
    <image
       sodipodi:absref="/home/user/lojban/webcomics/ep13_The-Pyjama-Party/lang/jb/../gfx_Pepper-and-Carrot_by-David-Revoy_E13P03.png"
       xlink:href="../gfx_Pepper-and-Carrot_by-David-Revoy_E13P03.png"
       y="0"
       x="0"
       id="image10"
       height="3503"
       width="2481" />
  </g>
  <g
     inkscape:groupmode="layer"
     id="layer3"
     inkscape:label="speechbubbles" />
  <g
     inkscape:groupmode="layer"
     id="layer1"
     inkscape:label="txt">
    <path
       style="fill:#ffffff;stroke:none;stroke-width:0.88267374"
       d="m 637.09207,1931.2545 c 1.73788,-28.8595 10.71618,-53.5359 86.75648,-53.5587 79.85711,-0.024 94.69234,15.3848 95.52039,54.3179 1.16862,54.9422 -43.84042,52.3852 -91.01633,52.5245 -66.08325,0.1953 -90.87036,0.2415 -91.26054,-53.2837 z"
       id="path3280-1"
       inkscape:connector-curvature="0"
       sodipodi:nodetypes="csssc" />
    <path
       style="color:#000000;display:inline;overflow:visible;visibility:visible;fill:#ffffff;fill-opacity:1;fill-rule:nonzero;stroke:none;stroke-width:0.79420424px;marker:none;enable-background:accumulate"
       d="m 1401.185,486.30966 c 2.7312,49.88168 -22.5327,56.1972 -62.9512,62.78734 -21.7002,0.39696 -69.5143,3.44393 -107.4392,-4.36277 -29.7184,-6.11742 -53.3642,-18.89955 -53.6136,-44.84403 -0.6835,-71.12506 70.3264,-67.23814 118.2114,-66.88217 68.4556,0.5089 104.4016,13.3897 105.7926,53.30163 z"
       id="path3145-9-0"
       inkscape:connector-curvature="0"
       sodipodi:nodetypes="ccsssc" />
    <path
       style="color:#000000;display:inline;overflow:visible;visibility:visible;fill:#ffffff;fill-opacity:1;fill-rule:nonzero;stroke:none;stroke-width:0.89545459px;marker:none;enable-background:accumulate"
       d="m 1230.8369,344.43911 c 3.4789,97.98289 -28.7007,110.38852 -80.1831,123.33355 -49.2998,1.39077 -204.41648,19.34144 -205.13932,-96.65721 -0.87086,-139.71135 89.57752,-132.07627 150.57032,-131.37703 87.1946,0.99963 132.9805,26.30146 134.7521,104.70069 z"
       id="path3145-9"
       inkscape:connector-curvature="0"
       sodipodi:nodetypes="ccssc" />
    <path
       style="fill:#ffffff;stroke:none"
       d="m 1751.3188,2818.5833 c -123.5801,-298.9244 23.6707,-1016.9455 23.6707,-1016.9455 l -33.5926,-0.458 c 0,0 -149.3925,713.6723 9.9219,1017.4035 z"
       id="path3067"
       inkscape:connector-curvature="0"
       sodipodi:nodetypes="cccc" />
    <path
       style="fill:#ffffff;fill-opacity:1;stroke:none;stroke-width:0.75489044"
       d="m 1610.1435,1841.6049 c 0.4612,-49.7428 54.8928,-72.2377 157.1177,-67.0976 76.5559,3.8494 168.7894,3.7873 165.7322,74.7649 -1.5287,35.4888 -69.0137,45.3098 -162.3276,45.2837 -124.3597,-0.035 -160.8005,-22.9491 -160.5223,-52.951 z"
       id="path3238"
       inkscape:connector-curvature="0"
       sodipodi:nodetypes="sssss" />
    <path
       style="color:#000000;display:inline;overflow:visible;visibility:visible;fill:#ffffff;fill-opacity:1;fill-rule:nonzero;stroke:none;stroke-width:1.11775196px;marker:none;enable-background:accumulate"
       d="m 1020.0032,3090.4047 c 6.649,-7.0116 18.8184,-1.9129 27.4684,-5.4125 8.6501,-3.4997 13.7807,-15.5977 22.5098,-18.1836 30.216,-7.4138 62.942,5.2945 93.8226,2.6644 30.8808,-2.63 59.9164,-20.5987 90.8301,-20.3546 29.4335,0.7193 56.054,18.4261 85.3881,22.2143 29.3341,3.7882 61.3819,-6.3425 89.5527,3.4003 13.4044,4.6638 12.5705,20.5859 24.4207,28.9298 11.8501,8.3439 36.3843,9.11 43.9744,22.2814 12.7688,21.4834 5.3845,46.9799 7.5343,72.0549 2.1499,25.0746 13.834,49.7276 8.1892,73.8367 -4.2911,17.0906 -27.5009,26.9349 -36.1178,42.4541 -8.6169,15.5189 -2.6411,36.7126 -17.2292,46.3092 -13.8266,7.8271 -37.7382,-2.2358 -52.9303,1.4123 -15.1921,3.6479 -21.6648,21.0068 -36.9676,23.2918 -37.4187,4.6188 -77.0624,-11.4148 -114.7205,-10.91 -37.6583,0.5046 -73.3308,17.5475 -110.8859,14.9932 -18.0262,-1.7022 -31.3033,-20.2233 -49.3368,-22.9926 -18.0336,-2.7689 -40.8233,10.2141 -57.6784,2.5079 -11.771,-5.214 -14.1913,-24.0018 -22.7583,-33.9216 -8.567,-9.9195 -23.2807,-10.9707 -27.32445,-23.8439 -5.13931,-15.822 8.92475,-35.4396 6.95675,-52.0191 -1.968,-16.5796 -19.9679,-30.1213 -20.5667,-46.7312 -0.0104,-22.5802 23.8687,-34.8975 31.9489,-55.5112 8.0802,-20.6136 0.3645,-49.5238 13.92,-66.47 z"
       id="path4040-4"
       inkscape:connector-curvature="0"
       sodipodi:nodetypes="cscscscscscscscscscscscsc" />
    <path
       style="color:#000000;display:inline;overflow:visible;visibility:visible;fill:#ffffff;fill-opacity:1;fill-rule:nonzero;stroke:none;stroke-width:1px;marker:none;enable-background:accumulate"
       d="m 568.9765,2070.5354 c 29.2314,-0.8578 38.11069,-16.0709 41.57447,-30.2351 3.46369,-14.1642 3.162,-23.3991 25.7719,-37.2845 22.6099,-13.8855 36.62854,-6.3564 49.09724,-12.9569 17.16101,-16.0085 2.99727,-37.4201 -0.24118,-49.5203 -3.57198,-13.3465 37.17368,-3.8411 37.17368,-3.8411 0,0 -0.98288,40.2063 -9.30735,62.789 -8.32443,22.5827 -52.58355,6.6035 -71.61632,18.8115 -17.77293,11.3999 -17.05952,37.4485 -29.32355,45.8579 -12.26411,8.4095 -29.34649,8.9491 -43.12889,6.3795 z"
       id="path4538"
       inkscape:connector-curvature="0"
       sodipodi:nodetypes="csscscsssc" />
    <path
       style="color:#000000;display:inline;overflow:visible;visibility:visible;fill:#ffffff;fill-opacity:1;fill-rule:nonzero;stroke:none;stroke-width:1px;marker:none;enable-background:accumulate"
       d="m 1235.0351,497.48612 c 20.0758,25.65981 40.3522,57.37851 42.1731,63.98868 1.821,6.61024 -12.4558,35.1273 -6.5551,43.98189 5.901,8.85457 26.9955,16.88948 29.5982,22.91015 2.6025,6.02046 -3.8012,30.37054 1.232,37.2182 5.0333,6.84775 39.5213,32.27779 41.285,37.15703 1.7637,4.87916 18.0233,150.15707 34.8293,173.84821 -16.9167,-51.11286 -18.94,-177.85435 -24.8408,-186.7088 -5.9009,-8.8547 -28.7876,-22.6343 -32.2866,-31.52725 -3.4987,-8.89277 2.1235,-32.65316 -4.5876,-41.78343 -6.7109,-9.13029 -22.1913,-16.96619 -22.1913,-16.96619 5.4424,-4.9942 28.4027,-37.40221 0.3184,-87.18236 -28.0841,-49.78016 -58.9746,-14.93613 -58.9746,-14.93613 z"
       id="path5050"
       inkscape:connector-curvature="0"
       sodipodi:nodetypes="ccccsccscccsc" />
    <path
       style="color:#000000;display:inline;overflow:visible;visibility:visible;fill:#ffffff;fill-opacity:1;fill-rule:nonzero;stroke:none;stroke-width:1px;marker:none;enable-background:accumulate"
       d="m 589.51385,223.65636 c -3.4795,-75.40057 40.76844,-84.59565 111.46743,-93.99768 67.55693,-0.53863 280.29675,-12.67433 279.76397,76.55328 -0.64144,107.46773 -124.45224,100.6209 -208.00096,99.42605 -119.44016,-1.70815 -181.83285,-21.66216 -183.23044,-81.98165 z"
       id="path3145"
       inkscape:connector-curvature="0"
       sodipodi:nodetypes="ccssc" />
    <text
       xml:space="preserve"
       style="font-style:normal;font-variant:normal;font-weight:normal;font-stretch:normal;line-height:0%;font-family:Lavi;-inkscape-font-specification:Lavi;text-align:center;letter-spacing:0px;word-spacing:0px;text-anchor:middle;fill:#000000;fill-opacity:1;stroke:none"
       x="1081.8322"
       y="305.76379"
       id="text4246"><tspan
         sodipodi:role="line"
         style="font-size:45px;line-height:1.25"
         x="1081.8322"
         y="305.76379"
         id="tspan3668">le du'u</tspan><tspan
         sodipodi:role="line"
         style="font-size:45px;line-height:1.25"
         x="1081.8322"
         y="362.01379"
         id="tspan3688">lo'e cafne</tspan><tspan
         sodipodi:role="line"
         style="font-size:45px;line-height:1.25"
         x="1081.8322"
         y="418.26379"
         id="tspan3692">so'i roi .y.</tspan></text>
    <path
       style="fill:#ffffff;stroke:none;stroke-width:0.95686412"
       d="m 495.34439,1773.1703 c 3.53493,-59.7347 21.7972,-110.8109 176.4667,-110.8581 162.433,-0.05 192.60854,31.8443 194.2929,112.4296 2.37696,113.7217 -89.17345,108.4291 -185.13146,108.7176 -134.41637,0.4041 -184.83449,0.4996 -185.62814,-110.2891 z"
       id="path3280"
       inkscape:connector-curvature="0"
       sodipodi:nodetypes="csssc" />
    <text
       xml:space="preserve"
       style="font-style:normal;font-variant:normal;font-weight:normal;font-stretch:normal;line-height:0%;font-family:Lavi;-inkscape-font-specification:Lavi;text-align:center;letter-spacing:0px;word-spacing:0px;text-anchor:middle;fill:#000000;fill-opacity:1;stroke:none"
       x="674.7868"
       y="1734.1648"
       id="text4246-4"><tspan
         sodipodi:role="line"
         style="font-size:45px;line-height:1.25"
         x="674.7868"
         y="1734.1648"
         id="tspan3677">.i .au da'i</tspan><tspan
         sodipodi:role="line"
         style="font-size:45px;line-height:1.25"
         x="674.7868"
         y="1790.4148"
         id="tspan3702">mi ta'e kufra</tspan><tspan
         sodipodi:role="line"
         style="font-size:45px;line-height:1.25"
         x="674.7868"
         y="1846.6648"
         id="tspan3700">lo simsa be ti</tspan></text>
    <path
       style="color:#000000;display:inline;overflow:visible;visibility:visible;fill:#ffffff;fill-opacity:1;fill-rule:nonzero;stroke:none;stroke-width:1px;marker:none;enable-background:accumulate"
       d="m 1184.1682,3144.0423 c -118.9029,-136.8804 -39.7363,-595.7748 29.2046,-695.0521 -81.4335,63.833 -170.8097,612.0513 -75.86,707.9585 32.6444,32.9738 165.5583,123.9739 46.6554,-12.9064 z"
       id="path4480"
       inkscape:connector-curvature="0"
       sodipodi:nodetypes="zcsz" />
    <text
       xml:space="preserve"
       style="color:#000000;font-style:normal;font-variant:normal;font-weight:normal;font-stretch:normal;line-height:0%;font-family:Arial;-inkscape-font-specification:Arial;letter-spacing:0.02734961px;word-spacing:0px;clip-rule:nonzero;display:inline;overflow:visible;visibility:visible;opacity:1;isolation:auto;mix-blend-mode:normal;color-interpolation:sRGB;color-interpolation-filters:linearRGB;solid-color:#000000;solid-opacity:1;fill:#d7e3f4;fill-opacity:1;fill-rule:nonzero;stroke:#ffffff;stroke-width:1.11559534;stroke-linecap:butt;stroke-linejoin:miter;stroke-miterlimit:4;stroke-dasharray:none;stroke-dashoffset:0;stroke-opacity:1;marker:none;filter:url(#filter5561-7-8-9);color-rendering:auto;image-rendering:auto;shape-rendering:auto;text-rendering:auto;enable-background:accumulate"
       x="1705.2566"
       y="1742.2045"
       id="text4251-9-3"
       transform="matrix(0.56659406,-0.01857156,-0.37112281,1.2121883,340.70925,530.03107)"><tspan
         sodipodi:role="line"
         id="tspan4253-3-7"
         x="1705.2566"
         y="1742.2045"
         style="font-style:normal;font-variant:normal;font-weight:normal;font-stretch:normal;font-size:160.11950684px;line-height:1.25;font-family:Lavi;-inkscape-font-specification:Lavi;fill:#d7e3f4;fill-opacity:1"><tspan
           style="font-size:90px;fill:#d7e3f4;fill-opacity:1"
           id="tspan4349-9-9">.ciiiiinz.</tspan></tspan></text>
    <text
       xml:space="preserve"
       style="color:#000000;font-style:normal;font-variant:normal;font-weight:normal;font-stretch:normal;line-height:0%;font-family:Arial;-inkscape-font-specification:Arial;letter-spacing:0.02734961px;word-spacing:0px;display:inline;overflow:visible;visibility:visible;fill:#ffffff;fill-opacity:1;fill-rule:nonzero;stroke:#ffffff;stroke-width:1.11559534;stroke-linecap:butt;stroke-linejoin:miter;stroke-miterlimit:4;stroke-dasharray:none;stroke-dashoffset:0;stroke-opacity:1;marker:none;filter:url(#filter5561-1);enable-background:accumulate"
       id="text4251-1-3"
       inkscape:transform-center-x="-223.72753"
       inkscape:transform-center-y="137.11092"
       y="1742.2045"
       x="1705.2566"
       transform="matrix(0.5605584,-0.46242654,0.37517214,1.5026606,-52.257301,-434.9215)"><tspan
         sodipodi:role="line"
         id="tspan4253-5-1"
         x="1705.2566"
         y="1742.2045"
         style="font-style:normal;font-variant:normal;font-weight:normal;font-stretch:normal;font-size:45.57711792px;line-height:1.25;font-family:Lavi;-inkscape-font-specification:Lavi;letter-spacing:6.35989523px">bam !</tspan></text>
    <text
       xml:space="preserve"
       style="font-style:normal;font-variant:normal;font-weight:normal;font-stretch:normal;line-height:0%;font-family:Lavi;-inkscape-font-specification:Lavi;text-align:center;letter-spacing:0px;word-spacing:0px;text-anchor:middle;fill:#000000;fill-opacity:1;stroke:none"
       x="1245.3212"
       y="3118.2651"
       id="text4246-4-8"><tspan
         sodipodi:role="line"
         style="font-size:45px;line-height:1.25"
         x="1245.3212"
         y="3118.2651"
         id="tspan3704">sei ta'e cusku</tspan><tspan
         sodipodi:role="line"
         style="font-size:45px;line-height:1.25"
         x="1245.3212"
         y="3174.5151"
         id="tspan86">lo'e jerna be le ka</tspan><tspan
         sodipodi:role="line"
         style="font-size:45px;line-height:1.25"
         x="1245.3212"
         y="3230.7651"
         id="tspan3689">me le te makfa pe la .ax.</tspan><tspan
         sodipodi:role="line"
         style="font-size:45px;line-height:1.25"
         x="1245.3212"
         y="3287.0151"
         id="tspan3728">cu bilga le ka na surla</tspan><tspan
         sodipodi:role="line"
         style="font-size:45px;line-height:1.25"
         x="1245.3212"
         y="3343.2651"
         id="tspan98">le ka lazni</tspan></text>
    <path
       style="color:#000000;display:inline;overflow:visible;visibility:visible;fill:#ffffff;fill-opacity:1;fill-rule:nonzero;stroke:none;stroke-width:0.85924822px;marker:none;enable-background:accumulate"
       d="m 1777.12,1698.7725 c 18.7688,-33.1688 120.8539,-30.3372 154.8196,-15.9669 33.9655,14.3701 46.6038,39.1187 48.1836,47.9005 1.5796,8.7818 -2.3697,49.4974 -19.7475,57.4809 -17.3777,7.9834 -67.1411,11.9751 -84.5188,11.9751 -17.3776,0 -72.8512,-5.0814 -86.8886,-16.7653 -13.4282,-11.1768 -30.6171,-51.4559 -11.8483,-84.6243 z"
       id="path3330"
       inkscape:connector-curvature="0"
       sodipodi:nodetypes="zsssssz" />
    <text
       xml:space="preserve"
       style="font-style:normal;font-variant:normal;font-weight:normal;font-stretch:normal;line-height:0%;font-family:Lavi;-inkscape-font-specification:Lavi;text-align:center;letter-spacing:0px;word-spacing:0px;text-anchor:middle;fill:#000000;fill-opacity:1;stroke:none"
       x="1915.8134"
       y="1708.2682"
       id="text4246-4-3"
       transform="scale(0.97654552,1.0240178)"><tspan
         sodipodi:role="line"
         style="font-size:53.13556671px;line-height:1.25"
         x="1915.8134"
         y="1708.2682"
         id="tspan4315-1">.i u'i</tspan></text>
    <text
       xml:space="preserve"
       style="font-style:normal;font-variant:normal;font-weight:normal;font-stretch:normal;line-height:0%;font-family:Lavi;-inkscape-font-specification:Lavi;text-align:center;letter-spacing:0px;word-spacing:0px;text-anchor:middle;fill:#000000;fill-opacity:1;stroke:none"
       x="1772.9972"
       y="1850.656"
       id="text4246-4-5"><tspan
         sodipodi:role="line"
         style="font-size:45px;line-height:1.25"
         x="1772.9972"
         y="1850.656"
         id="tspan4315-4">kulnu</tspan></text>
    <path
       style="fill:#ffffff;fill-opacity:1;stroke:none;stroke-width:1.0176748"
       d="m 1584.2024,1980.2195 c -0.9594,-121.1805 118.7109,-119.2524 231.8152,-114.7912 113.0074,4.4572 249.0357,-13.0709 244.5249,130.2761 -2.2553,71.6734 -101.8242,91.5081 -239.5016,91.4553 -183.4834,-0.072 -236.3588,-46.3498 -236.8385,-106.9402 z"
       id="path3238-4"
       inkscape:connector-curvature="0"
       sodipodi:nodetypes="sssss" />
    <text
       xml:space="preserve"
       style="font-style:normal;font-variant:normal;font-weight:normal;font-stretch:normal;line-height:0%;font-family:Lavi;-inkscape-font-specification:Lavi;text-align:center;letter-spacing:0px;word-spacing:0px;text-anchor:middle;fill:#000000;fill-opacity:1;stroke:none"
       x="1813.5015"
       y="1941.4774"
       id="text4246-4-5-6"><tspan
         sodipodi:role="line"
         style="font-size:45px;line-height:110.00000238%"
         x="1813.5015"
         y="1941.4774"
         id="tspan3705">.i cafne fa le nu</tspan><tspan
         sodipodi:role="line"
         style="font-size:45px;line-height:110.00000238%"
         x="1813.5015"
         y="1990.9774"
         id="tspan88">le kurji be mi cu cusku</tspan><tspan
         sodipodi:role="line"
         style="font-size:45px;line-height:110.00000238%"
         x="1813.5015"
         y="2040.4774"
         id="tspan90">lo simsa</tspan></text>
    <path
       style="color:#000000;display:inline;overflow:visible;visibility:visible;fill:#ffffff;fill-opacity:1;fill-rule:nonzero;stroke:none;stroke-width:0.93123686px;marker:none;enable-background:accumulate"
       d="m 1997.9681,2645.2287 c -5.4679,-24.3593 9.1135,-89.0635 121.2088,-83.7349 112.0951,5.3285 130.322,35.7776 133.056,44.9123 2.734,9.1347 26.429,60.8981 -61.06,74.6003 -87.489,13.702 -165.8644,-0.7613 -193.2048,-35.7777 z"
       id="path3525"
       inkscape:connector-curvature="0" />
    <path
       style="color:#000000;display:inline;overflow:visible;visibility:visible;fill:#ffffff;fill-opacity:1;fill-rule:nonzero;stroke:none;stroke-width:1px;marker:none;enable-background:accumulate"
       d="m 2075.1234,2655.3197 c -3.6441,17.7301 -11.4447,39.2898 -14.8162,43.5939 -3.3716,4.3041 -33.9861,21.1325 -35.9893,27.1701 -2.003,6.0374 7.6075,12.7532 5.2221,16.7476 -2.3853,3.9943 -24.325,18.8186 -25.5329,23.5247 -1.208,4.706 5.7751,23.4243 3.5911,26.6343 -2.1838,3.2099 -13.8992,20.5911 -18.5194,36.825 24.0138,-33.5034 32.9004,-38.0978 34.9034,-44.1353 2.0031,-6.0375 -4.8295,-16.5104 -1.0552,-22.3832 3.7742,-5.8728 24.7276,-20.3873 26.3381,-26.6621 1.6106,-6.2747 -4.065,-12.4239 -4.065,-12.4239 7.4977,-2.7159 47.1797,-21.3111 62.1362,-54.8537 14.9567,-33.5427 -32.2129,-14.0374 -32.2129,-14.0374 z"
       id="path5050-4"
       inkscape:connector-curvature="0" />
    <text
       xml:space="preserve"
       style="font-style:normal;font-variant:normal;font-weight:normal;font-stretch:normal;line-height:0%;font-family:Lavi;-inkscape-font-specification:Lavi;text-align:center;letter-spacing:0px;word-spacing:0px;text-anchor:middle;fill:#000000;fill-opacity:1;stroke:none"
       x="2122.4675"
       y="2635.6023"
       id="text4246-4-9"><tspan
         sodipodi:role="line"
         style="font-size:45px;line-height:1.25"
         x="2122.4675"
         y="2635.6023"
         id="tspan4466-9">.i xu jetnu</tspan></text>
    <text
       id="text4202"
       y="176.26379"
       x="785.20715"
       style="font-style:normal;font-variant:normal;font-weight:normal;font-stretch:normal;line-height:0%;font-family:Lavi;-inkscape-font-specification:Lavi;text-align:center;letter-spacing:0px;word-spacing:0px;text-anchor:middle;fill:#000000;fill-opacity:1;stroke:none"
       xml:space="preserve"><tspan
         y="176.26379"
         x="785.20715"
         style="font-size:45px;line-height:1.25"
         sodipodi:role="line"
         id="tspan3653">.i le ca tcini</tspan><tspan
         y="232.51379"
         x="785.20715"
         style="font-size:45px;line-height:1.25"
         sodipodi:role="line"
         id="tspan3667">cu rinka le nu</tspan><tspan
         y="288.76379"
         x="785.20715"
         style="font-size:45px;line-height:1.25"
         sodipodi:role="line"
         id="tspan3671">mi morji</tspan></text>
    <text
       xml:space="preserve"
       style="font-style:normal;font-variant:normal;font-weight:normal;font-stretch:normal;line-height:0%;font-family:Lavi;-inkscape-font-specification:Lavi;text-align:center;letter-spacing:0px;word-spacing:0px;text-anchor:middle;fill:#000000;fill-opacity:1;stroke:none"
       x="1285.0151"
       y="506.20026"
       id="text4246-41"><tspan
         sodipodi:role="line"
         style="font-size:45px;line-height:1.25"
         x="1285.0151"
         y="506.20026"
         id="tspan4291">tolzdi</tspan></text>
    <text
       xml:space="preserve"
       style="font-style:normal;font-variant:normal;font-weight:normal;font-stretch:normal;line-height:0%;font-family:Lavi;-inkscape-font-specification:Lavi;text-align:center;letter-spacing:0px;word-spacing:0px;text-anchor:middle;fill:#000000;fill-opacity:1;stroke:none"
       x="731.60193"
       y="1943.6664"
       id="text4246-4-81"><tspan
         sodipodi:role="line"
         style="font-size:45px;line-height:1.25"
         x="731.60193"
         y="1943.6664"
         id="tspan4466-1">.i ku'i</tspan></text>
  </g>
</svg>
