<?xml version="1.0" encoding="UTF-8" standalone="no"?>
<!-- Created With Inkscape (http://www.inkscape.org/) -->

<svg
   xmlns:dc="http://purl.org/dc/elements/1.1/"
   xmlns:cc="http://creativecommons.org/ns#"
   xmlns:rdf="http://www.w3.org/1999/02/22-rdf-syntax-ns#"
   xmlns:svg="http://www.w3.org/2000/svg"
   xmlns="http://www.w3.org/2000/svg"
   xmlns:xlink="http://www.w3.org/1999/xlink"
   xmlns:sodipodi="http://sodipodi.sourceforge.net/DTD/sodipodi-0.dtd"
   xmlns:inkscape="http://www.inkscape.org/namespaces/inkscape"
   id="svg2"
   version="1.1"
   inkscape:version="0.92.5 (2060ec1f9f, 2020-04-08)"
   width="2481"
   height="3503"
   sodipodi:docname="E13P01.svg"
   viewBox="0 0 2481 3503">
  <metadata
     id="metadata8">
    <rdf:RDF>
      <cc:Work
         rdf:about="">
        <dc:format>image/svg+xml</dc:format>
        <dc:type
           rdf:resource="http://purl.org/dc/dcmitype/StillImage" />
        <dc:title />
      </cc:Work>
    </rdf:RDF>
  </metadata>
  <defs
     id="defs6" />
  <sodipodi:namedview
     pagecolor="#ffffff"
     bordercolor="#666666"
     borderopacity="1"
     objecttolerance="10"
     gridtolerance="10"
     guidetolerance="10"
     inkscape:pageopacity="0"
     inkscape:pageshadow="2"
     inkscape:window-width="1866"
     inkscape:window-height="1016"
     id="namedview4"
     showgrid="false"
     inkscape:zoom="0.37194736"
     inkscape:cx="1539.685"
     inkscape:cy="429.75817"
     inkscape:window-x="54"
     inkscape:window-y="27"
     inkscape:window-maximized="1"
     inkscape:current-layer="layer1" />
  <g
     inkscape:groupmode="layer"
     id="layer2"
     inkscape:label="artwork"
     sodipodi:insensitive="true">
    <image
       sodipodi:absref="/home/user/lojban/webcomics/ep13_The-Pyjama-Party/lang/jb/../gfx_Pepper-and-Carrot_by-David-Revoy_E13P01.png"
       xlink:href="../gfx_Pepper-and-Carrot_by-David-Revoy_E13P01.png"
       width="2481"
       height="3503"
       id="image10"
       x="0"
       y="0" />
  </g>
  <g
     inkscape:groupmode="layer"
     id="layer3"
     inkscape:label="speechbubbles" />
  <g
     inkscape:groupmode="layer"
     id="layer1"
     inkscape:label="txt">
    <path
       style="fill:#ffffff;fill-opacity:1;stroke:none"
       d="M 722.80334,769.26331 C 733.56619,710.8626 664.86577,709.5295 536.01621,705.7578 c -123.15479,-3.6049 -147.59936,9.0774 -164.20957,33.63651 -19.17918,28.3574 -25.58937,73.8614 72.62101,88.2487 78.08081,11.4386 216.48911,0.6814 234.20072,-11.7527 17.7116,-12.4341 38.78082,-15.271 44.17497,-46.627 z"
       id="path3238-1-6"
       inkscape:connector-curvature="0"
       sodipodi:nodetypes="cssssc" />
    <path
       style="fill:#ffffff;fill-opacity:1;stroke:none;stroke-width:0.70916539"
       d="m 646.731,1108.9836 c 5.6575,-62.1699 -30.45492,-63.589 -98.18475,-67.6041 -64.73638,-3.8376 -77.58568,9.6632 -86.31685,35.8074 -10.08154,30.1876 -13.45106,78.6284 38.17327,93.9443 41.04322,12.1768 112.58896,-3.5418 123.10773,-12.5112 11.17481,-9.5288 20.38516,-16.2566 23.2206,-49.6364 z"
       id="path3238-1"
       inkscape:connector-curvature="0"
       sodipodi:nodetypes="cssssc" />
    <path
       style="color:#000000;display:inline;overflow:visible;visibility:visible;fill:#ffffff;fill-opacity:1;fill-rule:nonzero;stroke:none;stroke-width:1px;marker:none;enable-background:accumulate"
       d="m 2065.3434,2938.9931 c 59.1369,57.7184 84.0546,81.7232 70.3501,131.5639 -13.7043,49.8409 29.5777,21.853 29.5777,21.853 0,0 27.6302,-106.7588 -99.9278,-153.4169 z"
       id="path3984"
       inkscape:connector-curvature="0"
       sodipodi:nodetypes="cscc" />
    <path
       style="color:#000000;display:inline;overflow:visible;visibility:visible;fill:#ffffff;fill-opacity:1;fill-rule:nonzero;stroke:none;stroke-width:1.0267148px;marker:none;enable-background:accumulate"
       d="m 2020.4801,3136.589 c 1.5572,-49.6424 37.5061,-81.4368 75.4205,-88.6523 38.9248,-7.4079 59.1994,-4.5487 70.0083,-1.8473 10.8089,2.7015 94.62,-3.7384 126.8771,0.8367 31.0551,4.4047 77.5092,32.9318 74.5613,96.4165 -2.948,63.4847 -47.1662,90.4995 -92.3669,94.5516 -45.2011,4.0523 -126.7498,2.7123 -150.4329,1.7779 -35.117,-1.3853 -97.1889,0.9237 -104.0674,-103.0834 z"
       id="path5034"
       inkscape:connector-curvature="0"
       sodipodi:nodetypes="cscsssscc" />
    <path
       style="fill:#ffffff;fill-opacity:1;stroke:none;stroke-width:0.93100792"
       d="m 471.94488,1449.7348 c -8.177,58.7809 48.83451,59.0418 155.77756,60.8072 102.21649,1.6871 122.33256,-11.4244 135.7963,-36.3328 15.54606,-28.7607 20.27811,-74.5301 -61.38315,-87.4297 -64.92365,-10.256 -142.96845,-6.0398 -182.5393,5.4897 -31.81427,9.2695 -43.58011,25.9115 -47.65141,57.4656 z"
       id="path3238"
       inkscape:connector-curvature="0"
       sodipodi:nodetypes="cssssc" />
    <path
       style="color:#000000;display:inline;overflow:visible;visibility:visible;fill:#ffffff;fill-opacity:1;fill-rule:nonzero;stroke:none;stroke-width:1px;marker:none;enable-background:accumulate"
       d="M 537.20621,747.31481 C 497.18166,1119.9729 723.58268,1848.6244 747.8049,2074.1644 760.10221,1890.5729 526.40737,1185.705 565.75742,742.84162 c -24.19123,-4.10336 -28.55121,4.47319 -28.55121,4.47319 z"
       id="path4008"
       inkscape:connector-curvature="0"
       sodipodi:nodetypes="cccc" />
    <text
       xml:space="preserve"
       style="font-style:normal;font-variant:normal;font-weight:normal;font-stretch:normal;line-height:0%;font-family:Lavi;-inkscape-font-specification:'Lavi, Normal';text-align:center;letter-spacing:0px;word-spacing:0px;writing-mode:lr-tb;text-anchor:middle;fill:#000000;fill-opacity:1;stroke:none;stroke-width:1px;stroke-linecap:butt;stroke-linejoin:miter;stroke-opacity:1"
       x="2232.5"
       y="3110.5"
       id="text4169"><tspan
         sodipodi:role="line"
         id="tspan4171"
         x="2240.7625"
         y="3110.5"
         style="font-size:47.00374985px;line-height:1.25"> </tspan><tspan
         sodipodi:role="line"
         x="2240.7625"
         y="3169.2546"
         id="tspan4173"
         style="font-size:47.00374985px;line-height:1.25"> </tspan></text>
    <path
       style="fill:#ffffff;stroke:none;stroke-width:0.96459609"
       d="m 1934.4437,3357.0307 c -11.4687,-51.4542 13.6977,-94.6973 30.4419,-105.7415 16.7441,-11.0442 45.8097,-24.8258 60.4537,-27.615 14.6442,-2.7893 247.4956,-15.3749 261.6105,-9.1236 14.1147,6.2512 77.4756,28.6398 92.2809,60.3203 14.8055,31.6805 35.3753,124.1156 17.2831,142.5771 -18.0923,18.4614 -64.8773,8.13 -170.8171,15.4198 -105.9397,7.2899 -233.1903,7.5071 -264.4327,-29.6507 -17.6129,-20.9474 -26.8203,-46.1864 -26.8203,-46.1864 z"
       id="path3286"
       inkscape:connector-curvature="0"
       sodipodi:nodetypes="csssssssc" />
    <text
       xml:space="preserve"
       style="color:#000000;font-style:normal;font-variant:normal;font-weight:normal;font-stretch:normal;line-height:0%;font-family:Lavi;-inkscape-font-specification:Lavi;text-indent:0;text-align:center;text-decoration:none;text-decoration-line:none;letter-spacing:0px;word-spacing:0px;text-transform:none;writing-mode:lr-tb;direction:ltr;baseline-shift:baseline;text-anchor:middle;display:inline;overflow:visible;visibility:visible;fill:#000000;fill-opacity:1;fill-rule:nonzero;stroke:none;enable-background:accumulate"
       x="2197.707"
       y="3103.4229"
       id="text4159"><tspan
         sodipodi:role="line"
         x="2197.707"
         y="3103.4229"
         id="tspan4146"
         style="font-size:45px;line-height:1.25">.i mutce pluka</tspan><tspan
         sodipodi:role="line"
         x="2197.707"
         y="3159.6729"
         id="tspan4158"
         style="font-size:45px;line-height:1.25">bu'u ti doi</tspan><tspan
         sodipodi:role="line"
         x="2197.707"
         y="3215.9229"
         id="tspan4152"
         style="font-size:45px;line-height:1.25">la .koriander.</tspan></text>
    <text
       xml:space="preserve"
       style="color:#000000;font-style:normal;font-variant:normal;font-weight:normal;font-stretch:normal;line-height:0%;font-family:Lavi;-inkscape-font-specification:Lavi;text-indent:0;text-align:center;text-decoration:none;text-decoration-line:none;letter-spacing:0px;word-spacing:0px;text-transform:none;writing-mode:lr-tb;direction:ltr;baseline-shift:baseline;text-anchor:middle;display:inline;overflow:visible;visibility:visible;fill:#000000;fill-opacity:1;fill-rule:nonzero;stroke:none;enable-background:accumulate"
       x="2155.6572"
       y="3277.3611"
       id="text4177"><tspan
         sodipodi:role="line"
         x="2155.6572"
         y="3277.3611"
         id="tspan4522"
         style="font-size:45px;line-height:1.25">.i mi ckire do le</tspan><tspan
         sodipodi:role="line"
         x="2155.6572"
         y="3333.6111"
         id="tspan4136"
         style="font-size:45px;line-height:1.25">ka jai zu'e se vitke</tspan><tspan
         sodipodi:role="line"
         x="2155.6572"
         y="3389.8611"
         id="tspan4166"
         style="font-size:45px;line-height:1.25">mi'a le nu kelci</tspan></text>
    <text
       xml:space="preserve"
       style="color:#000000;font-style:normal;font-variant:normal;font-weight:normal;font-stretch:normal;line-height:0%;font-family:Lavi;-inkscape-font-specification:Lavi;text-indent:0;text-align:center;text-decoration:none;text-decoration-line:none;letter-spacing:0px;word-spacing:0px;text-transform:none;writing-mode:lr-tb;direction:ltr;baseline-shift:baseline;text-anchor:middle;display:inline;overflow:visible;visibility:visible;fill:#000000;fill-opacity:1;fill-rule:nonzero;stroke:#000000;stroke-width:1.15539169;stroke-linecap:butt;stroke-linejoin:miter;stroke-miterlimit:4;stroke-dasharray:none;stroke-dashoffset:0;stroke-opacity:1;enable-background:accumulate"
       x="627.89648"
       y="1448.4253"
       id="text4201"
       transform="scale(0.99121656,1.0088613)"><tspan
         sodipodi:role="line"
         x="627.89648"
         y="1448.4253"
         id="tspan4183"
         style="font-size:47.26602173px;line-height:1.25;stroke-width:1.15539169">le nu surla</tspan></text>
    <text
       xml:space="preserve"
       style="color:#000000;font-style:normal;font-variant:normal;font-weight:normal;font-stretch:normal;line-height:0%;font-family:Lavi;-inkscape-font-specification:Lavi;text-indent:0;text-align:center;text-decoration:none;text-decoration-line:none;letter-spacing:0px;word-spacing:0px;text-transform:none;writing-mode:lr-tb;direction:ltr;baseline-shift:baseline;text-anchor:middle;display:inline;overflow:visible;visibility:visible;fill:#000000;fill-opacity:1;fill-rule:nonzero;stroke:none;enable-background:accumulate"
       x="541.33362"
       y="779.7851"
       id="text4201-8"><tspan
         sodipodi:role="line"
         x="541.33362"
         y="779.7851"
         id="tspan4183-9"
         style="font-size:45px;line-height:1.25">.i traji zabna</tspan></text>
    <text
       xml:space="preserve"
       style="color:#000000;font-style:normal;font-variant:normal;font-weight:normal;font-stretch:normal;line-height:0%;font-family:Lavi;-inkscape-font-specification:Lavi;text-indent:0;text-align:center;text-decoration:none;text-decoration-line:none;letter-spacing:0px;word-spacing:0px;text-transform:none;writing-mode:lr-tb;direction:ltr;baseline-shift:baseline;text-anchor:middle;display:inline;overflow:visible;visibility:visible;fill:#000000;fill-opacity:1;fill-rule:nonzero;stroke:none;enable-background:accumulate"
       x="552.08148"
       y="1121.1799"
       id="text4201-2"><tspan
         sodipodi:role="line"
         x="552.08148"
         y="1121.1799"
         id="tspan4183-92"
         style="font-size:45px;line-height:1.25">citsi</tspan></text>
  </g>
</svg>
