<?xml version="1.0" encoding="UTF-8" standalone="no"?>
<svg
   xmlns:dc="http://purl.org/dc/elements/1.1/"
   xmlns:cc="http://creativecommons.org/ns#"
   xmlns:rdf="http://www.w3.org/1999/02/22-rdf-syntax-ns#"
   xmlns:svg="http://www.w3.org/2000/svg"
   xmlns="http://www.w3.org/2000/svg"
   xmlns:xlink="http://www.w3.org/1999/xlink"
   xmlns:sodipodi="http://sodipodi.sourceforge.net/DTD/sodipodi-0.dtd"
   xmlns:inkscape="http://www.inkscape.org/namespaces/inkscape"
   sodipodi:docname="E28P08.svg"
   height="3503"
   width="2481"
   inkscape:version="1.0 (4035a4fb49, 2020-05-01)"
   version="1.1"
   id="svg2">
  <metadata
     id="metadata8">
    <rdf:RDF>
      <cc:Work
         rdf:about="">
        <dc:format>image/svg+xml</dc:format>
        <dc:type
           rdf:resource="http://purl.org/dc/dcmitype/StillImage" />
        <dc:title />
      </cc:Work>
    </rdf:RDF>
  </metadata>
  <defs
     id="defs6" />
  <sodipodi:namedview
     inkscape:document-rotation="0"
     inkscape:current-layer="layer1"
     inkscape:window-maximized="1"
     inkscape:window-y="24"
     inkscape:window-x="49"
     inkscape:cy="1944.1103"
     inkscape:cx="1215.4479"
     inkscape:zoom="0.42287274"
     showgrid="false"
     id="namedview4"
     inkscape:window-height="1056"
     inkscape:window-width="1871"
     inkscape:pageshadow="2"
     inkscape:pageopacity="0"
     guidetolerance="10"
     gridtolerance="10"
     objecttolerance="10"
     borderopacity="1"
     bordercolor="#666666"
     pagecolor="#ffffff" />
  <g
     sodipodi:insensitive="true"
     inkscape:label="artwork"
     id="layer2"
     inkscape:groupmode="layer">
    <image
       sodipodi:absref="C:\Users\stero\Documents\Kernewek\Pepper and Carrot\webcomics\ep28_The-Festivities\lang\gfx_Pepper-and-Carrot_by-David-Revoy_E28P08.png"
       xlink:href="../gfx_Pepper-and-Carrot_by-David-Revoy_E28P08.png"
       width="2481"
       height="3503"
       id="image10"
       x="0"
       y="0" />
  </g>
  <g
     inkscape:label="speechbubbles"
     id="layer3"
     inkscape:groupmode="layer">
    <path
       inkscape:connector-curvature="0"
       id="path1079"
       d="m 147.1177,1293.7267 c 23.35495,-45.7425 71.43864,-64.8712 86.55065,-69.8612 15.11201,-4.9901 86.55065,-14.1386 108.53178,-14.1386 21.98113,0 215.68971,-4.1584 254.15669,1.6634 38.46693,5.8218 109.90557,23.287 131.88667,47.4057 21.98112,24.1187 49.45754,69.0296 38.46697,97.3067 -10.99057,28.2773 -16.48585,66.5346 -76.93392,90.6533 -60.44806,24.1187 -266.52106,30.7722 -321.47385,29.1088 -54.95278,-1.6633 -126.39141,-4.1583 -171.72746,-24.1187 -45.33606,-19.9603 -74.18628,-64.0395 -72.81246,-92.3167 1.37382,-28.277 23.35493,-65.7027 23.35493,-65.7027 z"
       style="fill:#ffffff;fill-rule:evenodd;stroke:none;stroke-width:1.21233px;stroke-linecap:butt;stroke-linejoin:miter;stroke-opacity:1" />
    <path
       sodipodi:nodetypes="ccccccssc"
       inkscape:connector-curvature="0"
       id="path1081"
       d="m 227.53576,1416.2623 c -20.60902,44.7713 -22.74099,55.4311 -24.1623,72.4869 -1.42132,17.0557 14.92377,43.35 35.5328,50.4565 20.60902,7.1066 33.40083,29.8476 24.1623,45.482 -9.23853,15.6345 -46.19264,77.4615 23.45165,96.6493 -66.80167,-29.1369 -24.16231,-76.7509 -17.05575,-87.4107 7.10656,-10.6599 19.89837,-34.8222 -8.52787,-60.4058 -28.42624,-25.5836 -38.37542,-39.7967 0,-89.5427 38.37542,-49.7459 -33.40083,-27.7155 -33.40083,-27.7155 z"
       style="fill:#ffffff;fill-rule:evenodd;stroke:none;stroke-width:1px;stroke-linecap:butt;stroke-linejoin:miter;stroke-opacity:1" />
    <path
       inkscape:connector-curvature="0"
       id="path1083"
       d="m 371.64971,2090.3614 c 17.85701,-33.5164 47.93197,-45.5479 76.12725,-44.6885 28.19528,0.8594 94.9241,7.7345 110.90143,7.7345 15.97732,0 87.40536,-4.297 120.29985,-2.5782 32.89449,1.7188 54.51086,13.7503 63.90929,29.2195 9.39843,15.469 15.97732,34.3757 12.21795,59.2981 -3.75937,24.9224 -26.31559,55.8607 -60.14992,63.5951 -33.83433,7.7346 -127.81859,7.7346 -176.69041,8.594 -48.87181,0.8594 -109.02173,-12.0315 -130.63811,-30.0788 -21.61638,-18.0472 -38.53355,-45.5479 -15.97733,-91.0957 z"
       style="fill:#ffffff;fill-rule:evenodd;stroke:none;stroke-width:0.95624369px;stroke-linecap:butt;stroke-linejoin:miter;stroke-opacity:1" />
    <path
       sodipodi:nodetypes="cscscsccc"
       inkscape:connector-curvature="0"
       id="path1085"
       d="m 521.52769,2076.2416 c -21.62867,-11.7413 -40.78548,-28.4263 -40.78548,-37.6957 0,-9.2694 14.83108,-37.0777 -11.74127,-37.6957 -26.57236,-0.6179 -37.69567,6.1796 -37.07771,-3.7077 0.61796,-9.8874 8.03351,-25.9544 21.62866,-30.2802 -31.51605,12.3593 -34.60585,34.6059 -27.19031,40.7855 7.41554,6.1796 10.67283,9.5522 36.18391,8.6549 20.28805,2.4824 -29.05118,18.071 7.69137,66.7364 32.13401,21.6287 51.29083,-6.7975 51.29083,-6.7975 z"
       style="fill:#ffffff;fill-rule:evenodd;stroke:none;stroke-width:1px;stroke-linecap:butt;stroke-linejoin:miter;stroke-opacity:1" />
    <path
       sodipodi:nodetypes="cccccccccccc"
       inkscape:connector-curvature="0"
       id="path1087"
       d="m 1196.7567,1374.4067 c -2.0612,-17.5917 -18.7863,-50.2645 -51.4246,-16.1368 13.4861,-40.6864 -2.0483,-45.8436 -20.2475,-47.7381 14.3275,-14.6662 26.8461,-29.914 8.3492,-55.134 24.1301,-8.2443 29.8524,-28.7456 21.6847,-58.496 24.2775,23.2401 46.106,36.0759 52.4648,-16.8093 7.8988,41.4017 36.9104,48.8809 51.4071,4.7067 -2.1364,34.4681 6.0078,43.2805 21.8243,32.946 -9.212,21.6913 -6.6421,38.149 8.3629,49.0828 -25.8737,22.9443 -22.3046,36.8913 4.6106,43.7038 -43.282,5.9825 -37.4678,34.4558 -39.319,55.8065 -20.9277,-33.2159 -62.9528,-0.075 -57.7125,8.0684 z"
       style="fill:#ffffff;fill-rule:evenodd;stroke:none;stroke-width:0.99999994px;stroke-linecap:butt;stroke-linejoin:miter;stroke-opacity:1" />
    <path
       sodipodi:nodetypes="csccccscccc"
       inkscape:connector-curvature="0"
       id="path1089"
       d="m 1191.0392,1352.1713 c -8.4109,39.2505 -9.8127,49.5304 -9.8127,58.8758 0,9.3453 7.2361,5.602 12.611,1.6262 3.5164,-2.5819 16.3596,-20.7842 5.6125,8.1864 -10.7472,28.9706 -24.2979,69.1557 -28.0361,81.7719 10.2799,-22.4289 27.5688,-57.474 32.7088,-68.6884 5.1399,-11.2144 13.3039,-31.7117 15.4198,-37.8487 2.574,-7.4657 2.2967,-14.9288 -5.6521,-13.2604 -12.5951,3.9915 -24.253,31.4839 -4.6278,-16.1775 19.6253,-47.6613 11.2144,-117.2842 11.2144,-117.2842 z"
       style="fill:#ffffff;fill-rule:evenodd;stroke:none;stroke-width:1px;stroke-linecap:butt;stroke-linejoin:miter;stroke-opacity:1" />
    <path
       sodipodi:nodetypes="ccsccccc"
       inkscape:connector-curvature="0"
       id="path1109"
       d="m 1333.8656,1200.1939 c 1.2616,-32.2368 -10.0929,-33.2137 11.3545,-34.1905 21.4472,-0.9769 249.7988,-0.9769 291.432,-0.9769 41.6332,0 74.4351,18.5606 89.5744,44.9362 15.1394,26.3755 39.8268,77.0157 -10.6377,106.3218 -50.4644,29.3063 -198.7897,16.7643 -255.5622,14.8106 -56.7724,-1.9539 -118.5914,-7.8258 -133.7307,-35.1783 -15.1393,-27.3524 7.5697,-95.7229 7.5697,-95.7229 z"
       style="fill:#ffffff;fill-rule:evenodd;stroke:none;stroke-width:0.96909076px;stroke-linecap:butt;stroke-linejoin:miter;stroke-opacity:1" />
    <path
       sodipodi:nodetypes="ccccc"
       inkscape:connector-curvature="0"
       id="path1111"
       d="m 1639.998,1307.0864 c 41.353,7.5187 60.1499,15.9773 68.6085,23.4961 8.4586,7.5187 44.1726,33.8343 14.0976,68.6085 46.9921,-37.5937 7.5188,-93.0445 -46.0522,-115.6007 -15.0375,-3.7593 -36.6539,23.4961 -36.6539,23.4961 z"
       style="fill:#ffffff;fill-rule:evenodd;stroke:none;stroke-width:1px;stroke-linecap:butt;stroke-linejoin:miter;stroke-opacity:1" />
    <path
       inkscape:connector-curvature="0"
       id="path1113"
       d="m 1996.6592,2030.6071 c -4.0866,-20.195 2.2035,-42.6829 18.9017,-57.5559 23.3136,-21.0724 57.0834,-28.9414 88.5246,-29.154 14.9504,-0.1156 29.7514,2.1715 43.8643,6.1597 46.8835,6.8159 95.5908,-6.2407 141.9829,4.1316 19.5062,4.5003 38.0598,15.1013 47.8772,31.3078 17.2119,36.3884 16.1508,77.431 14.3849,116.7653 -0.7778,11.1538 -0.5076,22.374 -1.7867,33.4842 -4.908,27.0391 -24.8992,51.1866 -51.3605,64.2632 -26.4817,13.4821 -57.5198,18.0464 -86.9671,15.1252 -46.5567,2.4888 -94.7106,5.4085 -139.1709,-8.0541 -28.5612,-8.8657 -55.5764,-26.053 -68.0212,-51.788 -15.2183,-30.1291 -12.9664,-64.7105 -10.3008,-97.4259 0.7431,-9.0844 1.5487,-18.1676 2.0716,-27.2591 z"
       style="fill:#ffffff;fill-rule:evenodd;stroke:none;stroke-width:1.01368px;stroke-linecap:butt;stroke-linejoin:miter;stroke-opacity:1" />
    <path
       inkscape:connector-curvature="0"
       id="path1128"
       d="m 1888.6765,2156.0399 c 42.1519,38.9095 103.7586,57.2834 162.1228,3.2424 58.3643,-54.0409 82.1423,-58.3642 82.1423,-58.3642 0,0 -3.2425,50.7985 -58.3642,83.2231 -55.1218,32.4245 -125.375,41.0711 -185.9009,-28.1013 z"
       style="fill:#ffffff;fill-rule:evenodd;stroke:none;stroke-width:1px;stroke-linecap:butt;stroke-linejoin:miter;stroke-opacity:1" />
  </g>
  <g
     inkscape:label="txt"
     id="layer1"
     inkscape:groupmode="layer">
    <text
       id="text4246"
       y="1276.4037"
       x="440.51514"
       style="font-style:normal;font-variant:normal;font-weight:normal;font-stretch:normal;line-height:0%;font-family:Lavi;-inkscape-font-specification:Lavi;text-align:center;letter-spacing:0px;word-spacing:0px;text-anchor:middle;fill:#000000;fill-opacity:1;stroke:none"
       xml:space="preserve"><tspan
         id="tspan827"
         y="1276.4037"
         x="440.51514"
         style="font-size:45px;line-height:1.2"
         sodipodi:role="line">Ha ni ow klappya,</tspan><tspan
         id="tspan61"
         y="1330.4037"
         x="440.51514"
         style="font-size:45px;line-height:1.2"
         sodipodi:role="line">Pepper, my a dheuth</tspan><tspan
         id="tspan63"
         y="1384.4037"
         x="440.51514"
         style="font-size:45px;line-height:1.2"
         sodipodi:role="line">erbynn dha vammow besydh</tspan><tspan
         id="tspan65"
         y="1438.4037"
         x="440.51514"
         style="font-size:45px;line-height:1.2"
         sodipodi:role="line">wortiwedh.</tspan></text>
    <text
       id="text4246-3"
       y="2120.9434"
       x="559.51831"
       style="font-style:normal;font-variant:normal;font-weight:normal;font-stretch:normal;line-height:0%;font-family:Lavi;-inkscape-font-specification:Lavi;text-align:center;letter-spacing:0px;word-spacing:0px;text-anchor:middle;fill:#000000;fill-opacity:1;stroke:none"
       xml:space="preserve"><tspan
         id="tspan872"
         y="2120.9434"
         x="559.51831"
         style="font-size:45px;line-height:1.2"
         sodipodi:role="line">Ass yns i</tspan><tspan
         id="tspan69"
         y="2174.9434"
         x="559.51831"
         style="font-size:45px;line-height:1.2"
         sodipodi:role="line">&quot;arbennek&quot;.</tspan></text>
    <text
       transform="matrix(0.91106211,0,-0.15422983,1.09762,0,0)"
       id="text4246-3-5"
       y="1199.5613"
       x="1522.0032"
       style="font-style:normal;font-variant:normal;font-weight:normal;font-stretch:normal;font-size:24.343px;line-height:0%;font-family:Lavi;-inkscape-font-specification:Lavi;text-align:center;letter-spacing:0px;word-spacing:0px;text-anchor:middle;fill:#000000;fill-opacity:1;stroke:none;stroke-width:1"
       xml:space="preserve"><tspan
         id="tspan872-2"
         y="1199.5613"
         x="1522.0032"
         style="font-size:91.2863px;line-height:1.2;stroke-width:1"
         sodipodi:role="line">!!!</tspan></text>
    <text
       id="text4246-3-9"
       y="1231.6084"
       x="1538.0366"
       style="font-style:normal;font-variant:normal;font-weight:normal;font-stretch:normal;line-height:0%;font-family:Lavi;-inkscape-font-specification:Lavi;text-align:center;letter-spacing:0px;word-spacing:0px;text-anchor:middle;fill:#000000;fill-opacity:1;stroke:none"
       xml:space="preserve"><tspan
         id="tspan920"
         y="1231.6084"
         x="1538.0366"
         style="font-size:45px;line-height:1.2"
         sodipodi:role="line">Ty yw pur feusik,</tspan><tspan
         id="tspan73"
         y="1285.6084"
         x="1538.0366"
         style="font-size:45px;line-height:1.2"
         sodipodi:role="line">y styryav.</tspan></text>
    <text
       id="text4246-3-9-0"
       y="2017.5469"
       x="2177.0884"
       style="font-style:normal;font-variant:normal;font-weight:normal;font-stretch:normal;line-height:0%;font-family:Lavi;-inkscape-font-specification:Lavi;text-align:center;letter-spacing:0px;word-spacing:0px;text-anchor:middle;fill:#000000;fill-opacity:1;stroke:none"
       xml:space="preserve"><tspan
         id="tspan949"
         y="2017.5469"
         x="2177.0884"
         style="font-size:45px;line-height:1.2"
         sodipodi:role="line">Sur ov i dhe'th </tspan><tspan
         id="tspan86"
         y="2071.5469"
         x="2177.0884"
         style="font-size:45px;line-height:1.2"
         sodipodi:role="line">hasa dhe wul</tspan><tspan
         id="tspan84"
         y="2125.5469"
         x="2177.0884"
         style="font-size:45px;line-height:1.2"
         sodipodi:role="line">pypynag </tspan><tspan
         id="tspan88"
         y="2179.5469"
         x="2177.0884"
         style="font-size:45px;line-height:1.2"
         sodipodi:role="line">a vynnydh.</tspan></text>
    <text
       id="text4246-3-9-0-6"
       y="2372.322"
       x="607.23407"
       style="font-style:normal;font-variant:normal;font-weight:normal;font-stretch:normal;line-height:0%;font-family:Lavi;-inkscape-font-specification:Lavi;text-align:center;letter-spacing:0px;word-spacing:0px;text-anchor:middle;fill:#000000;fill-opacity:1;stroke:none"
       xml:space="preserve"><tspan
         id="tspan6870"
         y="2372.322"
         x="607.23407"
         style="font-size:45px;line-height:1.2"
         sodipodi:role="line">Kepar ha defia</tspan><tspan
         id="tspan114"
         y="2426.322"
         x="607.23407"
         style="font-size:45px;line-height:1.2"
         sodipodi:role="line">an payonyans</tspan><tspan
         id="tspan110"
         y="2480.322"
         x="607.23407"
         style="font-size:45px;line-height:1.2"
         sodipodi:role="line">pilyek ma ha</tspan><tspan
         id="tspan112"
         y="2534.322"
         x="607.23407"
         style="font-size:45px;line-height:1.2"
         sodipodi:role="line">dadhla heb</tspan><tspan
         id="tspan120"
         y="2588.322"
         x="607.23407"
         style="font-size:45px;line-height:1.2"
         sodipodi:role="line">prederi a-dro dhe</tspan><tspan
         id="tspan122"
         y="2642.322"
         x="607.23407"
         style="font-size:45px;line-height:1.2"
         sodipodi:role="line">lyskanasedh.</tspan></text>
    <text
       id="text4246-3-9-0-6-1"
       y="2357.7888"
       x="1362.5385"
       style="font-style:normal;font-variant:normal;font-weight:normal;font-stretch:normal;line-height:0%;font-family:Lavi;-inkscape-font-specification:Lavi;text-align:center;letter-spacing:0px;word-spacing:0px;text-anchor:middle;fill:#000000;fill-opacity:1;stroke:none"
       xml:space="preserve"><tspan
         id="tspan869"
         y="2357.7888"
         x="1362.5385"
         style="font-size:45px;line-height:1.2"
         sodipodi:role="line">Po donsya hag </tspan><tspan
         id="tspan146"
         y="2411.7888"
         x="1362.5385"
         style="font-size:45px;line-height:1.2"
         sodipodi:role="line">omlowenhe</tspan><tspan
         id="tspan142"
         y="2465.7888"
         x="1362.5385"
         style="font-size:45px;line-height:1.2"
         sodipodi:role="line">heb fienasow</tspan><tspan
         id="tspan148"
         y="2519.7888"
         x="1362.5385"
         style="font-size:45px;line-height:1.2"
         sodipodi:role="line">a dybyansow</tspan><tspan
         id="tspan144"
         y="2573.7888"
         x="1362.5385"
         style="font-size:45px;line-height:1.2"
         sodipodi:role="line">tus erel.</tspan></text>
    <text
       id="text4246-3-9-0-6-1-0"
       y="2360.502"
       x="1879.3203"
       style="font-style:normal;font-variant:normal;font-weight:normal;font-stretch:normal;line-height:0%;font-family:Lavi;-inkscape-font-specification:Lavi;text-align:center;letter-spacing:0px;word-spacing:0px;text-anchor:middle;fill:#000000;fill-opacity:1;stroke:none"
       xml:space="preserve"><tspan
         id="tspan164"
         y="2360.502"
         x="1879.3203"
         style="font-size:45px;line-height:1.2"
         sodipodi:role="line">Po blasa oll an boos</tspan><tspan
         id="tspan176"
         y="2414.502"
         x="1879.3203"
         style="font-size:45px;line-height:1.2"
         sodipodi:role="line">war an buffe</tspan><tspan
         id="tspan166"
         y="2468.502"
         x="1879.3203"
         style="font-size:45px;line-height:1.2"
         sodipodi:role="line">heb own a vos</tspan><tspan
         id="tspan180"
         y="2522.502"
         x="1879.3203"
         style="font-size:45px;line-height:1.2"
         sodipodi:role="line">gwelys gans</tspan><tspan
         id="tspan182"
         y="2576.502"
         x="1879.3203"
         style="font-size:45px;line-height:1.2"
         sodipodi:role="line">nebonan.</tspan></text>
  </g>
</svg>
