<?xml version="1.0" encoding="UTF-8" standalone="no"?>
<svg
   xmlns:dc="http://purl.org/dc/elements/1.1/"
   xmlns:cc="http://creativecommons.org/ns#"
   xmlns:rdf="http://www.w3.org/1999/02/22-rdf-syntax-ns#"
   xmlns:svg="http://www.w3.org/2000/svg"
   xmlns="http://www.w3.org/2000/svg"
   xmlns:xlink="http://www.w3.org/1999/xlink"
   xmlns:sodipodi="http://sodipodi.sourceforge.net/DTD/sodipodi-0.dtd"
   xmlns:inkscape="http://www.inkscape.org/namespaces/inkscape"
   id="svg2"
   version="1.1"
   inkscape:version="0.92.5 (2060ec1f9f, 2020-04-08)"
   width="2481"
   height="3503"
   sodipodi:docname="E35P01.svg">
  <metadata
     id="metadata8">
    <rdf:RDF>
      <cc:Work
         rdf:about="">
        <dc:format>image/svg+xml</dc:format>
        <dc:type
           rdf:resource="http://purl.org/dc/dcmitype/StillImage" />
        <dc:title />
      </cc:Work>
    </rdf:RDF>
  </metadata>
  <defs
     id="defs6" />
  <sodipodi:namedview
     pagecolor="#ffffff"
     bordercolor="#666666"
     borderopacity="1"
     objecttolerance="10"
     gridtolerance="10"
     guidetolerance="10"
     inkscape:pageopacity="0"
     inkscape:pageshadow="2"
     inkscape:window-width="1920"
     inkscape:window-height="1023"
     id="namedview4"
     showgrid="false"
     inkscape:zoom="0.42773946"
     inkscape:cx="1474.334"
     inkscape:cy="409.30303"
     inkscape:window-x="0"
     inkscape:window-y="0"
     inkscape:window-maximized="1"
     inkscape:current-layer="layer1"
     inkscape:document-rotation="0"
     inkscape:pagecheckerboard="0" />
  <g
     inkscape:groupmode="layer"
     id="layer2"
     inkscape:label="artwork"
     sodipodi:insensitive="true">
    <image
       sodipodi:absref="/home/peppercarrot/webcomics/"
       xlink:href="../gfx_Pepper-and-Carrot_by-David-Revoy_E35P01.png"
       width="2481"
       height="3503"
       id="image10"
       x="0"
       y="0" />
  </g>
  <g
     inkscape:groupmode="layer"
     id="layer3"
     inkscape:label="speechbubbles">
    <path
       style="color:#000000;display:inline;overflow:visible;visibility:visible;fill:#ffffff;fill-opacity:1;fill-rule:nonzero;stroke:none;stroke-width:0.56155467px;marker:none;enable-background:accumulate"
       d="m 897.55941,2623.3363 c -61.34839,0.3246 -152.41391,-5.7106 -173.35935,-26.9477 -20.94535,-21.2372 -22.91981,-56.2162 10.45228,-70.8585 33.372,-14.6422 93.72937,-22.2422 147.05571,-21.5806 53.32625,0.662 124.67945,11.2169 144.38375,31.1516 19.7043,19.9344 11.992,65.656 -54.38386,78.7675 -66.3761,13.1115 -74.14853,9.4677 -74.14853,9.4677 z"
       id="path3970-3"
       inkscape:connector-curvature="0"
       sodipodi:nodetypes="cccscsc" />
    <path
       style="color:#000000;display:inline;overflow:visible;visibility:visible;fill:#ffffff;fill-opacity:1;fill-rule:nonzero;stroke:none;stroke-width:0.85751748px;marker:none;enable-background:accumulate"
       d="m 959.90008,2831.6276 c -71.47584,0.6496 -177.57452,-11.4297 -201.97765,-53.9349 -24.40302,-42.5052 -26.70344,-112.5142 12.17775,-141.82 38.88107,-29.3061 109.20228,-44.5169 171.33174,-43.1929 62.12948,1.325 145.26168,22.4502 168.21878,62.3488 22.9571,39.8977 13.9717,131.4076 -63.3617,157.6498 -77.33344,26.2421 -86.38892,18.9492 -86.38892,18.9492 z"
       id="path3970-3-3"
       inkscape:connector-curvature="0"
       sodipodi:nodetypes="cccscsc" />
    <path
       style="fill:#ffffff;fill-rule:evenodd;stroke:none;stroke-width:1.06225px;stroke-linecap:butt;stroke-linejoin:miter;stroke-opacity:1"
       d="m 1082.5035,2791.6336 c 16.785,-19.6056 38.6627,-36.0206 49.0019,-34.6196 10.3392,1.401 38.8276,20.2647 44.0486,-5.9091 5.221,-26.1736 -0.464,-38.1966 10.459,-36.0914 10.9231,2.1053 27.5797,11.864 30.0863,25.9568 -8.4109,-33.022 -32.6982,-39.4387 -40.8556,-33.0423 -8.1574,6.3964 -12.4748,9.1065 -15.8247,34.4602 -6.2288,19.6797 -15.2021,-31.4488 -75.7503,-2.4836 -29.6051,28.4958 -1.1652,51.729 -1.1652,51.729 z"
       id="path1085"
       inkscape:connector-curvature="0"
       sodipodi:nodetypes="cscscsccc" />
    <path
       style="color:#000000;display:inline;overflow:visible;visibility:visible;fill:#ffffff;fill-opacity:1;fill-rule:nonzero;stroke:none;stroke-width:1.09331882px;marker:none;enable-background:accumulate"
       d="m 1633.3755,2579.3745 c -4.7499,-85.7111 -20.49,-94.4775 158.9088,-99.0941 96.9447,-2.4948 262.5076,3.4642 251.1927,129.0748 -11.315,125.6094 -168.3105,115.265 -200.8409,116.7429 -32.5308,1.478 -221.5712,-11.9281 -205.8334,-56.1019 9.8516,-27.6519 -2.6355,-64.0224 -3.4272,-90.6217 z"
       id="path4546-1"
       inkscape:connector-curvature="0"
       sodipodi:nodetypes="cssssc" />
    <path
       style="fill:#ffffff;stroke:none;stroke-width:1.62228417"
       d="m 1975.4223,3306.7841 c -2.7244,-104.602 29.3761,-183.4639 187.8284,-175.6736 158.4523,7.7904 238.8457,-2.5287 241.13,141.4399 0.8158,51.4187 9.9732,112.4549 -14.466,134.7929 -40.2643,36.8027 -131.6522,15.8228 -205.9193,22.6773 -123.0317,11.3552 -200.5337,-27.0051 -208.5731,-123.2365 z"
       id="path3280-81"
       inkscape:connector-curvature="0"
       sodipodi:nodetypes="cssssc" />
    <path
       style="color:#000000;display:inline;overflow:visible;visibility:visible;fill:#ffffff;fill-opacity:1;fill-rule:nonzero;stroke:none;stroke-width:1.06477px;marker:none;enable-background:accumulate"
       d="m 1845.2728,2690.1037 c -17.7418,51.5577 -0.5352,96.2189 44.4232,120.3111 -75.8904,-27.089 -92.8027,-105.8188 -83.4584,-127.2019 9.1494,-20.9367 39.0352,6.8908 39.0352,6.8908 z"
       id="path5010-4"
       inkscape:connector-curvature="0"
       sodipodi:nodetypes="ccsc" />
    <path
       style="color:#000000;display:inline;overflow:visible;visibility:visible;fill:#ffffff;fill-opacity:1;fill-rule:nonzero;stroke:none;stroke-width:1px;marker:none;enable-background:accumulate"
       d="m 2181.6979,3039.5111 c 15.5881,37.565 19.0292,51.8083 -13.2212,86.5196 -32.2502,34.7102 -19.1075,46.3288 -19.1075,46.3288 l 31.133,-8.0771 c 0,0 63.6316,-78.7837 1.1957,-124.7713 z"
       id="path3072-56"
       inkscape:connector-curvature="0" />
  </g>
  <g
     inkscape:groupmode="layer"
     id="layer1"
     inkscape:label="txt">
    <text
       xml:space="preserve"
       style="font-style:normal;font-variant:normal;font-weight:normal;font-stretch:normal;font-size:45px;line-height:1.25;font-family:Lavi;-inkscape-font-specification:Lavi;text-align:center;letter-spacing:0px;word-spacing:0px;text-anchor:middle;fill:#000000;fill-opacity:1;stroke:none"
       x="868.48053"
       y="2581.1858"
       id="text4246-3-2-2"><tspan
         style="font-size:45px"
         sodipodi:role="line"
         x="868.48053"
         y="2581.1858"
         id="tspan873">Ò, dhùisg thu!</tspan></text>
    <text
       xml:space="preserve"
       style="font-style:normal;font-variant:normal;font-weight:normal;font-stretch:normal;font-size:45px;line-height:1.25;font-family:Lavi;-inkscape-font-specification:Lavi;text-align:center;letter-spacing:0px;word-spacing:0px;text-anchor:middle;fill:#000000;fill-opacity:1;stroke:none"
       x="933.43304"
       y="2677.5044"
       id="text4246-3-2-2-3"><tspan
         style="font-size:45px"
         sodipodi:role="line"
         x="940.46429"
         y="2677.5044"
         id="tspan857">’Eil thu ceart </tspan><tspan
         style="font-size:45px"
         sodipodi:role="line"
         x="940.46429"
         y="2733.7544"
         id="tspan876">gu leòr? Nach eil </tspan><tspan
         style="font-size:45px"
         sodipodi:role="line"
         x="933.43304"
         y="2790.0044"
         id="tspan880">thu ro fhuar?</tspan></text>
    <text
       xml:space="preserve"
       style="font-style:normal;font-variant:normal;font-weight:normal;font-stretch:normal;font-size:45px;line-height:1.25;font-family:Lavi;-inkscape-font-specification:Lavi;text-align:center;letter-spacing:0px;word-spacing:0px;text-anchor:middle;fill:#000000;fill-opacity:1;stroke:none"
       x="1843.0115"
       y="2570.1472"
       id="text4246-3-2-2-3-3"><tspan
         style="font-size:45px"
         sodipodi:role="line"
         x="1850.0427"
         y="2570.1472"
         id="tspan888">Tha mi duilich </tspan><tspan
         style="font-size:45px"
         sodipodi:role="line"
         x="1850.0427"
         y="2626.3972"
         id="tspan884">ach tha an Rèatha </tspan><tspan
         style="font-size:45px"
         sodipodi:role="line"
         x="1843.0115"
         y="2682.6472"
         id="tspan906">gann orm</tspan></text>
    <text
       xml:space="preserve"
       style="font-style:normal;font-variant:normal;font-weight:normal;font-stretch:normal;font-size:45px;line-height:1.25;font-family:Lavi;-inkscape-font-specification:Lavi;text-align:center;letter-spacing:0px;word-spacing:0px;text-anchor:middle;fill:#000000;fill-opacity:1;stroke:none"
       x="2187.9226"
       y="3206.6389"
       id="text4246-3-2-2-3-3-9"><tspan
         style="font-size:45px"
         sodipodi:role="line"
         x="2194.9539"
         y="3206.6389"
         id="tspan905">agus m’ aura ro </tspan><tspan
         style="font-size:45px"
         sodipodi:role="line"
         x="2194.9539"
         y="3262.8889"
         id="tspan867">lag airson ar dìon </tspan><tspan
         style="font-size:45px"
         sodipodi:role="line"
         x="2194.9539"
         y="3319.1389"
         id="tspan865">on fhuachd shuas </tspan><tspan
         style="font-size:45px"
         sodipodi:role="line"
         x="2187.9226"
         y="3375.3889"
         id="tspan914">san adhar.</tspan></text>
  </g>
</svg>
