<?xml version="1.0" encoding="UTF-8" standalone="no"?>
<!-- Created with Inkscape (http://www.inkscape.org/) -->

<svg
   id="svg2"
   version="1.1"
   inkscape:version="1.3.2 (091e20ef0f, 2023-11-25)"
   width="2481"
   height="3503"
   sodipodi:docname="E39P04.svg"
   xmlns:inkscape="http://www.inkscape.org/namespaces/inkscape"
   xmlns:sodipodi="http://sodipodi.sourceforge.net/DTD/sodipodi-0.dtd"
   xmlns:xlink="http://www.w3.org/1999/xlink"
   xmlns="http://www.w3.org/2000/svg"
   xmlns:svg="http://www.w3.org/2000/svg"
   xmlns:rdf="http://www.w3.org/1999/02/22-rdf-syntax-ns#"
   xmlns:cc="http://creativecommons.org/ns#"
   xmlns:dc="http://purl.org/dc/elements/1.1/">
  <metadata
     id="metadata8">
    <rdf:RDF>
      <cc:Work
         rdf:about="">
        <dc:format>image/svg+xml</dc:format>
        <dc:type
           rdf:resource="http://purl.org/dc/dcmitype/StillImage" />
        <dc:title />
      </cc:Work>
    </rdf:RDF>
  </metadata>
  <defs
     id="defs6">
    <filter
       inkscape:collect="always"
       style="color-interpolation-filters:sRGB;"
       id="filter22"
       x="-0.096059996"
       y="-0.21457262"
       width="1.19212"
       height="1.4291452"
       inkscape:label="Felt Feather">
      <feGaussianBlur
         inkscape:collect="always"
         stdDeviation="7.512575"
         id="feGaussianBlur22"
         result="fbSourceGraphic" />
      <feColorMatrix
         result="fbSourceGraphicAlpha"
         in="fbSourceGraphic"
         values="0 0 0 -1 0 0 0 0 -1 0 0 0 0 -1 0 0 0 0 1 0"
         id="feColorMatrix22" />
      <feGaussianBlur
         id="feGaussianBlur23"
         stdDeviation="15 15"
         result="blur"
         in="fbSourceGraphic" />
      <feComposite
         id="feComposite23"
         in="fbSourceGraphic"
         in2="blur"
         operator="atop"
         result="composite1" />
      <feComposite
         id="feComposite24"
         in2="composite1"
         operator="in"
         result="composite2" />
      <feComposite
         id="feComposite25"
         in2="composite2"
         operator="in"
         result="composite3" />
      <feTurbulence
         id="feTurbulence25"
         type="fractalNoise"
         numOctaves="3"
         seed="1"
         baseFrequency="0.05 0.05"
         result="turbulence" />
      <feDisplacementMap
         id="feDisplacementMap25"
         in="composite3"
         in2="turbulence"
         xChannelSelector="R"
         scale="30"
         yChannelSelector="G"
         result="map" />
      <feColorMatrix
         id="feColorMatrix25"
         values="1 0 0 0 0 0 1 0 0 0 0 0 1 0 0 0 0 0 1 -0 "
         result="colormatrix" />
      <feComposite
         id="feComposite26"
         in="composite3"
         in2="colormatrix"
         operator="atop"
         result="composite4" />
    </filter>
    <filter
       inkscape:collect="always"
       style="color-interpolation-filters:sRGB"
       id="filter22-5"
       x="-0.095086425"
       y="-0.21340188"
       width="1.1901728"
       height="1.4268038"
       inkscape:label="Felt Feather">
      <feGaussianBlur
         inkscape:collect="always"
         stdDeviation="7.512575"
         id="feGaussianBlur22-4"
         result="fbSourceGraphic" />
      <feColorMatrix
         result="fbSourceGraphicAlpha"
         in="fbSourceGraphic"
         values="0 0 0 -1 0 0 0 0 -1 0 0 0 0 -1 0 0 0 0 1 0"
         id="feColorMatrix22-7" />
      <feGaussianBlur
         id="feGaussianBlur23-6"
         stdDeviation="15 15"
         result="blur"
         in="fbSourceGraphic" />
      <feComposite
         id="feComposite23-5"
         in="fbSourceGraphic"
         in2="blur"
         operator="atop"
         result="composite1" />
      <feComposite
         id="feComposite24-6"
         in2="composite1"
         operator="in"
         result="composite2" />
      <feComposite
         id="feComposite25-9"
         in2="composite2"
         operator="in"
         result="composite3" />
      <feTurbulence
         id="feTurbulence25-3"
         type="fractalNoise"
         numOctaves="3"
         seed="1"
         baseFrequency="0.05 0.05"
         result="turbulence" />
      <feDisplacementMap
         id="feDisplacementMap25-7"
         in="composite3"
         in2="turbulence"
         xChannelSelector="R"
         scale="30"
         yChannelSelector="G"
         result="map" />
      <feColorMatrix
         id="feColorMatrix25-4"
         values="1 0 0 0 0 0 1 0 0 0 0 0 1 0 0 0 0 0 1 -0 "
         result="colormatrix" />
      <feComposite
         id="feComposite26-5"
         in="composite3"
         in2="colormatrix"
         operator="atop"
         result="composite4" />
    </filter>
    <filter
       inkscape:collect="always"
       style="color-interpolation-filters:sRGB"
       id="filter22-5-7"
       x="-0.095086425"
       y="-0.21340188"
       width="1.1901728"
       height="1.4268038"
       inkscape:label="Felt Feather">
      <feGaussianBlur
         inkscape:collect="always"
         stdDeviation="7.512575"
         id="feGaussianBlur22-4-4"
         result="fbSourceGraphic" />
      <feColorMatrix
         result="fbSourceGraphicAlpha"
         in="fbSourceGraphic"
         values="0 0 0 -1 0 0 0 0 -1 0 0 0 0 -1 0 0 0 0 1 0"
         id="feColorMatrix22-7-4" />
      <feGaussianBlur
         id="feGaussianBlur23-6-3"
         stdDeviation="15 15"
         result="blur"
         in="fbSourceGraphic" />
      <feComposite
         id="feComposite23-5-0"
         in="fbSourceGraphic"
         in2="blur"
         operator="atop"
         result="composite1" />
      <feComposite
         id="feComposite24-6-7"
         in2="composite1"
         operator="in"
         result="composite2" />
      <feComposite
         id="feComposite25-9-8"
         in2="composite2"
         operator="in"
         result="composite3" />
      <feTurbulence
         id="feTurbulence25-3-6"
         type="fractalNoise"
         numOctaves="3"
         seed="1"
         baseFrequency="0.05 0.05"
         result="turbulence" />
      <feDisplacementMap
         id="feDisplacementMap25-7-8"
         in="composite3"
         in2="turbulence"
         xChannelSelector="R"
         scale="30"
         yChannelSelector="G"
         result="map" />
      <feColorMatrix
         id="feColorMatrix25-4-8"
         values="1 0 0 0 0 0 1 0 0 0 0 0 1 0 0 0 0 0 1 -0 "
         result="colormatrix" />
      <feComposite
         id="feComposite26-5-4"
         in="composite3"
         in2="colormatrix"
         operator="atop"
         result="composite4" />
    </filter>
  </defs>
  <sodipodi:namedview
     pagecolor="#ffffff"
     bordercolor="#666666"
     borderopacity="1"
     objecttolerance="10"
     gridtolerance="10"
     guidetolerance="10"
     inkscape:pageopacity="0"
     inkscape:pageshadow="2"
     inkscape:window-width="1920"
     inkscape:window-height="1056"
     id="namedview4"
     showgrid="false"
     inkscape:zoom="0.40000001"
     inkscape:cx="1411.2499"
     inkscape:cy="1671.2499"
     inkscape:window-x="1920"
     inkscape:window-y="0"
     inkscape:window-maximized="1"
     inkscape:current-layer="layer1"
     inkscape:showpageshadow="0"
     inkscape:pagecheckerboard="0"
     inkscape:deskcolor="#d1d1d1" />
  <g
     inkscape:groupmode="layer"
     id="layer2"
     inkscape:label="artwork"
     sodipodi:insensitive="true">
    <image
       xlink:href="../gfx_Pepper-and-Carrot_by-David-Revoy_E39P04.png"
       y="0"
       x="0"
       id="image10"
       height="3503"
       width="2481" />
  </g>
  <g
     inkscape:groupmode="layer"
     id="layer3"
     inkscape:label="speechbubbles"
     style="font-variation-settings:normal;opacity:1;vector-effect:none;fill:#ffffff;fill-opacity:1;stroke:none;stroke-width:1;stroke-linecap:butt;stroke-linejoin:miter;stroke-miterlimit:4;stroke-dasharray:none;stroke-dashoffset:0;stroke-opacity:1;-inkscape-stroke:none;stop-color:#000000;stop-opacity:1">
    <path
       style="mix-blend-mode:normal;fill:#fffffe;fill-opacity:1;stroke:none;stroke-width:0.859215;filter:url(#filter22)"
       d="m 304,655.9449 c 5.1541,-70.026 48.5361,-85.358 70.0322,-94.927 21.4961,-9.57 112.8367,-22.69 172.9017,-21.434 60.0651,1.255 207.1775,5.176 231.5594,12.412 49.9033,14.809 86.81716,48.69724 87.93246,93.80624 1.1154,45.109 -23.02215,77.81152 -58.40105,104.62452 -35.3791,26.813 -141.91221,40.22524 -237.83451,40.86524 -84.4959,0.564 -185.1394,-19.172 -196.6279,-26.926 -11.4884,-7.755 -68.6298,-53.297 -69.5623,-108.421 z"
       id="path3278-1"
       inkscape:connector-curvature="0"
       sodipodi:nodetypes="ccssssssc"
       transform="matrix(1.1262423,0,0,1.2027214,-59.343896,10.902712)" />
    <path
       style="font-variation-settings:normal;mix-blend-mode:normal;vector-effect:none;fill:#ffffff;fill-opacity:1;stroke:none;stroke-width:0.840522;stroke-linecap:butt;stroke-linejoin:miter;stroke-miterlimit:4;stroke-dasharray:none;stroke-dashoffset:0;stroke-opacity:1;-inkscape-stroke:none;filter:url(#filter22-5);stop-color:#000000"
       d="m 517.99023,540.30273 c -41.98571,1.83315 -83.85901,6.62922 -125.07864,14.86581 -12.26578,2.3784 -24.65285,5.09437 -35.83103,10.88487 -24.1119,11.94845 -42.9223,33.94863 -51.15014,59.55346 -7.59277,23.37935 -5.66679,49.83106 5.97695,71.56444 11.19376,21.62021 24.89122,42.52175 43.769,58.22048 6.31036,5.37763 13.38115,9.91353 21.19311,12.77358 13.85172,5.31683 28.74929,6.64774 43.29395,8.93868 23.19385,3.37416 46.3794,6.83627 69.6704,9.48804 58.50598,6.80135 117.82913,9.87936 176.48602,3.06412 15.62938,-1.85129 31.41918,-3.69237 47.15825,-2.08481 17.96936,1.31092 36.23817,4.23841 54.12522,0.60429 13.04692,-2.83198 24.67285,-9.83827 35.37061,-17.57771 13.2666,-9.29196 26.27539,-18.95046 39.68599,-28.03664 8.01003,-5.65882 15.41151,-12.6071 19.80091,-21.51212 5.67221,-10.62379 7.58314,-22.87313 7.08605,-34.80785 -0.0576,-17.33285 -1.89161,-34.62996 -4.67186,-51.72267 -2.9566,-15.33378 -9.40832,-30.20409 -19.91872,-41.88755 -17.32828,-20.18624 -41.69779,-33.47993 -67.28638,-39.99248 -21.87484,-5.47455 -44.54653,-5.63706 -66.92615,-6.95957 -34.21521,-1.61259 -68.42802,-3.35173 -102.67297,-4.2087 -30.01915,-0.82182 -60.05006,-1.22857 -90.08057,-1.16767 z"
       id="path3278-1-2"
       inkscape:connector-curvature="0"
       sodipodi:nodetypes="ccssssssc"
       transform="matrix(1.1599817,0,0,1.2202573,1300.9525,1257.6037)" />
    <path
       style="font-variation-settings:normal;mix-blend-mode:normal;vector-effect:none;fill:#ffffff;fill-opacity:1;stroke:none;stroke-width:0.711269;stroke-linecap:butt;stroke-linejoin:miter;stroke-miterlimit:4;stroke-dasharray:none;stroke-dashoffset:0;stroke-opacity:1;-inkscape-stroke:none;filter:url(#filter22-5-7);stop-color:#000000"
       d="m 517.99023,540.30273 c -41.98571,1.83315 -83.85901,6.62922 -125.07864,14.86581 -12.26578,2.3784 -24.65285,5.09437 -35.83103,10.88487 -24.1119,11.94845 -42.9223,33.94863 -51.15014,59.55346 -7.59277,23.37935 -5.66679,49.83106 5.97695,71.56444 11.19376,21.62021 24.89122,42.52175 43.769,58.22048 6.31036,5.37763 13.38115,9.91353 21.19311,12.77358 13.85172,5.31683 28.74929,6.64774 43.29395,8.93868 23.19385,3.37416 46.3794,6.83627 69.6704,9.48804 58.50598,6.80135 117.82913,9.87936 176.48602,3.06412 15.62938,-1.85129 31.41918,-3.69237 47.15825,-2.08481 17.96936,1.31092 36.23817,4.23841 54.12522,0.60429 13.04692,-2.83198 24.67285,-9.83827 35.37061,-17.57771 13.2666,-9.29196 26.27539,-18.95046 39.68599,-28.03664 8.01003,-5.65882 15.41151,-12.6071 19.80091,-21.51212 5.67221,-10.62379 7.58314,-22.87313 7.08605,-34.80785 -0.0576,-17.33285 -1.89161,-34.62996 -4.67186,-51.72267 -2.9566,-15.33378 -9.40832,-30.20409 -19.91872,-41.88755 -17.32828,-20.18624 -41.69779,-33.47993 -67.28638,-39.99248 -21.87484,-5.47455 -44.54653,-5.63706 -66.92615,-6.95957 -34.21521,-1.61259 -68.42802,-3.35173 -102.67297,-4.2087 -30.01915,-0.82182 -60.05006,-1.22857 -90.08057,-1.16767 z"
       id="path3278-1-2-3"
       inkscape:connector-curvature="0"
       sodipodi:nodetypes="ccssssssc"
       transform="matrix(1.4244097,0,0,1.3877098,-305.67246,1717.7418)" />
    <path
       style="fill:#ffffff;stroke:none;stroke-width:1"
       d="m 901.66438,220.18735 c 40.9686,30.6369 -16.999,73.6437 3.5411,85.3922 20.5402,11.7485 20.0295,17.3785 27.5733,27.6785 8.239,9.4407 -22.7611,55.7018 29.5995,70.5647 -69.1698,-12.7624 -37.4801,-55.0209 -45.0835,-63.8031 -10.4523,-12.0733 -13.9957,-16.0564 -34.8611,-24.2159 -20.2105,-7.9034 10.7966,-48.3368 -8.3392,-70.9228 -19.1361,-22.586 -48.3396,-31.0831 -48.3396,-31.0831 z"
       id="path3282-4"
       inkscape:connector-curvature="0"
       sodipodi:nodetypes="csccssscc" />
    <path
       style="fill:#ffffff;fill-rule:evenodd;stroke:none;stroke-width:0.985574px;stroke-linecap:butt;stroke-linejoin:miter;stroke-opacity:1"
       d="m 862.01698,159.78204 c -50.07181,1.4337 -100.17902,1.3433 -150.2655,0.7184 -36.32755,-0.093 -73.14194,1.9246 -108.11346,11.3519 -16.84502,4.5928 -29.97753,16.978 -37.00012,31.1634 -4.91102,10.0408 -7.38134,21.2161 -6.16172,32.1678 1.1622,9.0525 8.62691,16.178 16.52115,21.3017 16.355,10.4574 35.75404,16.2986 55.31768,19.7452 16.83344,2.9247 33.85497,4.883 50.84696,6.9005 29.73888,3.358 59.7559,5.1607 89.73221,4.1056 41.00544,-0.6095 82.1398,0.1787 122.97654,-3.8183 25.69131,-2.2699 51.3417,-4.9476 77.03844,-7.1357 21.89662,-3.3957 40.93134,-19.5625 44.64154,-39.3734 3.5513,-16.1922 -2.4764,-33.9875 -16.2396,-45.1117 -16.2423,-14.6494 -38.42077,-22.6812 -60.70447,-26.6617 -25.80218,-4.8816 -52.31242,-5.486 -78.58965,-5.3537 z"
       id="path1079-3"
       inkscape:connector-curvature="0" />
  </g>
  <g
     inkscape:groupmode="layer"
     id="layer1"
     inkscape:label="txt">
    <text
       xml:space="preserve"
       style="font-variation-settings:normal;opacity:1;vector-effect:none;fill:#000000;fill-opacity:1;stroke:none;stroke-width:1;stroke-linecap:butt;stroke-linejoin:miter;stroke-miterlimit:4;stroke-dasharray:none;stroke-dashoffset:0;stroke-opacity:1;-inkscape-stroke:none;stop-color:#000000;stop-opacity:1;font-style:normal;font-variant:normal;font-weight:normal;font-stretch:normal;line-height:0%;font-family:Lavi;-inkscape-font-specification:Lavi;text-align:center;letter-spacing:0px;word-spacing:0px;text-anchor:middle;display:inline"
       x="794.17401"
       y="237.97174"
       id="text137-6"><tspan
         sodipodi:role="line"
         style="font-size:45px;line-height:1.25"
         x="794.17401"
         y="237.97174"
         id="tspan143-7">... trois sorcières.</tspan></text>
    <text
       xml:space="preserve"
       style="font-style:normal;font-variant:normal;font-weight:normal;font-stretch:normal;line-height:0%;font-family:Lavi;-inkscape-font-specification:Lavi;text-align:center;letter-spacing:0px;word-spacing:0px;text-anchor:middle;fill:#000000;fill-opacity:1;stroke:none"
       x="596.68323"
       y="768.51733"
       id="text4246-3-2-2"><tspan
         sodipodi:role="line"
         style="font-size:45px;line-height:1.25"
         x="596.68323"
         y="768.51733"
         id="tspan4259">C'était les trois uniques</tspan><tspan
         sodipodi:role="line"
         style="font-size:45px;line-height:1.25"
         x="596.68323"
         y="824.76733"
         id="tspan4"> sorcières du chaos pour</tspan><tspan
         sodipodi:role="line"
         style="font-size:45px;line-height:1.25"
         x="596.68323"
         y="881.01733"
         id="tspan5">être plus précise.</tspan><tspan
         sodipodi:role="line"
         style="font-size:45px;line-height:1.25"
         x="596.68323"
         y="899.93707"
         id="tspan2" /></text>
    <text
       xml:space="preserve"
       style="font-style:normal;font-variant:normal;font-weight:normal;font-stretch:normal;line-height:0%;font-family:Lavi;-inkscape-font-specification:Lavi;text-align:center;letter-spacing:0px;word-spacing:0px;text-anchor:middle;fill:#000000;fill-opacity:1;stroke:none"
       x="1988.6472"
       y="2029.4363"
       id="text9"><tspan
         sodipodi:role="line"
         style="font-size:45px;line-height:1.25"
         x="1988.6472"
         y="2029.4363"
         id="tspan9">Elles étaient reconnues,</tspan><tspan
         sodipodi:role="line"
         style="font-size:45px;line-height:1.25"
         x="1988.6472"
         y="2085.6863"
         id="tspan12">respectées et craintes</tspan><tspan
         sodipodi:role="line"
         style="font-size:45px;line-height:1.25"
         x="1988.6472"
         y="2141.9363"
         id="tspan13">dans tout le royaume.</tspan></text>
    <text
       xml:space="preserve"
       style="font-style:normal;font-variant:normal;font-weight:normal;font-stretch:normal;line-height:0%;font-family:Lavi;-inkscape-font-specification:Lavi;text-align:center;letter-spacing:0px;word-spacing:0px;text-anchor:middle;fill:#000000;fill-opacity:1;stroke:none"
       x="537.91138"
       y="2578.2954"
       id="text16"><tspan
         sodipodi:role="line"
         style="font-size:45px;line-height:1.25"
         x="537.91138"
         y="2578.2954"
         id="tspan16">Les puissants, les stratèges... </tspan><tspan
         sodipodi:role="line"
         style="font-size:45px;line-height:1.25"
         x="537.91138"
         y="2634.5454"
         id="tspan20">Tout le monde faisait appel à leur</tspan><tspan
         sodipodi:role="line"
         style="font-size:45px;line-height:1.25"
         x="537.91138"
         y="2690.7954"
         id="tspan21"> puissance et demandaient </tspan><tspan
         sodipodi:role="line"
         style="font-size:45px;line-height:1.25"
         x="537.91138"
         y="2747.0454"
         id="tspan22">leur conseils.</tspan></text>
  </g>
</svg>
