<?xml version="1.0" encoding="UTF-8" standalone="no"?>
<!-- Created with Inkscape (http://www.inkscape.org/) -->

<svg
   id="svg2"
   version="1.1"
   inkscape:version="1.3.2 (091e20ef0f, 2023-11-25)"
   width="2481"
   height="3503"
   sodipodi:docname="E39P02.svg"
   xmlns:inkscape="http://www.inkscape.org/namespaces/inkscape"
   xmlns:sodipodi="http://sodipodi.sourceforge.net/DTD/sodipodi-0.dtd"
   xmlns:xlink="http://www.w3.org/1999/xlink"
   xmlns="http://www.w3.org/2000/svg"
   xmlns:svg="http://www.w3.org/2000/svg"
   xmlns:rdf="http://www.w3.org/1999/02/22-rdf-syntax-ns#"
   xmlns:cc="http://creativecommons.org/ns#"
   xmlns:dc="http://purl.org/dc/elements/1.1/">
  <metadata
     id="metadata8">
    <rdf:RDF>
      <cc:Work
         rdf:about="">
        <dc:format>image/svg+xml</dc:format>
        <dc:type
           rdf:resource="http://purl.org/dc/dcmitype/StillImage" />
        <dc:title />
      </cc:Work>
    </rdf:RDF>
  </metadata>
  <defs
     id="defs6">
    <filter
       style="color-interpolation-filters:sRGB"
       id="filter4375-4-1-1-1-9-6-9-2-1-5-4"
       inkscape:label="deevad outline effect"
       x="-0.042318575"
       y="-0.089214337"
       width="1.0846372"
       height="1.1784287">
      <feFlood
         id="feFlood4377-7-9-0-8-1-0-2-2-06-5-3"
         flood-opacity="1"
         flood-color="rgb(0,0,0)"
         result="flood" />
      <feComposite
         id="feComposite4379-3-8-8-2-77-6-0-8-3-8-64"
         in2="SourceGraphic"
         in="flood"
         operator="in"
         result="composite1" />
      <feMorphology
         id="feMorphology4393-1-0-49-8-9-2-2-9-2-7-3"
         operator="dilate"
         radius="4"
         result="result3" />
      <feComposite
         id="feComposite4385-9-5-7-0-8-6-3-7-0-1-1"
         in2="result3"
         in="SourceGraphic"
         operator="over"
         result="composite2" />
    </filter>
  </defs>
  <sodipodi:namedview
     pagecolor="#ffffff"
     bordercolor="#666666"
     borderopacity="1"
     objecttolerance="10"
     gridtolerance="10"
     guidetolerance="10"
     inkscape:pageopacity="0"
     inkscape:pageshadow="2"
     inkscape:window-width="1920"
     inkscape:window-height="1056"
     id="namedview4"
     showgrid="false"
     inkscape:zoom="0.46000002"
     inkscape:cx="1288.0434"
     inkscape:cy="2455.4347"
     inkscape:window-x="1920"
     inkscape:window-y="0"
     inkscape:window-maximized="1"
     inkscape:current-layer="layer1"
     inkscape:showpageshadow="0"
     inkscape:pagecheckerboard="0"
     inkscape:deskcolor="#d1d1d1" />
  <g
     inkscape:groupmode="layer"
     id="layer2"
     inkscape:label="artwork"
     sodipodi:insensitive="true">
    <image
       xlink:href="../gfx_Pepper-and-Carrot_by-David-Revoy_E39P02.png"
       y="0"
       x="0"
       id="image10"
       height="3503"
       width="2481" />
  </g>
  <g
     inkscape:groupmode="layer"
     id="layer3"
     inkscape:label="speechbubbles">
    <path
       style="color:#000000;display:inline;overflow:visible;visibility:visible;fill:#ffffff;fill-opacity:1;fill-rule:nonzero;stroke:none;stroke-width:0.935057px;marker:none;enable-background:accumulate"
       d="m 398.5332,112.73047 c -45.91124,0.29145 -91.71761,3.84596 -137.60308,5.0298 -33.45316,1.66226 -67.46886,4.91506 -98.92649,17.16592 -27.47285,12.41275 -45.7714,40.9611 -48.58011,70.61246 -4.50981,38.82471 12.09143,80.06729 43.99323,103.16721 18.54084,13.47414 41.51643,18.79004 63.95857,21.07409 21.08512,2.0976 42.29684,2.27259 63.45454,3.10718 34.37605,0.95209 68.74481,2.19364 103.12361,3.02175 73.42126,1.32593 147.26715,-0.46696 219.81953,-12.71132 20.12085,-3.70625 40.74457,-7.90935 58.53206,-18.49747 21.70516,-14.36841 33.90516,-40.34449 34.60884,-65.98827 1.44126,-34.07052 -12.72016,-68.92849 -38.77771,-91.18621 -13.22694,-11.12269 -29.54615,-18.09518 -46.42798,-21.39439 -23.55917,-5.2348 -47.69038,-6.99182 -71.65214,-9.38829 -38.89132,-3.04061 -77.93913,-2.39325 -116.89657,-3.88907 -9.54181,-0.0976 -19.08397,-0.15467 -28.6263,-0.12339 z"
       id="path4040-5"
       inkscape:connector-curvature="0"
       sodipodi:nodetypes="zssssz" />
    <path
       style="fill:#ffffff;stroke:none;stroke-width:0.999997"
       d="m 514.07422,314.33322 c -77.02952,1.56605 -154.43586,6.69725 -229.67144,23.29829 -26.66519,5.35677 -48.63581,24.79387 -59.50469,48.13989 -8.4656,18.54845 -10.955,39.24439 -9.20864,59.28818 2.59276,26.79085 13.94431,53.38236 34.2837,72.42763 19.06831,17.40946 44.99877,26.69557 71.01528,29.26761 37.93241,4.78515 76.28627,3.52296 114.43204,4.9574 69.68886,1.24191 139.38727,2.55601 209.09035,2.3794 34.44141,-0.92602 69.46065,-4.68704 101.54328,-17.29608 19.64854,-8.06925 37.55886,-21.64683 46.9108,-40.28827 13.27839,-25.18083 16.53184,-55.02165 9.0829,-82.27179 -6.13561,-21.51355 -20.57081,-40.46011 -39.27653,-53.74532 -27.17664,-19.9646 -60.7823,-31.06829 -94.78103,-34.28442 -20.7872,-2.28562 -41.62594,-4.12765 -62.40521,-6.48158 -30.39273,-3.1066 -60.91548,-5.62107 -91.51081,-5.39094 z"
       id="path3100-2"
       inkscape:connector-curvature="0" />
    <path
       style="fill:#ffffff;stroke:none;stroke-width:1"
       d="m 334.41406,2203.5625 c -41.77639,0.4086 -84.55676,0.013 -124.67719,13.3294 -24.0105,7.9097 -47.27111,20.147 -64.59109,38.8879 -18.05511,20.3411 -26.59742,47.4296 -29.00087,74.1334 -3.11738,34.6872 4.97881,71.0211 25.68121,99.3783 13.56399,18.2952 33.28988,32.2205 55.55693,37.519 23.08178,6.5098 46.84901,10.0393 70.38136,14.4687 82.50121,13.9022 166.91596,18.5018 250.21088,9.4233 30.99104,-3.6545 61.97415,-11.3787 89.27843,-26.8952 20.96186,-11.4318 40.74914,-27.1032 51.72571,-48.7753 11.20916,-22.0937 13.0231,-47.4377 12.74458,-71.8048 -0.42853,-26.5833 -7.61554,-53.814 -24.25385,-74.9564 -12.05921,-15.5307 -29.35125,-26.2387 -47.76958,-32.6239 -43.68856,-15.533 -89.46065,-25.0498 -135.68144,-28.5993 -42.76853,-3.4738 -85.7186,-3.6533 -128.60087,-3.4972 -0.33473,0 -0.66947,0.01 -1.00421,0.012 z"
       id="path3100-2-9"
       inkscape:connector-curvature="0" />
    <path
       style="color:#000000;display:inline;overflow:visible;visibility:visible;fill:#ffffff;fill-opacity:1;fill-rule:nonzero;stroke:none;stroke-width:1px;marker:none;enable-background:accumulate"
       d="M 567.4668 3199.8867 C 522.76669 3200.6725 477.43973 3200.445 433.80273 3211.4941 C 407.83642 3219.6769 384.59798 3237.0208 370.21961 3260.2247 C 363.09612 3275.1891 364.52228 3292.257 365.85304 3308.2756 C 367.29471 3325.1953 372.93651 3342.7822 385.98397 3354.348 C 398.6609 3366.0552 415.64534 3371.3425 432.2284 3374.631 C 473.44105 3383.7053 515.91942 3384.4491 557.93787 3383.5133 C 590.52844 3382.4402 623.07888 3380.3319 655.59338 3377.9159 C 679.64355 3375.7569 704.24378 3370.7821 724.77695 3357.4277 C 736.95052 3349.5593 746.65183 3337.9857 752.0625 3324.5195 C 762.18046 3301.1462 762.34873 3272.7522 749.15788 3250.5206 C 740.34648 3235.4669 725.57095 3224.8015 709.56813 3218.4236 C 690.869 3210.8376 670.80566 3207.5282 650.95433 3204.5406 C 623.30392 3200.759 595.34849 3199.7653 567.4668 3199.8867 z "
       id="path4040-4-5-3-6"
       inkscape:connector-curvature="0"
       sodipodi:nodetypes="zssssz" />
    <path
       style="color:#000000;display:inline;overflow:visible;visibility:visible;fill:#ffffff;fill-opacity:1;fill-rule:nonzero;stroke:none;stroke-width:1px;marker:none;enable-background:accumulate"
       d="m 599.04729,665.28363 c 24.34029,-43.99741 43.99389,-89.40521 29.07396,-126.44036 -21.09057,-52.35187 -14.26317,-27.3314 -14.26317,-27.3314 l 42.49857,27.62739 c 3.37011,-2.15316 16.34451,46.74389 -57.30936,126.14437 z"
       id="path3072-12"
       inkscape:connector-curvature="0"
       sodipodi:nodetypes="csccc" />
    <path
       style="color:#000000;display:inline;overflow:visible;visibility:visible;fill:#ffffff;fill-opacity:1;fill-rule:nonzero;stroke:none;stroke-width:1px;marker:none;enable-background:accumulate"
       d="m 352.13316,2583.0744 c -35.17423,-26.284 -35.9598,-109.6117 37.17686,-117.2431 44.21159,-4.6133 13.8064,-21.8217 13.8064,-21.8217 l -40.99955,3.0578 c -22.99606,-28.1048 -103.44367,68.8554 -9.98371,136.007 z"
       id="path3072-6"
       inkscape:connector-curvature="0"
       sodipodi:nodetypes="csccc" />
    <path
       style="color:#000000;display:inline;overflow:visible;visibility:visible;fill:#ffffff;fill-opacity:1;fill-rule:nonzero;stroke:none;stroke-width:1px;marker:none;enable-background:accumulate"
       d="m 676.12016,3024.8741 c 22.96864,40.516 51.01466,96.8741 -24.69985,186.3969 -15.52343,55.158 33.68829,20.4998 33.68829,20.4998 9.34917,-20.4181 80.94505,-133.1476 -8.98844,-206.8967 z"
       id="path3984-7"
       inkscape:connector-curvature="0"
       sodipodi:nodetypes="cccc" />
  </g>
  <g
     inkscape:groupmode="layer"
     id="layer1"
     inkscape:label="txt">
    <text
       xml:space="preserve"
       style="font-style:normal;font-variant:normal;font-weight:normal;font-stretch:normal;line-height:0%;font-family:Lavi;-inkscape-font-specification:Lavi;text-align:center;letter-spacing:0px;word-spacing:0px;text-anchor:middle;display:inline;fill:#000000;fill-opacity:1;stroke:none"
       x="402.69864"
       y="184.28372"
       id="text4246-2-7"><tspan
         sodipodi:role="line"
         style="font-size:45px;line-height:1.25"
         x="402.69864"
         y="184.28372"
         id="tspan4270">Merci d'avoir accepté</tspan><tspan
         sodipodi:role="line"
         style="font-size:45px;line-height:1.25"
         x="402.69864"
         y="240.53372"
         id="tspan3"> de faire cette petite halte </tspan><tspan
         sodipodi:role="line"
         style="font-size:45px;line-height:1.25"
         x="402.69864"
         y="296.78372"
         id="tspan4">par mon abris.</tspan></text>
    <text
       xml:space="preserve"
       style="font-style:normal;font-variant:normal;font-weight:normal;font-stretch:normal;line-height:0%;font-family:Lavi;-inkscape-font-specification:Lavi;text-align:center;letter-spacing:0px;word-spacing:0px;text-anchor:middle;display:inline;fill:#000000;fill-opacity:1;stroke:none"
       x="519.12646"
       y="391.91455"
       id="text4246-2-7-3"><tspan
         sodipodi:role="line"
         style="font-size:45px;line-height:1.25"
         x="519.12646"
         y="391.91455"
         id="tspan6">J'avais sérieusement </tspan><tspan
         sodipodi:role="line"
         style="font-size:45px;line-height:1.25"
         x="519.12646"
         y="448.16455"
         id="tspan8">besoin de me changer et </tspan><tspan
         sodipodi:role="line"
         style="font-size:45px;line-height:1.25"
         x="519.12646"
         y="504.41455"
         id="tspan9">de prendre une douche.</tspan></text>
    <text
       xml:space="preserve"
       style="font-style:normal;font-variant:normal;font-weight:normal;font-stretch:normal;line-height:0%;font-family:Lavi;-inkscape-font-specification:Lavi;text-align:center;letter-spacing:0px;word-spacing:0px;text-anchor:middle;display:inline;fill:#000000;fill-opacity:1;stroke:none"
       x="394.0867"
       y="2283.541"
       id="text4246-2-7-3-3"><tspan
         sodipodi:role="line"
         style="font-size:45px;line-height:1.25"
         x="394.0867"
         y="2283.541"
         id="tspan9-2">De toutes manières,</tspan><tspan
         sodipodi:role="line"
         style="font-size:45px;line-height:1.25"
         x="394.0867"
         y="2339.791"
         id="tspan11">il aurait été trop difficile</tspan><tspan
         sodipodi:role="line"
         style="font-size:45px;line-height:1.25"
         x="394.0867"
         y="2396.041"
         id="tspan12"> de rejoindre Qualicity</tspan><tspan
         sodipodi:role="line"
         style="font-size:45px;line-height:1.25"
         x="394.0867"
         y="2452.291"
         id="tspan13"> directement.</tspan></text>
    <text
       xml:space="preserve"
       style="font-style:normal;font-variant:normal;font-weight:normal;font-stretch:normal;line-height:0%;font-family:Lavi;-inkscape-font-specification:Lavi;text-align:center;letter-spacing:0px;word-spacing:0px;text-anchor:middle;display:inline;fill:#000000;fill-opacity:1;stroke:none"
       x="571.48511"
       y="3277.3433"
       id="text4246-2-7-3-3-9"><tspan
         sodipodi:role="line"
         style="font-size:45px;line-height:1.25"
         x="571.48511"
         y="3277.3433"
         id="tspan13-0">Nous partirons </tspan><tspan
         sodipodi:role="line"
         style="font-size:45px;line-height:1.25"
         x="578.51636"
         y="3333.5933"
         id="tspan16">demain à l'aube. </tspan></text>
  </g>
</svg>
