<?xml version="1.0" encoding="UTF-8" standalone="no"?>
<!-- Created with Inkscape (http://www.inkscape.org/) -->

<svg
   id="svg2"
   version="1.1"
   inkscape:version="1.3.2 (091e20ef0f, 2023-11-25)"
   width="2481"
   height="3503"
   sodipodi:docname="E39P03.svg"
   xmlns:inkscape="http://www.inkscape.org/namespaces/inkscape"
   xmlns:sodipodi="http://sodipodi.sourceforge.net/DTD/sodipodi-0.dtd"
   xmlns:xlink="http://www.w3.org/1999/xlink"
   xmlns="http://www.w3.org/2000/svg"
   xmlns:svg="http://www.w3.org/2000/svg"
   xmlns:rdf="http://www.w3.org/1999/02/22-rdf-syntax-ns#"
   xmlns:cc="http://creativecommons.org/ns#"
   xmlns:dc="http://purl.org/dc/elements/1.1/">
  <metadata
     id="metadata8">
    <rdf:RDF>
      <cc:Work
         rdf:about="">
        <dc:format>image/svg+xml</dc:format>
        <dc:type
           rdf:resource="http://purl.org/dc/dcmitype/StillImage" />
        <dc:title />
      </cc:Work>
    </rdf:RDF>
  </metadata>
  <defs
     id="defs6" />
  <sodipodi:namedview
     pagecolor="#ffffff"
     bordercolor="#666666"
     borderopacity="1"
     objecttolerance="10"
     gridtolerance="10"
     guidetolerance="10"
     inkscape:pageopacity="0"
     inkscape:pageshadow="2"
     inkscape:window-width="1920"
     inkscape:window-height="1056"
     id="namedview4"
     showgrid="false"
     inkscape:zoom="0.30245747"
     inkscape:cx="1535.7531"
     inkscape:cy="1820.0906"
     inkscape:window-x="1920"
     inkscape:window-y="0"
     inkscape:window-maximized="1"
     inkscape:current-layer="layer1"
     inkscape:showpageshadow="0"
     inkscape:pagecheckerboard="0"
     inkscape:deskcolor="#d1d1d1" />
  <g
     inkscape:groupmode="layer"
     id="layer2"
     inkscape:label="artwork"
     sodipodi:insensitive="true">
    <image
       xlink:href="../gfx_Pepper-and-Carrot_by-David-Revoy_E39P03.png"
       y="0"
       x="0"
       id="image10"
       height="3503"
       width="2481" />
  </g>
  <g
     inkscape:groupmode="layer"
     id="layer3"
     inkscape:label="speechbubbles">
    <path
       style="fill:#ffffff;stroke:none;stroke-width:1"
       d="m 722.82946,456.10018 c -2.6228,77.01406 -84.1105,102.09538 -142.6939,105.24595 -99.3961,10.95772 -200.754,6.63268 -298.9547,-12.89752 -63.6336,-17.96697 -98.19899,-115.07573 -48.179,-167.53592 51.8093,-41.52211 120.541,-41.77472 181.8614,-52.44213 87.0016,-8.47393 177.5777,-6.0334 260.674,25.59115 37.1645,17.62672 51.5492,60.38588 47.2922,102.03847 z"
       id="path3100-2"
       inkscape:connector-curvature="0" />
    <path
       style="fill:#ffffff;stroke:none;stroke-width:0.999995"
       d="m 352.24406,130.51487 c -50.1886,2.2092 -100.7509,5.77349 -149.5057,18.6314 -19.39414,6.25588 -38.08149,17.31274 -49.66612,34.4792 -11.73443,18.1282 -17.2455,39.50889 -20.04873,60.70714 -1.54617,23.45655 8.63046,46.61116 24.58031,63.47992 14.46012,16.20938 31.90618,30.10943 51.88924,38.84246 17.9648,6.6413 36.9112,9.89789 55.4951,14.27336 48.6197,9.69249 98.2248,13.24725 147.7012,14.81572 66.6206,1.53205 133.3154,-2.1832 199.4824,-9.93834 26.9609,-3.49344 54.0814,-7.67241 79.8008,-16.77749 28.1854,-10.7955 53.0401,-32.25708 64.599,-60.50664 5.9974,-15.13465 8.0632,-31.6293 7.5573,-47.83095 -0.6475,-12.97608 -3.1642,-26.36957 -10.6104,-37.28293 -10.6932,-16.26921 -27.1963,-27.55774 -43.9829,-36.81632 -23.7684,-12.91179 -49.9001,-21.66228 -76.8056,-24.79286 -22.8911,-2.81683 -45.9809,-3.21557 -68.9695,-4.82141 -68.4609,-3.91833 -137.0147,-6.93336 -205.6006,-6.7012 -1.972,0.0796 -3.9439,0.15929 -5.9158,0.23894 z"
       id="path3278-1"
       inkscape:connector-curvature="0"
       sodipodi:nodetypes="ccssssssc" />
    <path
       style="color:#000000;display:inline;overflow:visible;visibility:visible;fill:#ffffff;fill-opacity:1;fill-rule:nonzero;stroke:none;stroke-width:1px;marker:none;enable-background:accumulate"
       d="m 492.67766,554.54392 c -9.0184,55.84215 -10.3893,155.49004 102.1307,223.65461 -165.1755,-63.66144 -143.1542,-214.82025 -146.0632,-283.78849 -2.9973,-71.06192 27.1384,64.84331 27.1384,64.84331 z"
       id="path4035-4"
       inkscape:connector-curvature="0"
       sodipodi:nodetypes="ccscc" />
    <path
       style="color:#000000;display:inline;overflow:visible;visibility:visible;fill:#ffffff;fill-opacity:1;fill-rule:nonzero;stroke:none;stroke-width:1px;marker:none;enable-background:accumulate"
       d="m 331.64917,1067.7132 c -31.10072,0.4792 -62.39965,2.3738 -92.79405,9.3651 -17.37992,4.106 -34.67229,9.7921 -49.69043,19.6822 -22.15628,14.3281 -40.12711,34.5892 -53.44814,57.2466 -12.17604,20.4983 -17.2134,44.5335 -17.43115,68.193 -0.26217,26.9677 0.40541,54.3063 7.24608,80.5471 3.59575,13.5134 9.78735,26.7696 20.2638,36.3244 10.5185,10.1106 24.12742,16.536 38.27091,19.7203 37.37617,10.8628 76.80386,12.5354 115.43691,9.7138 29.21902,-1.6108 58.52999,-2.7733 87.76903,-0.9612 56.18398,2.0322 112.60166,2.4236 168.56852,-3.6588 27.93828,-3.0206 55.82896,-7.4735 82.86712,-15.2526 15.99872,-5.2672 30.65535,-15.3136 40.11359,-29.396 12.16027,-16.893 17.74388,-37.7919 18.29936,-58.4241 3.51449,-42.5384 -8.73681,-85.7499 -32.03755,-121.3055 -18.29041,-26.8061 -47.05775,-46.5996 -79.06993,-52.6776 -21.29149,-4.564 -43.03775,-6.3185 -64.61294,-8.9965 -59.57599,-6.3027 -119.46473,-9.7538 -179.37408,-10.1186 -3.45901,-0.017 -6.91802,-0.01 -10.37705,0 z"
       id="path4040-4-5-3"
       inkscape:connector-curvature="0"
       sodipodi:nodetypes="zssssz" />
    <path
       style="fill:#ffffff;stroke:none;stroke-width:1"
       d="m 418.50885,1321.4238 c -65.7393,0.5518 -131.92411,5.86 -195.63869,22.8275 -23.4776,6.4683 -46.7331,16.5893 -64.26967,33.9309 -16.96712,17.1506 -25.87449,40.8363 -28.59073,64.4986 -3.56633,25.7054 -0.5807,53.1642 12.84652,75.7823 14.91465,25.5862 42.25513,43.3031 71.60658,46.9012 39.7956,8.1386 80.44306,11.4883 121.02349,11.7832 39.55131,0.458 79.11135,-0.8403 118.65661,0.3428 34.78016,0.6098 69.58677,2.0865 104.36184,0.48 33.89692,-1.2332 67.79028,-2.7821 101.71309,-3.0393 28.40838,-0.8792 57.44562,-3.2698 83.95512,-14.3077 20.03934,-8.3412 38.21256,-23.0225 47.40526,-43.0383 10.06423,-21.0345 11.19807,-45.219 7.83686,-67.9809 -3.64327,-26.7885 -14.76749,-53.3632 -34.84443,-71.977 -21.69753,-20.4832 -50.0572,-32.3164 -78.74397,-39.1935 -35.53841,-8.5887 -72.15443,-10.9644 -108.50074,-13.6613 -52.86776,-3.3068 -105.86782,-3.3931 -158.81714,-3.3485 z"
       id="path3280-10"
       inkscape:connector-curvature="0"
       sodipodi:nodetypes="csssc" />
    <path
       style="fill:#ffffff;fill-rule:evenodd;stroke:none;stroke-width:1px;stroke-linecap:butt;stroke-linejoin:miter;stroke-opacity:1"
       d="m 593.25512,1104.5792 c 0,0 4.28118,-25.4002 13.51289,-33.8741 9.23171,-8.4738 33.74384,-24.9716 54.65773,-25.3542 -39.96888,-5.7902 -58.67748,5.1498 -66.58645,11.2555 -7.91025,6.1061 -32.86004,37.8967 -32.86004,37.8967 z"
       id="path1367"
       inkscape:connector-curvature="0" />
    <path
       style="fill:#ffffff;fill-rule:evenodd;stroke:none;stroke-width:0.999996px;stroke-linecap:butt;stroke-linejoin:miter;stroke-opacity:1"
       d="m 764.24844,1408.4084 c 1.0808,-18.5439 14.05059,-52.5406 33.50539,-58.7219 19.4547,-6.1813 73.4956,-6.1813 84.3038,-3.0902 10.80819,3.0902 28.1013,25.7546 32.42461,35.0271 4.3233,9.2714 16.21229,42.2377 -3.2424,55.6307 -19.45481,13.3929 -38.90952,23.6949 -59.44512,22.6645 -20.53559,-1.0304 -61.60668,-8.2421 -71.33399,-20.6038 -9.72739,-12.3625 -16.21229,-30.9064 -16.21229,-30.9064 z"
       id="path1355"
       inkscape:connector-curvature="0" />
    <path
       style="color:#000000;display:inline;overflow:visible;visibility:visible;fill:#ffffff;fill-opacity:1;fill-rule:nonzero;stroke:none;stroke-width:1px;marker:none;enable-background:accumulate"
       d="m 1167.3162,1272.6669 c -51.0182,1.0987 -102.087,2.0956 -152.9699,6.6547 -8.3109,0.9181 -16.72979,1.4566 -24.86083,3.664 -25.86216,7.8042 -48.47374,25.6478 -66.58534,47.2074 -12.43456,15.5891 -19.29474,36.3076 -19.39103,57.0871 -1.49597,19.6977 0.0722,40.6332 9.41231,57.9297 15.32626,29.2861 43.32261,48.7801 72.97626,55.0419 35.15903,8.3731 71.01663,12.3483 106.81443,15.5382 34.8387,2.8842 69.7679,4.6901 104.7075,4.7227 39.3454,-0.3765 78.9111,-4.0466 117.1421,-14.7871 22.1653,-6.5846 44.7856,-14.0551 63.5722,-29.2238 17.0224,-13.3008 29.2167,-34.3219 32.0216,-57.3286 3.771,-29.2959 -5.3426,-59.4006 -21.4476,-82.5471 -14.758,-21.3783 -35.9644,-37.123 -59.4162,-44.052 -27.8618,-9.2969 -56.8474,-13.4632 -85.7231,-16.6036 -25.3472,-2.5225 -50.8102,-3.3836 -76.2524,-3.3035 z"
       id="path4040-4-5-3-3"
       inkscape:connector-curvature="0"
       sodipodi:nodetypes="zssssz" />
    <path
       style="color:#000000;display:inline;overflow:visible;visibility:visible;fill:#ffffff;fill-opacity:1;fill-rule:nonzero;stroke:none;stroke-width:0.948946px;marker:none;enable-background:accumulate"
       d="M 1508.3809 1234.377 C 1500.1849 1238.4275 1496.8967 1248.6161 1498.4688 1257.1992 C 1495.3374 1350.0577 1488.8668 1442.9993 1493.4054 1535.9256 C 1494.7115 1558.5443 1496.2672 1581.254 1500.7554 1603.4998 C 1505.3913 1623.9522 1514.1132 1644.3245 1529.8258 1658.7238 C 1545.8622 1673.4478 1566.4787 1681.7324 1586.9608 1688.1952 C 1619.6488 1698.9946 1654.1636 1701.9223 1688.2301 1705.1794 C 1722.0036 1709.1381 1756.0021 1713.0303 1790.0608 1711.1761 C 1820.7138 1710.5354 1851.3962 1709.6741 1881.9156 1706.5591 C 1912.1859 1703.4389 1942.9346 1699.5352 1971.2048 1687.6416 C 1992.3516 1678.6663 2011.5551 1664.9023 2026.4916 1647.4203 C 2046.3207 1623.2265 2057.3199 1592.9256 2062.2945 1562.3152 C 2068.4911 1526.3629 2069.206 1489.7832 2070.1187 1453.4016 C 2069.976 1410.1605 2065.7638 1366.4608 2052.3021 1325.1772 C 2040.6309 1293.7853 2016.1372 1267.059 1985.1192 1254.052 C 1960.201 1242.8941 1932.5276 1239.7183 1905.4581 1240.0497 C 1836.2469 1238.5776 1767.0118 1238.6974 1697.8031 1237.0739 C 1634.9124 1236.0747 1572.0216 1235.0754 1509.1309 1234.0762 C 1508.8809 1234.1764 1508.6309 1234.2767 1508.3809 1234.377 z "
       id="path4040-57"
       inkscape:connector-curvature="0"
       sodipodi:nodetypes="sssszzzzsss" />
    <path
       style="fill:#ffffff;fill-rule:evenodd;stroke:none;stroke-width:1px;stroke-linecap:butt;stroke-linejoin:miter;stroke-opacity:1"
       d="m 1916.8652,1655.7998 c 0,0 22.2249,44.4686 40.6611,56.8897 19.5716,13.1862 34.5091,3.1743 60.2539,-5.7647 -35.2543,26.012 -62.8266,27.646 -80.0308,17.3864 -18.5924,-11.0876 -39.0469,-33.5017 -39.0469,-33.5017 z"
       id="path1367-2"
       inkscape:connector-curvature="0"
       sodipodi:nodetypes="cscscc" />
    <path
       style="fill:#ffffff;fill-rule:evenodd;stroke:none;stroke-width:0.98557px;stroke-linecap:butt;stroke-linejoin:miter;stroke-opacity:1"
       d="m 1727.524,2205.3332 c -24.2353,0.2744 -48.6799,-0.9249 -72.653,4.7749 -11.2301,2.9608 -21.7852,12.1704 -27.2304,25.8781 -4.0223,9.7383 -6.2063,21.0643 -5.4269,32.2092 1.0565,9.568 5.7273,17.4948 10.7862,24.0115 10.1002,13.1084 23.6327,20.7342 37.4449,23.3552 13.5238,2.9331 27.25,3.583 40.9236,4.0076 23.1794,0.3883 46.363,-1.232 69.4346,-4.1647 10.5404,-1.4867 21.1274,-3.3538 31.3073,-7.4256 7.5968,-3.6376 14.6936,-10.8108 17.7168,-21.1154 2.9042,-9.0963 4.2469,-19.0225 4.4137,-28.8816 -0.4832,-11.1277 -4.9708,-21.0888 -10.1246,-29.5017 -5.6695,-8.9511 -13.5083,-15.456 -22.1122,-17.8414 -10.1881,-3.2432 -20.7092,-3.7097 -31.1257,-4.367 -14.4431,-0.7032 -28.9013,-1.1512 -43.3543,-0.9391 z"
       id="path1079"
       inkscape:connector-curvature="0" />
    <path
       style="fill:#ffffff;stroke:none;stroke-width:1"
       d="m 1881.6613,2351.3879 c 40.9686,30.6369 -16.999,73.6437 3.5411,85.3922 20.5402,11.7485 20.0295,17.3785 27.5733,27.6785 8.239,9.4407 -22.7611,55.7018 29.5995,70.5647 -69.1698,-12.7624 -37.4801,-55.0209 -45.0835,-63.8031 -10.4523,-12.0733 -13.9957,-16.0564 -34.8611,-24.2159 -20.2105,-7.9034 10.7966,-48.3368 -8.3392,-70.9228 -19.1361,-22.586 -48.3396,-31.0831 -48.3396,-31.0831 z"
       id="path3282-4"
       inkscape:connector-curvature="0"
       sodipodi:nodetypes="csccssscc" />
    <path
       style="color:#000000;display:inline;overflow:visible;visibility:visible;fill:#ffffff;fill-opacity:1;fill-rule:nonzero;stroke:none;stroke-width:1px;marker:none;enable-background:accumulate"
       d="m 373.3124,2534.9997 c 21.98679,-16.0589 66.91467,-26.4093 104.34671,3.8956 29.64322,23.9989 19.73814,57.4707 3.90033,67.5574 -15.83776,10.0868 -66.23817,11.0588 -89.42107,5.3614 -17.89703,-4.3989 -37.51711,-14.7666 -38.59859,-41.2289 -0.44136,-10.8008 -2.21418,-19.5267 19.77262,-35.5855 z"
       id="path4040-2"
       inkscape:connector-curvature="0"
       sodipodi:nodetypes="zssssz" />
    <path
       style="fill:#ffffff;fill-rule:evenodd;stroke:none;stroke-width:1px;stroke-linecap:butt;stroke-linejoin:miter;stroke-opacity:1"
       d="m 433.4713,2752.0969 c -9.18636,-24.1079 9.65181,-34.5843 11.3715,-48.1415 1.77535,-13.9957 -29.41959,-30.2612 -28.36101,-43.315 1.05858,-13.0539 23.99536,-23.9016 25.33056,-44.3419 1.33534,-20.4414 -21.42505,-27.7065 -22.47827,-3.9273 -1.05336,23.7802 -19.3153,25.4376 -18.02672,44.538 2.14928,31.8538 26.40721,34.5719 32.77186,44.3264 4.21377,6.4586 -7.18223,17.7792 -6.895,31.8435 0.28711,14.0652 6.28708,19.0178 6.28708,19.0178 z"
       id="path4272-2"
       inkscape:connector-curvature="0"
       sodipodi:nodetypes="csssssssc" />
    <path
       style="fill:#ffffff;fill-rule:evenodd;stroke:none;stroke-width:0.985574px;stroke-linecap:butt;stroke-linejoin:miter;stroke-opacity:1"
       d="m 2023.1624,2273.83 c -48.8227,1.4337 -97.6799,1.3433 -146.5169,0.7184 -35.4213,-0.093 -71.3173,1.9246 -105.4164,11.3519 -16.4248,4.5928 -29.2297,16.978 -36.0771,31.1634 -4.7885,10.0408 -7.1972,21.2161 -6.008,32.1678 1.1332,9.0525 8.4117,16.178 16.109,21.3017 15.947,10.4574 34.8621,16.2986 53.9377,19.7452 16.4135,2.9247 33.0104,4.883 49.5785,6.9005 28.997,3.358 58.2652,5.1607 87.4937,4.1056 39.9825,-0.6095 80.0907,0.1787 119.9087,-3.8183 25.0504,-2.2699 50.0609,-4.9476 75.1166,-7.1357 21.3504,-3.3957 39.9102,-19.5625 43.5279,-39.3734 3.4627,-16.1922 -2.4147,-33.9875 -15.8345,-45.1117 -15.8371,-14.6494 -37.4623,-22.6812 -59.1901,-26.6617 -25.1585,-4.8816 -51.0074,-5.486 -76.6291,-5.3537 z"
       id="path1079-3"
       inkscape:connector-curvature="0" />
  </g>
  <g
     inkscape:groupmode="layer"
     id="layer1"
     inkscape:label="txt">
    <text
       xml:space="preserve"
       style="font-style:normal;font-variant:normal;font-weight:normal;font-stretch:normal;line-height:0%;font-family:Lavi;-inkscape-font-specification:Lavi;text-align:center;letter-spacing:0px;word-spacing:0px;text-anchor:middle;display:inline;fill:#000000;fill-opacity:1;stroke:none"
       x="452.53018"
       y="213.36194"
       id="text4246-2-7"><tspan
         sodipodi:role="line"
         style="font-size:45px;line-height:1.25"
         x="452.53018"
         y="213.36194"
         id="tspan4270">Thyme et Cumin ont bien</tspan><tspan
         sodipodi:role="line"
         style="font-size:45px;line-height:1.25"
         x="452.53018"
         y="269.61194"
         id="tspan18">reçu mon signal, et sont en</tspan><tspan
         sodipodi:role="line"
         style="font-size:45px;line-height:1.25"
         x="452.53018"
         y="325.86194"
         id="tspan19">route à présent.</tspan></text>
    <text
       xml:space="preserve"
       style="font-style:normal;font-variant:normal;font-weight:normal;font-stretch:normal;line-height:0%;font-family:Lavi;-inkscape-font-specification:Lavi;text-align:center;letter-spacing:0px;word-spacing:0px;text-anchor:middle;display:inline;fill:#000000;fill-opacity:1;stroke:none"
       x="460.09158"
       y="409.95929"
       id="text22"><tspan
         sodipodi:role="line"
         style="font-size:45px;line-height:1.25"
         x="460.09158"
         y="409.95929"
         id="tspan22">Elles auront</tspan><tspan
         sodipodi:role="line"
         style="font-size:45px;line-height:1.25"
         x="460.09158"
         y="466.20932"
         id="tspan24"> certainement un peu</tspan><tspan
         sodipodi:role="line"
         style="font-size:45px;line-height:1.25"
         x="467.12283"
         y="522.45935"
         id="tspan26"> d'avance sur nous. </tspan></text>
    <text
       xml:space="preserve"
       style="font-style:normal;font-variant:normal;font-weight:normal;font-stretch:normal;line-height:0%;font-family:Lavi;-inkscape-font-specification:Lavi;text-align:center;letter-spacing:0px;word-spacing:0px;text-anchor:middle;display:inline;fill:#000000;fill-opacity:1;stroke:none"
       x="406.72958"
       y="1150.0011"
       id="text29"><tspan
         sodipodi:role="line"
         style="font-size:45px;line-height:1.25"
         x="406.72958"
         y="1150.0011"
         id="tspan31">A Qualicity, ton amie</tspan><tspan
         sodipodi:role="line"
         style="font-size:45px;line-height:1.25"
         x="406.72958"
         y="1206.2511"
         id="tspan33"> la reine Coriandre te </tspan><tspan
         sodipodi:role="line"
         style="font-size:45px;line-height:1.25"
         x="406.72958"
         y="1262.5011"
         id="tspan34">parlera de ses progrès </tspan><tspan
         sodipodi:role="line"
         style="font-size:45px;line-height:1.25"
         x="406.72958"
         y="1318.7511"
         id="tspan35">en matière de diplomatie.</tspan></text>
    <text
       xml:space="preserve"
       style="font-style:normal;font-variant:normal;font-weight:normal;font-stretch:normal;line-height:0%;font-family:Lavi;-inkscape-font-specification:Lavi;text-align:center;letter-spacing:0px;word-spacing:0px;text-anchor:middle;display:inline;fill:#000000;fill-opacity:1;stroke:none"
       x="469.358"
       y="1414.5692"
       id="text39"><tspan
         sodipodi:role="line"
         style="font-size:45px;line-height:1.25"
         x="469.358"
         y="1414.5692"
         id="tspan39">Elle pense pouvoir faire </tspan><tspan
         sodipodi:role="line"
         style="font-size:45px;line-height:1.25"
         x="469.358"
         y="1470.8192"
         id="tspan43">cesser l'avis de recherche sur </tspan><tspan
         sodipodi:role="line"
         style="font-size:45px;line-height:1.25"
         x="469.358"
         y="1527.0692"
         id="tspan44">ta tête et celle de tes amies.</tspan></text>
    <text
       xml:space="preserve"
       style="font-style:normal;font-variant:normal;font-weight:normal;font-stretch:normal;font-size:13.1543px;line-height:0%;font-family:Lavi;-inkscape-font-specification:Lavi;text-align:center;letter-spacing:0px;word-spacing:0px;text-anchor:middle;display:inline;fill:#000000;fill-opacity:1;stroke:none;stroke-width:0.999998"
       x="882.3963"
       y="1345.041"
       id="text47"
       transform="scale(0.95106957,1.0514478)"><tspan
         sodipodi:role="line"
         style="font-weight:bold;font-size:49.3285px;line-height:1.25;stroke-width:0.999998"
         x="882.3963"
         y="1345.041"
         id="tspan47">... ?</tspan></text>
    <text
       xml:space="preserve"
       style="font-style:normal;font-variant:normal;font-weight:normal;font-stretch:normal;line-height:0%;font-family:Lavi;-inkscape-font-specification:Lavi;text-align:center;letter-spacing:0px;word-spacing:0px;text-anchor:middle;display:inline;fill:#000000;fill-opacity:1;stroke:none"
       x="1170.9368"
       y="1329.0919"
       id="text51"><tspan
         sodipodi:role="line"
         style="font-size:45px;line-height:1.25"
         x="1170.9368"
         y="1329.0919"
         id="tspan51">On peut savoir </tspan><tspan
         sodipodi:role="line"
         style="font-size:45px;line-height:1.25"
         x="1170.9368"
         y="1385.3419"
         id="tspan53">qu'est-ce-qui te fait </tspan><tspan
         sodipodi:role="line"
         style="font-size:45px;line-height:1.25"
         x="1170.9368"
         y="1441.5919"
         id="tspan129">sourire bêtement </tspan><tspan
         sodipodi:role="line"
         style="font-size:45px;line-height:1.25"
         x="1170.9368"
         y="1497.8419"
         id="tspan54">comme ça ?</tspan></text>
    <text
       xml:space="preserve"
       style="font-style:normal;font-variant:normal;font-weight:normal;font-stretch:normal;line-height:0%;font-family:Lavi;-inkscape-font-specification:Lavi;text-align:center;letter-spacing:0px;word-spacing:0px;text-anchor:middle;display:inline;fill:#000000;fill-opacity:1;stroke:none"
       x="1784.7961"
       y="1311.1105"
       id="text57"><tspan
         sodipodi:role="line"
         style="font-size:45px;line-height:1.25"
         x="1784.7961"
         y="1311.1105"
         id="tspan70">Oh, c'est juste que...</tspan><tspan
         sodipodi:role="line"
         style="font-size:45px;line-height:1.25"
         x="1784.7961"
         y="1367.3605"
         id="tspan103">Enfin, <tspan
   style="font-weight:bold"
   id="tspan110">ta voix</tspan>... Quand</tspan><tspan
         sodipodi:role="line"
         style="font-size:45px;line-height:1.25"
         x="1784.7961"
         y="1423.6105"
         id="tspan109">j'étais petite, tu ne m'as</tspan><tspan
         sodipodi:role="line"
         style="font-size:45px;line-height:1.25"
         x="1784.7961"
         y="1479.8605"
         id="tspan115">jamais raconter d'histoire</tspan><tspan
         sodipodi:role="line"
         style="font-size:45px;line-height:1.25"
         x="1784.7961"
         y="1536.1105"
         id="tspan120">avant d'aller au lit. Alors</tspan><tspan
         sodipodi:role="line"
         style="font-size:45px;line-height:1.25"
         x="1784.7961"
         y="1592.3605"
         id="tspan123"> je m'imaginais un peu ce </tspan><tspan
         sodipodi:role="line"
         style="font-size:45px;line-height:1.25"
         x="1784.7961"
         y="1648.6105"
         id="tspan127">que ça aurait pu faire.</tspan></text>
    <text
       xml:space="preserve"
       style="font-style:normal;font-variant:normal;font-weight:normal;font-stretch:normal;line-height:0%;font-family:Lavi;-inkscape-font-specification:Lavi;text-align:center;letter-spacing:0px;word-spacing:0px;text-anchor:middle;fill:#000000;fill-opacity:1;stroke:none"
       x="428.83057"
       y="2572.2212"
       id="text4246-05"><tspan
         sodipodi:role="line"
         style="font-size:45px;line-height:1.25"
         x="428.83057"
         y="2572.2212"
         id="tspan4144-2">...</tspan></text>
    <text
       xml:space="preserve"
       style="font-style:normal;font-variant:normal;font-weight:normal;font-stretch:normal;line-height:0%;font-family:Lavi;-inkscape-font-specification:Lavi;text-align:center;letter-spacing:0px;word-spacing:0px;text-anchor:middle;display:inline;fill:#000000;fill-opacity:1;stroke:none"
       x="1721.4481"
       y="2276.7151"
       id="text137"><tspan
         sodipodi:role="line"
         style="font-size:45px;line-height:1.25"
         x="1721.4481"
         y="2276.7151"
         id="tspan143">Il ...</tspan></text>
    <text
       xml:space="preserve"
       style="font-style:normal;font-variant:normal;font-weight:normal;font-stretch:normal;line-height:0%;font-family:Lavi;-inkscape-font-specification:Lavi;text-align:center;letter-spacing:0px;word-spacing:0px;text-anchor:middle;display:inline;fill:#000000;fill-opacity:1;stroke:none"
       x="1965.7083"
       y="2350.5903"
       id="text137-6"><tspan
         sodipodi:role="line"
         style="font-size:45px;line-height:1.25"
         x="1965.7083"
         y="2350.5903"
         id="tspan143-7">Il était une fois ...</tspan></text>
  </g>
</svg>
