<?xml version="1.0" encoding="UTF-8" standalone="no"?>
<!-- Created with Inkscape (http://www.inkscape.org/) -->

<svg
   id="svg2"
   version="1.1"
   inkscape:version="1.3 (0e150ed6c4, 2023-07-21)"
   width="2481"
   height="3503"
   sodipodi:docname="E08P02.svg"
   xmlns:inkscape="http://www.inkscape.org/namespaces/inkscape"
   xmlns:sodipodi="http://sodipodi.sourceforge.net/DTD/sodipodi-0.dtd"
   xmlns:xlink="http://www.w3.org/1999/xlink"
   xmlns="http://www.w3.org/2000/svg"
   xmlns:svg="http://www.w3.org/2000/svg"
   xmlns:rdf="http://www.w3.org/1999/02/22-rdf-syntax-ns#"
   xmlns:cc="http://creativecommons.org/ns#"
   xmlns:dc="http://purl.org/dc/elements/1.1/">
  <metadata
     id="metadata8">
    <rdf:RDF>
      <cc:Work
         rdf:about="">
        <dc:format>image/svg+xml</dc:format>
        <dc:type
           rdf:resource="http://purl.org/dc/dcmitype/StillImage" />
        <dc:title />
      </cc:Work>
    </rdf:RDF>
  </metadata>
  <defs
     id="defs6" />
  <sodipodi:namedview
     pagecolor="#ffffff"
     bordercolor="#666666"
     borderopacity="1"
     objecttolerance="10"
     gridtolerance="10"
     guidetolerance="10"
     inkscape:pageopacity="0"
     inkscape:pageshadow="2"
     inkscape:window-width="1920"
     inkscape:window-height="1012"
     id="namedview4"
     showgrid="false"
     inkscape:zoom="0.65053827"
     inkscape:cx="919.23878"
     inkscape:cy="636.39608"
     inkscape:window-x="0"
     inkscape:window-y="0"
     inkscape:window-maximized="1"
     inkscape:current-layer="layer3"
     inkscape:showpageshadow="0"
     inkscape:pagecheckerboard="0"
     inkscape:deskcolor="#d1d1d1" />
  <g
     inkscape:groupmode="layer"
     id="layer2"
     inkscape:label="artwork"
     sodipodi:insensitive="true">
    <image
       xlink:href="../gfx_Pepper-and-Carrot_by-David-Revoy_E08P02.png"
       width="2481"
       height="3503"
       id="image10"
       x="0"
       y="0" />
  </g>
  <g
     inkscape:groupmode="layer"
     id="layer3"
     inkscape:label="speechbubbles">
    <path
       style="color:#000000;fill:#ffffff;fill-opacity:1;fill-rule:nonzero;stroke:none;stroke-width:1px;marker:none;visibility:visible;display:inline;overflow:visible;enable-background:accumulate"
       d="m 1125.4743,760.10683 c 0.7112,-30.09829 17.2908,-56.13105 44.6991,-69.15287 30.2118,-14.35369 89.0394,-12.04246 99.7776,-9.68907 10.738,2.35355 102.4318,-1.13736 124.9525,1.94273 20.1781,2.75971 78.0955,34.1256 75.167,89.43253 -2.9287,55.30693 -46.8573,72.19211 -91.7622,75.72236 -44.9049,3.53025 -134.6611,1.95972 -158.0106,-0.80543 -25.7788,-3.05283 -93.5339,-32.79953 -93.7146,-95.31632 z"
       id="path5034"
       inkscape:connector-curvature="0"
       sodipodi:nodetypes="cscsssscc" />
    <path
       style="color:#000000;fill:#ffffff;fill-opacity:1;fill-rule:nonzero;stroke:none;stroke-width:1px;marker:none;visibility:visible;display:inline;overflow:visible;enable-background:accumulate"
       d="m 551.8556,440.24406 c -14.99282,8.51877 -30.50245,17.596 -48.20233,19.15973 -5.04552,0.33636 -10.30406,0.32712 -15.2446,-1.05894 -4.86848,-2.59081 -7.06818,-8.34689 -6.80048,-13.57773 -0.13652,-7.60327 2.83481,-15.5196 -0.42661,-22.92866 -2.50068,-5.34029 -8.54581,-6.71656 -13.53059,-8.32027 -12.7747,-3.83775 -26.06596,-5.96289 -38.25461,-11.82504 -14.10981,-5.7119 -28.58953,-12.74432 -38.49661,-25.00056 -3.84253,-4.91287 -7.20634,-10.5695 -7.73723,-16.85089 -2.08041,-16.08132 4.86444,-33.23077 18.53249,-41.38227 9.23972,-4.33938 22.34102,-0.10332 26.50121,10.03796 2.27374,5.32319 0.69789,11.19744 -2.14399,15.71711 -3.65198,9.36301 -1.61582,20.54408 4.34291,28.87961 4.80991,6.95622 11.66301,12.39705 19.26574,15.81243 9.24091,7.3656 21.26086,7.23582 32.10448,9.41758 4.94239,1.07107 10.14187,2.54736 14.14388,5.88447 4.64552,6.09016 3.30429,14.09121 1.39348,20.69485 -1.79545,6.8694 -4.65229,14.59983 -1.05717,21.61186 1.86215,5.18008 8.05309,4.14738 12.31492,4.97642 13.99277,0.86542 27.89374,-2.70596 40.08493,-8.99763 1.11361,-0.68924 2.16189,-1.46702 3.21016,-2.25007 z"
       id="path4496"
       inkscape:connector-curvature="0" />
    <path
       style="color:#000000;display:inline;overflow:visible;visibility:visible;fill:#ffffff;fill-opacity:1;fill-rule:nonzero;stroke:none;stroke-width:1px;marker:none;enable-background:accumulate"
       d="M 85.993277,336.87578 C 46.707554,283.38841 50.916674,179.08813 62.141244,155.01884 73.365705,130.94957 88.799286,94.845683 142.11568,94.845683 c 53.31631,0 423.72429,-25.406502 478.4437,30.755207 54.7193,56.1617 53.3163,153.77595 5.61233,219.29791 -47.70417,65.52195 -303.06121,52.15014 -303.06121,52.15014 0,0 -176.78558,8.02312 -237.117223,-60.17316 z"
       id="path3992"
       inkscape:connector-curvature="0" />
    <flowRoot
       xml:space="preserve"
       id="flowRoot2987-4-9-3"
       style="font-style:normal;font-variant:normal;font-weight:normal;font-stretch:normal;line-height:0.01%;font-family:Lavi;-inkscape-font-specification:Lavi;text-align:center;letter-spacing:0px;word-spacing:0px;text-anchor:middle;fill:#000000;fill-opacity:1;stroke:none"
       transform="translate(-64.565853,-152.99441)"><flowRegion
         id="flowRegion2989-5-4-5"><rect
           id="rect2991-7-9-6"
           width="602.40173"
           height="310.73996"
           x="120.55251"
           y="265.53046"
           style="font-style:normal;font-variant:normal;font-weight:normal;font-stretch:normal;font-family:Lavi;-inkscape-font-specification:Lavi;text-align:center;text-anchor:middle" /></flowRegion><flowPara
         style="font-size:48px;line-height:1.25;text-align:center;text-anchor:middle"
         id="flowPara3022"> ¡Oh!, ¿quieres que</flowPara><flowPara
         style="font-size:48px;line-height:1.25;text-align:center;text-anchor:middle"
         id="flowPara3026">invite a las brujas que</flowPara><flowPara
         style="font-size:48px;line-height:1.25;text-align:center;text-anchor:middle"
         id="flowPara3028">conocimos en el </flowPara><flowPara
         style="font-size:48px;line-height:1.25;text-align:center;text-anchor:middle"
         id="flowPara3030">  concurso de pociones?</flowPara></flowRoot>
    <path
       style="color:#000000;fill:#ffffff;fill-opacity:1;fill-rule:nonzero;stroke:none;stroke-width:1px;marker:none;visibility:visible;display:inline;overflow:visible;enable-background:accumulate"
       d="m 1231.9477,620.44708 c 31.91,16.91037 42.2081,25.03965 37.6619,73.10616 -4.5463,48.06651 11.3934,47.51048 11.3934,47.51048 l 18.2935,-27.6155 c 0,0 3.3401,-102.44406 -67.3488,-93.00114 z"
       id="path3072"
       inkscape:connector-curvature="0" />
    <flowRoot
       xml:space="preserve"
       id="flowRoot2987-4-9-3-1"
       style="font-style:normal;font-variant:normal;font-weight:normal;font-stretch:normal;line-height:0.01%;font-family:Lavi;-inkscape-font-specification:Lavi;text-align:center;letter-spacing:0px;word-spacing:0px;text-anchor:middle;fill:#000000;fill-opacity:1;stroke:none"
       transform="translate(878.68424,442.69913)"><flowRegion
         id="flowRegion2989-5-4-5-1"><rect
           id="rect2991-7-9-6-6"
           width="602.40173"
           height="310.73996"
           x="120.55251"
           y="265.53046"
           style="font-style:normal;font-variant:normal;font-weight:normal;font-stretch:normal;font-family:Lavi;-inkscape-font-specification:Lavi;text-align:center;text-anchor:middle" /></flowRegion><flowPara
         style="font-size:48px;line-height:1.25;text-align:center;text-anchor:middle"
         id="flowPara3030-8">¡Gran idea,</flowPara><flowPara
         style="font-size:48px;line-height:1.25;text-align:center;text-anchor:middle"
         id="flowPara3138">Zanahoria!</flowPara></flowRoot>
    <flowRoot
       xml:space="preserve"
       id="flowRoot3121"
       style="font-style:normal;font-variant:normal;font-weight:normal;font-stretch:normal;line-height:0.01%;font-family:Arial;-inkscape-font-specification:Arial;letter-spacing:0px;word-spacing:0px;fill:#000000;fill-opacity:1;stroke:none;stroke-width:1px;stroke-linecap:butt;stroke-linejoin:miter;stroke-opacity:1"><flowRegion
         id="flowRegion3123"><rect
           id="rect3125"
           width="34.026463"
           height="13.232513"
           x="1521.739"
           y="831.92261" /></flowRegion><flowPara
         id="flowPara3127"
         style="font-size:12px;line-height:1.25"> </flowPara></flowRoot>
    <flowRoot
       xml:space="preserve"
       id="flowRoot2987-4-9-3-1-2"
       style="font-style:normal;font-variant:normal;font-weight:normal;font-stretch:normal;line-height:0.01%;font-family:Lavi;-inkscape-font-specification:Lavi;text-align:center;letter-spacing:0px;word-spacing:0px;text-anchor:middle;opacity:0.437209;fill:#000000;fill-opacity:1;stroke:none"
       transform="matrix(0.91238015,0.20660818,-0.54839204,0.97185115,878.00308,1190.7893)"><flowRegion
         id="flowRegion2989-5-4-5-1-3"><rect
           id="rect2991-7-9-6-6-2"
           width="292.37888"
           height="121.10098"
           x="120.55251"
           y="265.53046"
           style="font-style:normal;font-variant:normal;font-weight:normal;font-stretch:normal;font-family:Lavi;-inkscape-font-specification:Lavi;text-align:center;text-anchor:middle" /></flowRegion><flowPara
         style="font-style:normal;font-variant:normal;font-weight:normal;font-stretch:normal;font-size:48px;line-height:1.25;font-family:Fondamento;-inkscape-font-specification:Fondamento;text-align:center;text-anchor:middle"
         id="flowPara3138-0">Te invito</flowPara><flowPara
         style="font-style:normal;font-variant:normal;font-weight:normal;font-stretch:normal;font-size:48px;line-height:1.25;font-family:Fondamento;-inkscape-font-specification:Fondamento;text-align:center;text-anchor:middle"
         id="flowPara3364">a mi fiesta</flowPara></flowRoot>
  </g>
  <g
     inkscape:groupmode="layer"
     id="layer1"
     inkscape:label="txt" />
</svg>
