<?xml version="1.0" encoding="UTF-8" standalone="no"?>
<!-- Created with Inkscape (http://www.inkscape.org/) -->

<svg
   id="svg2"
   version="1.1"
   inkscape:version="1.3 (0e150ed6c4, 2023-07-21)"
   width="2481"
   height="3503"
   sodipodi:docname="E38P05.svg"
   xmlns:inkscape="http://www.inkscape.org/namespaces/inkscape"
   xmlns:sodipodi="http://sodipodi.sourceforge.net/DTD/sodipodi-0.dtd"
   xmlns:xlink="http://www.w3.org/1999/xlink"
   xmlns="http://www.w3.org/2000/svg"
   xmlns:svg="http://www.w3.org/2000/svg"
   xmlns:rdf="http://www.w3.org/1999/02/22-rdf-syntax-ns#"
   xmlns:cc="http://creativecommons.org/ns#"
   xmlns:dc="http://purl.org/dc/elements/1.1/">
  <metadata
     id="metadata8">
    <rdf:RDF>
      <cc:Work
         rdf:about="">
        <dc:format>image/svg+xml</dc:format>
        <dc:type
           rdf:resource="http://purl.org/dc/dcmitype/StillImage" />
        <dc:title />
      </cc:Work>
    </rdf:RDF>
  </metadata>
  <defs
     id="defs6">
    <filter
       inkscape:label="underwater"
       inkscape:menu="Distort"
       inkscape:menu-tooltip="Something like a water noise"
       height="1.0511301"
       y="-0.025565068"
       width="1.0310469"
       x="-0.015523466"
       style="color-interpolation-filters:sRGB"
       id="filter4172">
      <feTurbulence
         numOctaves="1"
         seed="196"
         type="fractalNoise"
         baseFrequency="0.017000000000000001"
         result="result1"
         id="feTurbulence4174" />
      <feGaussianBlur
         stdDeviation="2"
         result="result2"
         id="feGaussianBlur4176" />
      <feDisplacementMap
         scale="50"
         yChannelSelector="B"
         xChannelSelector="R"
         in="SourceGraphic"
         in2="result2"
         id="feDisplacementMap4178" />
    </filter>
  </defs>
  <sodipodi:namedview
     pagecolor="#ffffff"
     bordercolor="#666666"
     borderopacity="1"
     objecttolerance="10"
     gridtolerance="10"
     guidetolerance="10"
     inkscape:pageopacity="0"
     inkscape:pageshadow="2"
     inkscape:window-width="1920"
     inkscape:window-height="1056"
     id="namedview4"
     showgrid="false"
     inkscape:zoom="0.46"
     inkscape:cx="1329.3478"
     inkscape:cy="2334.7826"
     inkscape:window-x="1920"
     inkscape:window-y="0"
     inkscape:window-maximized="1"
     inkscape:current-layer="layer1"
     inkscape:showpageshadow="0"
     inkscape:pagecheckerboard="0"
     inkscape:deskcolor="#d1d1d1" />
  <g
     inkscape:groupmode="layer"
     id="layer2"
     inkscape:label="artwork"
     sodipodi:insensitive="true">
    <image
       xlink:href="../gfx_Pepper-and-Carrot_by-David-Revoy_E38P05.png"
       y="0"
       x="0"
       id="image10"
       height="3503"
       width="2481" />
  </g>
  <g
     inkscape:groupmode="layer"
     id="layer3"
     inkscape:label="speechbubbles">
    <path
       style="color:#000000;display:inline;overflow:visible;visibility:visible;fill:#ffffff;fill-opacity:1;fill-rule:nonzero;stroke:none;stroke-width:0.999996px;marker:none;enable-background:accumulate"
       d="m 406.35266,861.86796 c -47.11432,-0.58476 -94.89082,5.505 -139.09596,24.32445 -17.98222,8.499 -33.13237,26.33712 -36.81914,48.15422 -2.56672,21.20337 4.01588,43.95011 18.08249,58.71868 11.90097,11.53379 27.43171,16.48839 42.32605,20.96839 33.52732,9.1557 68.2182,9.8365 102.51492,11.0913 24.08948,0.6633 48.21247,1.526 72.29271,0.2834 30.13631,-1.874 60.48673,-6.001 89.14495,-16.9374 15.44043,-5.9466 30.68815,-15.46804 39.71056,-31.16633 9.38101,-16.16174 11.44227,-37.93311 3.38414,-55.32367 -7.22479,-16.53453 -21.14421,-28.39972 -36.37383,-34.6972 -28.56124,-13.98275 -59.87031,-18.00152 -90.5355,-21.91698 -21.48691,-2.26217 -43.07212,-2.86098 -64.63139,-3.49886 z"
       id="path4040-4-4"
       inkscape:connector-curvature="0"
       sodipodi:nodetypes="zssssz" />
    <path
       style="fill:#ffffff;fill-rule:evenodd;stroke:none;stroke-width:0.999992px;stroke-linecap:butt;stroke-linejoin:miter;stroke-opacity:1"
       d="m 435.26341,563.21672 c 16.27678,-7.70306 54.74615,26.14786 39.58227,51.34243 -8.28227,13.76087 -48.97093,53.80439 -43.9925,66.35898 8.40555,21.19708 75.83803,24.06425 75.34563,52.97874 -1.26904,74.51888 -53.41279,72.33106 -59.81975,139.52761 -3.58819,37.63308 -34.40093,22.34932 -33.33057,3.73049 4.2792,-74.43645 66.79894,-75.39649 71.06678,-137.361 1.53877,-22.34137 -67.05507,-30.56749 -73.83163,-54.62707 -6.77656,-24.05958 42.65978,-65.6915 48.95364,-74.90388 19.06934,-27.91202 -17.29835,-49.15245 -23.97387,-47.0463 z"
       id="path4324-2"
       inkscape:connector-curvature="0"
       sodipodi:nodetypes="cssssssssc" />
    <path
       style="display:inline;fill:#ffffff;fill-opacity:1;stroke:none;stroke-width:0.999999"
       d="M 1174.1543 635.67383 C 1122.7643 636.65661 1070.8684 642.12781 1021.9997 658.80506 C 985.75374 672.56669 954.46698 700.62591 939.4159 736.64606 C 927.59553 765.1018 925.91644 798.40875 938.01908 827.06103 C 947.2268 847.98573 964.81194 863.84737 983.5998 876.18454 C 1012.6435 895.29211 1046.1959 906.19744 1079.8917 913.74787 C 1103.1555 918.72953 1126.621 922.84934 1150.2368 925.76014 C 1180.9552 929.57153 1211.9647 929.56578 1242.8674 929.61753 C 1275.9721 929.34626 1309.0588 927.71585 1342.0706 925.28305 C 1364.058 923.46669 1386.1044 920.6902 1407.2822 914.28054 C 1430.5874 907.59676 1453.3784 899.27937 1476.3384 891.52904 C 1496.4172 884.1267 1516.4046 874.20702 1530.6913 857.82249 C 1554.5647 831.32495 1566.2402 795.02901 1565.0466 759.61934 C 1564.0054 736.47521 1555.0805 713.27757 1538.3237 696.96789 C 1520.1872 678.51622 1495.9268 667.52051 1471.304 660.66787 C 1438.6608 651.36783 1404.8411 647.41273 1371.2587 643.1761 C 1305.8323 635.94613 1239.8982 635.61597 1174.1543 635.67383 z "
       id="path3238-0"
       inkscape:connector-curvature="0"
       sodipodi:nodetypes="cssssc" />
    <path
       style="color:#000000;display:inline;overflow:visible;visibility:visible;fill:#ffffff;fill-opacity:1;fill-rule:nonzero;stroke:none;stroke-width:1px;marker:none;enable-background:accumulate"
       d="m 1139.0017,510.23033 c -51.5919,0.23928 -103.6707,7.09844 -152.26774,25.47972 -25.44968,9.49945 -47.85458,28.93361 -59.11149,54.46604 -4.61845,10.83626 -3.75849,23.25061 -0.99999,34.47426 4.42764,19.7746 17.6571,36.88805 34.70254,46.91406 10.93582,6.64711 23.53144,9.3802 35.83074,12.01307 23.79674,4.60721 48.05194,5.86955 72.20004,6.9257 27.2641,1.06906 54.5593,1.72798 81.7522,4.15083 52.1507,3.81211 104.7871,6.64333 156.8072,-0.40866 35.1925,-4.35655 70.4006,-10.40384 104.1134,-21.91302 13.6465,-5.15408 25.5605,-15.01901 33.5769,-27.4503 7.2624,-11.10129 10.4554,-24.79989 9.0568,-38.07951 -1.745,-19.53308 -12.0015,-38.05157 -27.5119,-49.52725 -15.8889,-12.5904 -34.3663,-21.37374 -53.3761,-27.73448 -24.6925,-7.90672 -50.6288,-10.13407 -76.3141,-11.73873 -52.734,-4.02669 -105.5509,-7.69512 -158.4585,-7.57173 z"
       id="path3365-74"
       inkscape:connector-curvature="0"
       sodipodi:nodetypes="csssssc" />
    <path
       style="color:#000000;display:inline;overflow:visible;visibility:visible;fill:#ffffff;fill-opacity:1;fill-rule:nonzero;stroke:none;stroke-width:1px;marker:none;enable-background:accumulate"
       d="M 1095.9004 280.50195 C 1061.4414 281.47284 1026.3383 285.16626 994.29712 298.68209 C 958.93571 313.65257 927.8827 340.00107 909.80579 374.13128 C 894.41338 404.88266 893.89163 441.89455 905.59997 473.94569 C 913.61851 497.07756 929.17875 517.76251 950.0163 530.81116 C 969.10104 543.25407 991.75478 549.08039 1014.2804 550.84326 C 1037.6602 552.87883 1061.1581 551.89514 1084.5822 552.94206 C 1126.2796 554.13881 1167.9322 556.52021 1209.6245 557.84454 C 1240.6413 558.71145 1271.7838 558.82937 1302.6679 555.483 C 1333.5435 550.55513 1362.5582 538.1891 1390.7946 525.23238 C 1412.7496 514.15367 1431.6686 496.4082 1442.4126 474.12302 C 1454.0312 451.77418 1459.3628 425.46335 1453.9572 400.59729 C 1448.8655 380.01815 1435.6153 362.52472 1420.4606 348.15715 C 1390.455 318.94055 1351.5374 298.6294 1310.0265 292.2924 C 1287.879 288.72214 1265.4405 287.63587 1243.1178 285.68063 C 1194.5714 282.15014 1145.8908 280.35862 1097.2162 280.47105 C 1096.7776 280.48135 1096.339 280.49165 1095.9004 280.50195 z "
       id="path4546-6-3"
       inkscape:connector-curvature="0"
       sodipodi:nodetypes="cssssssc" />
    <path
       style="fill:#ffffff;fill-rule:evenodd;stroke:none;stroke-width:1px;stroke-linecap:butt;stroke-linejoin:miter;stroke-opacity:1"
       d="m 1086.3786,1489.4107 c -55.5786,223.4467 351.9268,132.351 386.2717,122.3627 28.0456,-6.0942 47.5755,-87.9389 10.8919,-149.5669 -19.3541,-35.9142 -343.2041,-91.526 -397.1636,27.2042 z"
       id="path4430-0"
       inkscape:connector-curvature="0"
       sodipodi:nodetypes="cccc" />
    <path
       style="fill:#ffffff;fill-rule:evenodd;stroke:none;stroke-width:0.999998px;stroke-linecap:butt;stroke-linejoin:miter;stroke-opacity:1"
       d="m 1665.3875,867.24265 c -47.6883,21.88306 -121.3078,34.20746 -164.497,-19.84273 -43.189,-54.05009 -27.7187,24.61422 -27.7187,24.61422 0,0 103.5598,86.80674 192.2157,-4.77149 z"
       id="path914"
       inkscape:connector-curvature="0"
       sodipodi:nodetypes="cscc" />
    <path
       style="color:#000000;display:inline;overflow:visible;visibility:visible;fill:#ffffff;fill-opacity:1;fill-rule:nonzero;stroke:none;stroke-width:1.44363px;marker:none;enable-background:accumulate"
       d="m 1341.7555,1617.9395 c -61.3575,0.9043 -123.2978,7.4623 -181.6963,27.1927 -40.8377,13.7324 -79.2236,38.1462 -104.3387,73.7524 -26.6448,38.2872 -37.5293,86.1727 -34.5092,132.4146 2.5211,41.3911 22.0372,82.1964 54.9041,107.8949 25.764,19.4238 57.0106,29.5446 88.0138,36.9923 41.3607,9.3048 83.6407,13.3351 125.7145,17.8957 65.3006,5.3659 130.8611,2.4837 196.2794,2.0652 32.4502,-0.6462 64.9726,-0.4316 97.3267,-3.3237 49.8383,-5.3104 98.7915,-18.5875 144.6859,-38.7129 25.7802,-12.2654 48.459,-32.6484 60.0867,-59.0988 11.8306,-26.2359 13.7928,-55.7321 11.5943,-84.1006 -2.3849,-35.5159 -10.9765,-71.4474 -30.4959,-101.6013 -19.3023,-29.9707 -48.8233,-52.3886 -81.4188,-66.1575 -52.8514,-22.8126 -110.5496,-30.2961 -167.3501,-35.9279 -58.4082,-5.7077 -117.0702,-9.2205 -175.7671,-9.3208 -1.0097,0.012 -2.0195,0.024 -3.0293,0.036 z"
       id="path4546-6-5-3"
       inkscape:connector-curvature="0"
       sodipodi:nodetypes="cssssc" />
    <path
       style="color:#000000;display:inline;overflow:visible;visibility:visible;fill:#ffffff;fill-opacity:1;fill-rule:nonzero;stroke:none;stroke-width:1px;marker:none;enable-background:accumulate"
       d="m 1740.1409,1807.0881 c 62.1287,15.8148 150.4475,-33.6088 136.8651,-118.9732 -8.8478,92.8343 -96.9988,91.9805 -130.0298,76.4776 -19.3706,-12.294 -6.8353,42.4956 -6.8353,42.4956 z"
       id="path3978-4"
       inkscape:connector-curvature="0"
       sodipodi:nodetypes="cccc" />
    <path
       style="display:inline;fill:#ffffff;stroke:none;stroke-width:1"
       d="m 917.38033,2397.4226 c -5.2069,-10.7866 -17.1717,-15.0052 -25.6304,-13.039 -8.45839,1.9675 -11.4441,2.5263 -18.2896,8.7513 -6.8457,6.2252 -25.67917,11.3207 -33.31721,7.9632 -7.63783,-3.3561 -47.89164,-12.1144 -47.89164,-12.1144 0,0 20.67765,21.3567 29.65507,27.1533 8.97867,5.7973 6.3573,2.1556 10.75117,3.341 4.39314,1.1846 20.97342,-0.094 30.05862,-2.4708 7.13511,-1.8659 16.12447,-3.9027 23.29985,-12.6861 4.76574,-5.8354 18.47194,-4.2799 21.40374,4.5948 3.2536,9.8488 10.0144,11.0209 24.9122,8.2211 13.8184,-2.5977 34.3544,-11.9913 34.3544,-11.9913 -47.4943,6.1566 -43.47,4.3673 -49.3062,-7.7231 z"
       id="path3023-0"
       inkscape:connector-curvature="0"
       sodipodi:nodetypes="sssscsssssscs" />
    <path
       id="path3549-3-8"
       style="color:#000000;display:inline;overflow:visible;visibility:visible;fill:#ffffff;fill-opacity:1;fill-rule:nonzero;stroke:none;stroke-width:1px;marker:none;enable-background:accumulate;opacity:1"
       d="M 102.15625 2217.2109 L 102.15625 2478.543 C 145.9925 2472.706 160.94567 2488.6872 139.18945 2531.1875 C 197.21049 2465.1315 224.23694 2527.4578 222.31055 2568.6289 C 255.71026 2500.4131 304.96137 2507.443 326.14453 2587.5938 C 360.93641 2473.267 399.07113 2504.0873 434.1875 2560.6914 C 420.777 2505.1483 437.56327 2438.6418 497.66211 2517.5801 C 467.09516 2450.9428 485.45202 2429.6849 507.51562 2420.8828 L 507.51562 2378.793 C 499.91039 2359.7846 497.68349 2335.7155 507.51562 2313.5098 L 507.51562 2217.2109 L 102.15625 2217.2109 z " />
    <path
       style="fill:#ffffff;fill-rule:evenodd;stroke:none;stroke-width:0.999995px;stroke-linecap:butt;stroke-linejoin:miter;stroke-opacity:1"
       d="m 606.29868,2318.6106 c 7.4135,-4.853 34.9373,6.5786 53.25706,-15.7098 18.25512,-6.2772 37.27805,9.1733 55.7002,1.4919 16.15878,-10.2128 36.60789,-11.6801 51.05153,1.1435 16.19536,12.1291 38.81262,-0.9798 55.74804,7.6344 7.03777,11.0592 7.3161,26.1665 28.37972,29.0871 22.66107,7.0593 -1.86159,24.1156 -0.3023,36.0838 1.45849,12.5474 19.34758,33.1786 -8.13513,36.6724 -19.13249,3.9553 -19.51979,20.5816 -35.97355,28.2765 -13.23717,7.4343 -39.78828,-5.102 -58.81826,2.3733 -14.95253,2.5183 -27.13519,17.4652 -36.10328,2.1887 -15.72533,-11.2551 -40.13273,-15.8601 -60.68756,-9.9443 -21.15888,-1.3448 -20.20154,-26.1098 -43.19749,-25.4836 -21.49433,0.9238 -34.09722,-11.959 -24.24268,-26.4513 4.5614,-13.2215 -25.15198,-23.7114 -8.43801,-34.8061 16.07558,-6.6192 19.02167,-26.1495 31.76171,-32.5565 z"
       id="path16024"
       sodipodi:nodetypes="cccccccccccccccc" />
    <path
       style="color:#000000;display:inline;overflow:visible;visibility:visible;fill:#ffffff;fill-opacity:1;fill-rule:nonzero;stroke:none;stroke-width:1px;marker:none;enable-background:accumulate"
       d="m 2072.5432,3288.8597 c 0.6203,-37.6753 12.7046,-73.3041 119.8298,-72.0711 80.3229,0.924 101.7133,29.952 103.493,68.0342 1.2541,26.8375 -42.2012,51.679 -111.2123,50.3626 -65.9615,-1.2578 -107.2866,-17.5938 -112.1105,-46.3257 z"
       id="path5026-3"
       inkscape:connector-curvature="0"
       sodipodi:nodetypes="csssc" />
    <path
       style="display:inline;fill:#ffffff;fill-rule:evenodd;stroke:none;stroke-width:1px;stroke-linecap:butt;stroke-linejoin:miter;stroke-opacity:1"
       d="m 2227.7052,3274.5534 c -61.8984,-21.049 28.9638,-64.9043 19.6446,-80.7113 -6.8485,-11.6163 -47.2918,2.0303 -76.0255,-47.5276 36.5257,35.7762 71.9507,15.1139 89.789,28.9312 33.8795,26.2412 -13.779,72.8752 -16.93,82.2108 -4.2143,12.4859 -16.4781,17.0969 -16.4781,17.0969 z"
       id="path4186-80"
       inkscape:connector-curvature="0"
       sodipodi:nodetypes="cscssc" />
    <path
       style="display:inline;fill:#ffffff;stroke:none;stroke-width:1"
       d="m 158.55408,197.02745 c -0.53926,-16.53428 16.86603,-62.27919 91.46589,-57.01611 74.59986,5.26308 97.62108,24.09797 99.25015,53.50769 2.5772,46.52623 -36.93716,57.79921 -93.40222,59.61049 -58.20943,1.86792 -94.13034,-14.27969 -97.31382,-56.10207 z"
       id="path3280-9"
       inkscape:connector-curvature="0"
       sodipodi:nodetypes="csssc" />
    <path
       style="color:#000000;display:inline;overflow:visible;visibility:visible;fill:#ffffff;fill-opacity:1;fill-rule:nonzero;stroke:none;stroke-width:1px;marker:none;enable-background:accumulate"
       d="m 243.93137,340.60992 c -25.02662,-22.16944 -37.57619,-65.64997 -6.57569,-106.68443 31.00051,-41.03445 15.89917,-51.35957 15.89917,-51.35957 l -32.36315,12.91552 c 0,0 -47.82019,105.74427 23.03967,145.12848 z"
       id="path3072-6"
       inkscape:connector-curvature="0"
       sodipodi:nodetypes="csccc" />
    <path
       style="fill:#ffffff;stroke:none;stroke-width:1.1243"
       d="m 957.26978,244.81753 c -0.9247,-49.31229 26.6861,-60.38495 54.70562,-67.32626 28.0194,-6.94013 115.1003,0.75255 108.7035,61.09627 -6.3968,60.34256 -48.53,68.70534 -83.3415,66.03787 -34.8116,-2.66747 -75.01642,-13.08297 -80.06762,-59.80788 z"
       id="path3938-8-5"
       inkscape:connector-curvature="0"
       sodipodi:nodetypes="csssc" />
  </g>
  <g
     inkscape:groupmode="layer"
     id="layer1"
     inkscape:label="txt">
    <text
       id="text4178-0-7"
       y="210.26805"
       x="253.83418"
       style="font-style:normal;font-variant:normal;font-weight:normal;font-stretch:normal;line-height:0%;font-family:Lavi;-inkscape-font-specification:Lavi;text-align:center;letter-spacing:0px;word-spacing:0px;text-anchor:middle;fill:#000000;fill-opacity:1;stroke:none"
       xml:space="preserve"><tspan
         y="210.26805"
         x="253.83418"
         style="font-size:40.6767px;line-height:1.25"
         sodipodi:role="line"
         id="tspan13656-7">Voilà.</tspan></text>
    <text
       id="text4178-0"
       y="936.47693"
       x="414.55136"
       style="font-style:normal;font-variant:normal;font-weight:normal;font-stretch:normal;line-height:0%;font-family:Lavi;-inkscape-font-specification:Lavi;text-align:center;letter-spacing:0px;word-spacing:0px;text-anchor:middle;fill:#000000;fill-opacity:1;stroke:none"
       xml:space="preserve"><tspan
         y="936.47693"
         x="414.55136"
         style="font-size:40.6767px;line-height:1.25"
         sodipodi:role="line"
         id="tspan4245-6-6">Quelque chose à</tspan><tspan
         y="987.32281"
         x="414.55136"
         style="font-size:40.6767px;line-height:1.25"
         sodipodi:role="line"
         id="tspan13656">ajouter ?!</tspan></text>
    <text
       id="text4178-0-7-3"
       y="258.79089"
       x="1014.2955"
       style="font-style:normal;font-variant:normal;font-weight:normal;font-stretch:normal;font-size:14.0366px;line-height:0%;font-family:Lavi;-inkscape-font-specification:Lavi;text-align:center;letter-spacing:0px;word-spacing:0px;text-anchor:middle;fill:#000000;fill-opacity:1;stroke:none;stroke-width:1"
       xml:space="preserve"
       transform="scale(1.0254518,0.97517992)"><tspan
         y="258.79089"
         x="1014.2955"
         style="font-weight:bold;font-size:47.5802px;line-height:1.25;stroke-width:1"
         sodipodi:role="line"
         id="tspan13656-7-6">Oui.</tspan></text>
    <text
       id="text4178-0-3"
       y="354.06558"
       x="1172.6482"
       style="font-style:normal;font-variant:normal;font-weight:normal;font-stretch:normal;line-height:0%;font-family:Lavi;-inkscape-font-specification:Lavi;text-align:center;letter-spacing:0px;word-spacing:0px;text-anchor:middle;fill:#000000;fill-opacity:1;stroke:none"
       xml:space="preserve"><tspan
         y="354.06558"
         x="1172.6482"
         style="font-size:40.6767px;line-height:1.25"
         sodipodi:role="line"
         id="tspan4245-6-6-0">Avoir ton nom</tspan><tspan
         y="404.91147"
         x="1172.6482"
         style="font-size:40.6767px;line-height:1.25"
         sodipodi:role="line"
         id="tspan13824">sur un avis de recherche</tspan><tspan
         y="455.75732"
         x="1172.6482"
         style="font-size:40.6767px;line-height:1.25"
         sodipodi:role="line"
         id="tspan13826">est <tspan
   style="font-weight:bold"
   id="tspan1011">normal</tspan> pour une </tspan><tspan
         y="506.60321"
         x="1172.6482"
         style="font-size:40.6767px;line-height:1.25"
         sodipodi:role="line"
         id="tspan13828">sorcière de Chaosah.</tspan></text>
    <text
       id="text4178-0-3-7"
       y="594.89142"
       x="1190.798"
       style="font-style:normal;font-variant:normal;font-weight:normal;font-stretch:normal;line-height:0%;font-family:Lavi;-inkscape-font-specification:Lavi;text-align:center;letter-spacing:0px;word-spacing:0px;text-anchor:middle;fill:#000000;fill-opacity:1;stroke:none"
       xml:space="preserve"><tspan
         y="594.89142"
         x="1190.798"
         style="font-size:40.6767px;line-height:1.25"
         sodipodi:role="line"
         id="tspan13828-8">C'est même le signe</tspan><tspan
         y="645.7373"
         x="1190.798"
         style="font-size:40.6767px;line-height:1.25"
         sodipodi:role="line"
         id="tspan13908">d'une <tspan
   style="font-weight:bold"
   id="tspan1013">bonne réputation</tspan>.</tspan></text>
    <text
       id="text4178-0-3-7-4"
       y="733.92389"
       x="1256.9768"
       style="font-style:normal;font-variant:normal;font-weight:normal;font-stretch:normal;line-height:0%;font-family:Lavi;-inkscape-font-specification:Lavi;text-align:center;letter-spacing:0px;word-spacing:0px;text-anchor:middle;fill:#000000;fill-opacity:1;stroke:none"
       xml:space="preserve"><tspan
         y="733.92389"
         x="1256.9768"
         style="font-size:40.6767px;line-height:1.25"
         sodipodi:role="line"
         id="tspan13908-1">Ignore les moqueries et les</tspan><tspan
         y="784.76978"
         x="1256.9768"
         style="font-size:40.6767px;line-height:1.25"
         sodipodi:role="line"
         id="tspan13965"><tspan
   style="font-style:italic"
   id="tspan13971">qu'en-dira-t-on</tspan>, et crée-toi ton</tspan><tspan
         y="835.61566"
         x="1256.9768"
         style="font-size:40.6767px;line-height:1.25"
         sodipodi:role="line"
         id="tspan13967"><tspan
   style="font-weight:bold"
   id="tspan1015">propre travail</tspan> si personne </tspan><tspan
         y="886.46149"
         x="1256.9768"
         style="font-size:40.6767px;line-height:1.25"
         sodipodi:role="line"
         id="tspan13969">ne t'en donne.</tspan></text>
    <text
       id="text4178-0-3-7-4-4-9"
       y="1481.7046"
       x="1300.5668"
       style="font-style:normal;font-variant:normal;font-weight:normal;font-stretch:normal;font-size:13.0616px;line-height:0%;font-family:Lavi;-inkscape-font-specification:Lavi;text-align:center;letter-spacing:0px;word-spacing:0px;text-anchor:middle;fill:#000000;fill-opacity:1;stroke:none;stroke-width:1"
       xml:space="preserve"><tspan
         y="1481.7046"
         x="1300.5668"
         style="font-style:normal;font-variant:normal;font-weight:normal;font-stretch:normal;font-size:44.2754px;line-height:1.25;font-family:Lavi;-inkscape-font-specification:Lavi;stroke-width:1"
         sodipodi:role="line"
         id="tspan13969-8-2">Et surtout : </tspan><tspan
         y="1537.0488"
         x="1300.5668"
         style="font-weight:bold;font-size:44.2754px;line-height:1.25;stroke-width:1"
         sodipodi:role="line"
         id="tspan14401">tu n'es pas une </tspan><tspan
         y="1592.3931"
         x="1300.5668"
         style="font-weight:bold;font-size:44.2754px;line-height:1.25;stroke-width:1"
         sodipodi:role="line"
         id="tspan14405">guérisseuse.</tspan></text>
    <text
       id="text4178-0-3-7-4-6"
       y="1711.3972"
       x="1400.0815"
       style="font-style:normal;font-variant:normal;font-weight:normal;font-stretch:normal;line-height:0%;font-family:Lavi;-inkscape-font-specification:Lavi;text-align:center;letter-spacing:0px;word-spacing:0px;text-anchor:middle;fill:#000000;fill-opacity:1;stroke:none;stroke-width:1.4;stroke-dasharray:none"
       xml:space="preserve"><tspan
         y="1711.3972"
         x="1400.0815"
         style="font-size:40.6767px;line-height:1.25;stroke-width:1.4;stroke-dasharray:none"
         sodipodi:role="line"
         id="tspan14497">Ils le remarqueront tôt </tspan><tspan
         y="1762.243"
         x="1400.0815"
         style="font-size:40.6767px;line-height:1.25;stroke-width:1.4;stroke-dasharray:none"
         sodipodi:role="line"
         id="tspan14509">ou tard quand tu seras à court de</tspan><tspan
         y="1813.089"
         x="1400.0815"
         style="font-size:40.6767px;line-height:1.25;stroke-width:1.4;stroke-dasharray:none"
         sodipodi:role="line"
         id="tspan14560"> cette incroyable quantité de <tspan
   style="font-style:italic;letter-spacing:0.33px;stroke:#000000;stroke-width:1.4;stroke-dasharray:none;stroke-opacity:1"
   id="tspan14511">Larmes </tspan></tspan><tspan
         y="1863.9348"
         x="1400.0815"
         style="font-size:40.6767px;line-height:1.25;stroke-width:1.4;stroke-dasharray:none"
         sodipodi:role="line"
         id="tspan14897"><tspan
   style="font-style:italic;stroke-width:1.4;stroke-dasharray:none"
   id="tspan14891"><tspan
   style="letter-spacing:0.33px;stroke:#000000;stroke-opacity:1"
   id="tspan3240">de Phénix</tspan> </tspan>que tu as sur toi et que tu</tspan><tspan
         y="1914.7808"
         x="1400.0815"
         style="font-size:40.6767px;line-height:1.25;stroke-width:1.4;stroke-dasharray:none"
         sodipodi:role="line"
         id="tspan15477"> utilises pour faire croire à </tspan><tspan
         y="1965.6266"
         x="1400.0815"
         style="font-size:40.6767px;line-height:1.25;stroke-width:1.4;stroke-dasharray:none"
         sodipodi:role="line"
         id="tspan1085">tes nouveaux pouvoirs.</tspan></text>
    <text
       id="text4178-0-3-7-4-4-9-8"
       y="2312.1494"
       x="294.11169"
       style="font-style:normal;font-variant:normal;font-weight:normal;font-stretch:normal;font-size:17.9224px;line-height:0%;font-family:Lavi;-inkscape-font-specification:Lavi;text-align:center;letter-spacing:0px;word-spacing:0px;text-anchor:middle;fill:#000000;fill-opacity:1;stroke:none;stroke-width:1"
       xml:space="preserve"><tspan
         y="2312.1494"
         x="294.11169"
         style="font-weight:bold;font-size:60.7521px;line-height:1.25;stroke-width:1"
         sodipodi:role="line"
         id="tspan14981">Qu... ?!</tspan></text>
    <text
       id="text4178-0-3-7-4-4-9-8-2"
       y="2394.3713"
       x="305.96863"
       style="font-style:normal;font-variant:normal;font-weight:normal;font-stretch:normal;font-size:17.9224px;line-height:0%;font-family:Lavi;-inkscape-font-specification:Lavi;text-align:center;letter-spacing:0px;word-spacing:0px;text-anchor:middle;fill:#000000;fill-opacity:1;stroke:none;stroke-width:1"
       xml:space="preserve"><tspan
         y="2394.3713"
         x="305.96863"
         style="font-weight:bold;font-size:60.7521px;line-height:1.25;stroke-width:1"
         sodipodi:role="line"
         id="tspan14981-7">Comment </tspan><tspan
         y="2470.3115"
         x="305.96863"
         style="font-weight:bold;font-size:60.7521px;line-height:1.25;stroke-width:1"
         sodipodi:role="line"
         id="tspan15035">as-tu...</tspan></text>
    <text
       id="text4178-0-3-7-4-6-2"
       y="2380.6519"
       x="721.09253"
       style="font-style:normal;font-variant:normal;font-weight:normal;font-stretch:normal;font-size:13.0698px;line-height:0%;font-family:Lavi;-inkscape-font-specification:Lavi;text-align:center;letter-spacing:0px;word-spacing:0px;text-anchor:middle;fill:#000000;fill-opacity:1;stroke:none;stroke-width:0.999999"
       xml:space="preserve"
       transform="scale(0.99716257,1.0028455)"><tspan
         y="2380.6519"
         x="721.09253"
         style="font-size:44.303px;line-height:1.25;stroke-width:0.999999"
         sodipodi:role="line"
         id="tspan14909-4">... deviné.</tspan></text>
    <text
       id="text4178-0-3-7-4-6-2-9"
       y="3289.6257"
       x="2185.9563"
       style="font-style:normal;font-variant:normal;font-weight:normal;font-stretch:normal;font-size:13.5341px;line-height:0%;font-family:Lavi;-inkscape-font-specification:Lavi;text-align:center;letter-spacing:0px;word-spacing:0px;text-anchor:middle;fill:#000000;fill-opacity:1;stroke:none;stroke-width:1"
       xml:space="preserve"><tspan
         y="3289.6257"
         x="2185.9563"
         style="font-size:45.8769px;line-height:1.25;stroke-width:1"
         sodipodi:role="line"
         id="tspan14909-4-0">Tsss !</tspan></text>
  </g>
</svg>
