<?xml version="1.0" encoding="UTF-8" standalone="no"?>
<!-- Created with Inkscape (http://www.inkscape.org/) -->

<svg
   id="svg2"
   version="1.1"
   inkscape:version="1.2.2 (b0a8486541, 2022-12-01)"
   width="2481"
   height="3503"
   sodipodi:docname="E38P05.svg"
   xmlns:inkscape="http://www.inkscape.org/namespaces/inkscape"
   xmlns:sodipodi="http://sodipodi.sourceforge.net/DTD/sodipodi-0.dtd"
   xmlns:xlink="http://www.w3.org/1999/xlink"
   xmlns="http://www.w3.org/2000/svg"
   xmlns:svg="http://www.w3.org/2000/svg"
   xmlns:rdf="http://www.w3.org/1999/02/22-rdf-syntax-ns#"
   xmlns:cc="http://creativecommons.org/ns#"
   xmlns:dc="http://purl.org/dc/elements/1.1/">
  <metadata
     id="metadata8">
    <rdf:RDF>
      <cc:Work
         rdf:about="">
        <dc:format>image/svg+xml</dc:format>
        <dc:type
           rdf:resource="http://purl.org/dc/dcmitype/StillImage" />
        <dc:title />
      </cc:Work>
    </rdf:RDF>
  </metadata>
  <defs
     id="defs6">
    <filter
       inkscape:label="underwater"
       inkscape:menu="Distort"
       inkscape:menu-tooltip="Something like a water noise"
       height="1.0511301"
       y="-0.025565068"
       width="1.0310469"
       x="-0.015523466"
       style="color-interpolation-filters:sRGB"
       id="filter4172">
      <feTurbulence
         numOctaves="1"
         seed="196"
         type="fractalNoise"
         baseFrequency="0.017000000000000001"
         result="result1"
         id="feTurbulence4174" />
      <feGaussianBlur
         stdDeviation="2"
         result="result2"
         id="feGaussianBlur4176" />
      <feDisplacementMap
         scale="50"
         yChannelSelector="B"
         xChannelSelector="R"
         in="SourceGraphic"
         in2="result2"
         id="feDisplacementMap4178" />
    </filter>
  </defs>
  <sodipodi:namedview
     pagecolor="#ffffff"
     bordercolor="#666666"
     borderopacity="1"
     objecttolerance="10"
     gridtolerance="10"
     guidetolerance="10"
     inkscape:pageopacity="0"
     inkscape:pageshadow="2"
     inkscape:window-width="1920"
     inkscape:window-height="959"
     id="namedview4"
     showgrid="false"
     inkscape:zoom="0.74811897"
     inkscape:cx="1130.1678"
     inkscape:cy="1564.5907"
     inkscape:window-x="0"
     inkscape:window-y="80"
     inkscape:window-maximized="1"
     inkscape:current-layer="layer1"
     inkscape:showpageshadow="0"
     inkscape:pagecheckerboard="0"
     inkscape:deskcolor="#d1d1d1" />
  <g
     inkscape:groupmode="layer"
     id="layer2"
     inkscape:label="artwork"
     sodipodi:insensitive="true">
    <image
       xlink:href="../gfx_Pepper-and-Carrot_by-David-Revoy_E38P05.png"
       y="0"
       x="0"
       id="image10"
       height="3503"
       width="2481" />
  </g>
  <g
     inkscape:groupmode="layer"
     id="layer3"
     inkscape:label="speechbubbles">
    <path
       style="color:#000000;display:inline;overflow:visible;visibility:visible;fill:#ffffff;fill-opacity:1;fill-rule:nonzero;stroke:none;stroke-width:1.04651px;marker:none;enable-background:accumulate"
       d="m 415.15627,861.86554 c -32.6372,-0.54756 -65.73309,5.15498 -96.35503,22.77784 -12.45671,7.95861 -22.95157,24.66254 -25.50548,45.09245 -1.77803,19.8552 2.7819,41.15565 12.52616,54.9852 8.24409,10.80044 19.00259,15.43997 29.32025,19.63517 23.22516,8.5735 47.25634,9.211 71.01449,10.386 16.68734,0.6212 33.3979,1.429 50.07884,0.2654 20.87613,-1.7547 41.90058,-5.6194 61.7528,-15.86043 10.69595,-5.56849 21.25839,-14.48454 27.50843,-29.18468 6.49845,-15.13413 7.92633,-35.52123 2.34427,-51.80605 -5.00477,-15.48322 -14.64708,-26.59399 -25.197,-32.49106 -19.78504,-13.09368 -41.47356,-16.85693 -62.71605,-20.52345 -14.88449,-2.11831 -29.83708,-2.67906 -44.77168,-3.27639 z"
       id="path4040-4-4"
       inkscape:connector-curvature="0"
       sodipodi:nodetypes="zssssz" />
    <path
       style="fill:#ffffff;fill-rule:evenodd;stroke:none;stroke-width:0.999992px;stroke-linecap:butt;stroke-linejoin:miter;stroke-opacity:1"
       d="m 435.26341,563.21672 c 16.27678,-7.70306 54.74615,26.14786 39.58227,51.34243 -8.28227,13.76087 -48.97093,53.80439 -43.9925,66.35898 8.40555,21.19708 75.83803,24.06425 75.34563,52.97874 -1.26904,74.51888 -53.41279,72.33106 -59.81975,139.52761 -3.58819,37.63308 -34.40093,22.34932 -33.33057,3.73049 4.2792,-74.43645 66.79894,-75.39649 71.06678,-137.361 1.53877,-22.34137 -67.05507,-30.56749 -73.83163,-54.62707 -6.77656,-24.05958 42.65978,-65.6915 48.95364,-74.90388 19.06934,-27.91202 -17.29835,-49.15245 -23.97387,-47.0463 z"
       id="path4324-2"
       inkscape:connector-curvature="0"
       sodipodi:nodetypes="cssssssssc" />
    <path
       style="display:inline;fill:#ffffff;fill-opacity:1;stroke:none;stroke-width:0.937084"
       d="m 1204.6321,625.51532 c -40.7559,-0.44449 -71.6875,-3.60062 -109.3144,11.83078 -40.3368,17.21023 -68.065,59.84312 -70.2571,108.52318 -1.2713,26.09684 -5.1416,64.58221 9.1439,86.76219 12.0377,18.55125 21.3073,42.1873 39.0798,53.13784 21.8021,13.32012 54.0301,17.18508 77.7857,23.68866 23.0491,6.13903 45.2398,5.62134 68.6209,8.09873 44.1819,4.17213 88.2069,1.70112 131.9455,-1.53212 30.9346,-3.53102 60.9507,-13.19668 88.304,-28.33515 16.4737,-8.43608 32.8682,-18.3178 44.746,-33.7499 13.7195,-17.1472 22.0432,-39.53822 23.7028,-63.03449 2.0708,-23.27877 -1.0022,-48.12875 -11.8746,-69.38667 -9.9075,-18.86911 -24.3822,-34.19466 -39.0815,-48.47463 -13.4483,-12.45719 -29.3174,-21.7632 -46.1238,-25.87571 -29.6098,-8.65875 -59.8554,-12.49669 -89.9551,-15.91163 -38.9178,-4.04148 -77.8561,-5.19828 -116.7221,-5.74108 z"
       id="path3238-0"
       inkscape:connector-curvature="0"
       sodipodi:nodetypes="cssssccccccccccc" />
    <path
       style="color:#000000;display:inline;overflow:visible;visibility:visible;fill:#ffffff;fill-opacity:1;fill-rule:nonzero;stroke:none;stroke-width:1.01387px;marker:none;enable-background:accumulate"
       d="m 1147.3575,485.92962 c -48.105,0.23302 -96.6641,6.91259 -141.9767,24.81261 -23.72967,9.25073 -44.62033,28.17604 -55.11644,53.03997 -4.30633,10.55254 -3.50448,22.64185 -0.93241,33.57163 4.1284,19.25685 16.46374,35.92224 32.35715,45.68574 10.19672,6.47307 21.9411,9.1346 33.4091,11.69854 22.1885,4.48658 44.8044,5.71587 67.3204,6.74437 25.4214,1.04107 50.8719,1.68274 76.2269,4.04214 48.6262,3.71231 97.7051,6.46939 146.2095,-0.39796 32.814,-4.24248 65.6425,-10.13143 97.0768,-21.33927 12.7242,-5.01913 23.8329,-14.62578 31.3076,-26.73159 6.7715,-10.81062 9.7488,-24.15057 8.4446,-37.08249 -1.627,-19.02165 -11.1903,-37.05529 -25.6524,-48.23051 -14.8151,-12.26074 -32.0437,-20.81411 -49.7686,-27.00832 -23.0238,-7.69969 -47.2072,-9.86872 -71.1565,-11.43138 -49.1699,-3.92125 -98.4172,-7.49363 -147.749,-7.37348 z"
       id="path3365-74"
       inkscape:connector-curvature="0"
       sodipodi:nodetypes="csssssc" />
    <path
       style="color:#000000;display:inline;overflow:visible;visibility:visible;fill:#ffffff;fill-opacity:1;fill-rule:nonzero;stroke:none;stroke-width:1.04968px;marker:none;enable-background:accumulate"
       d="m 1087.2193,293.64626 c -36.0568,0.80827 -72.7876,3.88305 -106.31445,15.13498 -37.00106,12.46293 -63.93794,21.16586 -82.85304,49.57928 -16.10613,25.60054 -16.13345,75.94342 -3.88221,102.62601 8.39035,19.25729 18.59745,30.17925 40.4012,41.04227 19.96966,10.35872 43.67382,15.20913 67.2439,16.67672 24.4639,1.69462 49.0513,0.87569 73.5616,1.74726 43.6309,0.99629 87.2148,2.97881 130.8402,4.08131 32.4551,0.7217 65.0416,0.81987 97.3578,-1.96598 32.3072,-4.10246 62.6673,-14.39718 92.2129,-25.18365 22.973,-9.22304 42.7693,-23.99615 54.0115,-42.54856 12.1574,-18.60543 17.7361,-40.50921 12.0799,-61.21022 -5.3278,-17.13214 -19.2863,-40.81244 -35.1437,-52.77345 -31.397,-24.32284 -72.0251,-32.11486 -115.4608,-37.39041 -23.1745,-2.97225 -46.6534,-3.87656 -70.0112,-5.5043 -50.7974,-2.93914 -101.7352,-4.43058 -152.6668,-4.33698 -0.459,0.008 -0.9179,0.0172 -1.3768,0.0256 z"
       id="path4546-6-3"
       inkscape:connector-curvature="0"
       sodipodi:nodetypes="csssssscccccccccsc" />
    <path
       style="fill:#ffffff;fill-rule:evenodd;stroke:none;stroke-width:1.05629px;stroke-linecap:butt;stroke-linejoin:miter;stroke-opacity:1"
       d="m 1097.4492,1488.6233 c -52.6764,247.2859 333.5494,146.4714 366.1008,135.4174 26.5811,-6.7443 45.0911,-97.3209 10.3231,-165.5239 -18.3435,-39.7458 -325.2822,-101.2907 -376.4239,30.1065 z"
       id="path4430-0"
       inkscape:connector-curvature="0"
       sodipodi:nodetypes="cccc" />
    <path
       style="fill:#ffffff;fill-rule:evenodd;stroke:none;stroke-width:0.999998px;stroke-linecap:butt;stroke-linejoin:miter;stroke-opacity:1"
       d="m 1665.3875,867.24265 c -47.6883,36.63018 -121.3078,34.71042 -164.497,-19.84273 -42.9447,-54.24437 -27.7187,24.61422 -27.7187,24.61422 0,0 103.5598,86.80674 192.2157,-4.77149 z"
       id="path914"
       inkscape:connector-curvature="0"
       sodipodi:nodetypes="cscc" />
    <path
       style="color:#000000;display:inline;overflow:visible;visibility:visible;fill:#ffffff;fill-opacity:1;fill-rule:nonzero;stroke:none;stroke-width:1.35679px;marker:none;enable-background:accumulate"
       d="m 1353.2122,1613.7412 c -46.1061,0.8674 -92.6502,7.1583 -136.5329,26.0851 -30.6869,13.1727 -59.5314,36.5919 -78.4038,70.7477 -20.0217,36.7276 -28.2008,82.6623 -25.9314,127.0204 1.8945,39.705 16.5596,78.8479 41.2569,103.4995 19.36,18.6325 42.8397,28.341 66.1366,35.4853 31.08,8.9258 62.8507,12.7918 94.4664,17.1665 49.0692,5.1474 98.3336,2.3827 147.4912,1.9812 24.3843,-0.6199 48.8228,-0.414 73.1348,-3.1884 37.4503,-5.094 74.2355,-17.8303 108.7221,-37.1358 19.3721,-11.7656 36.4138,-31.3183 45.1513,-56.6912 8.8899,-25.167 10.3643,-53.4617 8.7123,-80.6744 -1.7921,-34.0691 -8.2481,-68.5369 -22.9157,-97.4623 -14.5043,-28.7498 -36.6876,-61.0192 -61.1809,-74.2271 -39.7144,-21.8833 -80.483,-28.8279 -123.165,-34.2303 -43.8898,-5.4751 -90.5585,1.6859 -134.6654,1.5896 -0.7588,0.011 -1.5175,0.024 -2.2765,0.035 z"
       id="path4546-6-5-3"
       inkscape:connector-curvature="0"
       sodipodi:nodetypes="cssssccccccccccccc" />
    <path
       style="color:#000000;display:inline;overflow:visible;visibility:visible;fill:#ffffff;fill-opacity:1;fill-rule:nonzero;stroke:none;stroke-width:1px;marker:none;enable-background:accumulate"
       d="m 1691.9472,1826.5201 c 62.1287,15.8148 150.4475,-33.6088 136.8651,-118.9732 -8.8478,92.8343 -96.9988,91.9805 -130.0298,76.4776 -19.3706,-12.294 -6.8353,42.4956 -6.8353,42.4956 z"
       id="path3978-4"
       inkscape:connector-curvature="0"
       sodipodi:nodetypes="cccc" />
    <path
       style="display:inline;fill:#ffffff;stroke:none;stroke-width:1"
       d="m 917.38033,2397.4226 c -5.2069,-10.7866 -17.1717,-15.0052 -25.6304,-13.039 -8.45839,1.9675 -11.4441,2.5263 -18.2896,8.7513 -6.8457,6.2252 -25.67917,11.3207 -33.31721,7.9632 -7.63783,-3.3561 -47.89164,-12.1144 -47.89164,-12.1144 0,0 20.67765,21.3567 29.65507,27.1533 8.97867,5.7973 6.3573,2.1556 10.75117,3.341 4.39314,1.1846 20.97342,-0.094 30.05862,-2.4708 7.13511,-1.8659 16.12447,-3.9027 23.29985,-12.6861 4.76574,-5.8354 18.47194,-4.2799 21.40374,4.5948 3.2536,9.8488 10.0144,11.0209 24.9122,8.2211 13.8184,-2.5977 34.3544,-11.9913 34.3544,-11.9913 -47.4943,6.1566 -43.47,4.3673 -49.3062,-7.7231 z"
       id="path3023-0"
       inkscape:connector-curvature="0"
       sodipodi:nodetypes="sssscsssssscs" />
    <path
       id="path3549-3-8"
       style="color:#000000;display:inline;overflow:visible;visibility:visible;fill:#ffffff;fill-opacity:1;fill-rule:nonzero;stroke:none;stroke-width:1px;marker:none;enable-background:accumulate;opacity:1"
       d="M 102.15625 2217.2109 L 102.15625 2478.543 C 145.9925 2472.706 160.94567 2488.6872 139.18945 2531.1875 C 197.21049 2465.1315 224.23694 2527.4578 222.31055 2568.6289 C 255.71026 2500.4131 304.96137 2507.443 326.14453 2587.5938 C 360.93641 2473.267 399.07113 2504.0873 434.1875 2560.6914 C 420.777 2505.1483 437.56327 2438.6418 497.66211 2517.5801 C 467.09516 2450.9428 485.45202 2429.6849 507.51562 2420.8828 L 507.51562 2378.793 C 499.91039 2359.7846 497.68349 2335.7155 507.51562 2313.5098 L 507.51562 2217.2109 L 102.15625 2217.2109 z " />
    <path
       style="fill:#ffffff;fill-rule:evenodd;stroke:none;stroke-width:0.914899px;stroke-linecap:butt;stroke-linejoin:miter;stroke-opacity:1"
       d="m 630.45689,2344.0652 c 6.12329,-4.0469 28.85699,5.4858 43.98847,-13.1002 15.07809,-5.2345 30.79037,7.6495 46.00642,1.244 13.34659,-8.5162 30.23683,-9.7398 42.16677,0.9537 13.37681,10.1142 32.05787,-0.8171 46.04594,6.3661 5.81295,9.2222 6.04285,21.8199 23.44066,24.2553 18.71725,5.8867 -1.53761,20.1096 -0.2497,30.0898 1.20466,10.463 15.98043,27.6671 -6.71933,30.5805 -15.80277,3.2982 -16.12266,17.1627 -29.71289,23.5793 -10.93344,6.1994 -32.86373,-4.2544 -48.58183,1.9791 -12.35026,2.0999 -22.41272,14.564 -29.82004,1.8251 -12.98858,-9.3855 -33.14824,-13.2255 -50.1258,-8.2924 -17.4765,-1.1214 -16.68578,-21.7726 -35.67962,-21.2503 -17.75357,0.7702 -28.16311,-9.9725 -20.02361,-22.0574 3.76756,-11.0252 -20.77465,-19.7726 -6.9695,-29.0243 13.27786,-5.5197 15.71123,-21.8056 26.23406,-27.1483 z"
       id="path16024"
       sodipodi:nodetypes="cccccccccccccccc" />
    <path
       style="color:#000000;display:inline;overflow:visible;visibility:visible;fill:#ffffff;fill-opacity:1;fill-rule:nonzero;stroke:none;stroke-width:1px;marker:none;enable-background:accumulate"
       d="m 2087.9681,3285.9397 c 0.5382,-35.4026 11.0244,-68.8822 103.9813,-67.7236 69.6996,0.8683 88.2609,28.1452 89.8052,63.9302 1.0883,25.2186 -36.6197,48.5616 -96.5036,47.3246 -57.2375,-1.1819 -93.0971,-16.5325 -97.2829,-43.5312 z"
       id="path5026-3"
       inkscape:connector-curvature="0"
       sodipodi:nodetypes="csssc" />
    <path
       style="display:inline;fill:#ffffff;fill-rule:evenodd;stroke:none;stroke-width:1px;stroke-linecap:butt;stroke-linejoin:miter;stroke-opacity:1"
       d="m 2216.2701,3274.5534 c -61.8984,-21.049 28.9638,-64.9043 19.6446,-80.7113 -6.8485,-11.6163 -47.2918,2.0303 -76.0255,-47.5276 36.5257,35.7762 71.9507,15.1139 89.789,28.9312 33.8795,26.2412 -13.779,72.8752 -16.93,82.2108 -4.2143,12.4859 -16.4781,17.0969 -16.4781,17.0969 z"
       id="path4186-80"
       inkscape:connector-curvature="0"
       sodipodi:nodetypes="cscssc" />
    <path
       style="display:inline;fill:#ffffff;stroke:none;stroke-width:1.26307"
       d="m 130.88213,185.16382 c -0.67243,-22.06477 21.0312,-83.11071 114.05395,-76.0872 93.02275,7.02351 121.7292,32.1584 123.76059,71.40526 3.21365,62.0886 -46.05902,77.13224 -116.46847,79.54937 -72.58462,2.49271 -117.37641,-19.05605 -121.34607,-74.86743 z"
       id="path3280-9"
       inkscape:connector-curvature="0"
       sodipodi:nodetypes="csssc" />
    <path
       style="color:#000000;display:inline;overflow:visible;visibility:visible;fill:#ffffff;fill-opacity:1;fill-rule:nonzero;stroke:none;stroke-width:1px;marker:none;enable-background:accumulate"
       d="m 243.93137,340.60992 c -25.02662,-22.16944 -37.57619,-65.64997 -6.57569,-106.68443 31.00051,-41.03445 15.89917,-51.35957 15.89917,-51.35957 l -32.36315,12.91552 c 0,0 -47.82019,105.74427 23.03967,145.12848 z"
       id="path3072-6"
       inkscape:connector-curvature="0"
       sodipodi:nodetypes="csccc" />
    <path
       style="fill:#ffffff;stroke:none;stroke-width:1.07076"
       d="m 961.59245,259.61165 c -0.83873,-49.31229 24.2052,-60.38495 49.61985,-67.32626 25.4145,-6.94013 104.3999,0.75255 98.5978,61.09627 -5.8022,60.34256 -44.0184,68.70534 -75.5936,66.03787 -31.5753,-2.66747 -68.04244,-13.08297 -72.62405,-59.80788 z"
       id="path3938-8-5"
       inkscape:connector-curvature="0"
       sodipodi:nodetypes="csssc" />
  </g>
  <g
     inkscape:groupmode="layer"
     id="layer1"
     inkscape:label="txt">
    <text
       id="text4178-0-7"
       y="170.08055"
       x="252.85526"
       style="font-style:normal;font-variant:normal;font-weight:normal;font-stretch:normal;line-height:0%;font-family:Lavi;-inkscape-font-specification:Lavi;text-align:center;letter-spacing:0px;word-spacing:0px;text-anchor:middle;fill:#000000;fill-opacity:1;stroke:none"
       xml:space="preserve"><tspan
         y="170.08055"
         x="252.85526"
         style="font-size:40.6767px;line-height:1.25"
         sodipodi:role="line"
         id="tspan13656-7">Det er</tspan><tspan
         y="220.92642"
         x="252.85526"
         style="font-size:40.6767px;line-height:1.25"
         sodipodi:role="line"
         id="tspan459">grunnen.</tspan></text>
    <text
       id="text4178-0"
       y="929.13159"
       x="421.36984"
       style="font-style:normal;font-variant:normal;font-weight:normal;font-stretch:normal;font-size:11.3747px;line-height:0%;font-family:Lavi;-inkscape-font-specification:Lavi;text-align:center;letter-spacing:0px;word-spacing:0px;text-anchor:middle;fill:#000000;fill-opacity:1;stroke:none;stroke-width:1"
       xml:space="preserve"><tspan
         y="929.13159"
         x="421.36984"
         style="font-size:38.5572px;line-height:1.25;stroke-width:1"
         sodipodi:role="line"
         id="tspan463">Var det</tspan><tspan
         y="977.32806"
         x="421.36984"
         style="font-size:38.5572px;line-height:1.25;stroke-width:1"
         sodipodi:role="line"
         id="tspan460">noko meir?</tspan></text>
    <text
       id="text4178-0-7-3"
       y="273.96155"
       x="1012.3402"
       style="font-style:normal;font-variant:normal;font-weight:normal;font-stretch:normal;font-size:14.0366px;line-height:0%;font-family:Lavi;-inkscape-font-specification:Lavi;text-align:center;letter-spacing:0px;word-spacing:0px;text-anchor:middle;fill:#000000;fill-opacity:1;stroke:none;stroke-width:1"
       xml:space="preserve"
       transform="scale(1.0254518,0.97517992)"><tspan
         y="273.96155"
         x="1012.3402"
         style="font-weight:bold;font-size:47.5802px;line-height:1.25;stroke-width:1"
         sodipodi:role="line"
         id="tspan13656-7-6">Ja.</tspan></text>
    <text
       id="text4178-0-3"
       y="368.1145"
       x="1171.5775"
       style="font-style:normal;font-variant:normal;font-weight:normal;font-stretch:normal;line-height:0%;font-family:Lavi;-inkscape-font-specification:Lavi;text-align:center;letter-spacing:0px;word-spacing:0px;text-anchor:middle;fill:#000000;fill-opacity:1;stroke:none"
       xml:space="preserve"><tspan
         y="368.1145"
         x="1171.5775"
         style="font-size:40.6767px;line-height:1.25"
         sodipodi:role="line"
         id="tspan557">Å ha namnet sitt på</tspan><tspan
         y="418.96039"
         x="1171.5775"
         style="font-size:40.6767px;line-height:1.25"
         sodipodi:role="line"
         id="tspan604">«ettersøkt»-plakatar er heilt</tspan><tspan
         y="469.80624"
         x="1171.5775"
         style="font-size:40.6767px;line-height:1.25"
         sodipodi:role="line"
         id="tspan606"><tspan
   style="font-style:normal;font-variant:normal;font-weight:bold;font-stretch:normal;font-family:Lavi;-inkscape-font-specification:'Lavi Bold'"
   id="tspan608">vanleg</tspan> for kaosah-hekser.</tspan></text>
    <text
       id="text4178-0-3-7"
       y="561.65088"
       x="1197.1235"
       style="font-style:normal;font-variant:normal;font-weight:normal;font-stretch:normal;line-height:0%;font-family:Lavi;-inkscape-font-specification:Lavi;text-align:center;letter-spacing:0px;word-spacing:0px;text-anchor:middle;fill:#000000;fill-opacity:1;stroke:none"
       xml:space="preserve"><tspan
         y="561.65088"
         x="1197.1235"
         style="font-size:40.6767px;line-height:1.25"
         sodipodi:role="line"
         id="tspan563">Det er til og med</tspan><tspan
         y="612.49677"
         x="1197.1235"
         style="font-size:40.6767px;line-height:1.25"
         sodipodi:role="line"
         id="tspan683">teikn på eit <tspan
   style="font-style:normal;font-variant:normal;font-weight:bold;font-stretch:normal;font-family:Lavi;-inkscape-font-specification:'Lavi Bold'"
   id="tspan685">godt rykte</tspan>.</tspan></text>
    <text
       id="text4178-0-3-7-4"
       y="709.26703"
       x="1263.552"
       style="font-style:normal;font-variant:normal;font-weight:normal;font-stretch:normal;line-height:0%;font-family:Lavi;-inkscape-font-specification:Lavi;text-align:center;letter-spacing:0px;word-spacing:0px;text-anchor:middle;fill:#000000;fill-opacity:1;stroke:none"
       xml:space="preserve"><tspan
         y="709.26703"
         x="1263.552"
         style="font-size:40.6767px;line-height:1.25"
         sodipodi:role="line"
         id="tspan662">Ignorer kritikarane,</tspan><tspan
         y="760.11292"
         x="1263.552"
         style="font-size:40.6767px;line-height:1.25"
         sodipodi:role="line"
         id="tspan699">og skap heller din</tspan><tspan
         y="810.9588"
         x="1263.552"
         style="font-size:40.6767px;line-height:1.25"
         sodipodi:role="line"
         id="tspan701"><tspan
   style="font-style:normal;font-variant:normal;font-weight:bold;font-stretch:normal;font-family:Lavi;-inkscape-font-specification:'Lavi Bold'"
   id="tspan705">eigen</tspan> leveveg dersom</tspan><tspan
         y="861.80463"
         x="1263.552"
         style="font-size:40.6767px;line-height:1.25"
         sodipodi:role="line"
         id="tspan703">ingen tilbyr deg ein.</tspan></text>
    <text
       id="text4178-0-3-7-4-4-9"
       y="1489.5304"
       x="1292.365"
       style="font-style:normal;font-variant:normal;font-weight:normal;font-stretch:normal;font-size:13.0616px;line-height:0%;font-family:Lavi;-inkscape-font-specification:Lavi;text-align:center;letter-spacing:0px;word-spacing:0px;text-anchor:middle;fill:#000000;fill-opacity:1;stroke:none;stroke-width:1"
       xml:space="preserve"><tspan
         y="1489.5304"
         x="1292.365"
         style="font-weight:normal;font-size:44.2754px;line-height:1.25;stroke-width:1"
         sodipodi:role="line"
         id="tspan14405">Og ikkje minst:</tspan><tspan
         y="1544.8746"
         x="1292.365"
         style="font-weight:bold;font-size:44.2754px;line-height:1.25;stroke-width:1"
         sodipodi:role="line"
         id="tspan982"> <tspan
   style="font-style:normal;font-variant:normal;font-weight:bold;font-stretch:normal;font-family:Lavi;-inkscape-font-specification:'Lavi Bold'"
   id="tspan709">Du er ikkje ei</tspan></tspan><tspan
         y="1600.2189"
         x="1292.365"
         style="font-style:normal;font-variant:normal;font-weight:bold;font-stretch:normal;font-size:44.2754px;line-height:1.25;font-family:Lavi;-inkscape-font-specification:'Lavi Bold';stroke-width:1"
         sodipodi:role="line"
         id="tspan713">lækjarheks!</tspan></text>
    <text
       id="text4178-0-3-7-4-6"
       y="1691.3566"
       x="1404.7434"
       style="font-style:normal;font-variant:normal;font-weight:normal;font-stretch:normal;line-height:0%;font-family:Lavi;-inkscape-font-specification:Lavi;text-align:center;letter-spacing:0px;word-spacing:0px;text-anchor:middle;fill:#000000;fill-opacity:1;stroke:none;stroke-width:1.4;stroke-dasharray:none"
       xml:space="preserve"><tspan
         y="1691.3566"
         x="1404.7434"
         style="font-size:40.6767px;line-height:1.25;stroke-width:1.4;stroke-dasharray:none"
         sodipodi:role="line"
         id="tspan1092">Før eller seinare</tspan><tspan
         y="1742.2024"
         x="1404.7434"
         style="font-size:40.6767px;line-height:1.25;stroke-width:1.4;stroke-dasharray:none"
         sodipodi:role="line"
         id="tspan896">oppdagar dei det – når</tspan><tspan
         y="1793.0483"
         x="1404.7434"
         style="font-size:40.6767px;line-height:1.25;stroke-width:1.4;stroke-dasharray:none"
         sodipodi:role="line"
         id="tspan899">du går tom for den enorme</tspan><tspan
         y="1843.8942"
         x="1404.7434"
         style="font-size:40.6767px;line-height:1.25;stroke-width:1.4;stroke-dasharray:none"
         sodipodi:role="line"
         id="tspan902">samlinga <tspan
   style="font-style:italic;stroke:#000000;stroke-opacity:1"
   id="tspan1102">fønikstårer</tspan></tspan><tspan
         y="1894.7401"
         x="1404.7434"
         style="font-size:40.6767px;line-height:1.25;stroke-width:1.4;stroke-dasharray:none"
         sodipodi:role="line"
         id="tspan1096">du brukar når du lèt som</tspan><tspan
         y="1945.5859"
         x="1404.7434"
         style="font-size:40.6767px;line-height:1.25;stroke-width:1.4;stroke-dasharray:none"
         sodipodi:role="line"
         id="tspan907">du har nye krefter.</tspan></text>
    <text
       id="text4178-0-3-7-4-4-9-8"
       y="2304.5208"
       x="299.76089"
       style="font-style:normal;font-variant:normal;font-weight:normal;font-stretch:normal;font-size:19.6833px;line-height:0%;font-family:Lavi;-inkscape-font-specification:Lavi;text-align:center;letter-spacing:0px;word-spacing:0px;text-anchor:middle;fill:#000000;fill-opacity:1;stroke:none;stroke-width:1"
       xml:space="preserve"><tspan
         y="2304.5208"
         x="299.76089"
         style="font-weight:bold;font-size:66.7212px;line-height:1.25;stroke-width:1"
         sodipodi:role="line"
         id="tspan14981">Kva ...?</tspan></text>
    <text
       id="text4178-0-3-7-4-4-9-8-2"
       y="2390.5906"
       x="304.07828"
       style="font-style:normal;font-variant:normal;font-weight:normal;font-stretch:normal;font-size:17.9224px;line-height:0%;font-family:Lavi;-inkscape-font-specification:Lavi;text-align:center;letter-spacing:0px;word-spacing:0px;text-anchor:middle;fill:#000000;fill-opacity:1;stroke:none;stroke-width:1"
       xml:space="preserve"><tspan
         y="2390.5906"
         x="304.07828"
         style="font-weight:bold;font-size:60.7521px;line-height:1.25;stroke-width:1"
         sodipodi:role="line"
         id="tspan1834">Korleis fann</tspan><tspan
         y="2466.5308"
         x="304.07828"
         style="font-weight:bold;font-size:60.7521px;line-height:1.25;stroke-width:1"
         sodipodi:role="line"
         id="tspan985">du ut ...</tspan></text>
    <text
       id="text4178-0-3-7-4-6-2"
       y="2397.8245"
       x="720.92902"
       style="font-style:normal;font-variant:normal;font-weight:normal;font-stretch:normal;font-size:13.0698px;line-height:0%;font-family:Lavi;-inkscape-font-specification:Lavi;text-align:center;letter-spacing:0px;word-spacing:0px;text-anchor:middle;fill:#000000;fill-opacity:1;stroke:none;stroke-width:0.999999"
       xml:space="preserve"
       transform="scale(0.99716257,1.0028455)"><tspan
         y="2397.8245"
         x="720.92902"
         style="font-size:44.303px;line-height:1.25;stroke-width:0.999999"
         sodipodi:role="line"
         id="tspan14909-4">... det?</tspan></text>
    <text
       id="text4178-0-3-7-4-6-2-9"
       y="3394.865"
       x="2115.7561"
       style="font-style:normal;font-variant:normal;font-weight:normal;font-stretch:normal;font-size:15.5528px;line-height:0%;font-family:Lavi;-inkscape-font-specification:Lavi;text-align:center;letter-spacing:0px;word-spacing:0px;text-anchor:middle;fill:#000000;fill-opacity:1;stroke:none;stroke-width:1"
       xml:space="preserve"
       transform="scale(1.0311049,0.96983341)"><tspan
         y="3394.865"
         x="2115.7561"
         style="font-size:52.7197px;line-height:1.25;stroke-width:1"
         sodipodi:role="line"
         id="tspan14909-4-0">Tsk!</tspan></text>
  </g>
</svg>
