<?xml version="1.0" encoding="UTF-8" standalone="no"?>
<!-- Created with Inkscape (http://www.inkscape.org/) -->

<svg
   id="svg2"
   version="1.1"
   inkscape:version="1.2.2 (b0a8486541, 2022-12-01)"
   width="2481"
   height="3503"
   sodipodi:docname="E38P03.svg"
   xmlns:inkscape="http://www.inkscape.org/namespaces/inkscape"
   xmlns:sodipodi="http://sodipodi.sourceforge.net/DTD/sodipodi-0.dtd"
   xmlns:xlink="http://www.w3.org/1999/xlink"
   xmlns="http://www.w3.org/2000/svg"
   xmlns:svg="http://www.w3.org/2000/svg"
   xmlns:rdf="http://www.w3.org/1999/02/22-rdf-syntax-ns#"
   xmlns:cc="http://creativecommons.org/ns#"
   xmlns:dc="http://purl.org/dc/elements/1.1/">
  <metadata
     id="metadata8">
    <rdf:RDF>
      <cc:Work
         rdf:about="">
        <dc:format>image/svg+xml</dc:format>
        <dc:type
           rdf:resource="http://purl.org/dc/dcmitype/StillImage" />
        <dc:title />
      </cc:Work>
    </rdf:RDF>
  </metadata>
  <defs
     id="defs6" />
  <sodipodi:namedview
     pagecolor="#ffffff"
     bordercolor="#666666"
     borderopacity="1"
     objecttolerance="10"
     gridtolerance="10"
     guidetolerance="10"
     inkscape:pageopacity="0"
     inkscape:pageshadow="2"
     inkscape:window-width="1920"
     inkscape:window-height="959"
     id="namedview4"
     showgrid="false"
     inkscape:zoom="0.60835002"
     inkscape:cx="1825.4294"
     inkscape:cy="2675.2691"
     inkscape:window-x="0"
     inkscape:window-y="80"
     inkscape:window-maximized="1"
     inkscape:current-layer="layer3"
     inkscape:showpageshadow="0"
     inkscape:pagecheckerboard="0"
     inkscape:deskcolor="#d1d1d1" />
  <g
     inkscape:groupmode="layer"
     id="layer2"
     inkscape:label="artwork"
     sodipodi:insensitive="true">
    <image
       xlink:href="../gfx_Pepper-and-Carrot_by-David-Revoy_E38P03.png"
       y="0"
       x="0"
       id="image10"
       height="3503"
       width="2481" />
  </g>
  <g
     inkscape:groupmode="layer"
     id="layer3"
     inkscape:label="speechbubbles">
    <path
       style="color:#000000;display:inline;overflow:visible;visibility:visible;fill:#ffffff;fill-opacity:1;fill-rule:nonzero;stroke:none;stroke-width:1.03148px;marker:none;enable-background:accumulate"
       d="m 1982.7326,2510.0576 c -33.6371,0.8531 -67.6629,4.0163 -99.9247,16.4107 -13.6887,5.7693 -24.6693,17.81 -35.2587,29.4135 -7.9932,9.0218 -15.5576,19.7916 -17.9022,33.1193 -3.2949,18.4016 -2.6532,37.4746 -0.7875,56.0511 1.5921,13.2593 5.7321,26.1507 12.587,36.6919 9.279,14.8084 22.6798,25.1689 37.044,31.104 24.5576,11.3529 50.7248,17.9437 77.0377,17.8223 17.0205,0.089 34.0413,-1.1687 51.0589,-0.2762 21.1874,0.5402 42.5788,1.3364 63.5173,-3.4206 18.3719,-3.9849 36.3737,-10.7217 53.3195,-20.2672 12.0282,-7.2003 22.8446,-18.1324 29.4388,-32.5316 12.5759,-26.2487 19.3493,-63.8833 6.8629,-90.2965 -10.2197,-22.5991 -14.18,-41.4472 -33.1006,-52.4707 -19.6605,-11.7032 -60.7685,-12.2785 -82.3784,-15.2816 -20.3983,-3.2786 -40.9002,-6.366 -61.514,-6.0684 z"
       id="path4040-4-5-3"
       inkscape:connector-curvature="0"
       sodipodi:nodetypes="zsssszcccccccccz" />
    <path
       style="color:#000000;display:inline;overflow:visible;visibility:visible;fill:#ffffff;fill-opacity:1;fill-rule:nonzero;stroke:none;stroke-width:1.08939px;marker:none;enable-background:accumulate"
       d="m 2111.7037,2704.9734 c -47.993,0.8261 -98.1692,-6.7991 -145.3256,3.5012 -21.5496,5.0149 -44.2435,8.1089 -56.0854,37.5398 -12.3785,30.7644 -15.1532,73.5294 -0.8601,103.5211 8.3316,18.2627 22.3262,33.5826 39.2127,43.8229 12.671,8.235 27.0723,13.7658 42.0257,15.3813 37.6327,5.5899 75.642,9.1595 113.6993,8.3949 28.7922,-0.5547 57.6095,-3.1981 85.8761,-8.9382 20.7794,-4.575 41.5131,-13.0144 56.8697,-28.5451 11.8767,-11.9081 19.7398,-27.9327 21.8134,-44.8519 2.1694,-14.6093 2.9295,-29.4513 2.3685,-44.2142 -0.7605,-15.4436 -4.6358,-31.082 -13.45,-43.8308 -8.1333,-12.1932 -20.3253,-20.9375 -33.4701,-26.6275 -18.8935,-8.2918 -39.4804,-11.2197 -59.7731,-13.3413 -17.5829,-1.6489 -35.2554,-1.9237 -52.9011,-1.8122 z"
       id="path3365-33"
       inkscape:connector-curvature="0"
       sodipodi:nodetypes="csssssccccccccc" />
    <path
       style="color:#000000;display:inline;overflow:visible;visibility:visible;fill:#ffffff;fill-opacity:1;fill-rule:nonzero;stroke:none;stroke-width:0.999999px;marker:none;enable-background:accumulate"
       d="m 1263.1642,1831.4688 c -42.5257,-42.2705 -19.5395,-108.0364 17.6028,-114.3414 51.4374,-8.7316 -11.3103,20.5827 -11.3103,20.5827 0,0 -37.0509,43.6527 -6.2925,93.7587 z"
       id="path5002-7"
       inkscape:connector-curvature="0"
       sodipodi:nodetypes="cscc" />
    <path
       style="color:#000000;display:inline;overflow:visible;visibility:visible;fill:#ffffff;fill-opacity:1;fill-rule:nonzero;stroke:none;stroke-width:1px;marker:none;enable-background:accumulate"
       d="m 1916.9709,2636.425 c -77.3885,-61.1144 -158.5933,-65.3254 -208.3967,7.4705 60.8364,-52.278 143.8743,-25.5157 174.2291,8.7518 16.5264,23.0336 34.1676,-16.2223 34.1676,-16.2223 z"
       id="path3978-4"
       inkscape:connector-curvature="0"
       sodipodi:nodetypes="cccc" />
    <path
       style="fill:#ffffff;fill-rule:evenodd;stroke:none;stroke-width:0.948096px;stroke-linecap:butt;stroke-linejoin:miter;stroke-opacity:1"
       d="m 1578.6984,1438.6662 c 0.9254,-18.6517 12.0297,-52.846 28.6863,-59.0632 16.6564,-6.2173 62.9245,-6.2173 72.1781,-3.1082 9.2537,3.1082 24.0594,25.9044 27.7609,35.2307 3.7015,9.3254 13.8805,42.4833 -2.776,55.9542 -16.6566,13.4708 -33.313,23.8325 -50.895,22.7962 -17.5819,-1.0364 -52.7457,-8.29 -61.0738,-20.7235 -8.3283,-12.4345 -13.8805,-31.0862 -13.8805,-31.0862 z"
       id="path1355"
       inkscape:connector-curvature="0" />
    <path
       style="fill:#ffffff;fill-rule:evenodd;stroke:none;stroke-width:0.928719px;stroke-linecap:butt;stroke-linejoin:miter;stroke-opacity:1"
       d="m 1019.6573,1564.5354 c 15.979,2.0314 39.3775,-7.5765 26.4591,-38.1612 25.0746,21.6699 45.6331,17.8869 86.4208,-16.1391 -3.3894,47.4093 14.8405,42.9799 31.2752,33.8779 -15.7727,15.9536 12.5399,25.0955 27.7697,25.9916 -32.2169,34.5064 -15.2996,45.4806 -2.6049,58.4772 -31.6616,-9.6156 -24.0041,9.8675 -27.7859,20.8848 -27.1608,-24.9624 -46.9132,-19.038 -62.5181,4.1769 -8.1616,-12.6249 -10.7233,-38.7184 -40.8104,1.3923 11.0638,-34.6271 -3.4384,-30.9924 -26.9174,-13.9231 3.6797,-11.7944 25.5497,-29.7296 -11.2881,-27.8464 23.0096,-11.2123 27.8349,-26.401 0,-48.7309 z"
       id="path4584"
       inkscape:connector-curvature="0"
       sodipodi:nodetypes="cccccccccccc" />
    <path
       style="color:#000000;display:inline;overflow:visible;visibility:visible;fill:#ffffff;fill-opacity:1;fill-rule:nonzero;stroke:none;stroke-width:1px;marker:none;enable-background:accumulate"
       d="m 1092.7675,1600.0887 c 32.5118,17.1362 69.5241,50.078 26.9344,88.4809 5.5785,26.0417 6.6264,46.3987 -29.7935,75.4959 22.4386,-26.2104 31.5308,-42.9396 20.1333,-80.7335 19.0733,-22.4288 9.883,-53.2464 -33.7163,-67.4214 -43.5993,-14.1751 -33.1079,-7.2586 -33.1079,-7.2586 l 36.9086,-13.1055 z"
       id="path5074"
       inkscape:connector-curvature="0"
       sodipodi:nodetypes="ccccsccc" />
    <path
       style="fill:#ffffff;stroke:none;stroke-width:0.999998"
       d="m 1641.2389,1626.3692 c -23.6692,-22.5115 -16.2357,-35.8105 -6.3972,-46.3314 9.8357,-10.5203 11.5626,-22.6355 9.6907,-30.0237 -1.8719,-7.3881 -10.8731,-18.1272 -18.2553,-23.021 -7.3832,-4.8937 2.0396,-17.023 7.4292,-24.7215 7.1196,-10.1717 17.3403,-10.9015 17.3403,-10.9015 0,0 -8.6513,-43.4434 -16.6505,-33.7546 -7.9983,9.6888 -25.6203,43.7517 -27.4427,48.1059 -1.8214,4.3541 -5.0288,17.8771 0.4234,24.5114 5.4533,6.6341 17.5984,9.8769 21.8896,18.2273 4.4207,8.6023 3.0414,15.2934 -2.2485,24.1895 -5.2898,8.8961 -13.1942,29.5079 -2.6908,39.3668 10.5043,9.8587 16.9118,14.3528 16.9118,14.3528 z"
       id="path3023-9"
       inkscape:connector-curvature="0"
       sodipodi:nodetypes="csssscssssssc" />
  </g>
  <g
     inkscape:groupmode="layer"
     id="layer1"
     inkscape:label="txt">
    <path
       style="color:#000000;display:inline;overflow:visible;visibility:visible;fill:#ffffff;fill-opacity:1;fill-rule:nonzero;stroke:none;stroke-width:0.999997px;marker:none;enable-background:accumulate"
       d="m 1274.9239,1778.3845 c 10.0479,-16.4768 29.6384,-30.1033 38.2868,-0.9712 24.2862,-27.2334 35.9765,-18.2417 54.9577,1.1531 0.1699,-6.2082 6.5001,-31.014 33.8131,-15.5544 -8.6583,-22.2467 17.7583,-24.2355 30.6596,-21.7469 -4.9027,-10.8797 2.4996,-19.0493 20.8803,-24.7994 -26.0488,-5.0899 -20.477,-18.2293 13.5825,-30.8539 -35.6876,1.5668 -44.1686,-13.7125 -16.7227,-33.8204 -13.1802,0.2274 -58.8557,28.9905 -53.6625,-27.5232 -15.7708,19.1239 -44.696,41.2105 -72.6511,5.6123 -5.6553,15.277 -24.4611,26.0304 -47.7317,7.4525 -2.8562,14.9621 -28.082,18.0286 -37.7485,15.7371 20.6475,14.993 21.1403,25.2087 -4.2268,28.6568 46.1423,26.3695 10.6377,24.4818 4.571,32.468 34.7742,7.707 29.673,22.2208 14.434,29.06 30.6029,-18.8202 23.6715,14.3004 21.5583,35.1296 z"
       id="path3549-3-8"
       inkscape:connector-curvature="0"
       sodipodi:nodetypes="cccccccccccccccc" />
    <text
       id="text4178-0"
       y="1600.2191"
       x="1106.0676"
       style="font-style:normal;font-variant:normal;font-weight:normal;font-stretch:normal;font-size:37.3333px;line-height:0%;font-family:Lavi;-inkscape-font-specification:Lavi;text-align:center;letter-spacing:0px;word-spacing:0px;text-anchor:middle;fill:#000000;fill-opacity:1;stroke:none"
       xml:space="preserve"><tspan
         y="1600.2191"
         x="1106.0676"
         style="font-size:37.3333px;line-height:1.25"
         sodipodi:role="line"
         id="tspan4245-6-6">Fus!</tspan></text>
    <text
       id="text4178-0-1"
       y="1710.4082"
       x="1330.5287"
       style="font-style:normal;font-variant:normal;font-weight:normal;font-stretch:normal;font-size:32.7584px;line-height:0%;font-family:Lavi;-inkscape-font-specification:Lavi;text-align:center;letter-spacing:0px;word-spacing:0px;text-anchor:middle;fill:#000000;fill-opacity:1;stroke:none;stroke-width:0.999996"
       xml:space="preserve"
       transform="scale(1.0080992,0.99196588)"><tspan
         y="1710.4082"
         x="1330.5287"
         style="font-size:32.7584px;line-height:1.25;stroke-width:0.999996"
         sodipodi:role="line"
         id="tspan8148">Nei, eg!</tspan><tspan
         y="1751.3562"
         x="1330.5287"
         style="font-size:32.7584px;line-height:1.25;stroke-width:0.999996"
         sodipodi:role="line"
         id="tspan451">Eg!</tspan></text>
    <text
       id="text4178-0-7"
       y="1457.9532"
       x="1645.2759"
       style="font-style:normal;font-variant:normal;font-weight:normal;font-stretch:normal;font-size:18.9857px;line-height:0%;font-family:Lavi;-inkscape-font-specification:Lavi;text-align:center;letter-spacing:0px;word-spacing:0px;text-anchor:middle;fill:#000000;fill-opacity:1;stroke:none;stroke-width:0.999996"
       xml:space="preserve"><tspan
         y="1457.9532"
         x="1645.2759"
         style="font-size:64.3559px;line-height:1.25;stroke-width:0.999996"
         sodipodi:role="line"
         id="tspan4245-6-6-9">?</tspan></text>
    <text
       id="text4178-0-2"
       y="2581.946"
       x="1994.011"
       style="font-style:normal;font-variant:normal;font-weight:normal;font-stretch:normal;line-height:0%;font-family:Lavi;-inkscape-font-specification:Lavi;text-align:center;letter-spacing:0px;word-spacing:0px;text-anchor:middle;fill:#000000;fill-opacity:1;stroke:none"
       xml:space="preserve"><tspan
         y="2581.946"
         x="1994.011"
         style="font-size:40.6767px;line-height:1.25"
         sodipodi:role="line"
         id="tspan424">Og kva er det</tspan><tspan
         y="2632.792"
         x="1994.011"
         style="font-size:40.6767px;line-height:1.25"
         sodipodi:role="line"
         id="tspan455">du trur du</tspan><tspan
         y="2683.6377"
         x="1994.011"
         style="font-size:40.6767px;line-height:1.25"
         sodipodi:role="line"
         id="tspan457">held på med?</tspan></text>
    <text
       id="text4178-0-2-2"
       y="2777.4775"
       x="2085.0195"
       style="font-style:normal;font-variant:normal;font-weight:normal;font-stretch:normal;line-height:0%;font-family:Lavi;-inkscape-font-specification:Lavi;text-align:center;letter-spacing:0px;word-spacing:0px;text-anchor:middle;fill:#000000;fill-opacity:1;stroke:none"
       xml:space="preserve"><tspan
         y="2777.4775"
         x="2085.0195"
         style="font-size:40.6767px;line-height:1.25"
         sodipodi:role="line"
         id="tspan501">I fleire månadar</tspan><tspan
         y="2828.3235"
         x="2085.0195"
         style="font-size:40.6767px;line-height:1.25"
         sodipodi:role="line"
         id="tspan464">har me leita</tspan><tspan
         y="2879.1692"
         x="2085.0195"
         style="font-size:40.6767px;line-height:1.25"
         sodipodi:role="line"
         id="tspan466">etter deg!</tspan></text>
  </g>
</svg>
