<?xml version="1.0" encoding="UTF-8" standalone="no"?>
<svg
   xmlns:dc="http://purl.org/dc/elements/1.1/"
   xmlns:cc="http://creativecommons.org/ns#"
   xmlns:rdf="http://www.w3.org/1999/02/22-rdf-syntax-ns#"
   xmlns:svg="http://www.w3.org/2000/svg"
   xmlns="http://www.w3.org/2000/svg"
   xmlns:xlink="http://www.w3.org/1999/xlink"
   xmlns:sodipodi="http://sodipodi.sourceforge.net/DTD/sodipodi-0.dtd"
   xmlns:inkscape="http://www.inkscape.org/namespaces/inkscape"
   sodipodi:docname="E31P07.svg"
   height="3503"
   width="2481"
   inkscape:version="1.0 (4035a4fb49, 2020-05-01)"
   version="1.1"
   id="svg2">
  <metadata
     id="metadata8">
    <rdf:RDF>
      <cc:Work
         rdf:about="">
        <dc:format>image/svg+xml</dc:format>
        <dc:type
           rdf:resource="http://purl.org/dc/dcmitype/StillImage" />
        <dc:title />
      </cc:Work>
    </rdf:RDF>
  </metadata>
  <defs
     id="defs6">
    <filter
       inkscape:label="deevad outline effect"
       id="filter4375-4-1-1-1-9-6-9-2-1-7-1"
       style="color-interpolation-filters:sRGB">
      <feFlood
         result="flood"
         flood-color="rgb(0,0,0)"
         flood-opacity="1"
         id="feFlood4377-7-9-0-8-1-0-2-2-06-3-9" />
      <feComposite
         result="composite1"
         operator="in"
         in="flood"
         in2="SourceGraphic"
         id="feComposite4379-3-8-8-2-77-6-0-8-3-6-4" />
      <feMorphology
         result="result3"
         radius="4"
         operator="dilate"
         id="feMorphology4393-1-0-49-8-9-2-2-9-2-1-7" />
      <feComposite
         result="composite2"
         operator="over"
         in="SourceGraphic"
         in2="result3"
         id="feComposite4385-9-5-7-0-8-6-3-7-0-2-8" />
    </filter>
    <filter
       inkscape:label="deevad outline effect"
       id="filter4375-4-1-1-1-9-6-9-2-1-7-1-3"
       style="color-interpolation-filters:sRGB">
      <feFlood
         result="flood"
         flood-color="rgb(0,0,0)"
         flood-opacity="1"
         id="feFlood4377-7-9-0-8-1-0-2-2-06-3-9-6" />
      <feComposite
         result="composite1"
         operator="in"
         in="flood"
         in2="SourceGraphic"
         id="feComposite4379-3-8-8-2-77-6-0-8-3-6-4-7" />
      <feMorphology
         result="result3"
         radius="4"
         operator="dilate"
         id="feMorphology4393-1-0-49-8-9-2-2-9-2-1-7-5" />
      <feComposite
         result="composite2"
         operator="over"
         in="SourceGraphic"
         in2="result3"
         id="feComposite4385-9-5-7-0-8-6-3-7-0-2-8-3" />
    </filter>
    <filter
       height="1.0029159"
       y="-0.0014578935"
       width="1.0020597"
       x="-0.0010298714"
       id="filter4213"
       style="color-interpolation-filters:sRGB"
       inkscape:collect="always">
      <feGaussianBlur
         id="feGaussianBlur4215"
         stdDeviation="0.24308766"
         inkscape:collect="always" />
    </filter>
    <filter
       height="1.0029159"
       y="-0.0014578935"
       width="1.0020597"
       x="-0.0010298714"
       id="filter4213-8"
       style="color-interpolation-filters:sRGB"
       inkscape:collect="always">
      <feGaussianBlur
         id="feGaussianBlur4215-7"
         stdDeviation="0.24308766"
         inkscape:collect="always" />
    </filter>
    <filter
       height="1.0498235"
       y="-0.024911748"
       width="1.0264426"
       x="-0.013221323"
       id="filter1266"
       style="color-interpolation-filters:sRGB"
       inkscape:collect="always">
      <feGaussianBlur
         id="feGaussianBlur1268"
         stdDeviation="0.78825367"
         inkscape:collect="always" />
    </filter>
    <filter
       height="1.0029159"
       y="-0.0014578935"
       width="1.0020597"
       x="-0.0010298714"
       id="filter4213-0"
       style="color-interpolation-filters:sRGB"
       inkscape:collect="always">
      <feGaussianBlur
         id="feGaussianBlur4215-2"
         stdDeviation="0.24308766"
         inkscape:collect="always" />
    </filter>
    <filter
       height="1.0498235"
       y="-0.024911748"
       width="1.0264426"
       x="-0.013221323"
       id="filter1266-5"
       style="color-interpolation-filters:sRGB"
       inkscape:collect="always">
      <feGaussianBlur
         id="feGaussianBlur1268-9"
         stdDeviation="0.78825367"
         inkscape:collect="always" />
    </filter>
    <filter
       height="1.0029159"
       y="-0.0014578935"
       width="1.0020597"
       x="-0.0010298714"
       id="filter4213-8-8"
       style="color-interpolation-filters:sRGB"
       inkscape:collect="always">
      <feGaussianBlur
         id="feGaussianBlur4215-7-9"
         stdDeviation="0.24308766"
         inkscape:collect="always" />
    </filter>
    <filter
       height="1.0498235"
       y="-0.024911748"
       width="1.0264426"
       x="-0.013221323"
       id="filter1266-5-1"
       style="color-interpolation-filters:sRGB"
       inkscape:collect="always">
      <feGaussianBlur
         id="feGaussianBlur1268-9-2"
         stdDeviation="0.78825367"
         inkscape:collect="always" />
    </filter>
    <filter
       height="1.0029159"
       y="-0.0014578935"
       width="1.0020597"
       x="-0.0010298714"
       id="filter4213-1"
       style="color-interpolation-filters:sRGB"
       inkscape:collect="always">
      <feGaussianBlur
         id="feGaussianBlur4215-9"
         stdDeviation="0.24308766"
         inkscape:collect="always" />
    </filter>
    <filter
       height="1.0294575"
       y="-0.014728761"
       width="1.0239175"
       x="-0.01195875"
       id="filter1395"
       style="color-interpolation-filters:sRGB"
       inkscape:collect="always">
      <feGaussianBlur
         id="feGaussianBlur1397"
         stdDeviation="0.26634151"
         inkscape:collect="always" />
    </filter>
    <filter
       height="1.0974239"
       y="-0.048711938"
       width="1.0458992"
       x="-0.022949615"
       id="filter1639"
       style="color-interpolation-filters:sRGB"
       inkscape:collect="always">
      <feGaussianBlur
         id="feGaussianBlur1641"
         stdDeviation="0.45636794"
         inkscape:collect="always" />
    </filter>
  </defs>
  <sodipodi:namedview
     inkscape:document-rotation="0"
     inkscape:snap-global="false"
     inkscape:current-layer="layer3"
     inkscape:window-maximized="1"
     inkscape:window-y="28"
     inkscape:window-x="1920"
     inkscape:cy="2883.5996"
     inkscape:cx="1229.5559"
     inkscape:zoom="0.45854896"
     showgrid="false"
     id="namedview4"
     inkscape:window-height="1025"
     inkscape:window-width="1920"
     inkscape:pageshadow="2"
     inkscape:pageopacity="0"
     guidetolerance="10"
     gridtolerance="10"
     objecttolerance="10"
     borderopacity="1"
     bordercolor="#666666"
     pagecolor="#ffffff" />
  <g
     sodipodi:insensitive="true"
     inkscape:label="artwork"
     id="layer2"
     inkscape:groupmode="layer">
    <image
       sodipodi:absref="C:\Users\stero\Documents\Kernewek\Pepper and Carrot\webcomics\ep31_The-Fight\lang\gfx_Pepper-and-Carrot_by-David-Revoy_E31P07.png"
       xlink:href="../gfx_Pepper-and-Carrot_by-David-Revoy_E31P07.png"
       width="2481"
       height="3503"
       id="image10"
       x="0"
       y="0" />
  </g>
  <g
     style="opacity:1"
     inkscape:label="speechbubbles"
     id="layer3"
     inkscape:groupmode="layer">
    <path
       sodipodi:nodetypes="ccccccccccczcccc"
       inkscape:connector-curvature="0"
       id="path3023-4"
       d="m 1106.0698,2364.2966 c -11.6691,-1.8294 -24.0895,-4.612 -32.8712,-13.0801 -5.3332,-4.801 -7.3799,-11.8865 -9.0134,-18.6167 -1.7512,-7.2534 -4.0169,-15.0959 -10.2535,-19.8117 -8.1983,-7.1963 -20.6303,-6.3017 -28.5569,-13.9283 -7.9089,-11.2207 -5.5612,-26.5213 -13.792,-37.5876 -6.0341,-8.2415 -13.21645,-15.534 -20.08555,-23.0643 -3.25505,3.9734 -0.85984,9.2711 -1.37949,13.849 -0.8446,4.1744 -0.45106,8.5017 -0.35229,12.7431 0.56185,11.6716 3.48347,23.4796 10.14381,33.2232 3.53272,5.8733 6.60632,12.8834 13.20942,15.8976 6.8374,2.8369 14.9959,5.2953 20.9776,7.1591 5.9817,1.8638 11.038,1.7891 13.084,6.9271 2.3464,5.0542 4.4303,10.2451 6.6776,15.3527 2.545,5.7563 6.3126,11.1817 11.8226,14.4395 11.7632,7.9059 26.7924,8.5572 40.3893,6.4974 z"
       style="fill:#ffffff;stroke:none;stroke-width:1" />
    <path
       inkscape:connector-curvature="0"
       id="path1094"
       d="m 631.07063,1022.9303 c -73.3336,55.9324 -104.4071,93.2206 -116.8365,150.3959 -12.4294,57.1754 -21.13,118.0795 47.2318,190.1701 -79.5483,-68.3618 -74.5765,-141.6953 -72.0907,-162.8253 2.4859,-21.1301 16.1583,-95.7066 60.9042,-147.9101 44.7459,-52.2036 93.2206,-87.00582 93.2206,-87.00582 l 6.2147,34.80222 z"
       style="display:inline;fill:#ffffff;fill-rule:evenodd;stroke:none;stroke-width:1px;stroke-linecap:butt;stroke-linejoin:miter;stroke-opacity:1" />
    <path
       sodipodi:nodetypes="cscsccc"
       inkscape:connector-curvature="0"
       id="path3365-7"
       d="m 807.8715,2220.3576 c 1.42718,-22.5023 34.34576,-61.9909 180.58574,-59.9921 104.00516,1.4214 130.97976,17.4435 158.84866,47.9683 26.9997,34.1508 3.6334,51.7557 -25.3516,67.5335 -36.1224,19.6628 -72.5491,14.1604 -132.30073,15.0472 -69.0304,0.037 -111.2776,10.7872 -154.98878,-12.0039 -25.32454,-12.6067 -26.58333,-39.4032 -26.79329,-58.553 z"
       style="color:#000000;display:inline;overflow:visible;visibility:visible;opacity:1;fill:#ffffff;fill-opacity:1;fill-rule:nonzero;stroke:none;stroke-width:1.23679px;marker:none;enable-background:accumulate" />
    <path
       sodipodi:nodetypes="csssc"
       inkscape:connector-curvature="0"
       id="path3280-8-0-3"
       d="m 1099.7705,2086.8325 c -1.5009,49.7316 -49.0687,93.7219 -154.84434,97.2522 -154.5754,5.159 -178.90465,-44.6969 -177.45913,-119.8264 1.20226,-62.4855 86.17086,-83.8374 170.14934,-83.1792 146.30263,1.1467 160.84413,59.0701 162.15413,105.7534 z"
       style="fill:#ffffff;stroke:none;stroke-width:1.06022" />
    <path
       sodipodi:nodetypes="zssssz"
       inkscape:connector-curvature="0"
       id="path4040-3"
       d="m 831.86487,1909.5424 c 11.29455,-13.7475 135.68273,-23.5391 167.86915,7.5545 22.43068,21.6697 8.81838,58.3821 -10.40769,69.2002 -19.22591,10.8171 -99.61845,16.3496 -126,10.8412 -23.72371,-4.9544 -48.62526,-15.617 -49.93815,-43.9972 -0.53581,-11.5833 7.18206,-29.8502 18.47669,-43.5987 z"
       style="color:#000000;display:inline;overflow:visible;visibility:visible;opacity:1;fill:#ffffff;fill-opacity:1;fill-rule:nonzero;stroke:none;stroke-width:0.58296984px;marker:none;enable-background:accumulate" />
    <path
       sodipodi:nodetypes="ccscc"
       inkscape:connector-curvature="0"
       id="path4035-4"
       d="m 513.39226,1560.6825 c -20.56334,-38.6246 30.41574,-79.0088 76.08739,-66.2175 -11.0856,-9.0468 -62.14969,-43.6193 -114.25657,32.0263 -28.17045,40.8962 25.40397,34.0641 25.40397,34.0641 z"
       style="color:#000000;display:inline;overflow:visible;visibility:visible;fill:#ffffff;fill-opacity:1;fill-rule:nonzero;stroke:none;stroke-width:1px;marker:none;enable-background:accumulate" />
    <path
       sodipodi:nodetypes="cccccccc"
       inkscape:connector-curvature="0"
       id="path4456-8"
       d="m 1740.924,1775.3534 c -41.7501,-3.5977 -88.1678,-42.8204 -86.1303,-69.3756 2.5752,-3.8294 -6.743,-13.959 -6.743,-13.959 0,0 11.5715,-1.9717 8.445,-14.2491 -3.1266,-12.2775 7.4012,-18.3398 7.4012,-18.3398 0,0 25.5919,16.6709 34.0315,24.716 -7.3672,10.1082 -10.0408,16.3402 -13.7565,18.4792 -17.0299,6.8863 32.2595,66.9357 56.7521,72.7283 z"
       style="color:#000000;display:inline;overflow:visible;visibility:visible;fill:#ffffff;fill-opacity:1;fill-rule:nonzero;stroke:none;stroke-width:1px;marker:none;enable-background:accumulate" />
    <path
       sodipodi:nodetypes="cccccccccc"
       inkscape:connector-curvature="0"
       id="path4040-57"
       d="m 501.73376,829.61618 c 22.06732,-19.69173 56.16518,-28.32614 89.04743,-30.55582 42.09638,-3.74765 159.09861,-10.90777 222.69119,2.23009 42.89989,10.67312 84.32755,36.15197 94.48694,68.1024 13.53213,36.72891 19.98644,94.55192 -6.96444,127.40701 -48.83125,50.03634 -150.87858,48.64324 -227.61986,46.59874 -29.66498,-0.9973 -59.35048,-1.9435 -88.93976,-3.8637 -22.76721,-1.66 -45.61462,-7.0933 -63.26895,-18.5859 -42.90014,-24.35604 -65.62524,-68.38406 -53.91071,-108.45712 2.67815,-29.03049 8.59403,-60.10393 34.47816,-82.8757 z"
       style="color:#000000;display:inline;overflow:visible;visibility:visible;fill:#ffffff;fill-opacity:1;fill-rule:nonzero;stroke:none;stroke-width:0.86489981px;marker:none;enable-background:accumulate" />
    <path
       sodipodi:nodetypes="csssssc"
       inkscape:connector-curvature="0"
       id="path3365-90"
       d="m 263.14555,1595.3077 c 7.11846,-51.707 22.57033,-105.8337 169.3779,-97.7557 146.80768,8.0782 166.96828,49.6838 167.92674,103.2196 1.25563,70.1283 -23.8741,86.3313 -45.29386,95.1169 -21.41962,8.7856 -71.6721,18.5984 -107.85128,21.4222 -19.45275,1.519 -137.53896,-5.9138 -159.91857,-32.6041 -22.29987,-26.5946 -25.91195,-52.2451 -24.24093,-89.3989 z"
       style="color:#000000;display:inline;overflow:visible;visibility:visible;fill:#ffffff;fill-opacity:1;fill-rule:nonzero;stroke:none;stroke-width:1.0583179px;marker:none;enable-background:accumulate" />
    <path
       sodipodi:nodetypes="cccsscc"
       inkscape:connector-curvature="0"
       id="path3970-36-4"
       d="m 1572.0663,1730.6574 c -59.1574,-1.3204 -84.1412,-16.8899 -98.7313,-40.1414 -14.5899,-23.2524 -2.4717,-60.7919 23.1612,-74.0842 25.6329,-13.2925 60.3134,-14.6393 100.4568,-12.8804 72.537,3.1808 122.7787,13.2015 128.4582,49.2585 5.6395,35.8003 1.1128,54.794 -52.2076,71.843 -50.1947,9.8114 -101.1373,6.0045 -101.1373,6.0045 z"
       style="color:#000000;display:inline;overflow:visible;visibility:visible;fill:#ffffff;fill-opacity:1;fill-rule:nonzero;stroke:none;stroke-width:1.23743439px;marker:none;enable-background:accumulate" />
    <path
       sodipodi:nodetypes="ccscscc"
       inkscape:connector-curvature="0"
       id="path1365"
       d="m 2215.285,1175.982 c -0.8172,-29.9933 24.7571,-40.6219 36.1986,-42.3867 11.4416,-1.7637 54.5166,-5.2494 72.4962,8.8648 17.9796,14.1143 24.1191,23.9247 14.7106,46.7543 -14.9701,19.4933 -34.3247,22.0532 -50.6698,22.9351 -16.345,0.8819 -51.487,-4.4104 -62.9285,-16.7609 -11.4416,-12.3495 -9.8071,-19.4066 -9.8071,-19.4066 z"
       style="fill:#ffffff;fill-rule:evenodd;stroke:none;stroke-width:1px;stroke-linecap:butt;stroke-linejoin:miter;stroke-opacity:1" />
    <path
       sodipodi:nodetypes="cccccc"
       inkscape:connector-curvature="0"
       id="path1367"
       d="m 2248.1828,1172.5234 c 0,0 -7.5732,20.9817 -15.7293,27.1738 -8.1561,6.192 -28.7528,17.5708 -43.9083,15.729 27.8126,9.0205 51.8926,-0.7427 58.6764,-5.0743 6.7848,-4.3317 21.7457,-26.0926 21.7457,-26.0926 z"
       style="fill:#ffffff;fill-rule:evenodd;stroke:none;stroke-width:1px;stroke-linecap:butt;stroke-linejoin:miter;stroke-opacity:1" />
  </g>
  <g
     inkscape:label="txt"
     id="layer1"
     inkscape:groupmode="layer">
    <text
       transform="matrix(0.46131079,-0.15363757,-0.08516477,0.59026719,536.76709,-149.68307)"
       id="text4580-1-7-3-6-9-4"
       y="1584.5073"
       x="787.65729"
       style="font-style:normal;font-variant:normal;font-weight:normal;font-stretch:normal;line-height:0%;font-family:Lavi;-inkscape-font-specification:Lavi;letter-spacing:0px;word-spacing:0px;display:inline;fill:#ffffff;fill-opacity:1;stroke:#000000;stroke-width:7.85656;stroke-miterlimit:4;stroke-dasharray:none;stroke-opacity:1;paint-order:stroke markers fill;filter:url(#filter4375-4-1-1-1-9-6-9-2-1-7-1)"
       xml:space="preserve"><tspan
         style="font-size:70px;line-height:1.25;fill:#ffffff;fill-opacity:1;stroke:#000000;stroke-width:7.85656;stroke-miterlimit:4;stroke-dasharray:none;stroke-opacity:1;paint-order:stroke markers fill"
         y="1584.5073"
         x="787.65729"
         id="tspan4582-8-5-6-1-3-5"
         sodipodi:role="line">Tokk!</tspan></text>
    <text
       transform="matrix(0.45087839,-0.18199128,-0.04834106,0.59441697,1007.0439,-136.51326)"
       id="text4580-1-7-3-6-9-4-5"
       y="1584.5073"
       x="787.65729"
       style="font-style:normal;font-variant:normal;font-weight:normal;font-stretch:normal;line-height:0%;font-family:Lavi;-inkscape-font-specification:Lavi;letter-spacing:0px;word-spacing:0px;display:inline;fill:#ffffff;fill-opacity:1;stroke:#000000;stroke-width:7.85656;stroke-miterlimit:4;stroke-dasharray:none;stroke-opacity:1;paint-order:stroke markers fill;filter:url(#filter4375-4-1-1-1-9-6-9-2-1-7-1-3)"
       xml:space="preserve"><tspan
         id="tspan907"
         style="font-size:70px;line-height:1.25;fill:#ffffff;fill-opacity:1;stroke:#000000;stroke-width:7.85656;stroke-miterlimit:4;stroke-dasharray:none;stroke-opacity:1;paint-order:stroke markers fill"
         y="1584.5073"
         x="787.65729"
         sodipodi:role="line">Tokk!</tspan></text>
    <text
       id="text4246-2-3-1-3-9-9-36"
       y="860.5152"
       x="697.43341"
       style="font-style:normal;font-variant:normal;font-weight:normal;font-stretch:normal;font-size:10.4081px;line-height:0%;font-family:Lavi;-inkscape-font-specification:'Lavi, Normal';text-align:center;letter-spacing:0px;word-spacing:0px;writing-mode:lr-tb;text-anchor:middle;display:inline;fill:#000000;fill-opacity:1;stroke:none;stroke-width:1"
       xml:space="preserve"><tspan
         id="tspan132"
         style="font-size:40px;line-height:1.25;stroke-width:1"
         y="860.5152"
         x="697.43341"
         sodipodi:role="line">Teyr bledhen yw</tspan><tspan
         id="tspan111"
         style="font-size:40px;line-height:1.25;stroke-width:1"
         y="910.5152"
         x="697.43341"
         sodipodi:role="line">a-ban leversys</tspan><tspan
         id="tspan113"
         style="font-size:40px;line-height:1.25;stroke-width:1"
         y="960.5152"
         x="697.43341"
         sodipodi:role="line">&quot;marnas unn assay</tspan><tspan
         id="tspan119"
         style="font-size:40px;line-height:1.25;stroke-width:1"
         y="1010.5152"
         x="697.43341"
         sodipodi:role="line">diwettha&quot;...</tspan></text>
    <text
       id="text4246-10"
       y="1565.2662"
       x="425.85593"
       style="font-style:normal;font-variant:normal;font-weight:normal;font-stretch:normal;line-height:0%;font-family:Lavi;-inkscape-font-specification:Lavi;text-align:center;letter-spacing:0px;word-spacing:0px;text-anchor:middle;fill:#000000;fill-opacity:1;stroke:none"
       xml:space="preserve"><tspan
         id="tspan143"
         y="1565.2662"
         x="425.85593"
         style="font-size:40px;line-height:1.25"
         sodipodi:role="line">...ny wren ni</tspan><tspan
         id="tspan130"
         y="1615.2662"
         x="425.85593"
         style="font-size:40px;line-height:1.25"
         sodipodi:role="line">gortos omma</tspan><tspan
         id="tspan133"
         y="1665.2662"
         x="425.85593"
         style="font-size:40px;line-height:1.25"
         sodipodi:role="line">dres oll an nos!</tspan></text>
    <text
       id="text4246-10-2"
       y="1682.1624"
       x="1597.429"
       style="font-style:normal;font-variant:normal;font-weight:normal;font-stretch:normal;line-height:0%;font-family:Lavi;-inkscape-font-specification:Lavi;text-align:center;letter-spacing:0px;word-spacing:0px;text-anchor:middle;fill:#000000;fill-opacity:1;stroke:none"
       xml:space="preserve"><tspan
         id="tspan933-1"
         y="1682.1624"
         x="1597.429"
         style="font-style:normal;font-variant:normal;font-weight:bold;font-stretch:normal;font-size:46.6667px;line-height:1.25;font-family:Lavi;-inkscape-font-specification:'Lavi Bold'"
         sodipodi:role="line">Ytho...?</tspan></text>
    <text
       id="text4246-3-7-7-6-7-2-9-6-1-4-3-1"
       y="1178.2853"
       x="2281.0439"
       style="font-style:normal;font-variant:normal;font-weight:normal;font-stretch:normal;line-height:0%;font-family:Lavi;-inkscape-font-specification:Lavi;text-align:center;letter-spacing:0px;word-spacing:0px;text-anchor:middle;fill:#000000;fill-opacity:1;stroke:none"
       xml:space="preserve"><tspan
         id="tspan1249-3"
         y="1178.2853"
         x="2281.0439"
         style="font-size:45px;line-height:1.2"
         sodipodi:role="line">...</tspan></text>
    <text
       inkscape:transform-center-y="17.013232"
       inkscape:transform-center-x="3.7807182"
       transform="matrix(0.91367473,0,-0.09878305,1.0944814,0,0)"
       id="text4246-10-27"
       y="1798.222"
       x="1196.4446"
       style="font-style:normal;font-variant:normal;font-weight:normal;font-stretch:normal;font-size:15.0351px;line-height:0%;font-family:Lavi;-inkscape-font-specification:Lavi;text-align:center;letter-spacing:0px;word-spacing:0px;text-anchor:middle;fill:#000000;fill-opacity:1;stroke:none;stroke-width:1"
       xml:space="preserve"><tspan
         id="tspan933-9"
         y="1798.222"
         x="1196.4446"
         style="font-style:normal;font-variant:normal;font-weight:bold;font-stretch:normal;font-size:50.117px;line-height:1.25;font-family:Lavi;-inkscape-font-specification:'Lavi Bold';stroke-width:1"
         sodipodi:role="line">OK...</tspan></text>
    <text
       id="text4246-10-3"
       y="2073.9829"
       x="929.70203"
       style="font-style:normal;font-variant:normal;font-weight:normal;font-stretch:normal;line-height:0%;font-family:Lavi;-inkscape-font-specification:Lavi;text-align:center;letter-spacing:0px;word-spacing:0px;text-anchor:middle;fill:#000000;fill-opacity:1;stroke:none"
       xml:space="preserve"><tspan
         id="tspan148"
         y="2073.9829"
         x="929.70203"
         style="font-size:40px;line-height:1.25"
         sodipodi:role="line">...hi a yll kavos</tspan><tspan
         id="tspan150"
         y="2123.9829"
         x="929.70203"
         style="font-size:40px;line-height:1.25"
         sodipodi:role="line">hy degre...</tspan></text>
    <text
       id="text4246-10-3-6"
       y="2223.302"
       x="983.44666"
       style="font-style:normal;font-variant:normal;font-weight:normal;font-stretch:normal;font-size:10.1415px;line-height:0%;font-family:Lavi;-inkscape-font-specification:Lavi;text-align:center;letter-spacing:0px;word-spacing:0px;text-anchor:middle;fill:#000000;fill-opacity:1;stroke:none;stroke-width:1"
       xml:space="preserve"><tspan
         id="tspan156"
         y="2223.302"
         x="983.44666"
         style="font-size:33.8049px;line-height:1.25;stroke-width:1"
         sodipodi:role="line">...mes orth nivel</tspan><tspan
         id="tspan154"
         y="2265.5581"
         x="983.44666"
         style="font-size:33.8049px;line-height:1.25;stroke-width:1"
         sodipodi:role="line">&quot;degemeradow&quot;.</tspan></text>
    <text
       transform="matrix(0.61655851,0.01619223,-0.10823975,0.68344058,2145.7387,697.18629)"
       id="text4246-85"
       y="2872.5061"
       x="-447.29675"
       style="font-style:normal;font-variant:normal;font-weight:normal;font-stretch:normal;line-height:0%;font-family:Lavi;-inkscape-font-specification:Lavi;text-align:center;letter-spacing:0px;word-spacing:0px;text-anchor:middle;display:inline;opacity:0.6;fill:#000000;fill-opacity:1;stroke:none;stroke-width:1.2757;filter:url(#filter4213)"
       xml:space="preserve"><tspan
         id="tspan4172"
         y="2872.5061"
         x="-447.29675"
         style="font-style:normal;font-variant:normal;font-weight:normal;font-stretch:normal;font-size:68.8156px;line-height:1.27;font-family:Fondamento;-inkscape-font-specification:Fondamento;stroke:#000000;stroke-width:1.46313;stroke-opacity:1"
         sodipodi:role="line">Degre</tspan></text>
    <text
       transform="matrix(0.40373651,0.01069834,-0.07087785,0.45155476,1932.3205,1396.5494)"
       id="text4246-85-4"
       y="2872.5061"
       x="-447.29675"
       style="font-style:normal;font-variant:normal;font-weight:normal;font-stretch:normal;line-height:0%;font-family:Lavi;-inkscape-font-specification:Lavi;text-align:center;letter-spacing:0px;word-spacing:0px;text-anchor:middle;display:inline;opacity:0.6;fill:#000000;fill-opacity:1;stroke:none;stroke-width:1.93946;filter:url(#filter4213-1)"
       xml:space="preserve"><tspan
         id="tspan4172-78"
         y="2872.5061"
         x="-447.29675"
         style="font-style:normal;font-variant:normal;font-weight:normal;font-stretch:normal;font-size:68.8156px;line-height:1.27;font-family:Fondamento;-inkscape-font-specification:Fondamento;stroke:#000000;stroke-width:2.22442;stroke-opacity:1"
         sodipodi:role="line">a</tspan></text>
    <text
       transform="matrix(0.50868854,0.04111458,-0.08930267,0.56819347,2027.5133,1108.2178)"
       id="text4246-85-3"
       y="2872.5061"
       x="-447.29675"
       style="font-style:normal;font-variant:normal;font-weight:normal;font-stretch:normal;line-height:0%;font-family:Lavi;-inkscape-font-specification:Lavi;text-align:center;letter-spacing:0px;word-spacing:0px;text-anchor:middle;display:inline;opacity:0.6;fill:#000000;fill-opacity:1;stroke:none;stroke-width:1.53381;filter:url(#filter4213-0)"
       xml:space="preserve"><tspan
         id="tspan4172-7"
         y="2872.5061"
         x="-447.29675"
         style="font-style:normal;font-variant:normal;font-weight:normal;font-stretch:normal;font-size:68.8156px;line-height:1.27;font-family:Fondamento;-inkscape-font-specification:Fondamento;stroke:#000000;stroke-width:1.75917;stroke-opacity:1"
         sodipodi:role="line">Chaosah</tspan></text>
    <text
       transform="matrix(0.52010547,-0.08051244,-0.02237175,0.62243785,1164.5527,1043.6516)"
       id="text4246-8-3-7-2"
       y="2924.6372"
       x="903.31201"
       style="font-style:normal;font-variant:normal;font-weight:normal;font-stretch:normal;line-height:0%;font-family:Lavi;-inkscape-font-specification:Lavi;text-align:center;letter-spacing:0px;word-spacing:0px;text-anchor:middle;display:inline;opacity:0.699;fill:#202020;fill-opacity:1;stroke:#000000;stroke-width:0.722881;stroke-miterlimit:4;stroke-dasharray:none;stroke-opacity:1;filter:url(#filter1266-5)"
       xml:space="preserve"><tspan
         id="tspan4150-8-6-5-2"
         y="2924.6372"
         x="903.31201"
         style="font-size:38.3128px;line-height:1.25;fill:#202020;fill-opacity:1;stroke:#000000;stroke-width:0.722881;stroke-miterlimit:4;stroke-dasharray:none;stroke-opacity:1"
         sodipodi:role="line">Cumin</tspan></text>
    <path
       sodipodi:nodetypes="cssccc"
       transform="rotate(7.8868356,1569.0759,2784.5832)"
       inkscape:connector-curvature="0"
       id="path1409"
       d="m 1547.1934,2802.853 c 3.8646,-3.5133 9.3102,-3.689 12.2965,-3.5133 2.9863,0.1757 7.0265,-4.7429 9.8371,-5.6212 2.8106,-0.8783 12.8234,0.1756 13.8774,-0.8783 1.054,-1.054 11.2425,-2.108 11.5938,-3.8646 0.3513,-1.7567 -0.086,-5.8644 -0.086,-5.8644"
       style="opacity:0.69899998;fill:none;fill-rule:evenodd;stroke:#202020;stroke-width:2.29999995;stroke-linecap:butt;stroke-linejoin:miter;stroke-miterlimit:4;stroke-dasharray:none;stroke-opacity:1;filter:url(#filter1639)" />
    <text
       transform="matrix(0.41826414,-0.24552176,0.14450977,0.63425309,687.71852,1181.2551)"
       id="text4246-8-3-7"
       y="2924.6372"
       x="903.31201"
       style="font-style:normal;font-variant:normal;font-weight:normal;font-stretch:normal;line-height:0%;font-family:Lavi;-inkscape-font-specification:Lavi;text-align:center;letter-spacing:0px;word-spacing:0px;text-anchor:middle;display:inline;opacity:0.699;fill:#202020;fill-opacity:1;stroke:#000000;stroke-width:0.747885;stroke-miterlimit:4;stroke-dasharray:none;stroke-opacity:1;filter:url(#filter1266)"
       xml:space="preserve"><tspan
         id="tspan4150-8-6-5"
         y="2924.6372"
         x="903.31201"
         style="font-style:normal;font-variant:normal;font-weight:normal;font-stretch:normal;font-size:51.0087px;line-height:1.25;font-family:Cursivah;-inkscape-font-specification:Cursivah;fill:#202020;fill-opacity:1;stroke:#000000;stroke-width:0.747885;stroke-miterlimit:4;stroke-dasharray:none;stroke-opacity:1"
         sodipodi:role="line">Cayenne</tspan></text>
    <path
       sodipodi:nodetypes="ccc"
       inkscape:connector-curvature="0"
       id="path910"
       d="m 1518.1939,2790.4659 c 0.8783,-6.4995 5.6852,-7.2186 2.699,3.8482 -2.9863,11.0668 -52.5234,35.3083 -52.5234,35.3083"
       style="opacity:0.69899998;vector-effect:none;fill:none;fill-opacity:1;fill-rule:evenodd;stroke:#202020;stroke-width:0.70999998;stroke-linecap:butt;stroke-linejoin:miter;stroke-miterlimit:4;stroke-dasharray:none;stroke-dashoffset:0;stroke-opacity:1;filter:url(#filter1395)" />
    <text
       transform="matrix(0.6182392,-0.01052647,-0.270757,0.58148539,1772.6628,1144.8642)"
       id="text4246-8-3-7-2-9"
       y="2924.6372"
       x="903.31201"
       style="font-style:normal;font-variant:normal;font-weight:normal;font-stretch:normal;line-height:0%;font-family:Lavi;-inkscape-font-specification:Lavi;text-align:center;letter-spacing:-0.0334897px;word-spacing:0px;text-anchor:middle;display:inline;opacity:0.699;fill:#202020;fill-opacity:1;stroke:#000000;stroke-width:0.686799;stroke-miterlimit:4;stroke-dasharray:none;stroke-opacity:1;filter:url(#filter1266-5-1)"
       xml:space="preserve"><tspan
         id="tspan4150-8-6-5-2-3"
         y="2924.6372"
         x="903.29529"
         style="font-style:normal;font-variant:normal;font-weight:normal;font-stretch:normal;font-size:38.3128px;line-height:1.25;font-family:Fondamento;-inkscape-font-specification:Fondamento;letter-spacing:-0.0334897px;fill:#202020;fill-opacity:1;stroke:#000000;stroke-width:0.686799;stroke-miterlimit:4;stroke-dasharray:none;stroke-opacity:1"
         sodipodi:role="line"><tspan
   id="tspan1399"
   style="font-size:53.5835px;letter-spacing:-6.69793px">T</tspan><tspan
   id="tspan1407"
   style="letter-spacing:-0.669793px">h</tspan>yme</tspan></text>
    <text
       transform="matrix(0.47831841,0.01305834,-0.01239099,0.55116529,1776.7967,1303.9127)"
       id="text4246-85-9-7"
       y="2872.5061"
       x="-447.29675"
       style="font-style:normal;font-variant:normal;font-weight:normal;font-stretch:normal;line-height:0%;font-family:Lavi;-inkscape-font-specification:Lavi;text-align:center;letter-spacing:0px;word-spacing:0px;text-anchor:middle;display:inline;opacity:0.6;fill:#000000;fill-opacity:1;stroke:none;stroke-width:1.61567;filter:url(#filter4213-8-8)"
       xml:space="preserve"><tspan
         id="tspan1120-6"
         y="2872.5061"
         x="-447.29675"
         style="font-style:normal;font-variant:normal;font-weight:normal;font-stretch:normal;font-size:49.1939px;line-height:1.27;font-family:Fondamento;-inkscape-font-specification:Fondamento;stroke:#000000;stroke-width:1.85306;stroke-opacity:1"
         sodipodi:role="line">~ rag Pepper ~</tspan></text>
    <text
       transform="matrix(0.55026081,0.01267562,-0.01425468,0.53501165,1808.7467,1385.9743)"
       id="text4246-85-9"
       y="2872.5061"
       x="-447.29675"
       style="font-style:normal;font-variant:normal;font-weight:normal;font-stretch:normal;line-height:0%;font-family:Lavi;-inkscape-font-specification:Lavi;text-align:center;letter-spacing:0px;word-spacing:0px;text-anchor:middle;display:inline;opacity:0.6;fill:#000000;fill-opacity:1;stroke:none;stroke-width:1.52893;filter:url(#filter4213-8)"
       xml:space="preserve"><tspan
         id="tspan1120"
         y="2872.5061"
         x="-447.29675"
         style="font-style:normal;font-variant:normal;font-weight:normal;font-stretch:normal;font-size:49.1939px;line-height:1.27;font-family:Fondamento;-inkscape-font-specification:Fondamento;stroke:#000000;stroke-width:1.75357;stroke-opacity:1"
         sodipodi:role="line">Gwragh</tspan><tspan
         id="tspan159"
         y="2934.9824"
         x="-447.29675"
         style="font-style:normal;font-variant:normal;font-weight:normal;font-stretch:normal;font-size:49.1939px;line-height:1.27;font-family:Fondamento;-inkscape-font-specification:Fondamento;stroke:#000000;stroke-width:1.75357;stroke-opacity:1"
         sodipodi:role="line">Sodhek</tspan></text>
    <text
       transform="matrix(0.85852879,0,-0.29243083,1.1647833,0,0)"
       id="text4213-7"
       y="2903.1548"
       x="2426.4905"
       style="font-style:normal;font-variant:normal;font-weight:normal;font-stretch:normal;font-size:10.7631px;line-height:0%;font-family:Lavi;-inkscape-font-specification:Lavi;text-align:center;letter-spacing:0px;word-spacing:0px;text-anchor:middle;display:inline;opacity:1;fill:#241c1c;fill-opacity:1;stroke:#000000;stroke-width:0;stroke-miterlimit:4;stroke-dasharray:none;stroke-opacity:1"
       xml:space="preserve"><tspan
         style="font-style:normal;font-variant:normal;font-weight:bold;font-stretch:normal;font-size:64.7408px;line-height:1.25;font-family:Lavi;-inkscape-font-specification:'Lavi Bold';fill:#000000;fill-opacity:1;stroke:none;stroke-width:0;stroke-miterlimit:4;stroke-dasharray:none"
         y="2903.1548"
         x="2426.4905"
         id="tspan3562-5"
         sodipodi:role="line">- FIN -</tspan></text>
  </g>
</svg>
