<?xml version="1.0" encoding="UTF-8" standalone="no"?>
<!-- Created with Inkscape (http://www.inkscape.org/) -->

<svg
   id="svg2"
   version="1.1"
   inkscape:version="1.3 (0e150ed6c4, 2023-07-21)"
   width="2481"
   height="663"
   sodipodi:docname="E31P00.svg"
   xmlns:inkscape="http://www.inkscape.org/namespaces/inkscape"
   xmlns:sodipodi="http://sodipodi.sourceforge.net/DTD/sodipodi-0.dtd"
   xmlns:xlink="http://www.w3.org/1999/xlink"
   xmlns="http://www.w3.org/2000/svg"
   xmlns:svg="http://www.w3.org/2000/svg"
   xmlns:rdf="http://www.w3.org/1999/02/22-rdf-syntax-ns#"
   xmlns:cc="http://creativecommons.org/ns#"
   xmlns:dc="http://purl.org/dc/elements/1.1/">
  <metadata
     id="metadata8">
    <rdf:RDF>
      <cc:Work
         rdf:about="">
        <dc:format>image/svg+xml</dc:format>
        <dc:type
           rdf:resource="http://purl.org/dc/dcmitype/StillImage" />
      </cc:Work>
    </rdf:RDF>
  </metadata>
  <defs
     id="defs6">
    <radialGradient
       inkscape:collect="always"
       xlink:href="#linearGradient821"
       id="radialGradient904"
       gradientUnits="userSpaceOnUse"
       gradientTransform="matrix(1,0,0,0.20575413,-710.34024,-304.09272)"
       cx="1229.9637"
       cy="729.06702"
       fx="1229.9637"
       fy="729.06702"
       r="778.86548" />
    <linearGradient
       inkscape:collect="always"
       id="linearGradient821">
      <stop
         style="stop-color:#9c7052;stop-opacity:1"
         offset="0"
         id="stop817" />
      <stop
         id="stop825"
         offset="0.47098562"
         style="stop-color:#311b0b;stop-opacity:0.99215686" />
      <stop
         style="stop-color:#384173;stop-opacity:0.98823529"
         offset="1"
         id="stop819" />
    </linearGradient>
    <filter
       style="color-interpolation-filters:sRGB"
       inkscape:label="Drop Shadow"
       id="filter1035"
       x="-0.0030883803"
       y="-0.029665865"
       width="1.0090272"
       height="1.0725801">
      <feFlood
         flood-opacity="1"
         flood-color="rgb(0,0,0)"
         result="flood"
         id="feFlood1025" />
      <feComposite
         in="flood"
         in2="SourceGraphic"
         operator="in"
         result="composite1"
         id="feComposite1027" />
      <feGaussianBlur
         in="composite1"
         stdDeviation="2.59067"
         result="blur"
         id="feGaussianBlur1029" />
      <feOffset
         dx="6.2"
         dy="3"
         result="offset"
         id="feOffset1031" />
      <feComposite
         in="SourceGraphic"
         in2="offset"
         operator="over"
         result="composite2"
         id="feComposite1033" />
    </filter>
    <radialGradient
       inkscape:collect="always"
       xlink:href="#linearGradient821"
       id="radialGradient1"
       gradientUnits="userSpaceOnUse"
       gradientTransform="matrix(1,0,0,0.20575413,516.78036,-112.53145)"
       cx="1229.9637"
       cy="729.06702"
       fx="1229.9637"
       fy="729.06702"
       r="778.86548" />
  </defs>
  <sodipodi:namedview
     pagecolor="#ffffff"
     bordercolor="#666666"
     borderopacity="1"
     objecttolerance="10"
     gridtolerance="10"
     guidetolerance="10"
     inkscape:pageopacity="0"
     inkscape:pageshadow="2"
     inkscape:window-width="1434"
     inkscape:window-height="747"
     id="namedview4"
     showgrid="false"
     inkscape:zoom="0.16292666"
     inkscape:cx="1132.4113"
     inkscape:cy="1681.7383"
     inkscape:window-x="243"
     inkscape:window-y="126"
     inkscape:window-maximized="0"
     inkscape:current-layer="layer1"
     inkscape:showpageshadow="2"
     inkscape:pagecheckerboard="0"
     inkscape:deskcolor="#d1d1d1" />
  <g
     inkscape:groupmode="layer"
     id="layer2"
     inkscape:label="artwork"
     sodipodi:insensitive="true">
    <image
       xlink:href="../gfx_Pepper-and-Carrot_by-David-Revoy_E31P00.png"
       y="0"
       x="0"
       id="image10"
       height="663"
       width="2481" />
  </g>
  <g
     inkscape:groupmode="layer"
     id="layer1"
     inkscape:label="txt"
     style="display:inline;opacity:1">
    <text
       xml:space="preserve"
       style="font-style:normal;font-variant:normal;font-weight:normal;font-stretch:normal;font-size:72.5px;line-height:1.25;font-family:Lavi;-inkscape-font-specification:'Lavi, Normal';font-variant-ligatures:normal;font-variant-caps:normal;font-variant-numeric:normal;font-feature-settings:normal;text-align:center;letter-spacing:0px;word-spacing:0px;writing-mode:lr-tb;text-anchor:middle;display:inline;fill:#340000;fill-opacity:1;stroke:none"
       x="1239.6681"
       y="582.47577"
       id="episode-title"><tspan
         sodipodi:role="line"
         id="tspan4180"
         x="1239.6681"
         y="582.47577">.i 31 mo'o lisri le nu damba</tspan></text>
    <g
       id="text14">
      <path
         style="color:#000000;-inkscape-font-specification:Risque;fill:#3c0000;-inkscape-stroke:none"
         d="m 210.43546,221.19481 -60.59724,8.09599 27.72262,12.02132 3.68,129.29049 -21.5893,16.92797 60.10658,-5.88799 -24.04264,-9.56799 z m 120.70405,91.26388 c 0,-31.15729 -18.39997,-47.83994 -42.93327,-49.0666 -13.00265,0 -29.19463,2.69866 -44.15994,21.09864 l -15.21065,-23.30664 10.05865,58.63459 c 7.60533,-23.55197 23.06131,-38.02662 39.98928,-38.02662 19.87197,0 25.75997,23.0613 27.4773,42.68794 -8.83199,-4.66132 -19.87197,-5.64265 -27.4773,-5.64265 -33.11995,0 -52.74659,18.39997 -52.74659,38.02661 0,21.09864 12.75731,34.83728 39.74394,32.87462 16.43731,-1.22667 28.70396,-7.35999 38.27195,-19.38131 l -2.69866,14.71998 45.14127,1.96267 -25.51463,-17.90931 c 5.88799,-16.19198 10.05865,-39.98928 10.05865,-56.67192 z m -24.77863,38.27194 c -7.35999,12.51199 -19.87197,24.28797 -35.08262,24.28797 -11.53065,0 -17.66398,-6.37866 -17.66398,-18.64531 0,-11.03998 8.58666,-23.30663 26.7413,-24.04263 2.208,0 14.96531,0 26.49596,4.41599 v 1.472 c 0,3.92533 -0.24533,8.09599 -0.49066,12.51198 z m 146.95444,29.43996 c 0,-10.79465 -12.02132,-15.21064 -18.15464,-15.21064 -6.62399,0 -18.15464,4.41599 -18.15464,15.21064 0,10.30399 11.53065,14.47465 18.15464,14.47465 6.13332,0 18.15464,-4.17066 18.15464,-14.47465 z m 51.02944,-113.34384 -49.55727,8.34132 21.83464,8.58666 4.90666,128.30915 -18.15464,18.15464 58.87992,-10.05865 -24.04264,-13.00265 1.22667,-26.98663 c 7.60532,7.35999 18.39997,11.77599 30.42129,11.77599 27.96796,0 50.29326,-22.32531 50.29326,-66.97591 0,-36.79995 -21.09864,-57.40792 -45.87727,-58.14392 -13.24798,0 -23.30663,6.62399 -30.66662,15.45598 z m 26.25063,15.21065 c 14.71998,0 22.3253,17.66397 22.3253,40.23461 0,30.66662 -9.07732,53.72792 -30.91196,53.72792 -9.07732,0 -16.68264,-5.88799 -21.83463,-13.73865 l 2.45333,-59.61591 c 10.30398,-18.64531 23.55196,-20.60797 27.96796,-20.60797 z m 121.685,97.64253 -25.75996,-15.94665 9.32265,-96.17053 -51.51993,8.83199 22.07997,14.47464 4.17066,82.67722 -18.89064,14.71998 z M 637.06974,238.61346 c 0,-9.81332 -8.34132,-17.66398 -17.9093,-17.66398 -10.05866,0 -18.15465,7.85066 -18.15465,17.66398 0,9.56798 8.09599,17.66397 18.15465,17.66397 9.56798,0 17.9093,-8.09599 17.9093,-17.66397 z m 56.67193,28.21329 -49.55727,8.34132 21.83464,8.58666 4.90666,128.30915 -18.15464,18.15464 58.87992,-10.05865 -24.04264,-13.00265 1.22667,-26.98663 c 7.60532,7.35999 18.39997,11.77599 30.42129,11.77599 27.96796,0 50.29326,-22.32531 50.29326,-66.97591 0,-36.79995 -21.09863,-57.40792 -45.87727,-58.14392 -13.24798,0 -23.30663,6.62399 -30.66662,15.45598 z m 26.25063,15.21065 c 14.71998,0 22.3253,17.66397 22.3253,40.23461 0,30.66662 -9.07732,53.72792 -30.91196,53.72792 -9.07732,0 -16.68264,-5.88799 -21.83463,-13.73865 l 2.45333,-59.61591 c 10.30398,-18.64531 23.55197,-20.60797 27.96796,-20.60797 z m 169.52497,39.98927 c -2.208,-28.70396 -20.85331,-54.95459 -47.10394,-56.67192 -37.78128,-2.45333 -58.63458,24.04264 -58.63458,60.59725 0,35.81862 20.8533,65.01324 55.93592,65.01324 26.25063,0 45.14127,-14.47464 45.14127,-29.68529 0,-6.62399 -2.208,-15.21064 -11.28532,-18.6453 2.69866,15.70131 -8.58665,36.30928 -30.91196,36.30928 -16.92797,0 -26.74129,-18.15464 -30.91195,-35.81862 z m -79.97856,1.71733 c 0,-20.60797 5.88799,-45.14127 25.75996,-45.14127 8.83199,0 20.11731,9.56799 26.98663,32.62929 L 809.78404,330.368 c -0.24533,-2.208 -0.24533,-4.416 -0.24533,-6.624 z m 190.86889,-47.10393 c -16.19193,-16.68264 -41.46123,-9.81332 -41.46123,-9.81332 0,0 -13.49331,3.68 -24.77863,16.92798 l -0.49067,-14.96532 -41.21594,7.85066 25.51463,11.53065 -6.62399,83.41322 -16.43731,16.68264 63.54124,-5.64266 -21.5893,-10.79465 -2.208,-69.42924 c 9.81332,-12.51198 18.15465,-14.71997 18.15465,-14.71997 0,0 26.25063,-6.13333 31.89328,17.66397 z m 30.912,103.53052 c 0,-10.79465 -12.0213,-15.21064 -18.1546,-15.21064 -6.624,0 -18.15467,4.41599 -18.15467,15.21064 0,10.30399 11.53067,14.47465 18.15467,14.47465 6.1333,0 18.1546,-4.17066 18.1546,-14.47465 z m 60.8429,30.66663 c -7.8506,0 -20.3626,-2.944 -30.6666,-18.39998 l 13.984,50.78393 5.6426,-21.09864 c 5.152,1.96267 10.304,2.45333 14.72,2.45333 41.9519,0 53.2373,-45.14127 53.2373,-89.79187 0,-23.7973 -2.6987,-52.01059 -6.1334,-68.44791 l -47.5946,9.32266 30.912,13.24798 c -0.2453,31.89329 0.4907,121.9305 -34.1013,121.9305 z m 54.7093,-171.48776 c 0,-8.83199 -6.8694,-16.19198 -16.192,-16.19198 -8.832,0 -15.9467,7.35999 -15.9467,16.19198 0,9.07732 7.1147,16.43731 15.9467,16.43731 9.3226,0 16.192,-7.35999 16.192,-16.43731 z m 21.5893,87.58387 c 0,40.47995 27.4773,63.54125 58.6345,63.54125 32.6293,0 57.6533,-25.02397 55.2,-64.27725 -2.208,-36.79994 -24.5333,-61.82391 -56.672,-61.82391 -33.3652,0 -57.1625,26.7413 -57.1625,62.55991 z m 29.4399,1.96267 c 0,-28.70396 17.664,-45.87727 35.8186,-45.87727 20.3627,0 35.328,21.34397 35.328,47.5946 0,26.49596 -14.9653,44.15994 -34.592,44.15994 -19.3813,0 -36.5546,-17.66398 -36.5546,-45.87727 z m 154.8054,50.78393 -25.76,-15.94665 9.3227,-96.17053 -51.52,8.83199 22.08,14.47464 4.1707,82.67722 -18.8907,14.71998 z m -15.2107,-141.06647 c 0,-9.81332 -8.3413,-17.66398 -17.9093,-17.66398 -10.0586,0 -18.1546,7.85066 -18.1546,17.66398 0,9.56798 8.096,17.66397 18.1546,17.66397 9.568,0 17.9093,-8.09599 17.9093,-17.66397 z m 124.8747,-17.41865 -60.5972,8.09599 27.7226,12.02132 3.68,129.29049 -21.5893,16.92797 60.1066,-5.88799 -24.0427,-9.56799 z m 120.704,91.26388 c 0,-31.15729 -18.4,-47.83994 -42.9333,-49.0666 -13.0026,0 -29.1946,2.69866 -44.1599,21.09864 l -15.2107,-23.30664 10.0587,58.63459 c 7.6053,-23.55197 23.0613,-38.02662 39.9893,-38.02662 19.8719,0 25.7599,23.0613 27.4773,42.68794 -8.832,-4.66132 -19.872,-5.64265 -27.4773,-5.64265 -33.12,0 -52.7466,18.39997 -52.7466,38.02661 0,21.09864 12.7573,34.83728 39.7439,32.87462 16.4373,-1.22667 28.704,-7.35999 38.272,-19.38131 l -2.6987,14.71998 45.1413,1.96267 -25.5147,-17.90931 c 5.888,-16.19198 10.0587,-39.98928 10.0587,-56.67192 z m -24.7786,38.27194 c -7.36,12.51199 -19.872,24.28797 -35.0827,24.28797 -11.5306,0 -17.6639,-6.37866 -17.6639,-18.64531 0,-11.03998 8.5866,-23.30663 26.7413,-24.04263 2.208,0 14.9653,0 26.4959,4.41599 v 1.472 c 0,3.92533 -0.2453,8.09599 -0.4906,12.51198 z m 146.9544,29.43996 c 0,-10.79465 -12.0213,-15.21064 -18.1546,-15.21064 -6.624,0 -18.1547,4.41599 -18.1547,15.21064 0,10.30399 11.5307,14.47465 18.1547,14.47465 6.1333,0 18.1546,-4.17066 18.1546,-14.47465 z m 68.448,-113.09851 13.7386,15.21065 -33.6106,42.93327 -0.736,-108.43718 -42.4426,7.11466 26.7413,13.24798 -8.5867,133.46115 -18.3999,14.96531 h 59.8612 l -15.9466,-13.24798 -0.2454,-23.0613 c 27.968,39.49861 48.576,40.72527 48.576,40.72527 5.888,0 24.0426,-10.05865 29.9306,-45.63193 -14.72,19.62664 -27.7226,19.62664 -27.7226,19.62664 0,0 -17.4187,4.90666 -43.1786,-26.25063 l 51.0292,-48.57594 24.7787,-8.58665 z m 169.7704,45.38661 c 0,-31.15729 -18.4,-47.83994 -42.9333,-49.0666 -13.0027,0 -29.1946,2.69866 -44.16,21.09864 l -15.2106,-23.30664 10.0586,58.63459 c 7.6054,-23.55197 23.0613,-38.02662 39.9893,-38.02662 19.872,0 25.76,23.0613 27.4773,42.68794 -8.832,-4.66132 -19.872,-5.64265 -27.4773,-5.64265 -33.1199,0 -52.7466,18.39997 -52.7466,38.02661 0,21.09864 12.7573,34.83728 39.744,32.87462 16.4373,-1.22667 28.7039,-7.35999 38.2719,-19.38131 l -2.6986,14.71998 45.1412,1.96267 -25.5146,-17.90931 c 5.888,-16.19198 10.0587,-39.98928 10.0587,-56.67192 z m -24.7787,38.27194 c -7.36,12.51199 -19.872,24.28797 -35.0826,24.28797 -11.5307,0 -17.664,-6.37866 -17.664,-18.64531 0,-11.03998 8.5867,-23.30663 26.7413,-24.04263 2.208,0 14.9653,0 26.496,4.41599 v 1.472 c 0,3.92533 -0.2453,8.09599 -0.4907,12.51198 z m 144.2558,-74.09056 c -16.192,-16.68264 -41.4613,-9.81332 -41.4613,-9.81332 0,0 -13.4933,3.68 -24.7786,16.92798 l -0.4907,-14.96532 -41.2159,7.85066 25.5146,11.53065 -6.624,83.41322 -16.4373,16.68264 63.5412,-5.64266 -21.5893,-10.79465 -2.208,-69.42924 c 9.8133,-12.51198 18.1547,-14.71997 18.1547,-14.71997 0,0 26.2506,-6.13333 31.8933,17.66397 z m 0.4908,50.29326 c 0,40.47995 27.4773,63.54125 58.6345,63.54125 32.6293,0 57.6533,-25.02397 55.2,-64.27725 -2.208,-36.79994 -24.5333,-61.82391 -56.672,-61.82391 -33.3652,0 -57.1625,26.7413 -57.1625,62.55991 z m 29.4399,1.96267 c 0,-28.70396 17.664,-45.87727 35.8186,-45.87727 20.3627,0 35.328,21.34397 35.328,47.5946 0,26.49596 -14.9653,44.15994 -34.592,44.15994 -19.3813,0 -36.5546,-17.66398 -36.5546,-45.87727 z m 105.9842,5.64266 c 0,50.53859 35.3279,58.38925 50.5386,58.38925 16.928,0 30.1759,-10.30399 30.1759,-28.94929 0,-9.07733 -3.68,-17.66398 -10.5493,-21.09864 0.4907,2.69866 0.736,5.64266 0.736,8.58665 0,12.75732 -5.3973,27.23197 -21.5893,27.23197 -17.4186,0 -25.024,-20.11731 -25.024,-52.0106 0,0 0.4907,-13.49331 4.9067,-36.55462 l 45.1413,-3.18932 6.1333,-14.47465 -46.6133,-3.92533 c 2.944,-11.77598 6.624,-24.77863 11.2854,-39.49861 l -58.3893,63.78658 20.608,-1.22667 c -3.68,12.26665 -7.36,27.96796 -7.36,42.93328 z m 126.101,45.63193 c 0,-10.79465 -12.0213,-15.21064 -18.1546,-15.21064 -6.624,0 -18.1546,4.41599 -18.1546,15.21064 0,10.30399 11.5306,14.47465 18.1546,14.47465 6.1333,0 18.1546,-4.17066 18.1546,-14.47465 z"
         id="path1" />
      <path
         style="color:#000000;-inkscape-font-specification:Risque;fill:#000000;-inkscape-stroke:none"
         d="m 1753.5859,216.18945 -44.5449,7.4668 27.8281,13.78516 -8.5527,132.91015 -19.3203,15.7168 h 62.6523 l -16.8339,-13.98438 -0.2266,-21.34179 c 13.615,18.92085 25.4825,28.9543 34,34.11914 4.3579,2.64258 7.8474,4.04666 10.2559,4.79101 2.4084,0.74436 3.7734,0.83008 3.7734,0.83008 l 0.016,0.002 h 0.016 c 3.2288,0 9.2643,-2.60935 15.3438,-9.65039 6.0795,-7.04103 12.1238,-18.53958 15.0801,-36.40039 l -0.8946,-0.38086 c -7.3176,9.75678 -14.1816,14.6043 -19.1972,17.02149 -5.0157,2.41719 -8.125,2.4043 -8.125,2.4043 h -0.068 l -0.066,0.0195 c 0,0 -0.9995,0.2859 -2.9824,0.25976 -1.983,-0.0261 -4.9101,-0.37536 -8.6465,-1.6914 -7.409,-2.60966 -18.0237,-9.07302 -30.7148,-24.31446 l 50.5957,-48.16211 26.3769,-9.14062 -67.0547,-14.18555 1.0313,1.14258 13.457,14.90039 -32.4668,41.4707 z m -0.9921,1.17969 0.7421,109.28516 34.7539,-44.39453 -12.9882,-14.38086 60.5195,12.80273 -23.1816,8.0332 -51.4454,48.97266 0.2969,0.35937 c 12.9234,15.63122 23.7922,22.259 31.4688,24.9629 3.8383,1.35194 6.8768,1.72052 8.9648,1.74804 2.0881,0.0275 3.2656,-0.29883 3.2656,-0.29883 l -0.1347,0.0195 c 0,0 3.3929,-0.0125 8.5586,-2.50196 4.8483,-2.33657 11.3287,-7.01596 18.2246,-15.72265 -3.0459,16.48819 -8.7058,27.32787 -14.4043,33.92773 -5.9327,6.871 -11.9049,9.29138 -14.5703,9.29883 -0.01,-5.4e-4 -1.205,-0.0661 -3.5254,-0.7832 -2.3296,-0.71998 -5.7412,-2.09 -10.0313,-4.69141 -8.5801,-5.20282 -20.675,-15.3331 -34.6269,-35.03711 l -0.9258,-1.30469 0.2656,24.89258 15.0586,12.51172 h -57.0703 l 17.4785,-14.21484 8.6231,-134.01172 -25.6563,-12.71094 z m -1133.43364,3.08008 c -10.31882,0 -18.6543,8.07575 -18.6543,18.16406 0,9.85002 8.32735,18.16406 18.6543,18.16406 9.85002,0 18.41015,-8.30549 18.41015,-18.16406 0,-10.09664 -8.56868,-18.16406 -18.41015,-18.16406 z m 700.42574,0 c -10.3187,0 -18.6543,8.07575 -18.6543,18.16406 0,9.85002 8.3275,18.16406 18.6543,18.16406 9.8501,0 18.4102,-8.30549 18.4102,-18.16406 0,-10.09664 -8.5687,-18.16406 -18.4102,-18.16406 z m -1108.59176,0.16601 -0.625,0.084 -62.38086,8.33398 29.08203,12.61133 3.66406,128.7207 -22.74023,17.83008 61.8125,-6.05469 0.13672,-0.96289 L 196.25,371.75 Z m 1251.93556,0 -0.625,0.084 -62.3809,8.33398 29.0821,12.61133 3.6621,128.7207 -22.7403,17.83008 61.8145,-6.05469 0.1367,-0.96289 -23.6953,-9.42773 z m -843.76954,0.83399 c 9.29446,0 17.41015,7.63408 17.41015,17.16406 0,9.27737 -8.12423,17.16406 -17.41015,17.16406 -9.79036,0 -17.6543,-7.87814 -17.6543,-17.16406 0,-9.53831 7.85581,-17.16406 17.6543,-17.16406 z m 700.42574,0 c 9.2945,0 17.4102,7.63408 17.4102,17.16406 0,9.27737 -8.1242,17.16406 -17.4102,17.16406 -9.7903,0 -17.6543,-7.87814 -17.6543,-17.16406 0,-9.53831 7.8559,-17.16406 17.6543,-17.16406 z m -1109.70895,0.32422 -14.69531,150.62695 22.47852,8.94531 -56.34961,5.51953 20.4375,-16.02539 -3.69727,-129.85937 -26.36133,-11.43164 z m 1251.93555,0 -14.6953,150.62695 22.4766,8.94531 -56.3497,5.51953 20.4395,-16.02539 -3.6973,-129.85937 -26.3613,-11.43164 z m -331.1328,0.88476 c -9.1098,0 -16.4473,7.59091 -16.4473,16.69141 0,9.33857 7.3375,16.9375 16.4473,16.9375 9.5857,0 16.6914,-7.60793 16.6914,-16.9375 0,-9.09124 -7.1057,-16.69141 -16.6914,-16.69141 z m 0,1 c 9.0594,0 15.6914,7.11869 15.6914,15.69141 0,8.82506 -6.632,15.9375 -15.6914,15.9375 -8.5542,0 -15.4473,-7.12145 -15.4473,-15.9375 0,-8.56346 6.8931,-15.69141 15.4473,-15.69141 z m 1112.9531,5.04883 -59.2226,64.69727 21.1425,-1.25782 c -3.622,12.19352 -7.1914,27.60844 -7.1914,42.39258 0,25.38578 8.9065,40.17042 19.7598,48.54297 10.8533,8.37255 23.586,10.3457 31.2773,10.3457 8.5655,0 16.2372,-2.6085 21.7715,-7.61132 5.5344,-5.00283 8.9043,-12.39683 8.9043,-21.83789 0,-9.21246 -3.7207,-17.99314 -10.8242,-21.54493 l -0.8945,-0.44726 0.1777,0.98242 c 0.4845,2.66454 0.7285,5.58183 0.7285,8.49805 0,6.30814 -1.3441,13.03121 -4.6426,18.1289 -3.2985,5.0977 -8.5002,8.60352 -16.4472,8.60352 -8.5168,0 -14.5596,-4.84729 -18.5879,-13.75195 -4.0266,-8.90085 -5.9339,-21.84272 -5.9356,-37.74024 v -0.006 c 3e-4,-0.008 0.4997,-13.32874 4.834,-36.0957 l 45.0547,-3.1836 6.5215,-15.39257 -46.7051,-3.9336 c 2.9185,-11.62196 6.5376,-24.41217 11.125,-38.89843 z M 2242.8906,231 c -4.3354,13.82229 -7.862,26.22946 -10.6601,37.42187 l -0.1407,0.57032 46.5098,3.91601 -5.7441,13.5586 -45.2188,3.19531 -0.072,0.37695 c -4.4215,23.08995 -4.9161,36.63086 -4.9161,36.63086 v 0.01 0.008 c 0,15.98637 1.8964,29.04458 6.0254,38.17187 4.1291,9.1273 10.5963,14.33985 19.4981,14.33985 8.245,0 13.8389,-3.7316 17.2871,-9.06055 3.4481,-5.32895 4.8027,-12.22271 4.8027,-18.67187 0,-2.6145 -0.2699,-5.1811 -0.6543,-7.63282 6.1032,3.58391 9.4668,11.58594 9.4668,20.14454 0,9.20422 -3.2526,16.28521 -8.5742,21.0957 -5.3216,4.81049 -12.739,7.35351 -21.1016,7.35351 -7.5193,0 -20.0546,-1.95126 -30.6679,-10.13867 -10.6133,-8.18741 -19.3692,-22.59723 -19.3692,-47.75 0,-14.88334 3.6653,-30.54703 7.3379,-42.78906 l 0.2051,-0.68555 -20.0898,1.19336 z m -2013.63669,29.91016 -0.91016,0.35937 10.05859,58.63281 0.9668,0.0703 c 7.56286,-23.42045 22.87074,-37.67969 39.51367,-37.67969 9.74256,0 15.9822,5.59141 20.10156,13.70898 4.00529,7.89277 5.89381,18.14446 6.78321,27.69727 -8.81307,-4.37759 -19.46095,-5.36133 -26.88477,-5.36133 -33.3051,0 -53.24609,18.56544 -53.24609,38.52539 0,10.65009 3.23243,19.5215 9.91992,25.45899 6.68749,5.93749 16.77816,8.90192 30.36133,7.91406 15.87514,-1.18472 27.94084,-7.01634 37.41601,-18.19141 l -2.47461,13.50781 47.42383,2.06055 -26.61914,-18.68359 c 5.85072,-16.2589 9.97461,-39.82098 9.97461,-56.47071 0,-15.67705 -4.63675,-27.77698 -12.40039,-36.09961 -7.76364,-8.32262 -18.63449,-12.84813 -31.00781,-13.46679 h -0.0117 -0.0117 c -12.94133,0 -29.15623,2.76175 -44.09375,20.78515 z m 1251.93559,0 -0.9122,0.35937 10.0586,58.63281 0.9688,0.0703 c 7.5628,-23.42045 22.8707,-37.67969 39.5137,-37.67969 9.7425,0 15.9822,5.59141 20.1015,13.70898 4.005,7.89224 5.8918,18.14306 6.7813,27.69532 -8.8127,-4.37662 -19.4597,-5.35938 -26.8828,-5.35938 -33.3052,0 -53.2461,18.56544 -53.2461,38.52539 0,10.65009 3.2324,19.5215 9.9199,25.45899 6.6875,5.93749 16.7762,8.90192 30.3594,7.91406 h 0 c 15.876,-1.18478 27.9406,-7.01711 37.416,-18.19336 l -2.4765,13.50976 47.4258,2.06055 -26.6192,-18.68359 c 5.8507,-16.2589 9.9746,-39.82098 9.9746,-56.47071 0,-15.67705 -4.6367,-27.77698 -12.4004,-36.09961 -7.7636,-8.32262 -18.6345,-12.84813 -31.0078,-13.46679 h -0.012 -0.014 c -12.9412,0 -29.1543,2.76182 -44.0918,20.78515 z m 360.3945,0 -0.9121,0.35937 10.0586,58.63281 0.9687,0.0703 c 7.5629,-23.42045 22.8707,-37.67969 39.5137,-37.67969 9.7426,0 15.9802,5.59141 20.0996,13.70898 4.005,7.89224 5.8937,18.14306 6.7832,27.69532 -8.8126,-4.37662 -19.4597,-5.35938 -26.8828,-5.35938 -33.3051,0 -53.2461,18.56544 -53.2461,38.52539 0,10.65009 3.2324,19.5215 9.9199,25.45899 6.6875,5.93749 16.7762,8.90192 30.3594,7.91406 h 0 c 15.876,-1.18478 27.9407,-7.01711 37.4161,-18.19336 l -2.4766,13.50976 44.3379,1.92579 -1.3848,1.40625 66.6543,-5.91797 -22.9004,-11.45118 -2.1933,-68.92773 c 4.8277,-6.12206 9.2827,-9.74918 12.5215,-11.81836 3.265,-2.08597 5.2558,-2.60547 5.2558,-2.60547 0.021,-0.005 6.472,-1.50058 13.6055,-0.0859 7.1453,1.417 14.8948,5.66098 17.6738,17.38086 l 0.3008,1.26758 16.5019,-30.16992 -0.2558,-0.26562 c -16.4208,-16.91841 -41.9512,-9.94727 -41.9512,-9.94727 0,0 -12.9821,3.61385 -24.1875,16.20117 l -0.4707,-14.35547 -43.3418,8.25586 26.6348,12.03711 -6.582,82.88086 -14.6954,14.91406 -24.7187,-17.34961 c 5.8504,-16.25884 9.9766,-39.81957 9.9766,-56.46875 0,-15.67705 -4.6368,-27.77698 -12.4004,-36.09961 -7.7637,-8.32262 -18.6345,-12.84813 -31.0079,-13.46679 h -0.014 -0.012 c -12.9414,0 -29.1543,2.76182 -44.0918,20.78515 z m -1611.84767,2.57031 14.26562,21.85742 0.43164,-0.53125 c 14.86617,-18.27808 30.83348,-20.91306 43.76563,-20.91406 12.15234,0.61149 22.74271,5.03976 30.30859,13.15039 7.56966,8.11467 12.13086,19.93581 12.13086,35.41601 0,16.59929 -4.16721,40.38464 -10.02734,56.5 l -0.13086,0.36133 24.42773,17.14649 -42.85937,-1.86328 2.5957,-14.15625 -0.88281,-0.40235 c -9.48991,11.92322 -21.58561,17.97648 -37.91797,19.19531 -13.40344,0.9748 -23.18524,-1.94825 -29.62305,-7.66406 -6.43781,-5.71581 -9.58398,-14.26435 -9.58398,-24.71289 0,-19.29329 19.31136,-37.52539 52.24609,-37.52539 7.56231,0 18.53865,0.98943 27.24414,5.58398 l 0.8125,0.42774 -0.0801,-0.91406 c -0.8615,-9.8458 -2.76047,-20.567 -6.98242,-28.88672 -4.22195,-8.31972 -10.86475,-14.25586 -20.99414,-14.25586 -16.77274,0 -31.95997,14.01677 -39.80469,36.64258 z m 1251.93557,0 14.2656,21.85742 0.4316,-0.53125 c 14.8662,-18.27808 30.8316,-20.91306 43.7637,-20.91406 12.1524,0.61149 22.7427,5.03976 30.3086,13.15039 7.5697,8.11467 12.1328,19.93581 12.1328,35.41601 0,16.59929 -4.1691,40.38464 -10.0293,56.5 l -0.1308,0.36133 24.4277,17.14649 -42.8574,-1.86328 2.5957,-14.15625 -0.8828,-0.40235 c -9.49,11.92322 -21.5857,17.97648 -37.918,19.19531 -13.4034,0.9748 -23.1852,-1.94825 -29.623,-7.66406 -6.4379,-5.71581 -9.584,-14.26435 -9.584,-24.71289 0,-19.29329 19.3113,-37.52539 52.2461,-37.52539 7.5622,0 18.5386,0.98943 27.2441,5.58398 l 0.8105,0.42774 -0.08,-0.91406 c -0.8616,-9.8458 -2.7605,-20.567 -6.9825,-28.88672 -4.2219,-8.31972 -10.8628,-14.25586 -20.9921,-14.25586 -16.7728,0 -31.96,14.01677 -39.8047,36.64258 z m 360.3945,0 14.2637,21.85742 0.4336,-0.53125 c 14.8662,-18.27808 30.8314,-20.91306 43.7636,-20.91406 12.1524,0.61149 22.7427,5.03976 30.3086,13.15039 7.5697,8.11467 12.1329,19.93581 12.1329,35.41601 0,16.59929 -4.1692,40.38464 -10.0293,56.5 l -0.1309,0.36133 24.4277,17.14649 -42.8574,-1.86328 2.5957,-14.15625 -0.8848,-0.40235 c -9.4899,11.92323 -21.5856,17.97648 -37.9179,19.19531 -13.4024,0.97434 -23.1836,-1.94854 -29.6211,-7.66406 -6.4378,-5.71581 -9.584,-14.26435 -9.584,-24.71289 0,-19.29329 19.3114,-37.52539 52.2461,-37.52539 7.5623,0 18.5386,0.98943 27.2441,5.58398 l 0.8106,0.42774 -0.08,-0.91406 c -0.8615,-9.8458 -2.7605,-20.567 -6.9824,-28.88672 -4.222,-8.31972 -10.8628,-14.25586 -20.9922,-14.25586 -16.7728,0 -31.9599,14.01677 -39.8047,36.64258 z m -616.4434,0.39258 c -33.6323,0 -57.6621,27.02051 -57.6621,63.06054 0,40.70618 27.7309,64.04102 59.1348,64.04102 16.4425,0 31.0019,-6.31325 41.127,-17.58399 10.1247,-11.27035 15.8054,-27.4847 14.5722,-47.22265 v -0.002 c -1.1099,-18.49288 -7.2783,-34.06349 -17.2422,-45.01758 -9.9642,-10.95449 -23.7305,-17.27539 -39.9297,-17.27539 z m 894.9766,0 c -33.6323,0 -57.6641,27.02051 -57.6641,63.06054 0,40.70618 27.7309,64.04102 59.1348,64.04102 16.4425,0 31.0038,-6.31325 41.1289,-17.58399 10.1248,-11.27035 15.8035,-27.4847 14.5703,-47.22265 v -0.002 c -1.1099,-18.49288 -7.2763,-34.06349 -17.2402,-45.01758 -9.9643,-10.95449 -23.7306,-17.27539 -39.9297,-17.27539 z m -1285.08593,0.85742 c -15.71379,0.48463 -28.17072,6.33219 -36.95508,15.95703 -10.03926,10.99982 -15.27929,26.89131 -15.27929,45.26367 0,18.00633 5.23885,34.37397 14.92382,46.25586 9.68498,11.88189 23.83174,19.25781 41.51172,19.25781 13.21721,0 24.59849,-3.63985 32.69922,-9.22656 8.10073,-5.58671 12.94141,-13.14668 12.94141,-20.95898 0,-3.36755 -0.55785,-7.2424 -2.29102,-10.74024 -1.73316,-3.49784 -4.66131,-6.60971 -9.3164,-8.37109 l -0.81836,-0.31055 0.14843,0.86133 c 1.32344,7.69998 -0.78833,16.65682 -5.98046,23.66016 -5.19213,7.00334 -13.43066,12.06445 -24.43946,12.06445 -8.28523,0 -14.81102,-4.42123 -19.83984,-11.08594 -4.93958,-6.54643 -8.37074,-15.24957 -10.45703,-23.88086 l 77.68554,-21.07617 -0.0312,-0.41211 c -1.11135,-14.44765 -6.35425,-28.27533 -14.64257,-38.72851 -8.28833,-10.45319 -19.64453,-17.53531 -32.92774,-18.4043 -2.37659,-0.15433 -4.68681,-0.19423 -6.93164,-0.125 z m 390.10933,0.14258 c 15.9396,0 29.4064,6.19175 39.1915,16.94922 9.785,10.75746 15.884,26.09814 16.9824,44.40429 v 0.002 c 1.2196,19.51438 -4.3855,35.43959 -14.3164,46.49414 -9.9309,11.05454 -24.198,17.25195 -40.3848,17.25195 -30.9104,0 -58.1348,-22.78737 -58.1348,-63.04102 0,-35.59711 23.5641,-62.06054 56.6621,-62.06054 z m 894.9766,0 c 15.9396,0 29.4044,6.19175 39.1895,16.94922 9.785,10.75746 15.884,26.09814 16.9824,44.40429 v 0.002 c 1.2196,19.51438 -4.3855,35.43959 -14.3164,46.49414 -9.9309,11.05454 -24.198,17.25195 -40.3848,17.25195 -30.9104,0 -58.1348,-22.78737 -58.1348,-63.04102 0,-35.59711 23.5661,-62.06054 56.6641,-62.06054 z m -1146.96679,0.10156 c -8.43519,-0.37209 -14.81836,1.36914 -14.81836,1.36914 0,0 -12.98015,3.61385 -24.18554,16.20117 l -0.47071,-14.35547 -43.34375,8.25586 26.63477,12.03711 -6.58203,82.88086 -17.26367,17.52149 66.65429,-5.91797 -22.90039,-11.45118 -2.19336,-68.92773 c 4.8277,-6.12204 9.28277,-9.74918 12.52149,-11.81836 3.26499,-2.08597 5.25586,-2.60547 5.25586,-2.60547 0.0214,-0.005 6.47202,-1.50058 13.60546,-0.0859 7.14528,1.417 14.89489,5.66098 17.67383,17.38086 l 0.29883,1.26758 16.50387,-30.16992 -0.2578,-0.26562 c -8.21036,-8.45921 -18.6976,-10.94432 -27.13279,-11.31641 z m -138.08789,0.75391 c 2.21141,-0.0672 4.48987,-0.0274 6.83594,0.125 12.96739,0.84833 24.06002,7.74991 32.20898,18.02734 8.07078,10.17882 13.20546,23.67158 14.36914,37.7793 l -77.81054,21.10937 0.11133,0.4707 c 2.09667,8.88006 5.60728,17.89016 10.75976,24.71875 5.15249,6.8286 11.99595,11.48438 20.63867,11.48438 11.31649,0 19.88501,-5.24279 25.24219,-12.46875 5.16106,-6.96144 7.29132,-15.73082 6.2168,-23.51953 3.96562,1.70826 6.51112,4.4161 8.05273,7.52734 1.64016,3.31014 2.18555,7.04044 2.18555,10.29688 0,7.39833 -4.60254,14.6815 -12.50977,20.13476 -7.90723,5.45326 -19.09745,9.05078 -32.13086,9.05078 -17.40259,0 -31.22402,-7.22057 -40.73632,-18.89062 -9.51231,-11.67005 -14.69922,-27.81079 -14.69922,-45.62305 0,-18.18221 5.18489,-33.81442 15.01757,-44.58789 8.6036,-9.42678 20.76816,-15.16429 36.24805,-15.63476 z m 307.78908,0.0215 -49.6699,9.73047 32.0937,13.7539 c -0.1197,16.01958 -0.018,46.21833 -4.1582,72.51954 -2.0806,13.21813 -5.2377,25.42717 -9.9902,34.27929 -4.7525,8.85213 -11.0162,14.30469 -19.4473,14.30469 -7.7256,0 -20.0334,-2.85282 -30.25,-18.17773 l -0.8984,0.41015 14.4726,52.56055 5.9922,-22.4043 c 5.0478,1.82517 10.0636,2.34961 14.3633,2.34961 21.1553,0 34.6825,-11.45605 42.8027,-28.4375 8.1203,-16.98145 10.9356,-39.48806 10.9356,-61.85547 0,-23.83507 -2.6972,-52.05072 -6.1446,-68.54883 z m -169.75783,0.23047 c 8.15814,0.35997 18.26202,2.75315 26.20508,10.76367 l -14.94922,27.33008 c -3.11297,-11.16764 -10.95585,-15.56142 -18.0918,-16.97656 -7.39068,-1.46567 -14.04101,0.0957 -14.04101,0.0957 l -0.008,0.002 -0.006,0.002 c 0,0 -2.18008,0.58249 -5.53907,2.72851 -3.35899,2.14602 -7.94056,5.86714 -12.88086,12.16602 l -0.11328,0.14257 2.22461,69.90821 20.27735,10.13867 -60.42774,5.36523 15.60938,-15.84179 6.66601,-83.94532 -24.39258,-11.02539 39.0879,-7.44336 0.51367,15.67188 0.83789,-0.98438 c 11.18737,-13.13299 24.52929,-16.76953 24.52929,-16.76953 0,0 6.25063,-1.69203 14.49805,-1.32812 z m 1062.53903,0 c 8.1582,0.35997 18.2601,2.75315 26.2032,10.76367 l -14.9493,27.33008 c -3.113,-11.16752 -10.9539,-15.56143 -18.0898,-16.97656 -7.3907,-1.46567 -14.041,0.0957 -14.041,0.0957 l -0.01,0.002 -0.01,0.002 c 0,0 -2.1801,0.58249 -5.5391,2.72851 -3.359,2.14602 -7.9406,5.86714 -12.8809,12.16602 l -0.1113,0.14257 2.2227,69.90821 20.2773,10.13867 -58.7422,5.2168 -0.9101,-0.63868 14.8339,-15.05468 6.668,-83.94532 -24.3945,-11.02539 39.0879,-7.44336 0.5136,15.67188 0.8379,-0.98438 c 11.1874,-13.13299 24.5293,-16.76953 24.5293,-16.76953 0,0 6.2526,-1.69203 14.5,-1.32812 z m -1531.24215,0.25 -0.61133,0.10351 -51.33399,8.64063 23.20704,9.125 4.88671,127.76562 -19.11132,19.11133 61.85546,-10.56836 -25.04101,-13.54101 1.16797,-25.70508 c 7.65501,7.03471 18.20678,11.28516 29.96679,11.28516 14.11701,0 26.85501,-5.655 36.02344,-16.92969 9.16843,-11.27469 14.76953,-28.13827 14.76953,-50.54688 0,-36.99102 -21.31428,-57.90056 -46.36132,-58.64453 h -0.008 -0.008 c -12.89484,0 -22.76027,6.28058 -30.10547,14.67578 z m 189.39843,0 -0.61328,0.10351 -51.33398,8.64063 23.20703,9.125 4.88672,127.76562 -19.11133,19.11133 61.85547,-10.56836 -25.04102,-13.54101 1.16797,-25.70508 c 7.65502,7.03479 18.20671,11.28516 29.9668,11.28516 14.11701,0 26.85501,-5.655 36.02344,-16.92969 9.16843,-11.27469 14.76953,-28.13827 14.76953,-50.54688 0,-36.99102 -21.31427,-57.90056 -46.36133,-58.64453 h -0.008 -0.008 c -12.89377,0 -22.75849,6.27968 -30.10351,14.67383 z m 448.26762,0.69531 c 3.3802,16.43603 6.041,44.30149 6.041,67.85742 0,22.28316 -2.8275,44.67398 -10.8379,61.42578 -8.0104,16.7518 -21.1038,27.86719 -41.9004,27.86719 -4.379,0 -9.4667,-0.48686 -14.541,-2.41992 l -0.5176,-0.19727 -5.3105,19.84961 -12.8028,-46.49218 c 10.0773,13.6457 21.9137,16.52148 29.4922,16.52148 8.8649,0 15.482,-5.80358 20.3281,-14.83008 4.8462,-9.0265 8.0077,-21.31985 10.0977,-34.59765 4.18,-26.55562 4.0532,-57.06084 4.1758,-73 l 0,-0.33204 -29.7246,-12.74023 z m -506.1348,0.0332 -53.41797,9.15821 22.92969,15.03125 4.14453,82.16406 -20.16407,15.71289 63.82032,-9.04492 -1.17383,-0.72656 -25.49414,-15.78125 z m 700.4258,0 -53.418,9.15821 22.9297,15.03125 4.1465,82.16406 -20.166,15.71289 63.8203,-9.04492 -1.1738,-0.72656 -25.4942,-15.78125 z m -802.57033,0.36719 c 0.002,6e-5 0.004,-6e-5 0.006,0 24.50762,0.73111 45.38672,21.03866 45.38672,57.64453 0,22.24195 -5.56068,38.86543 -14.54687,49.91602 -8.98619,11.05059 -21.39517,16.56055 -35.2461,16.56055 -11.89885,0 -22.56698,-4.37166 -30.07421,-11.63672 l -0.79688,-0.76953 -1.29101,28.40625 23.04687,12.46484 -55.9043,9.54883 17.19727,-17.19727 -4.92774,-128.85547 -20.46093,-8.04492 47.16797,-7.93945 -0.77735,16.32422 0.95313,-1.14453 c 7.29228,-8.75074 17.19422,-15.27202 30.26758,-15.27735 z m 189.39843,0 c 0.001,4e-5 0.003,-4e-5 0.004,0 24.50848,0.73008 45.38672,21.03769 45.38672,57.64453 0,22.24195 -5.55873,38.86543 -14.54492,49.91602 -8.9862,11.05059 -21.39713,16.56055 -35.24805,16.56055 -11.89886,0 -22.56503,-4.37166 -30.07227,-11.63672 l -0.79687,-0.76953 -1.29297,28.40625 23.04687,12.46484 -55.90625,9.55078 17.19922,-17.19922 -4.92773,-128.85547 -20.46094,-8.04492 47.16797,-7.93945 -0.77734,16.32422 0.95507,-1.14453 c 7.29266,-8.75119 17.19323,-15.27268 30.26758,-15.27735 z m -88.375,0.83985 -9.29101,95.82812 24.85156,15.38477 -57.375,8.1289 17.61719,-13.72656 -4.19532,-83.19141 -21.23242,-13.91797 z m 700.4258,0 -9.291,95.82812 24.8515,15.38477 -57.375,8.1289 17.6172,-13.72656 -4.1953,-83.19141 -21.2324,-13.91797 z m -500.41017,9.9375 c -10.14174,0 -16.78318,6.31989 -20.78711,15.13476 -4.00394,8.81487 -5.47266,20.15427 -5.47266,30.50586 0,2.208 -0.001,4.43533 0.24805,6.67969 l 0.0703,0.63281 53.54102,-19.51562 -0.13477,-0.45118 c -3.45064,-11.5843 -8.01463,-19.80814 -12.86523,-25.15625 -4.85061,-5.3481 -10.00307,-7.83007 -14.59961,-7.83007 z m 0,1 c 4.23543,0 9.142,2.30074 13.85937,7.50195 4.65154,5.12862 9.09325,13.10049 12.49414,24.32422 l -51.39453,18.73437 c -0.17681,-1.96038 -0.21875,-3.92989 -0.21875,-5.91992 0,-10.25636 1.47477,-21.48804 5.38281,-30.0918 3.90805,-8.60375 10.14674,-14.54882 19.87696,-14.54882 z m -304.70313,2.43359 c -4.56414,0 -18.02171,2.0761 -28.40625,20.86719 l -0.0566,0.10351 -2.46484,59.89258 0.0879,0.13477 c 5.2129,7.94348 12.95843,13.96484 22.25195,13.96484 11.09334,0 19.02961,-5.91967 24.08789,-15.63281 5.05829,-9.71315 7.32422,-23.21308 7.32422,-38.59571 0,-11.34146 -1.90089,-21.46673 -5.69726,-28.81054 -3.79638,-7.34381 -9.56697,-11.92383 -17.12696,-11.92383 z m 189.39649,0 c -4.56414,0 -18.02171,2.0761 -28.40625,20.86719 l -0.0566,0.10351 -2.46485,59.89258 0.0879,0.13477 c 5.21291,7.94348 12.96038,13.96484 22.25391,13.96484 11.09334,0 19.02765,-5.91967 24.08594,-15.63281 5.05828,-9.71315 7.32617,-23.21308 7.32617,-38.59571 0,-11.34146 -1.90284,-21.46673 -5.69922,-28.81054 -3.79638,-7.34381 -9.56697,-11.92383 -17.12695,-11.92383 z m 513.72661,0.98242 c -18.4699,0 -36.3184,17.46789 -36.3184,46.37695 0,28.41616 17.3696,46.37696 37.0547,46.37696 9.9633,0 18.7683,-4.49939 25.0469,-12.33203 6.2785,-7.83265 10.0449,-18.98603 10.0449,-32.32813 0,-13.22032 -3.7629,-25.2175 -10.1231,-33.93555 -6.3601,-8.71804 -15.349,-14.1582 -25.705,-14.1582 z m 894.9765,0 c -18.4699,0 -36.3183,17.46789 -36.3183,46.37695 0,28.41616 17.3696,46.37696 37.0546,46.37696 9.9634,0 18.7664,-4.49939 25.045,-12.33203 6.2785,-7.83265 10.0468,-18.98603 10.0468,-32.32813 0,-13.22032 -3.7648,-25.2175 -10.125,-33.93555 -6.3601,-8.71804 -15.347,-14.1582 -25.7031,-14.1582 z m -1598.0996,0.0176 c 7.15999,0 12.55201,4.25199 16.23828,11.38281 3.68628,7.13082 5.58594,17.12241 5.58594,28.35156 0,15.28397 -2.27191,28.64867 -7.21094,38.13282 -4.93902,9.48414 -12.45989,15.0957 -23.20117,15.0957 -8.81439,0 -16.23708,-5.70455 -21.32617,-13.40039 l 2.43945,-59.30274 c 10.21504,-18.40591 23.21449,-20.25976 27.47461,-20.25976 z m 189.39649,0 c 7.15998,0 12.55201,4.25199 16.23828,11.38281 3.68627,7.13082 5.58789,17.12241 5.58789,28.35156 0,15.28397 -2.27386,28.64867 -7.21289,38.13282 -4.93903,9.48414 -12.45794,15.0957 -23.19922,15.0957 -8.8144,0 -16.23903,-5.70455 -21.32813,-13.40039 l 2.43946,-59.29883 c 10.21537,-18.40972 23.21418,-20.26367 27.47461,-20.26367 z m 513.72661,0.98242 c 10.0066,0 18.6833,5.23147 24.8964,13.74805 6.2132,8.51658 9.9317,20.31541 9.9317,33.3457 0,13.15383 -3.7154,24.07981 -9.8262,31.70313 -6.1108,7.62331 -14.6023,11.95703 -24.2656,11.95703 -19.0775,0 -36.0547,-17.36659 -36.0547,-45.37696 0,-28.4988 17.4791,-45.37695 35.3184,-45.37695 z m 894.9765,0 c 10.0067,0 18.6833,5.23147 24.8965,13.74805 6.2132,8.51658 9.9316,20.31541 9.9316,33.3457 0,13.15383 -3.7154,24.07981 -9.8261,31.70313 -6.1108,7.62331 -14.6023,11.95703 -24.2657,11.95703 -19.0774,0 -36.0546,-17.36659 -36.0546,-45.37696 0,-28.4988 17.479,-45.37695 35.3183,-45.37695 z m -1848.3496,48.31055 -0.01,0.002 c -18.37292,0.74485 -27.22071,13.24179 -27.22071,24.54102 0,6.21665 1.55806,11.02201 4.64454,14.26757 3.08647,3.24557 7.66006,4.87891 13.51757,4.87891 15.4687,0 28.09765,-11.9279 35.51368,-24.53516 l 0.0625,-0.10546 0.006,-0.1211 c 0.24528,-4.41496 0.49219,-8.5929 0.49219,-12.53906 v -1.81641 l -0.32031,-0.12304 c -11.64567,-4.46004 -24.46778,-4.44922 -26.67578,-4.44922 z m 1251.9356,0 -0.012,0.002 c -18.3729,0.74485 -27.2207,13.24179 -27.2207,24.54102 0,6.21665 1.5601,11.02201 4.6465,14.26757 3.0865,3.24557 7.6601,4.87891 13.5176,4.87891 15.4687,0 28.0976,-11.9279 35.5137,-24.53516 l 0.062,-0.10546 0.01,-0.1211 c 0.2453,-4.41496 0.4922,-8.5929 0.4922,-12.53906 v -1.81641 l -0.3223,-0.12304 c -11.6456,-4.46004 -24.4658,-4.44922 -26.6738,-4.44922 z m 360.3925,0 -0.01,0.002 c -18.3729,0.74485 -27.2207,13.24179 -27.2207,24.54102 0,6.21665 1.56,11.02201 4.6464,14.26757 3.0865,3.24557 7.6601,4.87891 13.5176,4.87891 15.4687,0 28.0977,-11.9279 35.5137,-24.53516 l 0.06,-0.10546 0.01,-0.1211 c 0.2453,-4.41497 0.4902,-8.5929 0.4902,-12.53906 v -1.81641 l -0.3203,-0.12304 c -11.6457,-4.46004 -24.4659,-4.44922 -26.6739,-4.44922 z m -1612.30466,1 c 2.2005,2e-5 14.65838,0.0407 25.98242,4.28906 v 1.09961 c 0,3.86112 -0.24176,7.98335 -0.48437,12.3457 -7.3109,12.38244 -19.67381,23.95508 -34.58985,23.95508 -5.67312,0 -9.93011,-1.55794 -12.79297,-4.56836 -2.86285,-3.01042 -4.36914,-7.52814 -4.36914,-13.57812 0,-10.77947 8.32185,-22.81331 26.25391,-23.54297 z m 1251.93556,0 c 2.2005,2e-5 14.6584,0.0407 25.9824,4.28906 v 1.09961 c 0,3.86112 -0.2418,7.98335 -0.4844,12.3457 -7.3109,12.38244 -19.6737,23.95508 -34.5898,23.95508 -5.6731,0 -9.9301,-1.55794 -12.793,-4.56836 -2.8628,-3.01042 -4.3711,-7.52814 -4.3711,-13.57812 0,-10.77948 8.3238,-22.81331 26.2559,-23.54297 z m 360.3945,0 c 2.2004,2e-5 14.6569,0.0413 25.9805,4.28906 v 1.09961 c 0,3.86112 -0.2398,7.98336 -0.4824,12.3457 -7.3109,12.38245 -19.6739,23.95508 -34.5899,23.95508 -5.6731,0 -9.9301,-1.55794 -12.7929,-4.56836 -2.8629,-3.01042 -4.3711,-7.52814 -4.3711,-13.57812 0,-10.77947 8.3238,-22.81331 26.2558,-23.54297 z m -1457.53904,31.6289 c -3.42311,0 -8.02638,1.12191 -11.83594,3.64063 -3.80956,2.51871 -6.81836,6.49496 -6.81836,12.07031 0,5.3385 3.01884,9.13278 6.82812,11.52539 3.80929,2.39261 8.40925,3.44922 11.82618,3.44922 3.17999,0 7.77278,-1.05738 11.64062,-3.44726 3.86784,-2.38989 7.01367,-6.18091 7.01367,-11.52735 0,-5.58292 -3.13571,-9.55637 -7.0039,-12.07226 -3.8682,-2.5159 -8.46374,-3.63868 -11.65039,-3.63868 z m 578.00394,0 c -3.4231,0 -8.0264,1.12191 -11.836,3.64063 -3.80954,2.51871 -6.81833,6.49496 -6.81833,12.07031 0,5.3385 3.01883,9.13278 6.82813,11.52539 3.8093,2.39261 8.4092,3.44922 11.8262,3.44922 3.1799,0 7.7728,-1.05738 11.6406,-3.44726 3.8678,-2.38989 7.0156,-6.18091 7.0156,-11.52735 0,-5.58292 -3.1377,-9.55637 -7.0058,-12.07226 -3.8682,-2.5159 -8.4638,-3.63868 -11.6504,-3.63868 z m 673.9316,0 c -3.4231,0 -8.0283,1.12191 -11.8379,3.64063 -3.8096,2.51871 -6.8164,6.49496 -6.8164,12.07031 0,5.3385 3.0169,9.13278 6.8262,11.52539 3.8093,2.39261 8.4112,3.44922 11.8281,3.44922 3.18,0 7.7728,-1.05738 11.6406,-3.44726 3.8679,-2.38989 7.0137,-6.18091 7.0137,-11.52735 0,-5.58292 -3.1357,-9.55637 -7.0039,-12.07226 -3.8682,-2.5159 -8.4637,-3.63868 -11.6504,-3.63868 z m 619.7109,0 c -3.4231,0 -8.0264,1.12191 -11.8359,3.64063 -3.8095,2.51871 -6.8184,6.49496 -6.8184,12.07031 0,5.3385 3.0189,9.13278 6.8282,11.52539 3.8092,2.39261 8.4092,3.44922 11.8261,3.44922 3.18,0 7.7728,-1.05738 11.6407,-3.44726 3.8678,-2.38989 7.0136,-6.18091 7.0136,-11.52735 0,-5.58292 -3.1357,-9.55637 -7.0039,-12.07226 -3.8682,-2.5159 -8.4637,-3.63868 -11.6504,-3.63868 z m -1871.64644,1 c 2.94665,0 7.42968,1.08581 11.10546,3.47657 3.67579,2.39075 6.54883,6.02266 6.54883,11.23437 0,4.95755 -2.86292,8.40434 -6.53906,10.67578 -3.67614,2.27144 -8.16191,3.29883 -11.11523,3.29883 -3.20706,0 -7.6829,-1.02816 -11.29493,-3.29687 -3.61202,-2.26872 -6.35937,-5.71226 -6.35937,-10.67774 0,-5.21929 2.75738,-8.84839 6.36914,-11.23633 3.61176,-2.38793 8.08428,-3.47461 11.28516,-3.47461 z m 578.00394,0 c 2.9466,0 7.4296,1.08581 11.1054,3.47657 3.6758,2.39075 6.5508,6.02266 6.5508,11.23437 0,4.95755 -2.8649,8.40434 -6.541,10.67578 -3.6761,2.27144 -8.1619,3.29883 -11.1152,3.29883 -3.2071,0 -7.6829,-1.02816 -11.295,-3.29687 -3.61199,-2.26872 -6.35933,-5.71226 -6.35933,-10.67774 0,-5.21929 2.75737,-8.84839 6.36913,-11.23633 3.6118,-2.38793 8.0843,-3.47461 11.2852,-3.47461 z m 673.9316,0 c 2.9466,0 7.4297,1.08581 11.1055,3.47657 3.6758,2.39075 6.5488,6.02266 6.5488,11.23437 0,4.95755 -2.8629,8.40434 -6.5391,10.67578 -3.6761,2.27144 -8.1619,3.29883 -11.1152,3.29883 -3.2071,0 -7.6829,-1.02816 -11.2949,-3.29687 -3.6121,-2.26872 -6.3594,-5.71226 -6.3594,-10.67774 0,-5.21929 2.7574,-8.84839 6.3691,-11.23633 3.6118,-2.38793 8.0843,-3.47461 11.2852,-3.47461 z m 619.7109,0 c 2.9467,0 7.4297,1.08581 11.1055,3.47657 3.6758,2.39075 6.5488,6.02266 6.5488,11.23437 0,4.95755 -2.8629,8.40434 -6.539,10.67578 -3.6762,2.27144 -8.1619,3.29883 -11.1153,3.29883 -3.207,0 -7.6829,-1.02816 -11.2949,-3.29687 -3.612,-2.26872 -6.3594,-5.71226 -6.3594,-10.67774 0,-5.21929 2.7574,-8.84839 6.3692,-11.23633 3.6117,-2.38793 8.0843,-3.47461 11.2851,-3.47461 z m -347.9336,22.07813 0.754,0.0332 -0.8633,0.0762 z"
         id="path2" />
    </g>
  </g>
</svg>
