<?xml version="1.0" encoding="UTF-8" standalone="no"?>
<!-- Created with Inkscape (http://www.inkscape.org/) -->

<svg
   xmlns:dc="http://purl.org/dc/elements/1.1/"
   xmlns:cc="http://creativecommons.org/ns#"
   xmlns:rdf="http://www.w3.org/1999/02/22-rdf-syntax-ns#"
   xmlns:svg="http://www.w3.org/2000/svg"
   xmlns="http://www.w3.org/2000/svg"
   xmlns:xlink="http://www.w3.org/1999/xlink"
   xmlns:sodipodi="http://sodipodi.sourceforge.net/DTD/sodipodi-0.dtd"
   xmlns:inkscape="http://www.inkscape.org/namespaces/inkscape"
   id="svg2"
   version="1.1"
   inkscape:version="0.92.4 (5da689c313, 2019-01-14)"
   width="2481"
   height="3503"
   sodipodi:docname="E03P01.svg">
  <metadata
     id="metadata8">
    <rdf:RDF>
      <cc:Work
         rdf:about="">
        <dc:format>image/svg+xml</dc:format>
        <dc:type
           rdf:resource="http://purl.org/dc/dcmitype/StillImage" />
        <dc:title />
      </cc:Work>
    </rdf:RDF>
  </metadata>
  <defs
     id="defs6" />
  <sodipodi:namedview
     pagecolor="#ffffff"
     bordercolor="#666666"
     borderopacity="1"
     objecttolerance="10"
     gridtolerance="10"
     guidetolerance="10"
     inkscape:pageopacity="0"
     inkscape:pageshadow="2"
     inkscape:window-width="1372"
     inkscape:window-height="1368"
     id="namedview4"
     showgrid="false"
     inkscape:zoom="0.31343545"
     inkscape:cx="1484.4489"
     inkscape:cy="1491.8801"
     inkscape:window-x="1179"
     inkscape:window-y="34"
     inkscape:window-maximized="0"
     inkscape:current-layer="layer1"
     inkscape:document-units="px" />
  <g
     inkscape:groupmode="layer"
     id="layer2"
     inkscape:label="artwork"
     sodipodi:insensitive="true">
    <image
       sodipodi:absref="/home/deevad/peppercarrot/webcomics/ep03_The-secret-ingredients/lang/en/../gfx_Pepper-and-Carrot_by-David-Revoy_E03P01.png"
       xlink:href="../gfx_Pepper-and-Carrot_by-David-Revoy_E03P01.png"
       y="0"
       x="0"
       id="image10"
       height="3503"
       width="2481" />
  </g>
  <g
     inkscape:groupmode="layer"
     id="layer3"
     inkscape:label="speechbubbles"
     transform="matrix(0.937500,0.000000,0.000000,0.937500,0.000000,0.000000)">
    <path
       style="fill:#ffffff;fill-opacity:1;stroke:none;stroke-width:1.06666672px;stroke-linecap:butt;stroke-linejoin:miter;stroke-opacity:1"
       d="m 238.34639,2459.4675 c -7.35636,-129.4722 70.62116,-172.1391 275.12824,-166.254 204.5071,5.8851 253.05914,80.92 267.77189,126.5295 14.71273,45.6095 -17.6553,158.8976 -144.18486,208.921 -126.52956,50.0233 -338.39303,-20.5979 -364.87596,-57.3797 -26.48294,-36.7819 -32.36804,-77.9775 -33.83931,-111.8168 z"
       id="path3238"
       inkscape:connector-curvature="0" />
    <path
       style="color:#000000;display:inline;overflow:visible;visibility:visible;fill:#ffffff;fill-opacity:1;fill-rule:nonzero;stroke:none;stroke-width:1.06666672px;stroke-linecap:butt;stroke-linejoin:miter;stroke-opacity:1;marker:none;enable-background:accumulate"
       d="m 488.46298,2618.365 c 30.89675,44.1383 47.08077,126.5296 -14.71274,242.7602 77.97753,-86.8051 75.03498,-191.2656 72.09243,-222.1623 -2.94255,-30.8968 -57.37969,-20.5979 -57.37969,-20.5979 z"
       id="path4008"
       inkscape:connector-curvature="0" />
    <path
       style="color:#000000;display:inline;overflow:visible;visibility:visible;fill:#ffffff;fill-opacity:1;fill-rule:nonzero;stroke:none;stroke-width:1.06666672px;marker:none;enable-background:accumulate"
       d="m 1154.9507,2420.61 c -2.9524,-81.5218 26.5718,-127.4705 234.7164,-115.6127 208.1447,11.8576 211.0972,62.253 203.7162,115.6127 -7.3811,53.3597 -23.6194,66.6998 -47.2386,78.5574 -23.6193,11.8578 -172.7158,-11.8576 -206.6684,-13.3399 -33.9528,-1.4823 -135.8108,-1.4823 -146.1442,-7.4111 -23.6335,-13.5597 -38.3814,-32.6087 -38.3814,-57.8064 z"
       id="path4027"
       inkscape:connector-curvature="0"
       sodipodi:nodetypes="csssssc" />
    <path
       style="color:#000000;display:inline;overflow:visible;visibility:visible;fill:#ffffff;fill-opacity:1;fill-rule:nonzero;stroke:none;stroke-width:1.06666672px;stroke-linecap:butt;stroke-linejoin:miter;stroke-opacity:1;marker:none;enable-background:accumulate"
       d="m 1584.5621,2390.3175 c 33.8394,1.4714 69.1499,-20.5977 75.035,-32.368 5.8851,-11.7701 -8.8276,52.9659 -72.0925,67.6787 -63.2647,14.7127 -32.368,-27.9543 -32.368,-27.9543 z"
       id="path4035"
       inkscape:connector-curvature="0" />
    <path
       style="color:#000000;display:inline;overflow:visible;visibility:visible;fill:#ffffff;fill-opacity:1;fill-rule:nonzero;stroke:none;stroke-width:1.06666672px;stroke-linecap:butt;stroke-linejoin:miter;stroke-opacity:1;marker:none;enable-background:accumulate"
       d="m 2218.3141,2695.2384 c -1.1125,-21.1374 7.7874,-18.9123 12.2375,-22.2498 -4.4501,-17.8 5.5624,-37.8249 43.3873,-44.4999 10.0124,-13.3498 41.1622,-22.2499 61.1872,-10.0124 15.5749,-10.0124 38.9373,-8.9 47.8372,0 11.125,-8.9 24.4749,2.225 25.5874,4.45 13.3499,-4.45 31.1499,0 37.8248,5.5624 17.8,-6.6749 53.3998,6.675 51.1748,22.25 18.9124,12.2374 18.9124,25.5874 12.2374,33.3748 14.4624,10.0125 18.9125,53.3998 -24.4748,55.6247 -13.35,15.575 -46.7248,21.1374 -61.1872,11.1249 -21.1374,3.3375 -34.4874,6.675 -38.9374,-2.2249 -11.1249,8.8999 -37.8248,7.7874 -28.9248,-7.7875 -13.7422,9.9477 -28.8747,6.5902 -40.324,-0.4066 -20.9904,11.4492 -46.4333,5.7245 -45.1612,-6.3608 -28.6232,3.8164 -31.8036,-15.2658 -29.8953,-22.2625 -4.4526,-1.2722 -15.2658,-2.5443 -22.5689,-16.5824 z"
       id="path4043"
       inkscape:connector-curvature="0" />
    <path
       style="color:#000000;display:inline;overflow:visible;visibility:visible;fill:#ffffff;fill-opacity:1;fill-rule:nonzero;stroke:none;stroke-width:1.06666672px;stroke-linecap:butt;stroke-linejoin:miter;stroke-opacity:1;marker:none;enable-background:accumulate"
       d="m 2263.1455,2780.5166 c 13.3575,-13.9936 34.984,-13.3576 33.0757,5.7246 9.5411,8.269 5.0887,31.8036 -32.4397,17.81 -14.6296,-6.9968 -19.7181,-20.9904 -0.636,-23.5346 z"
       id="path4051"
       inkscape:connector-curvature="0" />
    <path
       style="color:#000000;display:inline;overflow:visible;visibility:visible;fill:#ffffff;fill-opacity:1;fill-rule:nonzero;stroke:none;stroke-width:1.06666672px;stroke-linecap:butt;stroke-linejoin:miter;stroke-opacity:1;marker:none;enable-background:accumulate"
       d="m 2223.0206,2812.9913 c 4.8882,-1.0893 8.9573,1.2371 12.1377,4.4174 8.2689,-4.4524 31.8036,12.0855 -0.6361,20.9904 -12.0853,3.1804 -24.1707,-10.1771 -15.2657,-15.9017 -3.4331,-3.4332 -1.1241,-8.417 3.7641,-9.5061 z"
       id="path4059"
       inkscape:connector-curvature="0"
       sodipodi:nodetypes="zcccz" />
  </g>
  <g
     inkscape:groupmode="layer"
     id="layer1"
     inkscape:label="txt"
     transform="matrix(0.937500,0.000000,0.000000,0.937500,0.000000,0.000000)">
    <flowRoot
       xml:space="preserve"
       id="flowRoot2987"
       style="font-style:normal;font-variant:normal;font-weight:normal;font-stretch:normal;font-size:12.80000019px;line-height:0.01%;font-family:Lavi;-inkscape-font-specification:Lavi;letter-spacing:0px;word-spacing:0px;fill:#000000;fill-opacity:1;stroke:none;stroke-width:1.06666672"
       transform="translate(-46)"><flowRegion
         id="flowRegion2989"
         style="stroke-width:1.06666672"><rect
           id="rect2991"
           width="595.57172"
           height="241.951"
           x="219.95546"
           y="161.41101"
           style="font-style:normal;font-variant:normal;font-weight:normal;font-stretch:normal;font-family:Lavi;-inkscape-font-specification:Lavi;stroke-width:1.13777781" /></flowRegion><flowPara
         id="flowPara2993"
         style="font-size:51.20000076px;line-height:1.25;stroke-width:1.06666672">Komona centrum;</flowPara><flowPara
         id="flowPara2995"
         style="font-size:51.20000076px;line-height:1.25;stroke-width:1.06666672">             Markedsdag</flowPara></flowRoot>    <flowRoot
       xml:space="preserve"
       id="flowRoot2987-4"
       style="font-style:normal;font-variant:normal;font-weight:normal;font-stretch:normal;font-size:12.80000019px;line-height:0.01%;font-family:Lavi;-inkscape-font-specification:Lavi;text-align:center;letter-spacing:0px;word-spacing:0px;text-anchor:middle;fill:#000000;fill-opacity:1;stroke:none;stroke-width:1.06666672"><flowRegion
         id="flowRegion2989-5"
         style="stroke-width:1.06666672"><rect
           id="rect2991-7"
           width="642.56183"
           height="331.45596"
           x="187.41238"
           y="2352.7368"
           style="font-style:normal;font-variant:normal;font-weight:normal;font-stretch:normal;font-family:Lavi;-inkscape-font-specification:Lavi;text-align:center;text-anchor:middle;stroke-width:1.13777781" /></flowRegion><flowPara
         style="font-size:51.20000076px;line-height:1.25;text-align:center;text-anchor:middle;stroke-width:1.06666672"
         id="flowPara3033">Godmorgen hr.,</flowPara><flowPara
         style="font-size:51.20000076px;line-height:1.25;text-align:center;text-anchor:middle;stroke-width:1.06666672"
         id="flowPara3026">jeg vil gerne have</flowPara><flowPara
         style="font-size:51.20000076px;line-height:1.25;text-align:center;text-anchor:middle;stroke-width:1.06666672"
         id="flowPara3028">otte græskarstjerner,</flowPara><flowPara
         style="font-size:51.20000076px;line-height:1.25;text-align:center;text-anchor:middle;stroke-width:1.06666672"
         id="flowPara3030">tak</flowPara></flowRoot>    <flowRoot
       xml:space="preserve"
       id="flowRoot2987-4-9"
       style="font-style:normal;font-variant:normal;font-weight:normal;font-stretch:normal;font-size:12.80000019px;line-height:0.01%;font-family:Lavi;-inkscape-font-specification:Lavi;text-align:center;letter-spacing:0px;word-spacing:0px;text-anchor:middle;fill:#000000;fill-opacity:1;stroke:none;stroke-width:1.06666672"><flowRegion
         id="flowRegion2989-5-4"
         style="stroke-width:1.06666672"><rect
           id="rect2991-7-9"
           width="642.56183"
           height="331.45596"
           x="1059.1949"
           y="2343.2646"
           style="font-style:normal;font-variant:normal;font-weight:normal;font-stretch:normal;font-family:Lavi;-inkscape-font-specification:Lavi;text-align:center;text-anchor:middle;stroke-width:1.13777781" /></flowRegion><flowPara
         style="font-size:51.20000076px;line-height:1.25;text-align:center;text-anchor:middle;stroke-width:1.06666672"
         id="flowPara3080">Værsgo,</flowPara><flowPara
         style="font-size:51.20000076px;line-height:1.25;text-align:center;text-anchor:middle;stroke-width:1.06666672"
         id="flowPara3034">det bliver 60 Ko*</flowPara></flowRoot>    <flowRoot
       xml:space="preserve"
       id="flowRoot2987-4-9-9"
       style="font-style:normal;font-variant:normal;font-weight:normal;font-stretch:normal;font-size:12.80000019px;line-height:0.01%;font-family:Lavi;-inkscape-font-specification:Lavi;text-align:center;letter-spacing:0px;word-spacing:0px;text-anchor:middle;fill:#000000;fill-opacity:1;stroke:none;stroke-width:1.06666672"><flowRegion
         id="flowRegion2989-5-4-7"
         style="stroke-width:1.06666672"><rect
           id="rect2991-7-9-4"
           width="642.56183"
           height="331.45596"
           x="2049.6499"
           y="2659.3408"
           style="font-style:normal;font-variant:normal;font-weight:normal;font-stretch:normal;font-family:Lavi;-inkscape-font-specification:Lavi;text-align:center;text-anchor:middle;stroke-width:1.13777781" /></flowRegion><flowPara
         style="font-size:51.20000076px;line-height:1.25;text-align:center;text-anchor:middle;stroke-width:1.06666672"
         id="flowPara3080-9">Åh nej...</flowPara></flowRoot>    <flowRoot
       xml:space="preserve"
       id="flowRoot2987-4-9-9-9"
       style="font-style:normal;font-variant:normal;font-weight:normal;font-stretch:normal;line-height:0.01%;font-family:Lavi;-inkscape-font-specification:Lavi;text-align:center;letter-spacing:0px;word-spacing:0px;text-anchor:middle;fill:#000000;fill-opacity:1;stroke:none"
       transform="matrix(0.7096597,0,0,0.73164962,893.99505,3432.414)"><flowRegion
         id="flowRegion2989-5-4-7-7"><rect
           id="rect2991-7-9-4-3"
           width="884.68256"
           height="56.407585"
           x="120.55251"
           y="265.53046"
           style="font-style:normal;font-variant:normal;font-weight:normal;font-stretch:normal;font-family:Lavi;-inkscape-font-specification:Lavi;text-align:center;text-anchor:middle" /></flowRegion><flowPara
         style="font-size:48px;line-height:1.25;text-align:start;text-anchor:start;fill:#a0a0a0;fill-opacity:1"
         id="flowPara3080-9-7">* Ko = Komonas valutaenhed</flowPara></flowRoot>  </g>
</svg>
