<?xml version="1.0" encoding="UTF-8" standalone="no"?>
<!-- Created with Inkscape (http://www.inkscape.org/) -->

<svg
   id="svg2"
   version="1.1"
   inkscape:version="1.2.2 (732a01da63, 2022-12-09)"
   width="2481"
   height="3503"
   sodipodi:docname="E38P03.svg"
   xmlns:inkscape="http://www.inkscape.org/namespaces/inkscape"
   xmlns:sodipodi="http://sodipodi.sourceforge.net/DTD/sodipodi-0.dtd"
   xmlns:xlink="http://www.w3.org/1999/xlink"
   xmlns="http://www.w3.org/2000/svg"
   xmlns:svg="http://www.w3.org/2000/svg"
   xmlns:rdf="http://www.w3.org/1999/02/22-rdf-syntax-ns#"
   xmlns:cc="http://creativecommons.org/ns#"
   xmlns:dc="http://purl.org/dc/elements/1.1/">
  <metadata
     id="metadata8">
    <rdf:RDF>
      <cc:Work
         rdf:about="">
        <dc:format>image/svg+xml</dc:format>
        <dc:type
           rdf:resource="http://purl.org/dc/dcmitype/StillImage" />
        <dc:title />
      </cc:Work>
    </rdf:RDF>
  </metadata>
  <defs
     id="defs6" />
  <sodipodi:namedview
     pagecolor="#ffffff"
     bordercolor="#666666"
     borderopacity="1"
     objecttolerance="10"
     gridtolerance="10"
     guidetolerance="10"
     inkscape:pageopacity="0"
     inkscape:pageshadow="2"
     inkscape:window-width="1366"
     inkscape:window-height="745"
     id="namedview4"
     showgrid="false"
     inkscape:zoom="1.2167"
     inkscape:cx="1276.8143"
     inkscape:cy="1661.0503"
     inkscape:window-x="-8"
     inkscape:window-y="-8"
     inkscape:window-maximized="1"
     inkscape:current-layer="layer1"
     inkscape:showpageshadow="0"
     inkscape:pagecheckerboard="0"
     inkscape:deskcolor="#d1d1d1" />
  <g
     inkscape:groupmode="layer"
     id="layer2"
     inkscape:label="artwork"
     sodipodi:insensitive="true">
    <image
       xlink:href="../gfx_Pepper-and-Carrot_by-David-Revoy_E38P03.png"
       y="0"
       x="0"
       id="image10"
       height="3503"
       width="2481" />
  </g>
  <g
     inkscape:groupmode="layer"
     id="layer3"
     inkscape:label="speechbubbles">
    <path
       style="color:#000000;display:inline;overflow:visible;visibility:visible;fill:#ffffff;fill-opacity:1;fill-rule:nonzero;stroke:none;stroke-width:0.936357px;marker:none;enable-background:accumulate"
       d="m 1982.7326,2510.0541 c -33.6371,0.703 -67.6629,3.3097 -99.9247,13.5236 -13.6887,4.7543 -24.6693,14.6767 -35.2587,24.2388 -7.9932,7.4346 -15.5576,16.3098 -17.9022,27.2928 -3.2949,15.1642 -2.6532,30.8817 -0.7875,46.1901 1.5921,10.9266 5.7321,21.55 12.587,30.2368 9.279,12.2031 22.6798,20.741 37.044,25.6319 24.5576,9.3556 50.7248,14.7869 77.0377,14.6869 17.0205,0.074 34.0413,-0.9631 51.0589,-0.2276 21.1874,0.4451 42.5788,1.1013 63.5173,-2.8188 18.3719,-3.284 36.3737,-8.8355 53.3195,-16.7017 12.0282,-5.9336 22.8446,-14.9424 29.4388,-26.8084 12.5759,-21.6308 12.9819,-49.9888 0.4955,-71.7551 -10.2197,-18.6233 -27.2399,-32.7497 -46.1605,-41.8338 -19.6605,-9.6444 -41.3412,-14.1799 -62.9511,-16.6547 -20.3983,-2.7018 -40.9002,-5.246 -61.514,-5.0008 z"
       id="path4040-4-5-3"
       inkscape:connector-curvature="0"
       sodipodi:nodetypes="zssssz" />
    <path
       style="color:#000000;display:inline;overflow:visible;visibility:visible;fill:#ffffff;fill-opacity:1;fill-rule:nonzero;stroke:none;stroke-width:0.872237px;marker:none;enable-background:accumulate"
       d="m 2109.5421,2655.8242 c -43.72,0.5813 -87.8496,0.7845 -130.8076,8.033 -19.631,3.5292 -38.0357,12.6944 -48.8232,26.3521 -16.106,19.8017 -17.6525,46.2403 -4.6319,67.346 7.5898,12.8518 20.3385,23.6327 35.7216,30.8391 11.5428,5.7951 24.662,9.6872 38.284,10.824 34.2823,3.9338 68.9076,6.4458 103.5767,5.9077 26.2288,-0.3903 52.4805,-2.2506 78.2305,-6.29 18.9293,-3.2195 37.8171,-9.1585 51.8065,-20.0877 10.8193,-8.38 17.9824,-19.6568 19.8714,-31.5632 1.9763,-10.2808 2.6687,-20.7254 2.1576,-31.1144 -0.6928,-10.8679 -4.2231,-21.873 -12.2526,-30.8445 -7.4091,-8.5806 -18.5156,-14.7341 -30.4902,-18.7383 -17.2114,-5.8351 -35.9655,-7.8955 -54.4514,-9.3885 -16.0176,-1.1604 -32.1166,-1.3538 -48.1914,-1.2753 z"
       id="path3365-33"
       inkscape:connector-curvature="0"
       sodipodi:nodetypes="csssssc" />
    <path
       style="color:#000000;display:inline;overflow:visible;visibility:visible;fill:#ffffff;fill-opacity:1;fill-rule:nonzero;stroke:none;stroke-width:0.999999px;marker:none;enable-background:accumulate"
       d="m 1263.1642,1831.4688 c -42.5257,-42.2705 -19.5395,-108.0364 17.6028,-114.3414 51.4374,-8.7316 -11.3103,20.5827 -11.3103,20.5827 0,0 -37.0509,43.6527 -6.2925,93.7587 z"
       id="path5002-7"
       inkscape:connector-curvature="0"
       sodipodi:nodetypes="cscc" />
    <path
       style="color:#000000;display:inline;overflow:visible;visibility:visible;fill:#ffffff;fill-opacity:1;fill-rule:nonzero;stroke:none;stroke-width:1px;marker:none;enable-background:accumulate"
       d="m 1916.9709,2636.425 c -77.3885,-61.1144 -158.5933,-65.3254 -208.3967,7.4705 60.8364,-52.278 143.8743,-25.5157 174.2291,8.7518 16.5264,23.0336 34.1676,-16.2223 34.1676,-16.2223 z"
       id="path3978-4"
       inkscape:connector-curvature="0"
       sodipodi:nodetypes="cccc" />
    <path
       style="fill:#ffffff;fill-rule:evenodd;stroke:none;stroke-width:0.999997px;stroke-linecap:butt;stroke-linejoin:miter;stroke-opacity:1"
       d="m 1571.1,1438.6662 c 1.0295,-18.6517 13.3828,-52.846 31.913,-59.0632 18.53,-6.2173 70.0024,-6.2173 80.2969,-3.1082 10.2946,3.1082 26.7657,25.9044 30.8835,35.2307 4.1179,9.3254 15.4418,42.4833 -3.0882,55.9542 -18.5302,13.4708 -37.0602,23.8325 -56.6198,22.7962 -19.5596,-1.0364 -58.6787,-8.29 -67.9436,-20.7235 -9.2651,-12.4345 -15.4418,-31.0862 -15.4418,-31.0862 z"
       id="path1355"
       inkscape:connector-curvature="0" />
    <path
       style="fill:#ffffff;fill-rule:evenodd;stroke:none;stroke-width:1.08504px;stroke-linecap:butt;stroke-linejoin:miter;stroke-opacity:1"
       d="m 991.16129,1564.5354 c 21.81061,2.0314 53.74851,-7.5765 36.11551,-38.1612 34.2259,21.6699 62.2873,17.8869 117.9608,-16.1391 -4.6265,47.4093 20.2566,42.9799 42.6893,33.8779 -21.529,15.9536 17.1165,25.0955 37.9045,25.9916 -43.9748,34.5064 -20.8832,45.4806 -3.5556,58.4772 -43.2167,-9.6156 -32.7646,9.8675 -37.9265,20.8848 -37.0734,-24.9624 -64.0346,-19.038 -85.3346,4.1769 -11.1402,-12.6249 -14.6369,-38.7184 -55.7045,1.3923 15.1016,-34.6271 -4.6932,-30.9924 -36.7412,-13.9231 5.0227,-11.7944 34.8743,-29.7296 -15.40771,-27.8464 31.40721,-11.2123 37.99351,-26.401 0,-48.7309 z"
       id="path4584"
       inkscape:connector-curvature="0"
       sodipodi:nodetypes="cccccccccccc" />
    <path
       style="color:#000000;display:inline;overflow:visible;visibility:visible;fill:#ffffff;fill-opacity:1;fill-rule:nonzero;stroke:none;stroke-width:1px;marker:none;enable-background:accumulate"
       d="m 1092.7675,1600.0887 c 32.5118,17.1362 69.5241,50.078 26.9344,88.4809 5.5785,26.0417 6.6264,46.3987 -29.7935,75.4959 22.4386,-26.2104 31.5308,-42.9396 20.1333,-80.7335 19.0733,-22.4288 9.883,-53.2464 -33.7163,-67.4214 -43.5993,-14.1751 -33.1079,-7.2586 -33.1079,-7.2586 l 36.9086,-13.1055 z"
       id="path5074"
       inkscape:connector-curvature="0"
       sodipodi:nodetypes="ccccsccc" />
    <path
       style="fill:#ffffff;stroke:none;stroke-width:0.999998"
       d="m 1641.2389,1626.3692 c -23.6692,-22.5115 -16.2357,-35.8105 -6.3972,-46.3314 9.8357,-10.5203 11.5626,-22.6355 9.6907,-30.0237 -1.8719,-7.3881 -10.8731,-18.1272 -18.2553,-23.021 -7.3832,-4.8937 2.0396,-17.023 7.4292,-24.7215 7.1196,-10.1717 17.3403,-10.9015 17.3403,-10.9015 0,0 -8.6513,-43.4434 -16.6505,-33.7546 -7.9983,9.6888 -25.6203,43.7517 -27.4427,48.1059 -1.8214,4.3541 -5.0288,17.8771 0.4234,24.5114 5.4533,6.6341 17.5984,9.8769 21.8896,18.2273 4.4207,8.6023 3.0414,15.2934 -2.2485,24.1895 -5.2898,8.8961 -13.1942,29.5079 -2.6908,39.3668 10.5043,9.8587 16.9118,14.3528 16.9118,14.3528 z"
       id="path3023-9"
       inkscape:connector-curvature="0"
       sodipodi:nodetypes="csssscssssssc" />
  </g>
  <g
     inkscape:groupmode="layer"
     id="layer1"
     inkscape:label="txt">
    <path
       style="color:#000000;display:inline;overflow:visible;visibility:visible;fill:#ffffff;fill-opacity:1;fill-rule:nonzero;stroke:none;stroke-width:1.10522px;marker:none;enable-background:accumulate"
       d="m 1271.5808,1778.3845 c 12.2737,-16.4768 36.2037,-30.1033 46.7678,-0.9712 29.6659,-27.2334 43.9458,-18.2417 67.1316,1.1531 0.2075,-6.2082 7.94,-31.014 41.3032,-15.5544 -10.5763,-22.2467 21.692,-24.2355 37.451,-21.7469 -5.9886,-10.8797 3.0534,-19.0493 25.5056,-24.7994 -31.819,-5.0899 -25.0128,-18.2293 16.5912,-30.8539 -43.5928,1.5668 -53.9525,-13.7125 -20.4269,-33.8204 -16.0999,0.2274 -71.8931,28.9905 -65.5496,-27.5232 -19.2642,19.1239 -54.5967,41.2105 -88.7442,5.6123 -6.9081,15.277 -29.8795,26.0304 -58.305,7.4525 -3.4888,14.9621 -34.3024,18.0286 -46.1102,15.7371 25.2212,14.993 25.8232,25.2087 -5.1631,28.6568 56.3633,26.3695 12.9941,24.4818 5.5836,32.468 42.477,7.707 36.2458,22.2208 17.6313,29.06 37.3818,-18.8202 28.915,14.3004 26.3337,35.1296 z"
       id="path3549-3-8"
       inkscape:connector-curvature="0"
       sodipodi:nodetypes="cccccccccccccccc" />
    <text
       id="text4178-0"
       y="1600.2191"
       x="1106.0676"
       style="font-style:normal;font-variant:normal;font-weight:normal;font-stretch:normal;font-size:37.3333px;line-height:0%;font-family:Lavi;-inkscape-font-specification:Lavi;text-align:center;letter-spacing:0px;word-spacing:0px;text-anchor:middle;fill:#000000;fill-opacity:1;stroke:none"
       xml:space="preserve"><tspan
         y="1600.2191"
         x="1106.0676"
         style="font-size:37.3333px;line-height:1.25"
         sodipodi:role="line"
         id="tspan4245-6-6">mi open!</tspan></text>
    <text
       id="text4178-0-1"
       y="1702.9513"
       x="1342.4957"
       style="font-style:normal;font-variant:normal;font-weight:normal;font-stretch:normal;font-size:32.7584px;line-height:0%;font-family:Lavi;-inkscape-font-specification:Lavi;text-align:center;letter-spacing:0px;word-spacing:0px;text-anchor:middle;fill:#000000;fill-opacity:1;stroke:none;stroke-width:0.999996"
       xml:space="preserve"
       transform="scale(1.0080992,0.99196588)"><tspan
         y="1702.9513"
         x="1342.4957"
         style="font-size:32.7584px;line-height:1.25;stroke-width:0.999996"
         sodipodi:role="line"
         id="tspan8148">ala, mi open!</tspan><tspan
         y="1743.8993"
         x="1342.4957"
         style="font-size:32.7584px;line-height:1.25;stroke-width:0.999996"
         sodipodi:role="line"
         id="tspan451">mi open a!</tspan></text>
    <text
       id="text4178-0-7"
       y="1453.9064"
       x="1646.5745"
       style="font-style:normal;font-variant:normal;font-weight:normal;font-stretch:normal;font-size:18.9857px;line-height:0%;font-family:Lavi;-inkscape-font-specification:Lavi;text-align:center;letter-spacing:0px;word-spacing:0px;text-anchor:middle;fill:#000000;fill-opacity:1;stroke:none;stroke-width:0.999996"
       xml:space="preserve"><tspan
         y="1453.9064"
         x="1646.5745"
         style="font-size:64.3559px;line-height:1.25;stroke-width:0.999996"
         sodipodi:role="line"
         id="tspan4245-6-6-9">?</tspan></text>
    <text
       id="text4178-0-2"
       y="2581.3774"
       x="1992.4161"
       style="font-style:normal;font-variant:normal;font-weight:normal;font-stretch:normal;line-height:0%;font-family:Lavi;-inkscape-font-specification:Lavi;text-align:center;letter-spacing:0px;word-spacing:0px;text-anchor:middle;fill:#000000;fill-opacity:1;stroke:none"
       xml:space="preserve"><tspan
         y="2581.3774"
         x="1992.4161"
         style="font-size:40.6767px;line-height:1.25"
         sodipodi:role="line"
         id="tspan424">pali sina li </tspan><tspan
         y="2632.2234"
         x="1992.4161"
         style="font-size:40.6767px;line-height:1.25"
         sodipodi:role="line"
         id="tspan421">kama seme a?</tspan></text>
    <text
       id="text4178-0-2-2"
       y="2714.9941"
       x="2086.2498"
       style="font-style:normal;font-variant:normal;font-weight:normal;font-stretch:normal;line-height:0%;font-family:Lavi;-inkscape-font-specification:Lavi;text-align:center;letter-spacing:0px;word-spacing:0px;text-anchor:middle;fill:#000000;fill-opacity:1;stroke:none"
       xml:space="preserve"><tspan
         y="2714.9941"
         x="2086.2498"
         style="font-size:40.6767px;line-height:1.25"
         sodipodi:role="line"
         id="tspan481">mi alasa e sina </tspan><tspan
         y="2765.8401"
         x="2086.2498"
         style="font-size:40.6767px;line-height:1.25"
         sodipodi:role="line"
         id="tspan485">lon tenpo suli.</tspan></text>
  </g>
</svg>
