<?xml version="1.0" encoding="UTF-8" standalone="no"?>
<!-- Created with Inkscape (http://www.inkscape.org/) -->

<svg
   id="svg2"
   version="1.1"
   inkscape:version="1.2.1 (9c6d41e410, 2022-07-14)"
   width="2481"
   height="3503"
   sodipodi:docname="E32P04.svg"
   xmlns:inkscape="http://www.inkscape.org/namespaces/inkscape"
   xmlns:sodipodi="http://sodipodi.sourceforge.net/DTD/sodipodi-0.dtd"
   xmlns:xlink="http://www.w3.org/1999/xlink"
   xmlns="http://www.w3.org/2000/svg"
   xmlns:svg="http://www.w3.org/2000/svg"
   xmlns:rdf="http://www.w3.org/1999/02/22-rdf-syntax-ns#"
   xmlns:cc="http://creativecommons.org/ns#"
   xmlns:dc="http://purl.org/dc/elements/1.1/">
  <metadata
     id="metadata8">
    <rdf:RDF>
      <cc:Work
         rdf:about="">
        <dc:format>image/svg+xml</dc:format>
        <dc:type
           rdf:resource="http://purl.org/dc/dcmitype/StillImage" />
        <dc:title />
      </cc:Work>
    </rdf:RDF>
  </metadata>
  <defs
     id="defs6">
    <filter
       style="color-interpolation-filters:sRGB"
       id="filter4375-4-1-1-1-9-5-8-4"
       inkscape:label="Drop Shadow"
       x="-0.0022874402"
       y="-0.005342936"
       width="1.0333324"
       height="1.0778569">
      <feFlood
         id="feFlood4377-7-9-0-8-1-7-3-3"
         flood-opacity="1"
         flood-color="rgb(108,125,133)"
         result="flood" />
      <feComposite
         id="feComposite4379-3-8-8-2-77-4-1-07"
         in2="SourceGraphic"
         in="flood"
         operator="in"
         result="composite1" />
      <feMorphology
         id="feMorphology4393-1-0-49-8-9-3-0-8"
         operator="dilate"
         radius="6.2000000000000002"
         result="result3" />
      <feComposite
         id="feComposite4385-9-5-7-0-8-8-7-6"
         in2="result3"
         in="SourceGraphic"
         operator="over"
         result="fbSourceGraphic" />
      <feColorMatrix
         result="fbSourceGraphicAlpha"
         in="fbSourceGraphic"
         values="0 0 0 -1 0 0 0 0 -1 0 0 0 0 -1 0 0 0 0 1 0"
         id="feColorMatrix4544-8" />
      <feTurbulence
         id="feTurbulence4546-8"
         type="fractalNoise"
         numOctaves="3"
         seed="37"
         baseFrequency="0.129 0.0050000000000000001"
         result="turbulence" />
      <feDisplacementMap
         id="feDisplacementMap4548-4"
         in2="turbulence"
         in="fbSourceGraphic"
         scale="6.6"
         yChannelSelector="G"
         xChannelSelector="R"
         result="fbSourceGraphic" />
      <feColorMatrix
         result="fbSourceGraphicAlpha"
         in="fbSourceGraphic"
         values="0 0 0 -1 0 0 0 0 -1 0 0 0 0 -1 0 0 0 0 1 0"
         id="feColorMatrix4670-3" />
      <feFlood
         id="feFlood4672-1"
         flood-opacity="1"
         flood-color="rgb(17,52,65)"
         result="flood"
         in="fbSourceGraphic" />
      <feComposite
         id="feComposite4674-4"
         in2="fbSourceGraphic"
         in="flood"
         operator="in"
         result="composite1" />
      <feGaussianBlur
         id="feGaussianBlur4676-92"
         in="composite1"
         stdDeviation="0"
         result="blur" />
      <feOffset
         id="feOffset4678-0"
         dx="6"
         dy="6"
         result="offset" />
      <feComposite
         id="feComposite4680-68"
         in2="offset"
         in="fbSourceGraphic"
         operator="over"
         result="composite2" />
    </filter>
    <filter
       style="color-interpolation-filters:sRGB"
       id="filter4375-4-1-1-1-9-5-8-4-3"
       inkscape:label="Drop Shadow"
       x="-0.0031751471"
       y="-0.0083453672"
       width="1.0319434"
       height="1.0839582">
      <feFlood
         id="feFlood4377-7-9-0-8-1-7-3-3-6"
         flood-opacity="1"
         flood-color="rgb(108,125,133)"
         result="flood" />
      <feComposite
         id="feComposite4379-3-8-8-2-77-4-1-07-7"
         in2="SourceGraphic"
         in="flood"
         operator="in"
         result="composite1" />
      <feMorphology
         id="feMorphology4393-1-0-49-8-9-3-0-8-5"
         operator="dilate"
         radius="6.2000000000000002"
         result="result3" />
      <feComposite
         id="feComposite4385-9-5-7-0-8-8-7-6-3"
         in2="result3"
         in="SourceGraphic"
         operator="over"
         result="fbSourceGraphic" />
      <feColorMatrix
         result="fbSourceGraphicAlpha"
         in="fbSourceGraphic"
         values="0 0 0 -1 0 0 0 0 -1 0 0 0 0 -1 0 0 0 0 1 0"
         id="feColorMatrix4544-8-5" />
      <feTurbulence
         id="feTurbulence4546-8-6"
         type="fractalNoise"
         numOctaves="3"
         seed="37"
         baseFrequency="0.129 0.0050000000000000001"
         result="turbulence" />
      <feDisplacementMap
         id="feDisplacementMap4548-4-2"
         in2="turbulence"
         in="fbSourceGraphic"
         scale="6.6"
         yChannelSelector="G"
         xChannelSelector="R"
         result="fbSourceGraphic" />
      <feColorMatrix
         result="fbSourceGraphicAlpha"
         in="fbSourceGraphic"
         values="0 0 0 -1 0 0 0 0 -1 0 0 0 0 -1 0 0 0 0 1 0"
         id="feColorMatrix4670-3-9" />
      <feFlood
         id="feFlood4672-1-1"
         flood-opacity="1"
         flood-color="rgb(17,52,65)"
         result="flood"
         in="fbSourceGraphic" />
      <feComposite
         id="feComposite4674-4-2"
         in2="fbSourceGraphic"
         in="flood"
         operator="in"
         result="composite1" />
      <feGaussianBlur
         id="feGaussianBlur4676-92-7"
         in="composite1"
         stdDeviation="0"
         result="blur" />
      <feOffset
         id="feOffset4678-0-0"
         dx="6"
         dy="6"
         result="offset" />
      <feComposite
         id="feComposite4680-68-9"
         in2="offset"
         in="fbSourceGraphic"
         operator="over"
         result="composite2" />
    </filter>
  </defs>
  <sodipodi:namedview
     pagecolor="#ffffff"
     bordercolor="#666666"
     borderopacity="1"
     objecttolerance="10"
     gridtolerance="10"
     guidetolerance="10"
     inkscape:pageopacity="0"
     inkscape:pageshadow="2"
     inkscape:window-width="1261"
     inkscape:window-height="1388"
     id="namedview4"
     showgrid="false"
     inkscape:zoom="0.40000001"
     inkscape:cx="1376.25"
     inkscape:cy="1971.25"
     inkscape:window-x="1283"
     inkscape:window-y="36"
     inkscape:window-maximized="1"
     inkscape:current-layer="layer1"
     inkscape:snap-global="false"
     inkscape:showpageshadow="2"
     inkscape:pagecheckerboard="0"
     inkscape:deskcolor="#d1d1d1" />
  <g
     inkscape:groupmode="layer"
     id="layer2"
     inkscape:label="artwork"
     sodipodi:insensitive="true">
    <image
       xlink:href="../gfx_Pepper-and-Carrot_by-David-Revoy_E32P04.png"
       width="2481"
       height="3503"
       id="image10"
       x="0"
       y="0" />
  </g>
  <g
     inkscape:groupmode="layer"
     id="layer3"
     inkscape:label="speechbubbles"
     style="display:inline">
    <path
       style="display:inline;fill:#ffffff;fill-rule:evenodd;stroke:none;stroke-width:1px;stroke-linecap:butt;stroke-linejoin:miter;stroke-opacity:1"
       d="m 746.55255,1001.2284 c -1.65685,9.9596 -3.3137,19.9192 -4.97054,29.8789 -9.32332,8.0485 -22.60151,8.9685 -32.86449,2.7969 2.54706,10.774 5.0941,21.5481 7.64115,32.3222 -2.25566,2.3963 -5.64,3.2792 -8.551,2.1563 1.59955,6.1146 3.19911,12.2291 4.79867,18.3437 -3.97572,3.9098 -9.35484,5.8756 -14.54429,5.166 2.86726,10.876 5.99382,21.7483 7.27214,33.0684 -2.32522,8.8182 -5.9877,17.0399 -9.47771,25.291 11.678,2.5798 23.47945,4.6738 34.86618,8.7363 8.37093,7.7913 13.53808,20.1419 13.27722,32.625 9.65799,-5.0175 19.316,-10.0351 28.97399,-15.0527 4.64341,1.0402 7.17295,8.1481 4.5712,12.7051 10.99307,-6.3253 21.92701,-12.787 32.87122,-19.2246 3.54299,2.1699 6.25904,6.098 7.25698,10.6035 6.42748,-1.4847 12.76281,-3.4424 19.10033,-5.3652 1.19905,2.271 1.76439,4.8978 2.0893,7.5097 9.1478,0.9457 18.62302,0.9276 27.24357,5.0703 3.46408,2.9934 5.84262,7.2703 8.10618,11.4551 8.89059,-11.2732 17.76415,-23.2941 29.7819,-30.19 6.93766,-3.8577 14.40115,-7.888 22.29484,-7.0031 4.40986,1.3632 8.81925,2.7506 13.30176,3.7615 6.67164,-4.2749 14.66032,-6.9352 22.22924,-4.6172 0.81464,1.3929 2.64419,-0.7749 1.49542,-1.7646 -1.45983,-5.6282 -3.80157,-10.9116 -4.99165,-16.6397 3.31413,-7.5915 7.18711,-15.2491 7.77594,-23.918 -1.82149,-6.4451 -5.13958,-12.127 -7.31012,-18.402 -0.46659,-1.0714 -1.36169,-2.4403 -0.31464,-3.4386 1.94677,-3.1945 4.72573,-5.6678 7.84044,-7.1496 -4.60856,-6.6253 -12.68456,-8.9827 -16.28651,-16.6973 -3.30092,-6.2451 -5.27094,-14.08 -3.25528,-21.2734 6.62342,-11.6944 15.16446,-21.6898 22.22924,-33.002 -9.72153,6.5431 -19.39728,13.1768 -29.08183,19.793 -2.55827,-1.4359 -4.44448,-4.2916 -5.08847,-7.4863 -3.46259,0.6991 -6.86485,1.7351 -10.27131,2.7265 -0.48021,-3.0406 -0.10332,-6.1505 -0.45494,-9.2051 -1.89499,-0.4083 -3.84281,-0.4031 -5.722,-0.9218 -0.52918,-8.7815 0.68799,-17.5194 1.64449,-26.20323 -7.48838,8.05213 -14.97675,16.10423 -22.46513,24.15633 -3.47106,-1.1135 -6.5311,-3.8491 -8.32858,-7.4687 -12.58573,1.1103 -25.41159,0.5653 -37.70865,4.3574 -6.99728,-0.5667 -12.40996,-6.3136 -18.50724,-9.6465 -2.07529,-1.457 -4.60537,-3.6981 -7.09921,-2.1161 -7.97511,3.4798 -14.50113,11.0234 -23.18395,12.3387 -5.0599,0.9271 -10.26982,0.6148 -15.24523,-0.7734 -5.54235,2.458 -9.25759,8.6276 -15.06154,10.4727 -7.59871,-0.9361 -13.69874,-7.76 -16.86611,-15.4805 -2.73113,-5.5209 -5.45301,-11.0481 -8.24603,-16.52733 -0.25499,1.4108 -0.50997,2.8216 -0.76495,4.23243 z"
       id="path4508-2"
       inkscape:connector-curvature="0"
       sodipodi:nodetypes="cccccccccccccccccccccccccccc" />
    <path
       style="display:inline;opacity:1;fill:#ffffff;fill-rule:evenodd;stroke:none;stroke-width:1px;stroke-linecap:butt;stroke-linejoin:miter;stroke-opacity:1"
       d="m 1232.4018,1041.2127 c -50.2716,5.6942 -99.4961,17.7102 -149.0566,27.4906 -16.2443,3.0274 -32.4856,6.4771 -49.0334,7.3138 -27.8674,1.7997 -55.81752,0.5765 -83.70319,1.8779 -31.70373,1.116 -63.45592,2.4021 -94.96073,6.3059 -12.00129,1.5369 -23.8923,4.0749 -35.32968,8.0574 -14.69956,4.8219 -28.95873,11.1539 -44.13898,14.3919 -8.25968,1.6756 -16.87794,1.7222 -25.07509,-0.3374 -10.7596,-2.4958 -20.93572,-6.8981 -31.28412,-10.666 -13.71759,-5.23 -27.87124,-9.9766 -42.63207,-10.8825 -17.52114,-1.6165 -35.20254,-2.0954 -52.74398,-0.5311 -14.1515,1.5758 -28.28924,6.1786 -39.51262,15.1684 -12.84906,9.8693 -22.82322,24.1414 -25.65265,40.2688 -1.27746,9.6884 1.31912,19.7672 6.8849,27.7728 0.67219,-10.5849 -2.17144,-21.4525 1.0625,-31.8106 4.3372,-15.0701 16.29647,-27.1362 30.36748,-33.5682 11.89389,-5.571 25.40408,-6.3815 38.3065,-5.114 19.64653,0.787 39.52891,0.029 58.88579,4.0577 18.62559,4.5312 35.23728,14.582 53.3582,20.5503 10.41976,3.2102 21.70042,4.3166 32.36695,1.64 19.04553,-4.0346 36.58663,-12.9001 55.30192,-18.0596 12.43504,-3.5706 25.3649,-5.5175 38.31511,-5.3097 37.76726,-1.0812 75.53995,-2.1833 113.32462,-2.3508 32.59244,0.08 65.21724,1.5823 97.78584,-0.2844 34.3956,-1.6839 68.688,-6.4713 103.1848,-5.2917 8.1876,0.3248 16.7783,0.3919 24.2138,4.3017 5.7439,2.8127 10.051,8.1503 11.8047,14.2786 1.4492,4.1969 1.4605,8.6884 2.352,12.9932 0.6018,2.1839 3.7128,2.0534 5.1858,0.8257 1.3359,-0.8313 1.5858,-2.4429 1.5437,-3.865 4.0897,-23.3572 8.874,-46.6096 11.8375,-70.1495 -0.345,-4.8848 -5.0077,-8.1954 -9.5346,-8.8976 -1.1287,-0.2017 -2.2808,-0.247 -3.4244,-0.1766 z"
       id="path4316-3"
       inkscape:connector-curvature="0"
       sodipodi:nodetypes="ccsccscccccccccccccccccccccccc" />
    <path
       style="display:inline;fill:#ffffff;stroke:none;stroke-width:1.01695"
       d="m 1230.2773,953.89214 c -50.757,0.60397 -102.1252,6.81365 -149.4884,24.42293 -27.3484,10.71906 -52.6075,27.95253 -68.0193,51.83113 -13.7153,23.6045 -16.06955,51.8957 -9.8957,77.8188 9.7537,35.7684 42.6398,64.7335 81.3057,72.9808 32.8319,8.5605 67.0335,10.4988 100.7187,14.4786 72.2929,6.5615 144.8951,0.6861 217.2565,-1.4239 28.3186,-1.0116 56.7386,-2.0778 84.7616,-6.2188 34.174,-6.1246 67.1734,-21.0335 90.9504,-44.9184 13.2251,-13.5536 22.2803,-30.9563 23.5184,-49.3313 2.5691,-22.5825 -0.8486,-46.4323 -13.5355,-66.1727 -12.9062,-19.1644 -33.6435,-32.68542 -55.7916,-41.429 -33.5254,-14.09423 -69.8868,-21.29894 -106.2274,-25.74934 -53.6995,-5.933 -107.8758,-4.50581 -161.8251,-6.09583 -11.2417,-0.16933 -22.4852,-0.21176 -33.7283,-0.19299 z"
       id="path3280-8-2-3"
       inkscape:connector-curvature="0"
       sodipodi:nodetypes="csssc" />
    <path
       style="display:inline;fill:#ffffff;fill-rule:evenodd;stroke:none;stroke-width:1px;stroke-linecap:butt;stroke-linejoin:miter;stroke-opacity:1"
       d="m 1891.3766,2207.5293 c 4.401,9.7034 -4.7621,22.199 -15.1321,20.761 -9.2497,0.1495 -17.2014,-5.5472 -24.1917,-11.085 -2.1741,-1.4556 -4.3959,-2.837 -6.6654,-4.133 -2.8354,7.4007 -3.13,16.2749 -9.0338,22.1015 -8.2119,8.4241 -20.9041,11.5245 -32.1252,8.7735 -2.7312,1.4957 -1.6607,5.8433 0.8205,7.0273 2.1563,3.9092 -1.448,8.6017 -5.3625,9.2457 -9.0434,4.1681 -19.4023,2.7482 -28.6278,6.266 9.3133,4.5102 19.4418,6.863 28.8993,11.0078 1.2246,6.32 -3.4821,12.2449 -8.9169,14.6602 2.1993,2.8626 5.3588,4.732 7.8758,7.2771 0.6885,0.7656 2.3845,1.493 2.1456,2.5756 -5.205,9.3853 -15.3068,15.3269 -25.6968,16.4578 10.3934,5.4628 23.2318,4.6995 32.7002,12.2129 4.5301,4.3891 4.3046,11.3683 3.5408,17.1955 -0.4128,4.1564 -0.9123,8.3069 -1.1313,12.4803 2.9779,-0.7709 4.491,-3.9702 7.3464,-5.0288 7.2333,-4.8687 16.3319,-8.3394 25.014,-5.9523 4.7388,1.8296 8.3502,5.6907 12.4334,8.5073 12.38,0.9628 25.3018,-0.068 37.0199,4.8859 4.8252,3.3619 8.4087,8.3792 10.5021,13.9063 10.4957,-3.7874 20.5331,-10.2761 32.0215,-10.0543 10.1987,1.1633 20.9974,3.5294 30.8797,-0.5424 11.4867,-4.2294 23.7289,-8.6601 36.1103,-6.3872 10.3264,1.795 20.3617,4.933 30.5914,7.1831 8.4305,-3.499 14.8896,-11.5049 24.3239,-12.4785 9.6014,-1.1197 19.419,1.4068 27.707,6.3652 -4.4291,-9.9039 0.7391,-23.4105 11.2227,-26.5868 5.1023,-1.9874 10.5158,-2.9228 15.708,-4.6163 -3.8859,-4.3204 -10.11,-6.2968 -12.6565,-11.8613 -0.4454,-6.3288 5.5702,-11.0727 4.8227,-17.4434 -2.2057,-4.0033 -7.6007,-5.5539 -8.5622,-10.3691 1.5921,-8.844 8.766,-15.1112 15.8131,-19.7566 1.3928,-0.9285 2.965,-1.5881 4.2095,-2.7376 -3.2745,-2.9536 -7.9453,-2.7414 -11.8935,-4.1065 -5.2209,-1.1528 -11.1645,-2.292 -14.6225,-6.8512 -2.3451,-4.6891 -1.938,-10.5032 0.5321,-15.054 -4.6454,-3.3547 -10.4845,-1.0714 -15.689,-1.5069 -8.9724,0.2878 -18.7567,0.5666 -26.5682,-4.6559 -6.2337,-5.9255 -7.8228,-14.9001 -9.6822,-22.977 0.09,-1.1529 -1.3252,-2.4391 -2.1636,-1.1919 -9.9097,6.3366 -19.9497,13.7338 -31.9219,15.0544 -11.3099,0.173 -21.7193,-7.4183 -26.8982,-17.3829 -2.392,-2.2142 -5.6703,0.052 -7.3631,2.0777 -8.5809,6.6815 -17.7039,13.9851 -28.8249,15.1545 -12.3862,0.356 -23.6572,-5.7717 -34.4446,-11.2076 -4.7599,-2.5401 -9.5022,-5.1144 -14.2576,-7.6632 0.064,0.151 0.1278,0.3021 0.1916,0.4531 z"
       id="path4582"
       inkscape:connector-curvature="0"
       sodipodi:nodetypes="ccccccccccccccccccccccccccccccccccccccccccccccc" />
    <path
       style="display:inline;fill:#ffffff;fill-rule:evenodd;stroke:none;stroke-width:1px;stroke-linecap:butt;stroke-linejoin:miter;stroke-opacity:1"
       d="m 1982.1328,2325.6113 c -12.8691,7.4955 -25.7383,14.9909 -38.6074,22.4864 0.7954,19.5281 2.2328,39.6275 -3.7131,58.5597 -1.442,4.7665 -2.884,9.5331 -4.326,14.2996 -1.6554,-3.8605 -5.4614,-7.4211 -9.9258,-6.9336 -6.7867,4.7357 -9.0295,13.3509 -9.9231,21.1392 -2.0838,11.9256 -2.8847,24.0205 -3.8503,36.0737 3.8713,-15.6614 7.4521,-31.5035 13.7676,-46.4082 3.8906,4.0568 6.8647,9.3231 12.1582,11.7598 6.004,-2.9668 8.1205,-9.8641 10.0033,-15.7846 11.8101,-31.5596 23.2778,-63.2456 34.8385,-94.8971 0,-0.1943 -0.2322,-0.3937 -0.4219,-0.2949 z"
       id="path891"
       inkscape:connector-curvature="0"
       inkscape:transform-center-x="1.787008"
       inkscape:transform-center-y="33.226638"
       sodipodi:nodetypes="ccccccccc" />
  </g>
  <g
     inkscape:groupmode="layer"
     id="layer1"
     inkscape:label="txt"
     style="display:inline">
    <path
       style="fill:#ffffff;fill-opacity:1;fill-rule:evenodd;stroke:none;stroke-width:1.04195px;stroke-linecap:butt;stroke-linejoin:miter;stroke-opacity:1"
       d="m 178.25275,2249.8576 c -3.56156,-4.412 -7.10563,-8.8363 -10.74637,-13.1934 2.03279,4.9701 4.06558,9.9401 6.09837,14.9102 -3.09725,-2.3366 -6.1945,-4.6732 -9.29175,-7.0098 1.07187,14.5749 -6.11897,28.266 -14.16239,40.375 -3.68461,10.4616 -7.36922,20.9232 -11.05382,31.3848 -3.30817,1.4837 -7.10843,2.0287 -10.74637,1.5039 2.68729,3.4505 5.3746,6.901 8.0619,10.3515 -2.71436,1.7264 -6.09942,2.5405 -9.38293,2.2285 2.41659,3.75 4.83318,7.5 7.24977,11.25 -7.21161,-0.6464 -14.4232,-1.2929 -21.6348,-1.9394 9.31947,8.2032 20.05696,16.3063 23.9376,28.1074 3.85879,24.9963 9.47697,49.7219 15.17594,74.4063 -6.31912,13.6373 -14.36681,26.5046 -22.12674,39.4707 11.30829,-6.849 22.61656,-13.6979 33.92485,-20.5469 -0.50008,4.0289 -2.03452,7.9431 -4.44232,11.3379 4.77382,-1.4688 9.54762,-2.9375 14.32143,-4.4063 -0.89395,9.5473 -4.66954,18.7343 -10.13357,26.8418 8.34917,-5.534 13.9831,-13.7196 21.91682,-19.6816 35.38827,18.3268 74.38692,31.5785 114.98478,35.1479 35.52164,4.0253 72.23877,3.6244 106.75274,-5.8467 18.60229,-6.6006 34.95996,-17.7281 48.91484,-30.7055 9.09475,0.3926 16.00553,6.7009 24.42682,9.0886 1.99659,0.8039 4.75897,2.4596 6.4197,2.4657 -6.70358,-7.2388 -13.40717,-14.4776 -20.11075,-21.7164 4.24091,-3.4577 8.5166,-6.9256 13.33541,-9.6953 3.49518,1.8216 6.99038,3.6432 10.48556,5.4648 -8.73222,-15.757 -7.27579,-34.7203 -0.66794,-50.8926 2.10206,-8.4231 4.20412,-16.8463 6.30618,-25.2695 5.66032,-3.0724 11.57205,-5.722 17.45966,-8.3984 -5.71881,-0.944 -11.43763,-1.8881 -17.15645,-2.8321 4.29225,-4.3484 10.34624,-7.0772 16.63906,-7.8711 -4.80137,-1.4505 -9.60275,-2.901 -14.40411,-4.3515 -0.59003,-26.92 -11.45843,-52.4138 -23.01356,-76.7546 -3.62974,-7.642 -9.14579,-15.6345 -7.08839,-24.3372 4.04527,-10.546 15.84443,-16.1747 21.29153,-25.9434 -13.55832,4.3733 -26.38458,10.3837 -39.48462,15.7617 -1.60131,-3.7625 -1.37879,-8.1342 0.5704,-11.7519 -21.41689,2.4352 -42.34356,-3.8087 -62.90321,-8.3768 -58.07414,-9.6011 -118.4157,-7.0798 -175.36324,7.0934 -8.03688,1.6914 -17.69636,2.2611 -24.19196,-3.3051 -3.07918,-2.4318 -5.47499,-5.5636 -7.05527,-8.9974 -1.57593,3.2489 -0.63281,6.8724 0.13994,10.1894 -7.53352,-8.276 -12.41529,-18.211 -19.19205,-26.9726 5.3131,14.472 10.6262,28.944 15.93931,43.416 z"
       id="path4212-3"
       inkscape:connector-curvature="0"
       sodipodi:nodetypes="ccccccccccccccccccccccscccccccccccccccccccccccccccc" />
    <path
       style="display:inline;fill:#ffffff;fill-rule:evenodd;stroke:none;stroke-width:1px;stroke-linecap:butt;stroke-linejoin:miter;stroke-opacity:1"
       d="m 310.70312,2463.291 c -8.21398,3.1565 -12.9353,11.3236 -16.15302,19.0514 -5.6045,14.1172 -7.86723,29.361 -8.43367,44.4712 -0.18011,11.5779 2.49004,23.9731 10.804,32.5225 8.55381,9.0353 21.00841,13.3258 33.20607,14.111 26.62301,3.0258 53.74718,6.7941 78.25045,18.258 2.11816,1.0078 4.24122,2.0052 6.36914,2.9922 -25.92997,-17.4348 -55.94738,-27.1336 -85.46519,-36.5491 -9.15309,-1.9188 -16.58306,-10.2666 -16.96924,-19.6885 -0.54779,-8.5768 2.64096,-16.755 4.47368,-25.0023 3.19319,-12.494 6.66713,-25.528 4.31784,-38.4807 -1.16255,-5.1466 -4.54264,-11.2602 -10.40006,-11.6857 z"
       id="path4186-80"
       inkscape:connector-curvature="0"
       sodipodi:nodetypes="cscssc" />
    <text
       xml:space="preserve"
       style="font-style:normal;font-variant:normal;font-weight:normal;font-stretch:normal;line-height:0%;font-family:Lavi;-inkscape-font-specification:Lavi;text-align:center;letter-spacing:0px;word-spacing:0px;text-anchor:middle;display:inline;fill:#000000;fill-opacity:1;stroke:none"
       x="829.83612"
       y="1086.9447"
       id="text4246-7-6-1-7-6-6"><tspan
         sodipodi:role="line"
         style="font-size:45px;line-height:1.25"
         x="829.83612"
         y="1086.9447"
         id="tspan877">Niet te</tspan><tspan
         sodipodi:role="line"
         style="font-size:45px;line-height:1.25"
         x="829.83612"
         y="1143.1947"
         id="tspan333">geloven!</tspan></text>
    <text
       xml:space="preserve"
       style="font-style:normal;font-variant:normal;font-weight:normal;font-stretch:normal;line-height:0%;font-family:Lavi;-inkscape-font-specification:Lavi;text-align:center;letter-spacing:0px;word-spacing:0px;text-anchor:middle;display:inline;fill:#000000;fill-opacity:1;stroke:none"
       x="1299.9972"
       y="1028.514"
       id="text4246-7-6-1-7-6-6-6"><tspan
         sodipodi:role="line"
         style="font-size:45px;line-height:1.25"
         x="1299.9972"
         y="1028.514"
         id="tspan344">Al die jaren studie</tspan><tspan
         sodipodi:role="line"
         style="font-size:45px;line-height:1.25"
         x="1299.9972"
         y="1084.764"
         id="tspan361">en niemand die me serieus</tspan><tspan
         sodipodi:role="line"
         style="font-size:45px;line-height:1.25"
         x="1299.9972"
         y="1141.014"
         id="tspan340">neemt met als excuus...</tspan></text>
    <text
       xml:space="preserve"
       style="font-style:normal;font-variant:normal;font-weight:normal;font-stretch:normal;font-size:13.4951px;line-height:0%;font-family:Lavi;-inkscape-font-specification:Lavi;text-align:center;letter-spacing:0px;word-spacing:0px;text-anchor:middle;fill:#000000;fill-opacity:1;stroke:none;stroke-width:1"
       x="313.14224"
       y="2319.8213"
       id="text4246-1-3-1"
       transform="scale(0.99789912,1.0021053)"><tspan
         sodipodi:role="line"
         style="font-style:normal;font-variant:normal;font-weight:normal;font-stretch:normal;font-size:45px;line-height:1.25;font-family:Lavi;-inkscape-font-specification:Lavi;stroke-width:1"
         x="313.14224"
         y="2319.8213"
         id="tspan355">...dat ik er</tspan><tspan
         sodipodi:role="line"
         style="font-style:normal;font-variant:normal;font-weight:normal;font-stretch:normal;font-size:45px;line-height:1.25;font-family:Lavi;-inkscape-font-specification:Lavi;stroke-width:1"
         x="313.14224"
         y="2376.0713"
         id="tspan413">onervaring uit</tspan><tspan
         sodipodi:role="line"
         style="font-style:normal;font-variant:normal;font-weight:normal;font-stretch:normal;font-size:45px;line-height:1.25;font-family:Lavi;-inkscape-font-specification:Lavi;stroke-width:1"
         x="313.14224"
         y="2432.3213"
         id="tspan357">zou zien!</tspan></text>
    <text
       xml:space="preserve"
       style="font-style:normal;font-variant:normal;font-weight:normal;font-stretch:normal;line-height:0%;font-family:Lavi;-inkscape-font-specification:Lavi;letter-spacing:0px;word-spacing:0px;opacity:0.857;fill:#ffffff;fill-opacity:1;stroke:#98b9ca;stroke-width:0.954507;stroke-miterlimit:4;stroke-dasharray:none;stroke-opacity:1;filter:url(#filter4375-4-1-1-1-9-5-8-4)"
       x="787.65729"
       y="1584.5073"
       id="text4580-6-0-9"
       transform="matrix(0.45385441,-0.55441241,0.42180805,1.1015917,506.31624,1607.76)"><tspan
         sodipodi:role="line"
         id="tspan4582-1-1-26"
         x="787.65729"
         y="1584.5073"
         style="font-size:70px;line-height:1.25;fill:#ffffff;fill-opacity:1;stroke:#98b9ca;stroke-width:0.954507;stroke-opacity:1"><tspan
           style="font-size:93.1495px;fill:#ffffff;fill-opacity:1;stroke:#98b9ca;stroke-width:0.954507;stroke-opacity:1"
           id="tspan4315-8-64"><tspan
             style="font-size:72.148px;stroke-width:0.954507"
             id="tspan1131">Bam</tspan><tspan
             style="font-size:82.6488px;stroke-width:0.954507"
             id="tspan1133">!</tspan></tspan><tspan
           style="font-size:114.732px;fill:#ffffff;fill-opacity:1;stroke:#98b9ca;stroke-width:0.954507;stroke-opacity:1"
           id="tspan4313-2-9">!</tspan></tspan></text>
    <text
       xml:space="preserve"
       style="font-style:normal;font-variant:normal;font-weight:normal;font-stretch:normal;font-size:15.6747px;line-height:0%;font-family:Lavi;-inkscape-font-specification:Lavi;text-align:center;letter-spacing:0px;word-spacing:0px;text-anchor:middle;display:inline;fill:#000000;fill-opacity:1;stroke:#000000;stroke-width:1.8;stroke-miterlimit:4;stroke-dasharray:none;stroke-opacity:1"
       x="2779.0186"
       y="2023.4807"
       id="text4246-3-7-9-5-1-6-2"
       transform="matrix(0.87277154,0,-0.23842397,1.1457752,0,0)"><tspan
         sodipodi:role="line"
         style="font-size:58.78px;line-height:1.25;stroke:#000000;stroke-width:1.8;stroke-miterlimit:4;stroke-dasharray:none;stroke-opacity:1"
         x="2779.0186"
         y="2023.4807"
         id="tspan1222">CARROT!</tspan></text>
    <text
       xml:space="preserve"
       style="font-style:normal;font-variant:normal;font-weight:normal;font-stretch:normal;line-height:0%;font-family:Lavi;-inkscape-font-specification:Lavi;letter-spacing:0px;word-spacing:0px;display:inline;opacity:0.857;fill:#ffffff;fill-opacity:1;stroke:#98b9ca;stroke-width:1.48875;stroke-miterlimit:4;stroke-dasharray:none;stroke-opacity:1;filter:url(#filter4375-4-1-1-1-9-5-8-4-3)"
       x="787.65729"
       y="1584.5073"
       id="text4580-6-0-9-3"
       transform="matrix(0.33769447,-0.30629363,0.31385009,0.60859124,1407.0816,1753.5904)"><tspan
         sodipodi:role="line"
         id="tspan4582-1-1-26-6"
         x="787.65729"
         y="1584.5073"
         style="font-size:70px;line-height:1.25;fill:#ffffff;fill-opacity:1;stroke:#98b9ca;stroke-width:1.48875;stroke-opacity:1"><tspan
           style="font-size:93.1495px;fill:#ffffff;fill-opacity:1;stroke:#98b9ca;stroke-width:1.48875;stroke-opacity:1"
           id="tspan4315-8-64-0">PAF<tspan
   style="font-size:82.6488px;stroke-width:1.48875"
   id="tspan1133-2">!</tspan></tspan><tspan
           style="font-size:114.732px;fill:#ffffff;fill-opacity:1;stroke:#98b9ca;stroke-width:1.48875;stroke-opacity:1"
           id="tspan4313-2-9-6">!</tspan></tspan></text>
  </g>
</svg>
