<?xml version="1.0" encoding="UTF-8" standalone="no"?>
<!-- Created with Inkscape (http://www.inkscape.org/) -->

<svg
   id="svg2"
   version="1.1"
   inkscape:version="1.3 (0e150ed6c4, 2023-07-21)"
   width="2481"
   height="3503"
   sodipodi:docname="E37P06.svg"
   xmlns:inkscape="http://www.inkscape.org/namespaces/inkscape"
   xmlns:sodipodi="http://sodipodi.sourceforge.net/DTD/sodipodi-0.dtd"
   xmlns:xlink="http://www.w3.org/1999/xlink"
   xmlns="http://www.w3.org/2000/svg"
   xmlns:svg="http://www.w3.org/2000/svg"
   xmlns:rdf="http://www.w3.org/1999/02/22-rdf-syntax-ns#"
   xmlns:cc="http://creativecommons.org/ns#"
   xmlns:dc="http://purl.org/dc/elements/1.1/">
  <metadata
     id="metadata8">
    <rdf:RDF>
      <cc:Work
         rdf:about="">
        <dc:format>image/svg+xml</dc:format>
        <dc:type
           rdf:resource="http://purl.org/dc/dcmitype/StillImage" />
        <dc:title />
      </cc:Work>
    </rdf:RDF>
  </metadata>
  <defs
     id="defs6" />
  <sodipodi:namedview
     pagecolor="#ffffff"
     bordercolor="#666666"
     borderopacity="1"
     objecttolerance="10"
     gridtolerance="10"
     guidetolerance="10"
     inkscape:pageopacity="0"
     inkscape:pageshadow="2"
     inkscape:window-width="1888"
     inkscape:window-height="1144"
     id="namedview4"
     showgrid="false"
     inkscape:zoom="0.49469369"
     inkscape:cx="1353.3627"
     inkscape:cy="2491.4407"
     inkscape:window-x="32"
     inkscape:window-y="0"
     inkscape:window-maximized="1"
     inkscape:current-layer="layer3"
     inkscape:pagecheckerboard="0"
     inkscape:showpageshadow="0"
     inkscape:deskcolor="#d1d1d1" />
  <g
     inkscape:groupmode="layer"
     id="layer2"
     inkscape:label="artwork"
     sodipodi:insensitive="true">
    <image
       xlink:href="../gfx_Pepper-and-Carrot_by-David-Revoy_E37P06.png"
       y="0"
       x="0"
       id="image10"
       height="3503"
       width="2481" />
  </g>
  <g
     inkscape:groupmode="layer"
     id="layer3"
     inkscape:label="speechbubbles">
    <path
       style="fill:#ffe4a0;fill-rule:evenodd;stroke:none;stroke-width:1.57456px;stroke-linecap:butt;stroke-linejoin:miter;stroke-opacity:1;fill-opacity:1"
       d="m 114.92639,235.7163 c -1.44188,-67.16519 36.04988,-79.01645 56.23767,-82.96846 20.18796,-3.94963 103.82341,-23.70495 135.54726,7.90162 31.72382,31.60659 40.37591,84.9433 25.95588,104.6986 -14.41984,19.75291 -60.56371,49.38468 -89.40355,51.35949 -28.8397,1.9748 -90.84547,-9.87646 -111.03326,-37.53343 -20.18796,-27.65452 -17.304,-43.45782 -17.304,-43.45782 z"
       id="path1365"
       inkscape:connector-curvature="0" />
    <path
       style="fill:#ffe4a0;fill-rule:evenodd;stroke:none;stroke-width:1.18625px;stroke-linecap:butt;stroke-linejoin:miter;stroke-opacity:1;fill-opacity:1"
       d="m 276.57128,286.65867 c 0,0 -8.31854,14.71485 -3.94644,34.32306 4.3721,19.60821 13.90542,39.57744 34.7933,54.14841 -41.89702,-20.22752 -65.69947,-37.55159 -66.67128,-74.5854 -0.97218,-37.03494 35.82442,-13.88607 35.82442,-13.88607 z"
       id="path1357"
       inkscape:connector-curvature="0" />
    <path
       style="fill:#ffe4a0;fill-rule:evenodd;stroke:none;stroke-width:0.689634px;stroke-linecap:butt;stroke-linejoin:miter;stroke-opacity:1;fill-opacity:1"
       d="m 940.34878,186.69397 c -33.33631,1.12798 -67.06234,1.00077 -99.76851,6.7435 -14.71015,2.82612 -29.65186,6.8958 -40.94729,14.96826 -12.15577,9.37202 -18.68842,22.09022 -22.50918,34.77755 -7.2848,23.87333 -6.73577,49.60779 5.03787,72.59502 5.71603,11.10081 14.52991,21.77615 27.77772,28.38384 13.65496,6.61775 29.2542,10.26372 44.6352,13.70789 26.25911,4.9985 53.5651,4.5485 80.38982,3.61684 23.88742,-0.87961 48.16396,-2.94514 70.43459,-10.04917 12.3178,-3.82949 24.5277,-8.69155 33.6806,-16.25445 9.7816,-8.62031 14.7652,-19.77136 17.6033,-30.83274 4.6514,-18.92091 3.101,-38.37027 -0.4535,-57.31659 -1.5902,-9.45658 -2.8639,-19.36184 -9.3277,-27.73198 -6.4092,-7.91798 -17.1202,-12.9351 -27.7137,-17.03245 -24.33443,-9.52292 -51.33585,-15.84289 -78.83922,-15.57552 z"
       id="path1353"
       inkscape:connector-curvature="0"
       sodipodi:nodetypes="csssscscsscsc" />
    <path
       style="color:#000000;display:inline;overflow:visible;visibility:visible;fill:#ffe4a0;fill-opacity:1;fill-rule:nonzero;stroke:none;stroke-width:0.861851px;marker:none;enable-background:accumulate"
       d="m 920.64907,328.99665 c -7.89156,5.93196 -11.59104,16.28682 -10.73276,25.94957 0.42223,4.4898 2.07058,8.76171 2.48862,13.25746 1.01197,7.55227 1.05293,15.42171 -1.40821,22.71484 -1.20442,1.72882 -3.79048,1.05453 -5.01568,-0.29626 -10.07465,-6.60916 -20.06188,-13.83162 -31.69135,-17.45527 -3.79347,-0.92218 -7.49599,1.78526 -9.23632,5.00153 -1.4402,2.77657 -2.01316,5.92993 -2.32924,9.01606 -0.55273,6.5806 1.28554,13.1049 3.96106,19.05818 3.14714,8.05533 6.31422,16.4571 5.93458,25.25193 -0.84545,6.13098 -8.24835,10.22802 -13.88693,7.6472 -6.28697,-1.87961 -10.73205,-6.98767 -15.56562,-11.11151 -8.86497,-7.84865 -17.5953,-16.18188 -28.30526,-21.49467 -7.38254,-2.49937 -15.71863,0.24411 -21.23633,5.4668 -3.28278,2.9805 -6.07223,6.44058 -8.94141,9.80664 5.8814,-4.02407 11.87998,-8.29236 18.92579,-9.9668 5.92728,0.27474 10.83062,3.99283 15.65346,7.04174 9.22342,6.01627 16.39972,14.65414 22.20637,23.90936 3.76567,5.4691 7.51953,11.12941 12.67093,15.3981 3.2658,1.63675 6.90342,2.34098 10.46142,3.03947 5.33481,0.86184 10.93374,1.00049 16.1436,-0.58041 5.05084,-2.68449 7.63974,-8.48655 7.90731,-14.00736 1.31557,-10.50648 -1.34041,-20.96489 -4.32747,-30.9597 -1.34044,-4.77497 -2.55206,-9.60437 -3.14531,-14.53651 1.14339,-2.41987 4.68319,-2.64674 6.56055,-0.98047 7.59492,3.4498 13.00439,10.01681 19.08789,15.47852 8.59672,6.12612 21.82202,3.74033 27.89071,-4.84806 5.2193,-6.70376 6.94821,-15.35423 7.43486,-23.65494 0.82894,-10.02392 1.61175,-20.28559 5.5879,-29.65192 1.16442,-3.02572 2.64205,-5.92432 4.30918,-8.70251 -0.35144,-1.98682 -2.65366,-2.40619 -4.00685,-3.52799 -9.0205,-5.41384 -18.041,-10.82769 -27.06151,-16.24154 l -0.16601,-0.0293 z m 33.15039,19.79687 c -0.62158,0.68067 0.23902,-0.002 0,0 z"
       id="path5058-2"
       inkscape:connector-curvature="0"
       sodipodi:nodetypes="cscsssssscssssccscccc" />
    <path
       style="display:inline;fill:#ffd91c;fill-opacity:1;fill-rule:evenodd;stroke:none;stroke-width:0.948669px;stroke-linecap:butt;stroke-linejoin:miter;stroke-opacity:1"
       d="m 1187.948,101.05479 c 37.4464,-0.50023 50.065,0.37212 58.7371,1.46263 -1.6102,-2.666744 51.2444,-1.53012 110.6444,0.0636 -17.6731,-1.95286 29.4312,-2.08186 88.068,-0.98965 -6.632,-0.94211 8.5173,63.58538 70.9946,24.58602 -18.8758,49.61859 -48.0354,82.34272 87.539,22.73914 -39.6944,33.25679 -102.1829,75.28166 -15.5663,104.72809 -77.9996,12.98088 -97.9421,73.76887 -77.5961,102.57254 -37.1603,-58.2953 -69.3863,-48.70748 -54.9041,44.29061 -37.3784,-44.15407 -68.0101,-73.97852 -75.129,-23.73551 -14.7365,-28.24395 -49.6542,-29.6082 -67.037,32.00025 -26.4753,-59.0447 -55.3981,-72.97206 -84.5868,2.11948 -0.413,-48.1797 -14.7546,-82.59102 -42.3454,-57.85513 z"
       id="path1100"
       inkscape:connector-curvature="0"
       sodipodi:nodetypes="cccccccccccccc" />
    <path
       style="display:inline;fill:#ffd91c;fill-opacity:1;fill-rule:evenodd;stroke:none;stroke-width:0.924986px;stroke-linecap:butt;stroke-linejoin:miter;stroke-opacity:1"
       d="m 2381.9803,802.64457 c -34.8402,0.57486 -46.5805,-0.42764 -54.649,-1.68086 1.4981,3.06463 -47.6779,1.75842 -102.9437,-0.0731 16.4431,2.24422 -84.9134,1.14611 -139.4692,-0.10905 4.9332,-10.18207 -26.9129,-28.73119 -55.7942,-29.45503 59.6886,-32.44843 81.619,-57.77203 7.2167,-83.25417 52.8842,-4.85555 65.5817,-55.87455 -7.3918,-87.14704 67.0764,7.45294 64.0057,-15.36446 15.3258,-63.00591 57.0858,29.92964 104.5417,4.51264 71.3716,-58.16888 43.5637,35.31666 109.6314,77.20318 82.9946,-24.06099 46.347,74.78212 63.1776,84.93373 79.3506,14.13324 24.6326,67.85421 58.3201,59.04869 72.3266,15.25342 -2.5962,45.57301 8.6801,72.73846 34.3505,44.31197 z"
       id="path1100-1"
       inkscape:connector-curvature="0"
       sodipodi:nodetypes="cccccccccccccc" />
    <path
       style="display:inline;fill:#ffd91c;fill-rule:evenodd;stroke:none;stroke-width:1.21129px;stroke-linecap:butt;stroke-linejoin:miter;stroke-opacity:1;fill-opacity:1"
       d="m 1454.5358,258.87242 c 32.8791,33.53516 56.7879,77.06946 103.0231,108.5417 l -39.4041,4.85315 c 33.1236,33.29864 86.1701,72.49084 86.1701,72.49084 0,0 -36.1582,-9.1905 -137.95,-87.08512 l 35.6661,-4.58596 c -28.5603,-35.78999 -82.3648,-65.49689 -123.704,-98.20746 z"
       id="path957"
       sodipodi:nodetypes="cccccccc" />
    <path
       style="display:inline;fill:#ffd91c;fill-rule:evenodd;stroke:none;stroke-width:1.15094px;stroke-linecap:butt;stroke-linejoin:miter;stroke-opacity:1;fill-opacity:1"
       d="m 2139.2104,672.51783 c -94.5252,-53.78313 -255.9511,-97.55437 -255.9511,-97.55437 0,0 30.8361,-7.14437 136.3682,19.77436 l 147.9944,28.48852 c 276.9342,105.20644 -79.315,87.53799 -28.4115,49.29149 z"
       id="path957-2"
       sodipodi:nodetypes="ccccc" />
    <path
       style="fill:#ffd91c;fill-rule:evenodd;stroke:none;stroke-width:2.13775px;stroke-linecap:butt;stroke-linejoin:miter;stroke-opacity:1;fill-opacity:1"
       d="m 1428.4132,981.7155 c 9.4188,-54.56882 49.4494,-81.85233 103.6085,-87.69995 54.1591,-5.84582 287.2784,-1.9474 317.8899,11.69344 30.6119,13.64266 94.1896,44.82459 65.933,109.13761 -28.2571,64.3131 -127.1563,54.5689 -176.6058,54.5689 -49.4494,0 -237.8286,5.8476 -268.4402,-19.4885 -30.6117,-25.3361 -40.0304,-5.8459 -42.3854,-68.2115 z"
       id="path1297"
       inkscape:connector-curvature="0" />
    <path
       style="fill:#ffd91c;fill-rule:evenodd;stroke:none;stroke-width:0.91786px;stroke-linecap:butt;stroke-linejoin:miter;stroke-opacity:1;fill-opacity:1"
       d="m 1769.5882,1013.5993 c -38.0277,0.4776 -75.9363,4.4721 -113.908,6.3997 -15.3507,3.2608 -30.7687,8.5253 -43.8292,18.6533 -10.2631,11.8857 -16.2482,27.5524 -21.8056,42.7933 -4.8792,17.9917 -1.4374,37.0434 1.8194,54.9799 2.6684,13.4516 8.1638,26.4406 17.1769,35.7311 7.784,9.0827 17.4236,17.1447 28.761,18.3904 10.7323,1.7647 21.5719,2.5188 32.2822,4.482 22.023,2.9413 44.1656,7.2967 66.3997,5.3437 30.3152,-3.4753 60.4462,-9.046 90.2804,-16.1266 7.9144,-2.1013 15.9197,-6.6801 19.9682,-15.2103 4.3168,-7.7973 8.1369,-16.0168 11.328,-24.4921 3.8283,-13.6935 2.0155,-28.2568 2.4194,-42.3754 -0.1651,-11.669 0.1868,-24.209 -5.4004,-34.4855 -5.4511,-10.6355 -13.4232,-19.1342 -21.1654,-27.5061 -8.3996,-8.49 -18.5522,-14.2286 -29.0502,-18.3694 -11.2525,-4.9184 -23.1537,-8.5816 -35.2764,-8.208 z"
       id="path1299"
       inkscape:connector-curvature="0"
       sodipodi:nodetypes="ccssssssscscc" />
    <path
       style="display:inline;fill:#ffd91c;fill-rule:evenodd;stroke:none;stroke-width:1.57598px;stroke-linecap:butt;stroke-linejoin:miter;stroke-opacity:1;fill-opacity:1"
       d="m 1585.9657,1140.5305 c 52.2072,21.6534 100.3339,16.0087 99.4377,-32.111 24.908,52.4397 42.1927,64.3832 52.4435,38.9598 32.9766,22.6201 53.573,16.8231 69.9251,1.285 6.095,20.4819 19.1653,12.5023 30.4774,11.698 3.7255,4.6777 -9.0704,15.8919 42.6258,1.587 3.3489,6.1611 7.8598,11.4973 38.1409,-1.4703 7.8452,24.9032 33.0152,-0.7659 58.8006,-28.2304 -16.065,34.0526 -9.4036,39.027 11.1244,26.2589 -9.3852,13.9723 -14.9986,24.819 20.6597,1.4648 -12.2076,25.8841 19.8189,8.5522 71.5141,-27.9967 -38.6233,30.9375 -73.5333,77.5778 15.106,61.9558 -24.7736,10.701 -66.4519,44.3675 0.454,58.5309 -12.4904,5.3161 -50.6231,-3.4881 -18.8134,20.5746 4.2617,2.8228 -10.0057,4.2366 17.2242,11.9644 -16.0742,-0.7875 -25.932,0.7883 -11.1243,11.7365 -29.3416,-1.1159 -42.2901,24.3949 -20.748,39.1094 -42.491,-19.1483 -44.8294,-12.5157 -46.0874,-5.1888 -53.2531,-26.0201 -56.3793,-18.1934 -63.5678,-13.1098 -25.9569,-0.2819 -51.9141,-3.9119 -77.8711,23.5374 -6.7977,-17.4943 -20.4268,-31.115 -77.8708,-19.8856 25.2223,-21.6343 -10.6599,-8.2151 -38.141,0.3842 15.0492,-27.3283 -23.1434,-9.9132 -71.5141,16.0553 27.0873,-29.9857 -3.6776,-19.5395 -49.2652,1.2659 34.7442,-54.2062 2.5478,-63.3904 -77.871,-47.0262 32.0893,-10.2119 52.6961,-50.2268 19.3754,-75.2941 37.5619,7.8907 50.7634,-13.8954 8.2875,-27.9721 56.2634,10.7979 37.5665,-25.9841 -2.7222,-48.0829 z"
       id="path4508-2"
       inkscape:connector-curvature="0"
       sodipodi:nodetypes="cccccccccccccccccccccccccccc" />
    <path
       style="display:inline;fill:#ffd91c;fill-rule:evenodd;stroke:none;stroke-width:1.2565px;stroke-linecap:butt;stroke-linejoin:miter;stroke-opacity:1;fill-opacity:1"
       d="m 1716.7467,1244.5841 c 43.7212,23.5845 84.0251,17.4365 83.2746,-34.9745 20.8594,57.1162 35.3345,70.1247 43.9192,42.4341 27.6163,24.6374 44.8648,18.3234 58.5591,1.3996 5.1041,22.3084 16.05,13.6173 25.5231,12.7413 3.1201,5.0949 -7.5959,17.3091 35.6973,1.7285 2.8044,6.7105 6.5822,12.5226 31.9411,-1.6014 6.5701,27.1241 27.6486,-0.8342 49.2429,-30.748 -13.4539,37.0894 -7.8751,42.5074 9.3162,28.6007 -7.8598,15.2183 -12.5607,27.0323 17.3015,1.5954 -10.2234,28.1923 16.5974,9.3148 59.8897,-30.4933 -32.3452,33.6963 -61.5806,84.4959 12.6506,67.4808 -20.7466,11.6553 -55.6503,48.3241 0.3802,63.7505 -10.46,5.7902 -42.3947,-3.7992 -15.7553,22.4095 3.569,3.0744 -8.3793,4.6144 14.4246,13.0313 -13.4615,-0.8577 -21.7171,0.8586 -9.3163,12.7832 -24.5722,-1.2155 -35.4159,26.5704 -17.3755,42.597 -35.5842,-20.8559 -37.5424,-13.6318 -38.5959,-5.6515 -44.5972,-28.3406 -47.215,-19.8158 -53.2351,-14.2789 -21.7379,-0.307 -43.4757,-4.2608 -65.2135,25.6365 -5.6928,-19.0545 -17.1064,-33.8898 -65.2132,-21.6591 21.1225,-23.5635 -8.9272,-8.9475 -31.9411,0.4186 12.6028,-29.7654 -19.3818,-10.7974 -59.8899,17.487 22.6844,-32.6598 -3.0798,-21.282 -41.2575,1.3787 29.0969,-59.0401 2.1337,-69.0433 -65.2133,-51.2198 26.8734,-11.1226 44.1305,-54.706 16.2262,-82.0086 31.4561,8.5943 42.5119,-15.1345 6.9403,-30.4666 47.1181,11.7607 31.4602,-28.3014 -2.28,-52.371 z"
       id="path4508-2-3"
       inkscape:connector-curvature="0"
       sodipodi:nodetypes="cccccccccccccccccccccccccccc" />
    <path
       style="color:#000000;display:inline;overflow:visible;visibility:visible;fill:#ffd91c;fill-opacity:1;fill-rule:nonzero;stroke:none;stroke-width:0.969926px;marker:none;enable-background:accumulate"
       d="m 1310.0548,995.06791 c 22.2211,-34.14103 39.9857,-36.59103 52.6492,-39.61603 1.7643,3.396 6.1135,8.794 6.1135,8.794 1.3611,-5.44434 56.7367,-23.68633 64.0338,-12.39927 10.1747,-0.224 10.4078,17.98503 10.4078,17.98503 -1.59,-7.94978 -77.0372,12.13063 -85.791,20.76224 -4.4313,-9.518 -7.9052,-13.563 -7.9875,-17.682 -7.6447,-0.519 -31.1799,10.299 -39.4258,22.15603 z"
       id="path4456-5"
       inkscape:connector-curvature="0"
       sodipodi:nodetypes="cccccccc" />
    <path
       style="display:inline;fill:#ffd91c;fill-opacity:1;fill-rule:evenodd;stroke:none;stroke-width:0.820114px;stroke-linecap:butt;stroke-linejoin:miter;stroke-opacity:1"
       d="m 223.03839,2053.6778 c 44.40963,1.9243 108.39666,5.7821 57.9817,-1.6583 32.66257,1.8015 74.4298,5.3331 86.29409,2.4632 11.54755,1.0708 18.41219,0.7067 12.62143,-1.5379 31.52989,2.7953 47.3862,1.7078 66.08925,1.3256 21.2963,2.0014 36.6284,1.5907 46.39705,-1.07 -7.1015,5.5487 50.2879,1.5472 95.63051,-0.7822 -3.07518,1.267 -30.40238,4.7988 16.18142,1.4278 -4.39723,1.8271 -3.94257,3.326 100.135,-2.1845 -45.96467,4.9455 -24.28187,3.8239 -0.012,2.4704 -38.82049,5.3372 29.77888,9.2876 55.83106,8.7663 -77.90021,14.9467 -113.62842,41.6439 12.24418,86.9756 -49.05016,0.2791 -123.65447,-22.0566 -98.99442,76.6759 -73.57472,-53.8675 -108.93439,-5.3577 -93.80044,39.9957 -43.95744,-61.3762 -71.64944,-61.009 -80.92629,9.2623 -25.33646,-59.7767 -52.20379,-71.7359 -81.34293,-12.734 10.95777,-88.2247 -56.59211,-62.1722 -89.46096,-23.3975 25.74854,-40.9777 -20.31954,-47.7731 -72.57645,-9.2433 63.90502,-62.2273 18.53891,-57.582 -56.43499,-34.8172 89.38703,-45.2659 76.25662,-64.3146 -14.79036,-63.4374 111.07935,-5.9954 89.32452,-74.7718 38.93318,-78.5005 z"
       id="path740849"
       sodipodi:nodetypes="cccccccccccccccccccccc" />
    <path
       style="color:#000000;display:inline;overflow:visible;visibility:visible;fill:#ffd91c;fill-opacity:1;fill-rule:nonzero;stroke:none;stroke-width:1px;marker:none;enable-background:accumulate"
       d="m 625.17576,2198.464 c 32.4119,11.8493 68.59806,43.3077 68.15392,52.5243 2.57923,-9.5085 6.6039,-17.4308 9.62749,-23.6657 13.04254,7.2714 43.8298,44.5047 61.80037,65.0819 -15.05247,-42.9 -51.67758,-88.1131 -70.34793,-102.0634 -0.43359,10.3146 -2.88747,18.5199 -5.87724,22.4034 -19.74556,7.9495 -28.17774,-60.2326 -25.11612,-64.3964 z"
       id="path5066-6"
       inkscape:connector-curvature="0"
       sodipodi:nodetypes="cccccccc" />
    <path
       style="color:#000000;display:inline;overflow:visible;visibility:visible;fill:#ffd91c;fill-opacity:1;fill-rule:nonzero;stroke:none;stroke-width:1.59381px;marker:none;enable-background:accumulate"
       d="m 1860.1744,2278.0969 c 11.7647,66.0605 -80.7248,40.0494 -111.8942,27.1033 63.0755,35.1108 94.5356,60.1515 -22.6079,58.5265 115.6945,49.9613 20.6917,51.8797 0.71,67.6092 94.0316,10.0078 52.5848,80.4371 34.9417,82.7656 109.6299,0.026 72.5536,1.8429 76.227,3.2864 9.7409,-0.6787 55.2593,-2.7469 56.4078,-0.4503 73.9697,-2.2001 162.2606,-3.6262 166.6784,0.2078 30.491,-1.9327 98.1585,0.7942 56.4082,-0.4504 74.373,-3.0014 138.7331,-1.932 203.6311,-1.0941 17.7843,-0.9054 14.28,-0.4207 69.6835,-0.1021 -7.2101,-0.8944 -6.3103,-58.9101 -1.5317,-67.4916 -6.2744,-12.3647 -7.397,-25.2525 4.3712,-39.4474 -8.9171,-1.122 -17.2274,-3.6681 -6.6101,-51.3365 -14.6131,2.5352 -104.9846,9.2497 -20.6959,-74.907 -63.7805,38.9927 -188.1298,69.7612 -171.0182,-19.6358 -35.6436,52.8788 -92.2464,76.0079 -111.6078,9.8438 -37.6839,60.1295 -84.1109,37.8369 -111.4858,-4.2711 -21.7877,31.6338 -58.629,77.3625 -111.6073,9.8437 z"
       id="path3549-3-7-5"
       inkscape:connector-curvature="0"
       sodipodi:nodetypes="ccccccccccccccccccc" />
    <path
       style="display:inline;fill:#ffd91c;fill-rule:evenodd;stroke:none;stroke-width:1.35593px;stroke-linecap:butt;stroke-linejoin:miter;stroke-opacity:1;fill-opacity:1"
       d="m 1689.7839,2842.3701 c 19.4047,-24.5479 18.155,-78.7576 -5.616,-96.039 51.5771,-9.5217 11.6064,-50.7764 -14.6471,-98.8817 39.243,29.3068 87.3315,82.7376 67.1872,-61.7656 27.8383,41.0387 50.5753,76.8135 68.0156,15.3495 8.8516,28.729 27.0082,55.4766 46.9371,8.0436 6.9895,23.5223 14.9473,14.3706 23.9194,-29.0096 8.1475,53.5268 27.5137,52.8016 47.7211,-4.2309 14.1581,58.5316 29.765,107.1408 64.1867,26.9303 -5.2915,59.9163 12.5386,57.2491 40.8194,26.2946 -4.2614,26.0272 0.5068,34.6776 33.8567,13.8857 -8.8682,25.1809 -20.8754,40.3152 11.279,32.7592 -14.2888,22.8898 -29.967,73.5227 18.7197,60.9701 -38.1972,38.6945 -16.4563,54.2786 -15.6346,76.7243 -27.3338,-13.4931 -39.9869,-7.6661 -12.6075,50.8466 -14.1957,-0.9543 -51.6488,-65.0009 -34.5845,18.845 -21.7246,-47.0442 -46.1221,9.5377 -33.7287,11.7144 l -51.6081,16.6361 -80.7106,-16.1136 -57.4583,-0.1662 -48.2193,10.0764 c 7.8882,-36.4827 -8.7484,-23.8262 -21.7211,-18.5116 -3.8375,-10.7792 6.0183,-36.6069 -22.2366,-20.5518 1.544,-26.4573 -12.1754,-23.1569 -23.8695,-23.8058 z"
       id="path1058"
       sodipodi:nodetypes="cccccccccccccccccccccccc" />
    <path
       style="display:inline;fill:#ffd91c;fill-opacity:1;fill-rule:evenodd;stroke:none;stroke-width:1.76787px;stroke-linecap:butt;stroke-linejoin:miter;stroke-opacity:1"
       d="m 1703.4773,2947.7709 c 67.2864,-0.5195 58.3717,22.4041 34.14,50.0397 18.641,-2.3002 62.2385,-28.4492 36.3871,11.7676 56.4462,-15.8325 21.6713,14.1399 17.0844,28.8758 22.7534,-3.6675 36.6823,9.2101 9.0088,59.1721 27.9446,-12.3143 70.6472,-56.9317 67.465,-1.1119 22.623,-7.5057 52.3466,-34.9337 56.1189,10.4483 37.7552,-39.5404 72.3133,-44.1517 79.787,26.7425 27.7913,-46.4537 51.9917,-55.6057 70.9989,-10.8006 26.4658,-30.7448 64.2244,-39.5575 97.4948,17.0851 -9.7129,-45.3006 5.032,-73.944 113.8753,-38.5012 -0.7894,-40.084 21.9227,-58.6141 112.6887,-14.7283 -19.2907,-26.191 -65.9311,-67.4762 42.6424,-23.0978 -57.1013,-55.3392 -45.9137,-51.3975 15.0735,-77.971 -52.5341,-8.5986 -45.2421,-30.0837 -23.429,-60.6017 -68.3805,10.5901 -63.8666,-21.1541 -39.3697,-87.9408 -67.413,36.7581 -57.7424,16.1346 -41.5808,-2.9042 -119.816,39.8994 -69.8446,-19.6251 -58.781,-42.6101 -86.7946,104.2279 -61.276,40.5964 -51.6948,0.7851 -49.2746,62.0633 -70.0456,62.5384 -60.6431,2.5173 -82.6327,75.1225 -46.056,5.9192 -73.0337,9.2795 l -338.175,73.2144 -37.3261,28.961 c 34.6484,8.9545 33.063,33.6177 -28.7316,41.3792 z"
       id="path961"
       sodipodi:nodetypes="cccccccccccccccccccccccc" />
    <path
       style="display:inline;fill:#ffd91c;fill-rule:evenodd;stroke:none;stroke-width:1px;stroke-linecap:butt;stroke-linejoin:miter;stroke-opacity:1;fill-opacity:1"
       d="m 1528.7352,2694.2069 109.5526,83.6005 3.1037,-33.726 76.5887,55.1392 8.721,-28.3178 -96.9649,-58.1834 -4.8274,38.3301 z"
       id="path4667-2"
       inkscape:connector-curvature="0" />
  </g>
  <g
     inkscape:groupmode="layer"
     id="layer1"
     inkscape:label="txt"
     style="display:inline">
    <text
       xml:space="preserve"
       style="font-style:normal;font-variant:normal;font-weight:normal;font-stretch:normal;font-size:45.3333px;line-height:125%;font-family:Lavi;-inkscape-font-specification:Lavi;text-align:center;letter-spacing:0px;word-spacing:0px;text-anchor:middle;fill:#000000;fill-opacity:1;stroke:none"
       x="226.48608"
       y="209.47772"
       id="text4246-70-2-2-2-7-4-9-9-6-1-2-3-9-2-7-9"><tspan
         sodipodi:role="line"
         style="font-size:45.3333px"
         x="226.48608"
         y="209.47772"
         id="tspan4561">No, kaj</tspan><tspan
         sodipodi:role="line"
         style="font-size:45.3333px"
         x="226.48608"
         y="266.14435"
         id="tspan1029">praviš?</tspan></text>
    <text
       xml:space="preserve"
       style="font-style:normal;font-variant:normal;font-weight:normal;font-stretch:normal;font-size:45.3333px;line-height:125%;font-family:Lavi;-inkscape-font-specification:Lavi;text-align:center;letter-spacing:0px;word-spacing:0px;text-anchor:middle;fill:#000000;fill-opacity:1;stroke:none"
       x="921.34589"
       y="257.85614"
       id="text4246-70-2-2-2-7-4-9-9-6-1-2-3-9-2-7-9-3"><tspan
         sodipodi:role="line"
         style="font-size:45.3333px"
         x="921.34589"
         y="257.85614"
         id="tspan4557">Imaš že</tspan><tspan
         sodipodi:role="line"
         style="font-size:45.3333px"
         x="921.34589"
         y="314.52277"
         id="tspan1033">solzne oči?</tspan></text>
    <text
       xml:space="preserve"
       style="font-style:normal;font-variant:normal;font-weight:normal;font-stretch:normal;font-size:53.3333px;line-height:125%;font-family:Lavi;-inkscape-font-specification:Lavi;text-align:center;letter-spacing:0px;word-spacing:0px;text-anchor:middle;fill:#000000;fill-opacity:1;stroke:none;stroke-width:0.807928"
       x="1337.9215"
       y="195.62372"
       id="text4246-70-2-2-2-7-4-9-9-6-1-2-3-9-2-7-9-3-7"><tspan
         sodipodi:role="line"
         style="font-style:normal;font-variant:normal;font-weight:bold;font-stretch:normal;font-size:53.3333px;font-family:Lavi;-inkscape-font-specification:'Lavi Bold';stroke-width:0.807928"
         x="1337.9215"
         y="195.62372"
         id="tspan4565">SE DELAŠ</tspan><tspan
         sodipodi:role="line"
         style="font-style:normal;font-variant:normal;font-weight:bold;font-stretch:normal;font-size:53.3333px;font-family:Lavi;-inkscape-font-specification:'Lavi Bold';stroke-width:0.807928"
         x="1337.9215"
         y="262.29034"
         id="tspan1037">NORCA IZ</tspan><tspan
         sodipodi:role="line"
         style="font-style:normal;font-variant:normal;font-weight:bold;font-stretch:normal;font-size:53.3333px;font-family:Lavi;-inkscape-font-specification:'Lavi Bold';stroke-width:0.807928"
         x="1346.2549"
         y="328.95697"
         id="tspan1039">MENE?!  </tspan></text>
    <text
       xml:space="preserve"
       style="font-style:normal;font-variant:normal;font-weight:normal;font-stretch:normal;font-size:62.2419px;line-height:125%;font-family:Lavi;-inkscape-font-specification:Lavi;text-align:center;letter-spacing:0px;word-spacing:0px;text-anchor:middle;fill:#000000;fill-opacity:1;stroke:none;stroke-width:0.83075"
       x="2236.9771"
       y="618.63971"
       id="text4246-70-2-2-2-7-4-9-9-6-1-2-3-9-2-7-9-3-7-6"><tspan
         sodipodi:role="line"
         style="font-style:normal;font-variant:normal;font-weight:bold;font-stretch:normal;font-size:62.2419px;font-family:Lavi;-inkscape-font-specification:'Lavi Bold';stroke-width:0.83075"
         x="2236.9771"
         y="618.63971"
         id="tspan8587">JE BILO</tspan><tspan
         sodipodi:role="line"
         style="font-style:normal;font-variant:normal;font-weight:bold;font-stretch:normal;font-size:62.2419px;font-family:Lavi;-inkscape-font-specification:'Lavi Bold';stroke-width:0.83075"
         x="2236.9771"
         y="696.44208"
         id="tspan4572">TO RES</tspan><tspan
         sodipodi:role="line"
         style="font-style:normal;font-variant:normal;font-weight:bold;font-stretch:normal;font-size:62.2419px;font-family:Lavi;-inkscape-font-specification:'Lavi Bold';stroke-width:0.83075"
         x="2236.9771"
         y="774.24445"
         id="tspan4574">VSE?!</tspan></text>
    <text
       xml:space="preserve"
       style="font-style:normal;font-variant:normal;font-weight:normal;font-stretch:normal;font-size:49.902px;line-height:125%;font-family:Lavi;-inkscape-font-specification:Lavi;text-align:center;letter-spacing:0px;word-spacing:0px;text-anchor:middle;fill:#000000;fill-opacity:1;stroke:none;stroke-width:1.10078"
       x="1677.9541"
       y="957.19897"
       id="text4246-70-2-2-2-7-4-9-9-6-1-2-3-9-2-7-9-3-2"><tspan
         sodipodi:role="line"
         style="font-style:normal;font-variant:normal;font-weight:normal;font-stretch:normal;font-size:49.902px;font-family:Lavi;-inkscape-font-specification:Lavi;stroke-width:1.10078"
         x="1677.9541"
         y="957.19897"
         id="tspan4586">Tile tu so se vsaj</tspan><tspan
         sodipodi:role="line"
         style="font-style:normal;font-variant:normal;font-weight:normal;font-stretch:normal;font-size:49.902px;font-family:Lavi;-inkscape-font-specification:Lavi;stroke-width:1.10078"
         x="1677.9541"
         y="1019.5765"
         id="tspan1043">potrudili s poezijo!</tspan></text>
    <text
       xml:space="preserve"
       style="font-style:normal;font-variant:normal;font-weight:normal;font-stretch:normal;font-size:49.902px;line-height:125%;font-family:Lavi;-inkscape-font-specification:Lavi;text-align:center;letter-spacing:0px;word-spacing:0px;text-anchor:middle;fill:#000000;fill-opacity:1;stroke:none;stroke-width:1.10078"
       x="1727.6528"
       y="1095.2692"
       id="text4246-70-2-2-2-7-4-9-9-6-1-2-3-9-2-7-9-3-2-3"><tspan
         sodipodi:role="line"
         style="font-style:normal;font-variant:normal;font-weight:normal;font-stretch:normal;font-size:49.902px;font-family:Lavi;-inkscape-font-specification:Lavi;stroke-width:1.10078"
         x="1727.6528"
         y="1095.2692"
         id="tspan4582">Pisali so</tspan><tspan
         sodipodi:role="line"
         style="font-style:normal;font-variant:normal;font-weight:normal;font-stretch:normal;font-size:49.902px;font-family:Lavi;-inkscape-font-specification:Lavi;stroke-width:1.10078"
         x="1727.6528"
         y="1157.6466"
         id="tspan1047">žaloigre!</tspan></text>
    <text
       xml:space="preserve"
       style="font-style:normal;font-variant:normal;font-weight:normal;font-stretch:normal;font-size:69.3333px;line-height:125%;font-family:Lavi;-inkscape-font-specification:Lavi;text-align:center;letter-spacing:0px;word-spacing:0px;text-anchor:middle;fill:#000000;fill-opacity:1;stroke:none;stroke-width:1.5433"
       x="1838.4116"
       y="1265.5453"
       id="text4246-70-2-2-2-7-4-9-9-6-1-2-3-9-2-7-9-3-2-3-6-1"><tspan
         sodipodi:role="line"
         style="font-style:normal;font-variant:normal;font-weight:bold;font-stretch:normal;font-size:69.3333px;font-family:Lavi;-inkscape-font-specification:'Lavi Bold';stroke-width:1.5433"
         x="1838.4116"
         y="1265.5453"
         id="tspan37654-7">UMETNOST!</tspan></text>
    <text
       xml:space="preserve"
       style="font-style:normal;font-variant:normal;font-weight:normal;font-stretch:normal;font-size:74.6667px;line-height:125%;font-family:Lavi;-inkscape-font-specification:Lavi;text-align:center;letter-spacing:0px;word-spacing:0px;text-anchor:middle;fill:#000000;fill-opacity:1;stroke:none;stroke-width:1.57622"
       x="1928.2345"
       y="1380.6406"
       id="text4246-70-2-2-2-7-4-9-9-6-1-2-3-9-2-7-9-3-2-3-6-1-9"><tspan
         sodipodi:role="line"
         style="font-style:normal;font-variant:normal;font-weight:bold;font-stretch:normal;font-size:74.6667px;font-family:Lavi;-inkscape-font-specification:'Lavi Bold';stroke-width:1.57622"
         x="1928.2345"
         y="1380.6406"
         id="tspan37654-7-2">DRAMO!</tspan></text>
    <text
       xml:space="preserve"
       style="font-style:normal;font-variant:normal;font-weight:normal;font-stretch:normal;font-size:63.2403px;line-height:125%;font-family:Lavi;-inkscape-font-specification:Lavi;text-align:center;letter-spacing:0px;word-spacing:0px;text-anchor:middle;fill:#000000;fill-opacity:1;stroke:none;stroke-width:1.39501"
       x="483.78723"
       y="2154.6296"
       id="text4246-70-2-2-2-7-4-9-9-6-1-2-3-9-2-7-9-3-2-3-0-7"><tspan
         sodipodi:role="line"
         style="font-style:normal;font-variant:normal;font-weight:bold;font-stretch:normal;font-size:63.2403px;font-family:Lavi;-inkscape-font-specification:'Lavi Bold';stroke-width:1.39501"
         x="483.78723"
         y="2154.6296"
         id="tspan100735-9">AMPAK TI?!</tspan></text>
    <text
       xml:space="preserve"
       style="font-style:normal;font-variant:normal;font-weight:normal;font-stretch:normal;font-size:63.2403px;line-height:125%;font-family:Lavi;-inkscape-font-specification:Lavi;text-align:center;letter-spacing:0px;word-spacing:0px;text-anchor:middle;fill:#000000;fill-opacity:1;stroke:none;stroke-width:1.39501"
       x="2088.5955"
       y="2408.2339"
       id="text4246-70-2-2-2-7-4-9-9-6-1-2-3-9-2-7-9-3-2-3-0"><tspan
         sodipodi:role="line"
         style="font-style:normal;font-variant:normal;font-weight:bold;font-stretch:normal;font-size:63.2403px;font-family:Lavi;-inkscape-font-specification:'Lavi Bold';stroke-width:1.39501"
         x="2088.5955"
         y="2408.2339"
         id="tspan12429">TI PA SI PRIŠLA</tspan><tspan
         sodipodi:role="line"
         style="font-style:normal;font-variant:normal;font-weight:bold;font-stretch:normal;font-size:63.2403px;font-family:Lavi;-inkscape-font-specification:'Lavi Bold';stroke-width:1.39501"
         x="2088.5955"
         y="2487.2842"
         id="tspan4578">NEPRIPRAVLJENA!</tspan></text>
    <text
       xml:space="preserve"
       style="font-style:normal;font-variant:normal;font-weight:normal;font-stretch:normal;font-size:51.0809px;line-height:125%;font-family:Lavi;-inkscape-font-specification:Lavi;text-align:center;letter-spacing:0px;word-spacing:0px;text-anchor:middle;fill:#000000;fill-opacity:1;stroke:none;stroke-width:1.01681"
       x="1894.6439"
       y="2711.075"
       id="text4246-70-2-2-2-7-4-9-9-6-1-2-3-9-2-7-9-3-2-3-0-2"><tspan
         sodipodi:role="line"
         style="font-style:normal;font-variant:normal;font-weight:bold;font-stretch:normal;font-size:51.0809px;font-family:Lavi;-inkscape-font-specification:'Lavi Bold';stroke-width:1.01681"
         x="1894.6439"
         y="2711.075"
         id="tspan14083">DA, TAKO</tspan><tspan
         sodipodi:role="line"
         style="font-style:normal;font-variant:normal;font-weight:bold;font-stretch:normal;font-size:51.0809px;font-family:Lavi;-inkscape-font-specification:'Lavi Bold';stroke-width:1.01681"
         x="1894.6439"
         y="2774.926"
         id="tspan4594">JE PRAV!</tspan><tspan
         sodipodi:role="line"
         style="font-style:normal;font-variant:normal;font-weight:bold;font-stretch:normal;font-size:51.0809px;font-family:Lavi;-inkscape-font-specification:'Lavi Bold';stroke-width:1.01681"
         x="1894.6439"
         y="2838.7771"
         id="tspan14085">ŠC, ŠC!</tspan></text>
    <text
       xml:space="preserve"
       style="font-style:normal;font-variant:normal;font-weight:normal;font-stretch:normal;font-size:49.6865px;line-height:125%;font-family:Lavi;-inkscape-font-specification:Lavi;text-align:center;letter-spacing:0px;word-spacing:0px;text-anchor:middle;fill:#000000;fill-opacity:1;stroke:none;stroke-width:0.946337"
       x="2085.5815"
       y="2911.2004"
       id="text4246-70-2-2-2-7-4-9-9-6-1-2-3-9-2-7-9-3-2-3-0-2-9"><tspan
         sodipodi:role="line"
         style="font-style:normal;font-variant:normal;font-weight:bold;font-stretch:normal;font-size:49.6865px;font-family:Lavi;-inkscape-font-specification:'Lavi Bold';stroke-width:0.946337"
         x="2085.5815"
         y="2911.2004"
         id="tspan1054">DOMOV POJDI IN</tspan><tspan
         sodipodi:role="line"
         style="font-style:normal;font-variant:normal;font-weight:bold;font-stretch:normal;font-size:49.6865px;font-family:Lavi;-inkscape-font-specification:'Lavi Bold';stroke-width:0.946337"
         x="2085.5815"
         y="2973.3086"
         id="tspan1060">SE VRNI, KO BOŠ MALO</tspan><tspan
         sodipodi:role="line"
         style="font-style:normal;font-variant:normal;font-weight:bold;font-stretch:normal;font-size:49.6865px;font-family:Lavi;-inkscape-font-specification:'Lavi Bold';stroke-width:0.946337"
         x="2085.5815"
         y="3035.4167"
         id="tspan1056">BOLJ PRIPRAVLJENA!</tspan></text>
  </g>
</svg>
