<?xml version="1.0" encoding="UTF-8" standalone="no"?>
<!-- Created with Inkscape (http://www.inkscape.org/) -->

<svg
   id="svg2"
   version="1.1"
   inkscape:version="1.1.2 (0a00cf5339, 2022-02-04)"
   width="2481"
   height="3503"
   sodipodi:docname="E02P05.svg"
   xmlns:inkscape="http://www.inkscape.org/namespaces/inkscape"
   xmlns:sodipodi="http://sodipodi.sourceforge.net/DTD/sodipodi-0.dtd"
   xmlns:xlink="http://www.w3.org/1999/xlink"
   xmlns="http://www.w3.org/2000/svg"
   xmlns:svg="http://www.w3.org/2000/svg"
   xmlns:rdf="http://www.w3.org/1999/02/22-rdf-syntax-ns#"
   xmlns:cc="http://creativecommons.org/ns#"
   xmlns:dc="http://purl.org/dc/elements/1.1/">
  <metadata
     id="metadata8">
    <rdf:RDF>
      <cc:Work
         rdf:about="">
        <dc:format>image/svg+xml</dc:format>
        <dc:type
           rdf:resource="http://purl.org/dc/dcmitype/StillImage" />
        <dc:title />
      </cc:Work>
    </rdf:RDF>
  </metadata>
  <defs
     id="defs6" />
  <sodipodi:namedview
     pagecolor="#ffffff"
     bordercolor="#666666"
     borderopacity="1"
     objecttolerance="10"
     gridtolerance="10"
     guidetolerance="10"
     inkscape:pageopacity="0"
     inkscape:pageshadow="2"
     inkscape:window-width="1366"
     inkscape:window-height="704"
     id="namedview4"
     showgrid="false"
     inkscape:zoom="0.36213234"
     inkscape:cx="1426.2742"
     inkscape:cy="3003.0458"
     inkscape:window-x="0"
     inkscape:window-y="0"
     inkscape:window-maximized="1"
     inkscape:current-layer="layer1"
     inkscape:pagecheckerboard="0" />
  <g
     inkscape:groupmode="layer"
     id="layer2"
     inkscape:label="artwork"
     sodipodi:insensitive="true">
    <image
       xlink:href="../gfx_Pepper-and-Carrot_by-David-Revoy_E02P05.png"
       width="2481"
       height="3503"
       id="image10"
       x="-1.6728083e-06"
       y="0" />
  </g>
  <g
     inkscape:groupmode="layer"
     id="layer1"
     inkscape:label="text"
     style="opacity:1">
    <flowRoot
       xml:space="preserve"
       id="flowRoot4052-0-1-3-3-0-5"
       style="color:#000000;font-style:normal;font-variant:normal;font-weight:normal;font-stretch:normal;line-height:0.01%;font-family:Arial;-inkscape-font-specification:Arial;letter-spacing:0px;word-spacing:0px;display:inline;overflow:visible;visibility:visible;fill:#ff0145;fill-opacity:1;fill-rule:nonzero;stroke:#ff0145;stroke-width:2.06473;stroke-miterlimit:4;stroke-dasharray:none;stroke-opacity:1;marker:none;enable-background:accumulate"
       transform="matrix(1.2892785,-0.14753782,0.39943039,1.0105568,813.0995,817.74176)"><flowRegion
         id="flowRegion4054-7-0-2-2-5-5"
         style="stroke-width:4.93332"><rect
           id="rect4056-8-2-5-7-9-8"
           width="130.98526"
           height="72.916138"
           x="92.642677"
           y="425.30325"
           style="color:#000000;font-size:72px;display:inline;overflow:visible;visibility:visible;fill:#ff0145;fill-opacity:1;fill-rule:nonzero;stroke:#ff0145;stroke-width:2.06473064;stroke-miterlimit:4;stroke-dasharray:none;stroke-opacity:1;marker:none;enable-background:accumulate" /></flowRegion><flowPara
         style="color:#000000;font-style:normal;font-variant:normal;font-weight:normal;font-stretch:normal;font-size:64px;line-height:1.25;font-family:Lavi;-inkscape-font-specification:Lavi;text-align:center;text-anchor:middle;display:inline;overflow:visible;visibility:visible;fill:#ff0145;fill-opacity:1;fill-rule:nonzero;stroke:#ff0145;stroke-width:2.06473;stroke-miterlimit:4;stroke-dasharray:none;stroke-opacity:1;marker:none;enable-background:accumulate"
         id="flowPara4058-8-1-3-0-6-1">B</flowPara></flowRoot>
    <flowRoot
       xml:space="preserve"
       id="flowRoot4052-0-1-3-3-0-5-1"
       style="color:#000000;font-style:normal;font-variant:normal;font-weight:normal;font-stretch:normal;line-height:0.01%;font-family:Arial;-inkscape-font-specification:Arial;letter-spacing:0px;word-spacing:0px;display:inline;overflow:visible;visibility:visible;fill:#ff0145;fill-opacity:1;fill-rule:nonzero;stroke:#ff0145;stroke-width:2.95392;stroke-miterlimit:4;stroke-dasharray:none;stroke-opacity:1;marker:none;enable-background:accumulate"
       transform="matrix(0.76505307,-0.12147565,0.2370205,0.83204455,1033.6323,894.99276)"><flowRegion
         id="flowRegion4054-7-0-2-2-5-5-9"
         style="stroke-width:7.05788"><rect
           id="rect4056-8-2-5-7-9-8-9"
           width="130.98526"
           height="72.916138"
           x="92.642677"
           y="425.30325"
           style="color:#000000;font-size:72px;display:inline;overflow:visible;visibility:visible;fill:#ff0145;fill-opacity:1;fill-rule:nonzero;stroke:#ff0145;stroke-width:2.95391536;stroke-miterlimit:4;stroke-dasharray:none;stroke-opacity:1;marker:none;enable-background:accumulate" /></flowRegion><flowPara
         style="color:#000000;font-style:normal;font-variant:normal;font-weight:normal;font-stretch:normal;font-size:64px;line-height:1.25;font-family:Lavi;-inkscape-font-specification:Lavi;text-align:center;text-anchor:middle;display:inline;overflow:visible;visibility:visible;fill:#ff0145;fill-opacity:1;fill-rule:nonzero;stroke:#ff0145;stroke-width:2.95392;stroke-miterlimit:4;stroke-dasharray:none;stroke-opacity:1;marker:none;enable-background:accumulate"
         id="flowPara4058-8-1-3-0-6-1-3">lup</flowPara></flowRoot>
    <flowRoot
       xml:space="preserve"
       id="flowRoot4052-0-1-3-3-0-5-5"
       style="color:#000000;font-style:normal;font-variant:normal;font-weight:normal;font-stretch:normal;line-height:0.01%;font-family:Arial;-inkscape-font-specification:Arial;letter-spacing:0px;word-spacing:0px;display:inline;overflow:visible;visibility:visible;fill:#ff3c70;fill-opacity:1;fill-rule:nonzero;stroke:#ff3c70;stroke-width:2.06473;stroke-miterlimit:4;stroke-dasharray:none;stroke-opacity:1;marker:none;enable-background:accumulate"
       transform="matrix(1.2892785,-0.14753782,0.39943039,1.0105568,860.60828,891.40676)"><flowRegion
         id="flowRegion4054-7-0-2-2-5-5-2"
         style="stroke-width:4.93332"><rect
           id="rect4056-8-2-5-7-9-8-92"
           width="130.98526"
           height="72.916138"
           x="92.642677"
           y="425.30325"
           style="color:#000000;font-size:72px;display:inline;overflow:visible;visibility:visible;fill:#ff3c70;fill-opacity:1;fill-rule:nonzero;stroke:#ff3c70;stroke-width:2.06473064;stroke-miterlimit:4;stroke-dasharray:none;stroke-opacity:1;marker:none;enable-background:accumulate" /></flowRegion><flowPara
         style="color:#000000;font-style:normal;font-variant:normal;font-weight:normal;font-stretch:normal;font-size:64px;line-height:1.25;font-family:Lavi;-inkscape-font-specification:Lavi;text-align:center;text-anchor:middle;display:inline;overflow:visible;visibility:visible;fill:#ff3c70;fill-opacity:1;fill-rule:nonzero;stroke:#ff3c70;stroke-width:2.06473;stroke-miterlimit:4;stroke-dasharray:none;stroke-opacity:1;marker:none;enable-background:accumulate"
         id="flowPara4058-8-1-3-0-6-1-0">B</flowPara></flowRoot>
    <flowRoot
       xml:space="preserve"
       id="flowRoot4052-0-1-3-3-0-5-1-5"
       style="color:#000000;font-style:normal;font-variant:normal;font-weight:normal;font-stretch:normal;line-height:0.01%;font-family:Arial;-inkscape-font-specification:Arial;letter-spacing:0px;word-spacing:0px;display:inline;overflow:visible;visibility:visible;fill:#ff3c70;fill-opacity:1;fill-rule:nonzero;stroke:#ff3c70;stroke-width:2.95392;stroke-miterlimit:4;stroke-dasharray:none;stroke-opacity:1;marker:none;enable-background:accumulate"
       transform="matrix(0.76505307,-0.12147565,0.2370205,0.83204455,1079.5324,970.79176)"><flowRegion
         id="flowRegion4054-7-0-2-2-5-5-9-7"
         style="stroke-width:7.05788"><rect
           id="rect4056-8-2-5-7-9-8-9-1"
           width="130.98526"
           height="72.916138"
           x="92.642677"
           y="425.30325"
           style="color:#000000;font-size:72px;display:inline;overflow:visible;visibility:visible;fill:#ff3c70;fill-opacity:1;fill-rule:nonzero;stroke:#ff3c70;stroke-width:2.95391536;stroke-miterlimit:4;stroke-dasharray:none;stroke-opacity:1;marker:none;enable-background:accumulate" /></flowRegion><flowPara
         style="color:#000000;font-style:normal;font-variant:normal;font-weight:normal;font-stretch:normal;font-size:64px;line-height:1.25;font-family:Lavi;-inkscape-font-specification:Lavi;text-align:center;text-anchor:middle;display:inline;overflow:visible;visibility:visible;fill:#ff3c70;fill-opacity:1;fill-rule:nonzero;stroke:#ff3c70;stroke-width:2.95392;stroke-miterlimit:4;stroke-dasharray:none;stroke-opacity:1;marker:none;enable-background:accumulate"
         id="flowPara4058-8-1-3-0-6-1-3-0">lup</flowPara></flowRoot>
    <flowRoot
       xml:space="preserve"
       id="flowRoot4052-0-1-3-3-0-5-1-5-3"
       style="color:#000000;font-style:normal;font-variant:normal;font-weight:normal;font-stretch:normal;line-height:0.01%;font-family:Arial;-inkscape-font-specification:Arial;letter-spacing:0px;word-spacing:0px;display:inline;overflow:visible;visibility:visible;fill:#fe801c;fill-opacity:1;fill-rule:nonzero;stroke:#fe801c;stroke-width:2.39222;stroke-miterlimit:4;stroke-dasharray:none;stroke-opacity:1;marker:none;enable-background:accumulate"
       transform="matrix(0.97088706,0.07380421,-0.06432027,1.0400128,1105.4502,2455.7748)"><flowRegion
         id="flowRegion4054-7-0-2-2-5-5-9-7-0"
         style="stroke-width:5.7158"><rect
           id="rect4056-8-2-5-7-9-8-9-1-9"
           width="130.98526"
           height="72.916138"
           x="92.642677"
           y="425.30325"
           style="color:#000000;font-size:72px;display:inline;overflow:visible;visibility:visible;fill:#fe801c;fill-opacity:1;fill-rule:nonzero;stroke:#fe801c;stroke-width:2.39221978;stroke-miterlimit:4;stroke-dasharray:none;stroke-opacity:1;marker:none;enable-background:accumulate" /></flowRegion><flowPara
         style="color:#000000;font-style:normal;font-variant:normal;font-weight:normal;font-stretch:normal;font-size:64px;line-height:1.25;font-family:Lavi;-inkscape-font-specification:Lavi;text-align:center;text-anchor:middle;display:inline;overflow:visible;visibility:visible;fill:#fe801c;fill-opacity:1;fill-rule:nonzero;stroke:#fe801c;stroke-width:2.39222;stroke-miterlimit:4;stroke-dasharray:none;stroke-opacity:1;marker:none;enable-background:accumulate"
         id="flowPara4058-8-1-3-0-6-1-3-0-3">op</flowPara></flowRoot>
    <flowRoot
       xml:space="preserve"
       id="flowRoot4052-0-1-3-3-0-5-1-5-3-2"
       style="color:#000000;font-style:normal;font-variant:normal;font-weight:normal;font-stretch:normal;line-height:0.01%;font-family:Arial;-inkscape-font-specification:Arial;letter-spacing:0px;word-spacing:0px;display:inline;overflow:visible;visibility:visible;fill:#fe801c;fill-opacity:1;fill-rule:nonzero;stroke:#fe801c;stroke-width:2.39222;stroke-miterlimit:4;stroke-dasharray:none;stroke-opacity:1;marker:none;enable-background:accumulate"
       transform="matrix(0.97088706,-0.39412287,-0.06432027,1.0710125,1056.8128,2515.5189)"><flowRegion
         id="flowRegion4054-7-0-2-2-5-5-9-7-0-7"
         style="stroke-width:5.7158"><rect
           id="rect4056-8-2-5-7-9-8-9-1-9-0"
           width="130.98526"
           height="72.916138"
           x="92.642677"
           y="425.30325"
           style="color:#000000;font-size:72px;display:inline;overflow:visible;visibility:visible;fill:#fe801c;fill-opacity:1;fill-rule:nonzero;stroke:#fe801c;stroke-width:2.39221978;stroke-miterlimit:4;stroke-dasharray:none;stroke-opacity:1;marker:none;enable-background:accumulate" /></flowRegion><flowPara
         style="color:#000000;font-style:normal;font-variant:normal;font-weight:normal;font-stretch:normal;font-size:64px;line-height:1.25;font-family:Lavi;-inkscape-font-specification:Lavi;text-align:center;text-anchor:middle;display:inline;overflow:visible;visibility:visible;fill:#fe801c;fill-opacity:1;fill-rule:nonzero;stroke:#fe801c;stroke-width:2.39222;stroke-miterlimit:4;stroke-dasharray:none;stroke-opacity:1;marker:none;enable-background:accumulate"
         id="flowPara4058-8-1-3-0-6-1-3-0-3-3">l</flowPara></flowRoot>
    <flowRoot
       xml:space="preserve"
       id="flowRoot4052-0-1-3-3-0-5-1-5-3-2-4"
       style="color:#000000;font-style:normal;font-variant:normal;font-weight:normal;font-stretch:normal;line-height:0.01%;font-family:Arial;-inkscape-font-specification:Arial;letter-spacing:0px;word-spacing:0px;display:inline;overflow:visible;visibility:visible;fill:#fe801c;fill-opacity:1;fill-rule:nonzero;stroke:#fe801c;stroke-width:2.39222;stroke-miterlimit:4;stroke-dasharray:none;stroke-opacity:1;marker:none;enable-background:accumulate"
       transform="matrix(0.97088706,-0.66958349,-0.06432027,1.0892614,1029.1748,2563.9568)"
       inkscape:transform-center-x="27.472996"
       inkscape:transform-center-y="5.4946788"><flowRegion
         id="flowRegion4054-7-0-2-2-5-5-9-7-0-7-9"
         style="stroke-width:5.7158"><rect
           id="rect4056-8-2-5-7-9-8-9-1-9-0-0"
           width="130.98526"
           height="72.916138"
           x="92.642677"
           y="425.30325"
           style="color:#000000;font-size:72px;display:inline;overflow:visible;visibility:visible;fill:#fe801c;fill-opacity:1;fill-rule:nonzero;stroke:#fe801c;stroke-width:2.39221978;stroke-miterlimit:4;stroke-dasharray:none;stroke-opacity:1;marker:none;enable-background:accumulate" /></flowRegion><flowPara
         style="color:#000000;font-style:normal;font-variant:normal;font-weight:normal;font-stretch:normal;font-size:64px;line-height:1.25;font-family:Lavi;-inkscape-font-specification:Lavi;text-align:center;text-anchor:middle;display:inline;overflow:visible;visibility:visible;fill:#fe801c;fill-opacity:1;fill-rule:nonzero;stroke:#fe801c;stroke-width:2.39222;stroke-miterlimit:4;stroke-dasharray:none;stroke-opacity:1;marker:none;enable-background:accumulate"
         id="flowPara4058-8-1-3-0-6-1-3-0-3-3-1">š</flowPara></flowRoot>
    <flowRoot
       xml:space="preserve"
       id="flowRoot4052-0-1-3-3-0-5-1-5-3-7"
       style="color:#000000;font-style:normal;font-variant:normal;font-weight:normal;font-stretch:normal;line-height:0.01%;font-family:Arial;-inkscape-font-specification:Arial;letter-spacing:0px;word-spacing:0px;display:inline;overflow:visible;visibility:visible;fill:#ec6870;fill-opacity:1;fill-rule:nonzero;stroke:#ec6870;stroke-width:2.39222;stroke-miterlimit:4;stroke-dasharray:none;stroke-opacity:1;marker:none;enable-background:accumulate"
       transform="matrix(0.97088706,-0.42763844,-0.06432027,1.0732328,1328.8129,2575.4578)"><flowRegion
         id="flowRegion4054-7-0-2-2-5-5-9-7-0-3"
         style="stroke-width:5.7158"><rect
           id="rect4056-8-2-5-7-9-8-9-1-9-4"
           width="130.98526"
           height="72.916138"
           x="92.642677"
           y="425.30325"
           style="color:#000000;font-size:72px;display:inline;overflow:visible;visibility:visible;fill:#ec6870;fill-opacity:1;fill-rule:nonzero;stroke:#ec6870;stroke-width:2.39221978;stroke-miterlimit:4;stroke-dasharray:none;stroke-opacity:1;marker:none;enable-background:accumulate" /></flowRegion><flowPara
         style="color:#000000;font-style:normal;font-variant:normal;font-weight:normal;font-stretch:normal;font-size:64px;line-height:1.25;font-family:Lavi;-inkscape-font-specification:Lavi;text-align:center;text-anchor:middle;display:inline;overflow:visible;visibility:visible;fill:#ec6870;fill-opacity:1;fill-rule:nonzero;stroke:#ec6870;stroke-width:2.39222;stroke-miterlimit:4;stroke-dasharray:none;stroke-opacity:1;marker:none;enable-background:accumulate"
         id="flowPara4058-8-1-3-0-6-1-3-0-3-6">op</flowPara></flowRoot>
    <flowRoot
       xml:space="preserve"
       id="flowRoot4052-0-1-3-3-0-5-1-5-3-2-2"
       style="color:#000000;font-style:normal;font-variant:normal;font-weight:normal;font-stretch:normal;line-height:0.01%;font-family:Arial;-inkscape-font-specification:Arial;letter-spacing:0px;word-spacing:0px;display:inline;overflow:visible;visibility:visible;fill:#ec6870;fill-opacity:1;fill-rule:nonzero;stroke:#ec6870;stroke-width:2.39222;stroke-miterlimit:4;stroke-dasharray:none;stroke-opacity:1;marker:none;enable-background:accumulate"
       transform="matrix(0.97088706,0.28403231,-0.06432027,1.0260854,1280.3518,2492.5604)"><flowRegion
         id="flowRegion4054-7-0-2-2-5-5-9-7-0-7-7"
         style="stroke-width:5.7158"><rect
           id="rect4056-8-2-5-7-9-8-9-1-9-0-3"
           width="130.98526"
           height="72.916138"
           x="92.642677"
           y="425.30325"
           style="color:#000000;font-size:72px;display:inline;overflow:visible;visibility:visible;fill:#ec6870;fill-opacity:1;fill-rule:nonzero;stroke:#ec6870;stroke-width:2.39221978;stroke-miterlimit:4;stroke-dasharray:none;stroke-opacity:1;marker:none;enable-background:accumulate" /></flowRegion><flowPara
         style="color:#000000;font-style:normal;font-variant:normal;font-weight:normal;font-stretch:normal;font-size:64px;line-height:1.25;font-family:Lavi;-inkscape-font-specification:Lavi;text-align:center;text-anchor:middle;display:inline;overflow:visible;visibility:visible;fill:#ec6870;fill-opacity:1;fill-rule:nonzero;stroke:#ec6870;stroke-width:2.39222;stroke-miterlimit:4;stroke-dasharray:none;stroke-opacity:1;marker:none;enable-background:accumulate"
         id="flowPara4058-8-1-3-0-6-1-3-0-3-3-6">l</flowPara></flowRoot>
    <flowRoot
       xml:space="preserve"
       id="flowRoot4052-0-1-3-3-0-5-1-5-3-2-4-8"
       style="color:#000000;font-style:normal;font-variant:normal;font-weight:normal;font-stretch:normal;line-height:0.01%;font-family:Arial;-inkscape-font-specification:Arial;letter-spacing:0px;word-spacing:0px;display:inline;overflow:visible;visibility:visible;fill:#ec6870;fill-opacity:1;fill-rule:nonzero;stroke:#ec6870;stroke-width:2.39222;stroke-miterlimit:4;stroke-dasharray:none;stroke-opacity:1;marker:none;enable-background:accumulate"
       transform="matrix(0.97088706,0.48520475,-0.06432027,1.0127579,1251.3331,2456.1848)"
       inkscape:transform-center-x="27.472964"
       inkscape:transform-center-y="-27.181624"><flowRegion
         id="flowRegion4054-7-0-2-2-5-5-9-7-0-7-9-5"
         style="stroke-width:5.7158"><rect
           id="rect4056-8-2-5-7-9-8-9-1-9-0-0-9"
           width="130.98526"
           height="72.916138"
           x="92.642677"
           y="425.30325"
           style="color:#000000;font-size:72px;display:inline;overflow:visible;visibility:visible;fill:#ec6870;fill-opacity:1;fill-rule:nonzero;stroke:#ec6870;stroke-width:2.39221978;stroke-miterlimit:4;stroke-dasharray:none;stroke-opacity:1;marker:none;enable-background:accumulate" /></flowRegion><flowPara
         style="color:#000000;font-style:normal;font-variant:normal;font-weight:normal;font-stretch:normal;font-size:64px;line-height:1.25;font-family:Lavi;-inkscape-font-specification:Lavi;text-align:center;text-anchor:middle;display:inline;overflow:visible;visibility:visible;fill:#ec6870;fill-opacity:1;fill-rule:nonzero;stroke:#ec6870;stroke-width:2.39222;stroke-miterlimit:4;stroke-dasharray:none;stroke-opacity:1;marker:none;enable-background:accumulate"
         id="flowPara4058-8-1-3-0-6-1-3-0-3-3-1-6">š</flowPara></flowRoot>
    <flowRoot
       xml:space="preserve"
       id="flowRoot4052-0-1-3-3-0-5-1-5-3-4"
       style="color:#000000;font-style:normal;font-variant:normal;font-weight:normal;font-stretch:normal;line-height:0.01%;font-family:Arial;-inkscape-font-specification:Arial;letter-spacing:0px;word-spacing:0px;display:inline;overflow:visible;visibility:visible;fill:#4ca4f5;fill-opacity:1;fill-rule:nonzero;stroke:#4ca4f5;stroke-width:3.00471;stroke-miterlimit:4;stroke-dasharray:none;stroke-opacity:1;marker:none;enable-background:accumulate"
       transform="matrix(0.8547277,0.05313981,-0.05662483,0.74882022,1542.1067,2610.4668)"><flowRegion
         id="flowRegion4054-7-0-2-2-5-5-9-7-0-2"
         style="stroke-width:7.17923"><rect
           id="rect4056-8-2-5-7-9-8-9-1-9-8"
           width="130.98526"
           height="72.916138"
           x="92.642677"
           y="425.30325"
           style="color:#000000;font-size:72px;display:inline;overflow:visible;visibility:visible;fill:#4ca4f5;fill-opacity:1;fill-rule:nonzero;stroke:#4ca4f5;stroke-width:3.00470686;stroke-miterlimit:4;stroke-dasharray:none;stroke-opacity:1;marker:none;enable-background:accumulate" /></flowRegion><flowPara
         style="color:#000000;font-style:normal;font-variant:normal;font-weight:normal;font-stretch:normal;font-size:64px;line-height:1.25;font-family:Lavi;-inkscape-font-specification:Lavi;text-align:center;text-anchor:middle;display:inline;overflow:visible;visibility:visible;fill:#4ca4f5;fill-opacity:1;fill-rule:nonzero;stroke:#4ca4f5;stroke-width:3.00471;stroke-miterlimit:4;stroke-dasharray:none;stroke-opacity:1;marker:none;enable-background:accumulate"
         id="flowPara4058-8-1-3-0-6-1-3-0-3-0">op</flowPara></flowRoot>
    <flowRoot
       xml:space="preserve"
       id="flowRoot4052-0-1-3-3-0-5-1-5-3-2-3"
       style="color:#000000;font-style:normal;font-variant:normal;font-weight:normal;font-stretch:normal;line-height:0.01%;font-family:Arial;-inkscape-font-specification:Arial;letter-spacing:0px;word-spacing:0px;display:inline;overflow:visible;visibility:visible;fill:#4ca4f5;fill-opacity:1;fill-rule:nonzero;stroke:#4ca4f5;stroke-width:3.00471;stroke-miterlimit:4;stroke-dasharray:none;stroke-opacity:1;marker:none;enable-background:accumulate"
       transform="matrix(0.8547277,-0.28377265,-0.05662483,0.77114034,1499.1321,2653.9526)"><flowRegion
         id="flowRegion4054-7-0-2-2-5-5-9-7-0-7-75"
         style="stroke-width:7.17923"><rect
           id="rect4056-8-2-5-7-9-8-9-1-9-0-6"
           width="130.98526"
           height="72.916138"
           x="92.642677"
           y="425.30325"
           style="color:#000000;font-size:72px;display:inline;overflow:visible;visibility:visible;fill:#4ca4f5;fill-opacity:1;fill-rule:nonzero;stroke:#4ca4f5;stroke-width:3.00470686;stroke-miterlimit:4;stroke-dasharray:none;stroke-opacity:1;marker:none;enable-background:accumulate" /></flowRegion><flowPara
         style="color:#000000;font-style:normal;font-variant:normal;font-weight:normal;font-stretch:normal;font-size:64px;line-height:1.25;font-family:Lavi;-inkscape-font-specification:Lavi;text-align:center;text-anchor:middle;display:inline;overflow:visible;visibility:visible;fill:#4ca4f5;fill-opacity:1;fill-rule:nonzero;stroke:#4ca4f5;stroke-width:3.00471;stroke-miterlimit:4;stroke-dasharray:none;stroke-opacity:1;marker:none;enable-background:accumulate"
         id="flowPara4058-8-1-3-0-6-1-3-0-3-3-0">l</flowPara></flowRoot>
    <flowRoot
       xml:space="preserve"
       id="flowRoot4052-0-1-3-3-0-5-1-5-3-2-4-5"
       style="color:#000000;font-style:normal;font-variant:normal;font-weight:normal;font-stretch:normal;line-height:0.01%;font-family:Arial;-inkscape-font-specification:Arial;letter-spacing:0px;word-spacing:0px;display:inline;overflow:visible;visibility:visible;fill:#4ca4f5;fill-opacity:1;fill-rule:nonzero;stroke:#4ca4f5;stroke-width:3.00471;stroke-miterlimit:4;stroke-dasharray:none;stroke-opacity:1;marker:none;enable-background:accumulate"
       transform="matrix(0.8547277,-0.48210722,-0.05662483,0.78427979,1475.6397,2688.3588)"
       inkscape:transform-center-x="24.186079"
       inkscape:transform-center-y="3.956415"><flowRegion
         id="flowRegion4054-7-0-2-2-5-5-9-7-0-7-9-2"
         style="stroke-width:7.17923"><rect
           id="rect4056-8-2-5-7-9-8-9-1-9-0-0-2"
           width="130.98526"
           height="72.916138"
           x="92.642677"
           y="425.30325"
           style="color:#000000;font-size:72px;display:inline;overflow:visible;visibility:visible;fill:#4ca4f5;fill-opacity:1;fill-rule:nonzero;stroke:#4ca4f5;stroke-width:3.00470686;stroke-miterlimit:4;stroke-dasharray:none;stroke-opacity:1;marker:none;enable-background:accumulate" /></flowRegion><flowPara
         style="color:#000000;font-style:normal;font-variant:normal;font-weight:normal;font-stretch:normal;font-size:64px;line-height:1.25;font-family:Lavi;-inkscape-font-specification:Lavi;text-align:center;text-anchor:middle;display:inline;overflow:visible;visibility:visible;fill:#4ca4f5;fill-opacity:1;fill-rule:nonzero;stroke:#4ca4f5;stroke-width:3.00471;stroke-miterlimit:4;stroke-dasharray:none;stroke-opacity:1;marker:none;enable-background:accumulate"
         id="flowPara4058-8-1-3-0-6-1-3-0-3-3-1-4">š</flowPara></flowRoot>
  </g>
</svg>
