<?xml version="1.0" encoding="UTF-8" standalone="no"?>
<!-- Created with Inkscape (http://www.inkscape.org/) -->

<svg
   id="svg2"
   version="1.1"
   inkscape:version="1.2.2 (b0a8486541, 2022-12-01)"
   width="2481"
   height="3503"
   sodipodi:docname="E38P04.svg"
   xmlns:inkscape="http://www.inkscape.org/namespaces/inkscape"
   xmlns:sodipodi="http://sodipodi.sourceforge.net/DTD/sodipodi-0.dtd"
   xmlns:xlink="http://www.w3.org/1999/xlink"
   xmlns="http://www.w3.org/2000/svg"
   xmlns:svg="http://www.w3.org/2000/svg"
   xmlns:rdf="http://www.w3.org/1999/02/22-rdf-syntax-ns#"
   xmlns:cc="http://creativecommons.org/ns#"
   xmlns:dc="http://purl.org/dc/elements/1.1/">
  <metadata
     id="metadata8">
    <rdf:RDF>
      <cc:Work
         rdf:about="">
        <dc:format>image/svg+xml</dc:format>
        <dc:type
           rdf:resource="http://purl.org/dc/dcmitype/StillImage" />
        <dc:title />
      </cc:Work>
    </rdf:RDF>
  </metadata>
  <defs
     id="defs6">
    <filter
       style="color-interpolation-filters:sRGB"
       id="filter4375-4-1-1-1-9-5-8-8-3-3"
       inkscape:label="Drop Shadow"
       x="-0.043877529"
       y="-0.086353334"
       width="1.0745954"
       height="1.2211023">
      <feFlood
         id="feFlood4377-7-9-0-8-1-7-3-1-6-61"
         flood-opacity="1"
         flood-color="rgb(87,166,204)"
         result="flood"
         radius="5.0999999999999996" />
      <feComposite
         id="feComposite4379-3-8-8-2-77-4-1-0-7-2"
         in2="SourceGraphic"
         in="flood"
         operator="in"
         result="composite1"
         baseFrequency="0.053999999999999999 0.053999999999999999" />
      <feMorphology
         id="feMorphology4393-1-0-49-8-9-3-0-1-5-9"
         operator="dilate"
         radius="5.1272503082614058"
         result="result3" />
      <feComposite
         id="feComposite4385-9-5-7-0-8-8-7-5-3-3"
         in2="result3"
         in="SourceGraphic"
         operator="over"
         result="fbSourceGraphic"
         numOctaves="4" />
      <feColorMatrix
         result="fbSourceGraphicAlpha"
         in="fbSourceGraphic"
         values="0 0 0 -1 0 0 0 0 -1 0 0 0 0 -1 0 0 0 0 1 0"
         id="feColorMatrix4544-9-5-1" />
      <feTurbulence
         id="feTurbulence4546-3-6-9"
         type="fractalNoise"
         numOctaves="4.4123222748815163"
         seed="172"
         baseFrequency="0.062 0.054054054054054057"
         result="turbulence" />
      <feDisplacementMap
         id="feDisplacementMap4548-8-2-4"
         in2="turbulence"
         in="fbSourceGraphic"
         scale="10.781991"
         yChannelSelector="G"
         xChannelSelector="R"
         result="fbSourceGraphic" />
      <feColorMatrix
         result="fbSourceGraphicAlpha"
         in="fbSourceGraphic"
         values="0 0 0 -1 0 0 0 0 -1 0 0 0 0 -1 0 0 0 0 1 0"
         id="feColorMatrix4670-7-9-7"
         scale="10.800000000000001" />
      <feFlood
         id="feFlood4672-4-1-8"
         flood-opacity="0"
         flood-color="rgb(45,8,0)"
         result="flood"
         in="fbSourceGraphic"
         dx="-2.3999999999999999" />
      <feComposite
         id="feComposite4674-8-2-4"
         in2="fbSourceGraphic"
         in="flood"
         operator="in"
         result="composite1" />
      <feGaussianBlur
         id="feGaussianBlur4676-3-7-50"
         in="composite1"
         stdDeviation="0"
         result="blur" />
      <feOffset
         id="feOffset4678-6-0-3"
         dx="-2.3696682464454994"
         dy="3.1000000000000001"
         result="offset" />
      <feComposite
         id="feComposite4680-4-9-6"
         in2="offset"
         in="fbSourceGraphic"
         operator="over"
         result="composite2" />
    </filter>
  </defs>
  <sodipodi:namedview
     pagecolor="#ffffff"
     bordercolor="#666666"
     borderopacity="1"
     objecttolerance="10"
     gridtolerance="10"
     guidetolerance="10"
     inkscape:pageopacity="0"
     inkscape:pageshadow="2"
     inkscape:window-width="1920"
     inkscape:window-height="1011"
     id="namedview4"
     showgrid="false"
     inkscape:zoom="0.45999999"
     inkscape:cx="1333.6957"
     inkscape:cy="2843.4783"
     inkscape:window-x="0"
     inkscape:window-y="32"
     inkscape:window-maximized="1"
     inkscape:current-layer="layer1"
     inkscape:showpageshadow="0"
     inkscape:pagecheckerboard="0"
     inkscape:deskcolor="#d1d1d1" />
  <g
     inkscape:groupmode="layer"
     id="layer2"
     inkscape:label="artwork"
     sodipodi:insensitive="true">
    <image
       xlink:href="../gfx_Pepper-and-Carrot_by-David-Revoy_E38P04.png"
       y="0"
       x="0"
       id="image10"
       height="3503"
       width="2481" />
  </g>
  <path
     style="color:#000000;display:inline;overflow:visible;visibility:visible;fill:#ffffff;fill-opacity:1;fill-rule:nonzero;stroke:none;stroke-width:0.999999px;marker:none;enable-background:accumulate"
     d="m 1707.5542,2031.0517 c -33.7241,86.288 24.3827,161.6365 22.7214,224.0306 -1.747,56.5345 3.233,81.3805 -4.3176,97.0072 17.6416,12.3945 24.5002,64.0279 36.8009,50.5952 12.3008,-13.4333 -14.2555,45.5813 -14.2555,45.5813 0,0 -48.406,-3.2408 -62.0153,-45.6293 -13.6092,-42.3886 16.053,-109.3925 19.9573,-147.9407 3.9042,-38.5479 -18.8728,-78.7992 -18.6406,-110.548 0.2313,-31.7496 -0.8231,-80.519 19.7494,-113.0963 z"
     id="path4538-7"
     inkscape:connector-curvature="0"
     sodipodi:nodetypes="cccccsscc" />
  <path
     style="color:#000000;display:inline;overflow:visible;visibility:visible;fill:#ffffff;fill-opacity:1;fill-rule:nonzero;stroke:none;stroke-width:1px;marker:none;enable-background:accumulate"
     d="m 415.71737,1808.757 c -26.98194,-16.9102 -52.89928,-28.2216 -53.40136,-50.8671 -2.29747,-17.9336 26.57239,-40.7034 24.36276,-64.3894 -2.20836,-23.6863 -27.4773,-40.3025 -37.02194,-46.8495 22.30057,-5.193 52.6529,-19.2733 68.20209,-13.6453 15.54933,5.6281 -18.02024,-19.0973 -18.02024,-19.0973 0,0 -61.18955,1.3579 -78.39293,19.1173 -17.20326,17.7596 33.76744,45.8323 38.70283,61.9829 4.93526,16.1504 -22.06026,39.7456 -21.76674,53.0474 0.29238,38.4776 64.6098,53.8459 77.33553,60.701 z"
     id="path4538-7-3"
     inkscape:connector-curvature="0"
     sodipodi:nodetypes="ccscccsscc" />
  <g
     inkscape:groupmode="layer"
     id="layer3"
     inkscape:label="speechbubbles">
    <path
       style="display:inline;fill:#ffffff;stroke:none;stroke-width:0.980295"
       d="m 1225.3867,2105.4478 c -88.6057,-4.6878 -177.0893,55.9532 -187.5673,138.6347 -12.0901,67.3234 3.895,135.7618 -5.133,203.2684 3.4501,62.1627 16.7699,139.2039 85.4094,168.6149 63.3018,27.5139 137.52,26.8582 205.1687,15.9594 62.9098,-10.5821 118.5945,-54.5549 129.5153,-113.8591 20.5621,-87.3375 -1.7136,-176.5711 -7.635,-264.3317 -3.5251,-52.7993 -31.111,-107.7393 -88.2739,-127.5932 -40.9465,-17.3403 -86.9171,-21.1936 -131.4842,-20.6934 z"
       id="path3280-5"
       inkscape:connector-curvature="0"
       sodipodi:nodetypes="csssc" />
    <path
       style="color:#000000;display:inline;overflow:visible;visibility:visible;fill:#ffffff;fill-opacity:1;fill-rule:nonzero;stroke:none;stroke-width:0.999999px;marker:none;enable-background:accumulate"
       d="m 1188.7086,2160.5818 c 45.8361,-19.5196 82.587,-105.5394 -49.1007,-120.7493 127.103,-6.1934 159.2541,38.4346 96.4979,159.5477 -28.3877,54.7848 -31.2357,-25.6942 -31.2357,-25.6942 z"
       id="path4035-4"
       inkscape:connector-curvature="0"
       sodipodi:nodetypes="ccscc" />
    <path
       style="fill:#ffffff;stroke:none;stroke-width:1"
       d="m 815.85442,144.31304 c -30.02448,0.24114 -60.65488,2.45344 -88.90181,12.76758 -26.92973,10.1501 -45.81069,35.6673 -48.50241,62.6674 -2.206,21.1681 3.04593,43.6754 17.55279,60.3432 13.85487,15.7324 34.451,24.9198 55.39551,28.94 20.09984,3.8265 40.65056,4.9192 61.10321,5.5228 23.26301,0.4799 46.55131,-0.1369 69.76511,-1.5572 22.56511,-2.4681 45.06879,-10.7227 61.2393,-26.1426 14.35134,-13.2877 23.51985,-32.1555 22.2616,-51.3185 -0.67577,-21.9245 -9.18173,-44.0357 -25.41965,-59.98155 -12.85275,-11.50473 -30.06986,-17.07178 -46.82911,-21.40324 -25.26932,-6.50133 -51.4427,-10.13503 -77.66454,-9.83789 z"
       id="path3280-10"
       inkscape:connector-curvature="0"
       sodipodi:nodetypes="csssc" />
    <path
       style="display:inline;fill:#ffffff;stroke:none;stroke-width:1"
       d="m 1266.7324,547.49961 c -43.6866,-16.7148 -73.9387,-64.6419 -41.3589,-116.27864 19.7402,-31.2873 35.1022,-48.40898 35.1022,-48.40898 l -37.5089,2.15924 -24.2698,34.33821 c 0,0 -40.3372,98.02142 68.0354,128.19017 z"
       id="path3063-1-6"
       inkscape:connector-curvature="0"
       sodipodi:nodetypes="cscccc" />
    <path
       style="fill:#ffffff;fill-rule:evenodd;stroke:none;stroke-width:1px;stroke-linecap:butt;stroke-linejoin:miter;stroke-opacity:1"
       d="m 2151.4643,1034.3276 c 3.813,13.612 19.8117,22.2508 22.7974,32.4416 0.4278,4.9156 -2.7714,8.4856 -4.8902,12.015 -3.7283,5.4459 -18.0962,30.0091 -18.5828,37.712 -0.1397,9.1352 8.308,16.0816 14.6894,12.2332 4.8705,-2.3897 8.8711,-0.1294 9.728,-6.4196 2.4151,-8.411 16.5023,-41.9245 20.2796,-49.1746 2.4202,-6.4816 0.7708,-14.7433 -3.4765,-19.2722 -6.907,-9.4821 -17.1682,-11.5411 -25.2954,-18.8894 -10.7486,-11.6758 9.6447,-50.61274 16.4743,-64.02001 -6.1842,2.90653 -37.7876,56.72531 -31.7238,63.37401 z"
       id="path4272-2"
       inkscape:connector-curvature="0"
       sodipodi:nodetypes="ccssscccccc" />
    <path
       style="fill:#ffffff;stroke:none;stroke-width:1"
       d="m 832.10955,251.49219 c -27.32132,1.40712 -52.84957,12.1909 -78.0918,21.78711 -19.83019,7.64084 -40.2556,15.76683 -55.89461,30.65099 -15.27482,15.52335 -23.76928,36.171 -30.07726,56.66731 -10.8953,37.41246 -9.42009,77.58759 -0.0345,115.14932 6.96749,28.60959 15.3903,57.50605 31.582,82.41819 18.50222,26.77831 48.75794,44.22268 80.58752,49.66618 31.64196,5.76408 64.16368,4.18074 95.83155,-0.51456 29.24728,-4.96201 56.44017,-19.19852 78.82029,-38.43746 14.95191,-13.08683 28.06279,-28.55933 37.25356,-46.24161 10.40289,-20.13842 15.51799,-42.86193 15.30109,-65.49853 0.9954,-28.32513 1.3846,-56.83599 -2.4421,-84.98209 -4.0232,-25.13625 -14.82161,-49.48049 -32.44678,-68.0445 -17.48789,-18.98493 -40.49152,-32.36321 -65.01774,-40.04363 -24.20899,-8.25742 -49.75649,-12.86419 -75.37123,-12.57672 z"
       id="path3100-98"
       inkscape:connector-curvature="0"
       sodipodi:nodetypes="zsssssz" />
    <path
       style="fill:#ffffff;fill-rule:evenodd;stroke:none;stroke-width:0.999997px;stroke-linecap:butt;stroke-linejoin:miter;stroke-opacity:1"
       d="m 2065.4067,1164.022 c 3.9583,-40.5756 49.6079,-62.9767 86.6041,-56.2686 30.7499,-0.7003 70.0601,1.3934 86.4514,32.1313 14.8147,33.8594 -17.2656,75.5913 -53.6657,70.7876 -40.723,3.6661 -89.5358,1.0688 -116.8494,-34.0162 -2.2737,-3.7437 -3.2218,-8.2961 -2.5404,-12.6341 z"
       id="path1285"
       inkscape:connector-curvature="0" />
    <path
       style="fill:#ffffff;fill-rule:evenodd;stroke:none;stroke-width:0.999992px;stroke-linecap:butt;stroke-linejoin:miter;stroke-opacity:1"
       d="m 1342.1227,122.16887 c -41.4426,0.009 -83.3783,-0.85212 -123.8672,7.66666 -33.5759,7.77604 -65.5256,23.60788 -89.7059,47.9721 -10.2089,10.76435 -16.7362,24.41022 -22.3409,38.07704 -12.41,31.53377 -14.6874,67.32614 -5.8602,100.81882 10.2817,41.36069 36.0127,80.05835 72.7812,102.88363 18.3609,11.20423 39.7504,16.86413 60.8737,16.77453 26.9872,1.22331 53.9445,0.4856 80.9247,1.17299 38.5689,0.0129 77.6513,-0.63976 114.8572,-10.42414 25.6202,-6.94566 49.9061,-20.44443 66.3024,-41.41253 20.4109,-25.05988 30.1457,-58.10451 28.8838,-90.84253 -0.2132,-38.22626 -10.2103,-77.2491 -31.4074,-110.03589 -16.3998,-22.95452 -41.4485,-38.31156 -67.472,-47.66825 -26.9959,-9.89602 -55.605,-14.31912 -83.9694,-14.98243 z"
       id="path1289"
       inkscape:connector-curvature="0"
       sodipodi:nodetypes="csssssssscc" />
    <path
       style="color:#000000;display:inline;overflow:visible;visibility:visible;fill:#ffffff;fill-opacity:1;fill-rule:nonzero;stroke:none;stroke-width:1px;marker:none;enable-background:accumulate"
       d="m 704.21689,646.63244 c 87.47824,25.22196 118.2227,-49.3761 112.21322,-112.92574 -6.00987,-63.54864 3.224,-38.16167 3.224,-38.16167 l 31.92043,14.08395 c 0,0 11.24914,205.16933 -147.35765,137.00346 z"
       id="path3072-56"
       inkscape:connector-curvature="0"
       sodipodi:nodetypes="ccccc" />
    <path
       style="color:#000000;display:inline;overflow:visible;visibility:visible;fill:#ffffff;fill-opacity:1;fill-rule:nonzero;stroke:none;stroke-width:1px;marker:none;enable-background:accumulate"
       d="m 1087.4572,1915.5501 c 46.4378,6.848 72.1287,-9.9568 84.9916,-22.9791 -3.3421,-5.4461 -12.3203,-21.4734 -12.3203,-21.4734 -2.9694,-0.642 38.2293,-17.701 48.172,-30.028 9.0834,-11.2616 -11.5309,-29.4873 -11.5309,-29.4873 -14.2164,-16.9604 9.1287,12.7285 -70.3691,48.6913 9.7254,14.621 15.6982,22.6585 19.4108,29.6818 -3.9586,3.8647 -36.6798,26.5229 -58.3541,25.5947 z"
       id="path4456-3"
       inkscape:connector-curvature="0"
       sodipodi:nodetypes="cccscccc"
       inkscape:transform-center-x="-4.1291461"
       inkscape:transform-center-y="8.0335027" />
    <path
       style="color:#000000;display:inline;overflow:visible;visibility:visible;fill:#ffffff;fill-opacity:1;fill-rule:nonzero;stroke:none;stroke-width:0.999998px;marker:none;enable-background:accumulate"
       d="m 1135.4106,1636.7194 c -5.9748,24.4807 -39.6737,26.5342 -52.0791,21.5582 25.0065,27.3861 24.1347,44.402 -9.8171,47.0429 56.9378,49.3581 10.409,41.8891 1.2315,54.4038 44.7067,17.0103 29.8886,42.7908 1.1926,54.6415 51.386,0.7238 38.9462,18.0967 19.4916,43.0964 22.7515,-16.3674 57.8482,-28.137 59.0934,14.6566 32.9653,-37.3837 49.9737,-36.6556 61.8946,5.6174 9.9576,-36.4522 43.8637,-43.4676 56.8288,-4.1554 11.1685,-53.2037 51.0192,-45.7132 74.7408,-19.9285 -6.6581,-9.0988 -20.2794,-50.1567 40.6261,-32.2972 13.6779,4.0109 21.3121,-5.8494 11.2652,-16.2535 -17.7692,-18.831 -13.1517,-24.8398 9.7747,-22.0595 -26.4084,-10.0759 -26.7585,-26.9186 22.2758,-38.1037 -37.3123,-1.0808 -72.1062,-3.2979 -28.3308,-41.4425 -13.7335,-0.923 -86.4043,-10.4707 -19.8337,-56.8663 -60.8372,26.5622 -79.4537,20.1206 -55.4407,-25.8266 -70.4885,49.1202 -81.753,53.2149 -88.4347,11.9359 -9.3148,36.411 -37.6074,21.1642 -52.3049,-3.6877 -9.7114,24.6627 -24.2386,41.3202 -52.1741,7.6682 z"
       id="path3549-3-7-8"
       inkscape:connector-curvature="0"
       sodipodi:nodetypes="ccccccccccsccccccccc" />
    <path
       style="fill:#ffffff;stroke:none;stroke-width:0.823734"
       d="m 320.87313,1484.2429 c -14.05709,1.4091 -27.59907,6.1778 -41.86836,5.9655 -11.96197,-0.7739 -23.42834,-5.0896 -35.52462,-4.61 -9.53932,1.3111 -17.70554,6.2511 -25.94226,10.4283 -13.87377,7.1359 -29.43372,11.0983 -45.04538,13.7689 -6.90317,1.6284 -13.57387,5.6298 -16.33808,11.7455 -3.03645,7.3592 -1.93393,15.327 -1.95283,22.9962 0.24865,7.6563 -0.95493,15.323 -3.3997,22.6545 -1.32842,4.6735 -3.03439,9.6203 -1.60329,14.4395 1.83783,5.3686 6.54025,9.3665 11.23936,12.8183 6.77309,5.4908 12.75426,12.1534 15.45179,20.1044 2.30296,5.366 4.37466,11.1768 9.25158,15.1552 7.9613,5.5302 17.37107,9.0327 25.45921,14.3944 10.57093,6.0241 22.541,9.9699 34.87912,11.7757 31.19286,6.0162 63.48661,7.349 95.16196,3.9373 26.45137,-2.4408 52.70977,-6.4883 78.62831,-11.8109 6.18216,-1.387 12.76416,-2.7791 17.61966,-6.7327 4.95469,-3.9257 8.00088,-9.2842 11.29076,-14.3285 3.97032,-5.6783 9.32278,-10.7294 16.06011,-13.7415 6.17649,-3.2817 12.97756,-6.3313 17.067,-11.8626 6.20226,-8.6499 5.9036,-20.3062 0.33091,-29.146 -4.05359,-7.9466 -7.173,-16.6507 -6.24852,-25.5006 0.2753,-7.5122 1.36772,-15.2924 -1.39095,-22.5602 -3.31558,-7.2118 -11.40236,-11.9805 -19.80794,-13.1376 -15.56453,-3.5866 -29.23819,-11.5022 -44.06822,-16.79 -7.85737,-2.083 -16.12784,-0.5815 -23.90817,1.0283 -8.10245,1.6365 -16.67648,3.1538 -24.86928,1.1127 -12.30473,-2.9092 -22.93878,-10.0943 -35.63177,-11.8805 -1.60592,-0.1754 -3.22294,-0.248 -4.8404,-0.2236 z"
       id="path3280-7"
       inkscape:connector-curvature="0"
       sodipodi:nodetypes="csssc" />
    <path
       style="fill:#ffffff;stroke:none;stroke-width:1.00001"
       d="m 1008.4672,1572.0715 c 23.2853,-13.0977 33.0699,-30.9417 29.6737,-53.4194 45.6356,6.9353 55.9768,0.1514 84.905,-28.0635 47.068,8.2167 102.5866,18.3754 170.0922,9.367 8.0694,24.2775 25.9601,54.3553 49.5302,74.0009 -37.9197,34.8426 -23.8533,64.0809 -22.6374,91.3188 -43.9953,-6.4717 -46.5883,5.4685 -87.6115,19.7189 l -124.9228,-5.9902 c -12.4832,-21.5007 -39.3469,-24.3802 -67.2433,-25.9227 3.9585,-26.7127 -6.7146,-63.0859 -31.7861,-81.0098 z"
       id="path3280-7-1"
       inkscape:connector-curvature="0"
       sodipodi:nodetypes="cccccccccc" />
    <path
       style="color:#000000;display:inline;overflow:visible;visibility:visible;fill:#ffffff;fill-opacity:1;fill-rule:nonzero;stroke:none;stroke-width:1px;marker:none;enable-background:accumulate"
       d="m 1747.4138,1431.1639 c -52.0372,-0.1908 -105.4944,5.4916 -153.0252,28.0578 -44.6761,20.1448 -71.3399,70.4527 -68.401,118.609 1.0383,23.22 8.2427,46.1807 21.4819,65.3566 14.5336,21.6594 35.9567,38.4169 60.3306,47.6405 45.5371,19.177 95.3751,25.1535 144.3988,26.4582 62.8655,0.8675 125.8379,-9.0595 185.5644,-28.605 22.9779,-8.213 46.4203,-20.7204 58.7921,-42.7155 18.9463,-32.9871 20.8377,-73.8921 10.1591,-109.9058 -6.6732,-23.1285 -20.571,-44.0276 -39.5187,-58.9079 -22.3858,-18.2207 -50.4179,-27.1872 -77.9915,-34.1338 -46.3581,-11.0961 -94.3639,-12.0553 -141.7905,-11.8541 z"
       id="path3365-90"
       inkscape:connector-curvature="0"
       sodipodi:nodetypes="csssssc" />
    <path
       style="color:#000000;display:inline;overflow:visible;visibility:visible;fill:#ffffff;fill-opacity:1;fill-rule:nonzero;stroke:none;stroke-width:0.999998px;marker:none;enable-background:accumulate"
       d="m 1687.0945,2497.7282 c -22.2191,0.1809 -44.9427,1.7814 -65.7997,10.0437 -18.6828,7.6601 -32.9696,24.0549 -40.029,42.7365 -6.6754,17.7358 -10.4444,37.1727 -6.9183,56.029 3.7072,20.7616 20.0561,38.4488 40.2299,44.4105 17.8015,6.0614 36.2425,10.1824 54.8531,12.814 22.5031,3.0465 45.2633,4.2955 67.963,3.633 30.6436,-1.4406 61.0701,-6.8306 90.4752,-15.5099 13.1206,-4.3591 25.8359,-11.8748 33.4501,-23.7174 10.0485,-14.9406 13.3318,-33.708 11.1708,-51.3967 -2.2404,-16.347 -10.6383,-31.6706 -22.9913,-42.5933 -14.5431,-13.2202 -33.1338,-20.9309 -51.8465,-26.2044 -35.8981,-10.0431 -73.5716,-10.3112 -110.5573,-10.245 z"
       id="path3365-90-4"
       inkscape:connector-curvature="0"
       sodipodi:nodetypes="csssssc" />
    <path
       style="color:#000000;display:inline;overflow:visible;visibility:visible;fill:#ffffff;fill-opacity:1;fill-rule:nonzero;stroke:none;stroke-width:1px;marker:none;enable-background:accumulate"
       d="m 1689.9696,2376.2987 c -20.4422,0.1521 -41.3486,1.4982 -60.5376,8.447 -17.1886,6.4422 -30.3327,20.2306 -36.8277,35.9422 -6.1415,14.9162 -9.6093,31.2631 -6.365,47.1216 3.4108,17.4608 18.4523,32.3362 37.0125,37.3501 16.3779,5.0978 33.3441,8.5636 50.4666,10.7769 20.7034,2.5622 41.6434,3.6125 62.5277,3.0554 28.1929,-1.2116 56.1863,-5.7446 83.2396,-13.0442 12.0712,-3.666 23.7697,-9.987 30.775,-19.9468 9.245,-12.5653 12.2656,-28.3491 10.2775,-43.2257 -2.0611,-13.7481 -9.7876,-26.6357 -21.1526,-35.8217 -13.3801,-11.1186 -30.484,-17.6035 -47.7003,-22.0385 -33.0273,-8.4465 -67.6879,-8.672 -101.7157,-8.6163 z"
       id="path3365-90-4-4"
       inkscape:connector-curvature="0"
       sodipodi:nodetypes="csssssc" />
    <path
       style="color:#000000;display:inline;overflow:visible;visibility:visible;fill:#ffffff;fill-opacity:1;fill-rule:nonzero;stroke:none;stroke-width:1px;marker:none;enable-background:accumulate"
       d="m 1606.5429,2277.7277 c -6.0613,17.3535 -40.2479,18.809 -52.833,15.2817 25.3685,19.4135 24.484,31.4749 -9.9593,33.3483 57.7622,34.9881 10.5597,29.6937 1.2493,38.5654 45.354,12.0583 28.3206,16.4741 9.6561,29.7836 52.1299,0.5125 45.7635,12.4678 23.8762,29.9454 32.652,-10.0221 50.3084,-22.6987 47.4005,19.9447 28.0799,-23.6799 59.9249,-34.4125 79.31,3.0116 13.893,-25.4798 28.2184,-39.6068 53.235,-2.5 -6.8361,-39.9458 38.7985,-28.657 69.9151,-17.4854 -7.3888,-10.6779 5.1166,-38.3974 35.5651,-25.9626 -20.6834,-17.4597 5.2201,-19.9526 25.3811,-24.779 -26.7907,-7.1428 -31.7281,-14.5105 18.0161,-22.4393 -37.8524,-0.7671 -73.1501,-2.3382 -28.7409,-29.3781 -13.9325,-0.6539 -46.9885,21.908 -31.5765,-44.1215 -23.9575,21.1385 -49.518,32.8054 -81.5733,-11.4739 -33.709,34.4805 -38.3927,-0.9201 -49.8398,-28.5513 -4.1143,11.7793 -20.5566,45.2539 -35.0395,45.7914 -5.6006,-4.6796 -15.0847,-6.0912 -21.1125,-14.4175 -9.8522,17.4831 -24.5897,29.2914 -52.9297,5.4365 z"
       id="path3549-3-7-1"
       inkscape:connector-curvature="0"
       sodipodi:nodetypes="cccccccccccccccccccc" />
    <path
       style="display:inline;fill:#ffffff;fill-rule:evenodd;stroke:none;stroke-width:0.999998px;stroke-linecap:butt;stroke-linejoin:miter;stroke-opacity:1"
       d="m 1945.9931,1757.8615 c -93.4377,8.5967 -114.3494,-49.7115 -111.6672,-70.3366 2.6821,-20.6246 32.8105,-64.2763 29.2259,-48.3189 -5.3873,23.9834 -8.0152,106.4989 82.4413,118.6555 z"
       id="path4293"
       inkscape:connector-curvature="0"
       sodipodi:nodetypes="cssc" />
  </g>
  <g
     inkscape:groupmode="layer"
     id="layer1"
     inkscape:label="txt">
    <text
       id="text4178-0"
       y="209.84189"
       x="825.65967"
       style="font-style:normal;font-variant:normal;font-weight:normal;font-stretch:normal;line-height:0%;font-family:Lavi;-inkscape-font-specification:Lavi;text-align:center;letter-spacing:0px;word-spacing:0px;text-anchor:middle;fill:#000000;fill-opacity:1;stroke:none"
       xml:space="preserve"><tspan
         y="209.84189"
         x="825.65967"
         style="font-size:40.6767px;line-height:1.25"
         sodipodi:role="line"
         id="tspan10031">Ehi, non</tspan><tspan
         y="260.68777"
         x="825.65967"
         style="font-size:40.6767px;line-height:1.25"
         sodipodi:role="line"
         id="tspan32786">si vede?</tspan></text>
    <text
       id="text4178-0-9"
       y="330.48422"
       x="835.73419"
       style="font-style:normal;font-variant:normal;font-weight:normal;font-stretch:normal;line-height:0%;font-family:Lavi;-inkscape-font-specification:Lavi;text-align:center;letter-spacing:0px;word-spacing:0px;text-anchor:middle;fill:#000000;fill-opacity:1;stroke:none"
       xml:space="preserve"><tspan
         y="330.48422"
         x="835.73419"
         style="font-size:40.6767px;line-height:1.25"
         sodipodi:role="line"
         id="tspan21211">Ho</tspan><tspan
         y="381.33011"
         x="835.73419"
         style="font-size:40.6767px;line-height:1.25"
         sodipodi:role="line"
         id="tspan33534">semplicemente</tspan><tspan
         y="432.17596"
         x="835.73419"
         style="font-size:40.6767px;line-height:1.25"
         sodipodi:role="line"
         id="tspan33528">deciso di mollare</tspan><tspan
         y="483.02185"
         x="835.73419"
         style="font-size:40.6767px;line-height:1.25"
         sodipodi:role="line"
         id="tspan33532">tutto e di</tspan><tspan
         y="533.86774"
         x="835.73419"
         style="font-size:40.6767px;line-height:1.25"
         sodipodi:role="line"
         id="tspan33540">cambiare</tspan><tspan
         y="584.71362"
         x="835.73419"
         style="font-size:40.6767px;line-height:1.25"
         sodipodi:role="line"
         id="tspan33538">lavoro.</tspan></text>
    <text
       id="text4178-0-8"
       y="209.80524"
       x="1314.7451"
       style="font-style:normal;font-variant:normal;font-weight:normal;font-stretch:normal;line-height:0%;font-family:Lavi;-inkscape-font-specification:Lavi;text-align:center;letter-spacing:0px;word-spacing:0px;text-anchor:middle;fill:#000000;fill-opacity:1;stroke:none"
       xml:space="preserve"><tspan
         y="209.80524"
         x="1314.7451"
         style="font-size:40.6767px;line-height:1.25"
         sodipodi:role="line"
         id="tspan16217">D'ora in poi sono</tspan><tspan
         y="260.65112"
         x="1314.7451"
         style="font-size:40.6767px;line-height:1.25"
         sodipodi:role="line"
         id="tspan37971">la <tspan
   style="font-weight:bold"
   id="tspan37977">Grande Guaritrice</tspan></tspan><tspan
         y="311.49698"
         x="1314.7451"
         style="font-size:40.6767px;line-height:1.25"
         sodipodi:role="line"
         id="tspan37973"><tspan
   style="font-weight:bold"
   id="tspan37979">Peph'Ra</tspan>,</tspan><tspan
         y="362.34286"
         x="1314.7451"
         style="font-size:40.6767px;line-height:1.25"
         sodipodi:role="line"
         id="tspan37975">come puoi vedere.</tspan></text>
    <text
       id="text4178-0-8-3"
       y="1164.1686"
       x="2158.5315"
       style="font-style:normal;font-variant:normal;font-weight:normal;font-stretch:normal;font-size:18.1011px;line-height:0%;font-family:Lavi;-inkscape-font-specification:Lavi;text-align:center;letter-spacing:0px;word-spacing:0px;text-anchor:middle;fill:#000000;fill-opacity:1;stroke:none;stroke-width:1"
       xml:space="preserve"><tspan
         y="1164.1686"
         x="2158.5315"
         style="font-size:61.3576px;line-height:1.25;stroke-width:1"
         sodipodi:role="line"
         id="tspan10165-3">...</tspan></text>
    <text
       id="text4178-0-8-1"
       y="1554.2542"
       x="324.33975"
       style="font-style:normal;font-variant:normal;font-weight:normal;font-stretch:normal;line-height:0%;font-family:Lavi;-inkscape-font-specification:Lavi;text-align:center;letter-spacing:0px;word-spacing:0px;text-anchor:middle;fill:#000000;fill-opacity:1;stroke:none;stroke-width:1.2;stroke-dasharray:none"
       xml:space="preserve"><tspan
         y="1554.2542"
         x="324.33975"
         style="font-size:40.6767px;line-height:1.25;stroke-width:1.2;stroke-dasharray:none"
         sodipodi:role="line"
         id="tspan495">Ma <tspan
   style="font-weight:bold"
   id="tspan38716">perché</tspan>,</tspan><tspan
         y="1605.1"
         x="324.33975"
         style="font-size:40.6767px;line-height:1.25;stroke-width:1.2;stroke-dasharray:none"
         sodipodi:role="line"
         id="tspan38714">ti chiederai?!</tspan></text>
    <text
       id="text4178-0-8-1-5"
       y="1564.9478"
       x="1178.1179"
       style="font-style:normal;font-variant:normal;font-weight:normal;font-stretch:normal;line-height:0%;font-family:Lavi;-inkscape-font-specification:Lavi;text-align:center;letter-spacing:0px;word-spacing:0px;text-anchor:middle;fill:#000000;fill-opacity:1;stroke:none"
       xml:space="preserve"><tspan
         y="1564.9478"
         x="1178.1179"
         style="font-size:40.6767px;line-height:1.25"
         sodipodi:role="line"
         id="tspan10454">Beh,</tspan><tspan
         y="1615.7936"
         x="1178.1179"
         style="font-size:40.6767px;line-height:1.25;font-weight:bold"
         sodipodi:role="line"
         id="tspan39446">è semplice!</tspan></text>
    <text
       id="text4178-0-8-1-5-0"
       y="1739.2153"
       x="1241.4072"
       style="font-style:normal;font-variant:normal;font-weight:normal;font-stretch:normal;font-size:15.4314px;line-height:0%;font-family:Lavi;-inkscape-font-specification:Lavi;text-align:center;letter-spacing:1px;word-spacing:0px;text-anchor:middle;fill:#000000;fill-opacity:1;stroke:#000000;stroke-width:1.7;stroke-dasharray:none;stroke-opacity:1"
       xml:space="preserve"><tspan
         y="1739.2153"
         x="1241.4072"
         style="font-weight:bold;font-size:52.3081px;line-height:1.25;stroke:#000000;stroke-width:1.7;stroke-dasharray:none;stroke-opacity:1"
         sodipodi:role="line"
         id="tspan10511">SONO</tspan><tspan
         y="1804.6005"
         x="1241.9072"
         style="font-weight:bold;font-size:52.3081px;line-height:1.25;stroke:#000000;stroke-width:1.7;stroke-dasharray:none;stroke-opacity:1"
         sodipodi:role="line"
         id="tspan40176">STUFA!</tspan></text>
    <text
       id="text4178-0-8-1-5-2"
       y="2188.0447"
       x="1247.2832"
       style="font-style:normal;font-variant:normal;font-weight:normal;font-stretch:normal;line-height:0%;font-family:Lavi;-inkscape-font-specification:Lavi;text-align:center;letter-spacing:0px;word-spacing:0px;text-anchor:middle;fill:#000000;fill-opacity:1;stroke:none"
       xml:space="preserve"><tspan
         y="2188.0447"
         x="1247.2832"
         style="font-size:40.6767px;line-height:1.25"
         sodipodi:role="line"
         id="tspan10624"><tspan
   style="font-weight:bold"
   id="tspan40998">Stufa</tspan> di essere</tspan><tspan
         y="2238.8906"
         x="1247.2832"
         style="font-size:40.6767px;line-height:1.25"
         sodipodi:role="line"
         id="tspan40978">ricercata, <tspan
   style="font-weight:bold"
   id="tspan41000">stufa</tspan> che</tspan><tspan
         y="2289.7363"
         x="1247.2832"
         style="font-size:40.6767px;line-height:1.25"
         sodipodi:role="line"
         id="tspan40982">la gente prenda in</tspan><tspan
         y="2340.5823"
         x="1247.2832"
         style="font-size:40.6767px;line-height:1.25"
         sodipodi:role="line"
         id="tspan40996">giro i miei incantesimi</tspan><tspan
         y="2391.4282"
         x="1247.2832"
         style="font-size:40.6767px;line-height:1.25"
         sodipodi:role="line"
         id="tspan40984">e soprattutto <tspan
   style="font-weight:bold"
   id="tspan41002">stufa</tspan></tspan><tspan
         y="2442.2742"
         x="1247.2832"
         style="font-size:40.6767px;line-height:1.25"
         sodipodi:role="line"
         id="tspan40986">di non trovare lavoro</tspan><tspan
         y="2493.1199"
         x="1247.2832"
         style="font-size:40.6767px;line-height:1.25"
         sodipodi:role="line"
         id="tspan40988">dopo aver studiato</tspan><tspan
         y="2543.9658"
         x="1247.2832"
         style="font-size:40.6767px;line-height:1.25"
         sodipodi:role="line"
         id="tspan40990">per tutto questo</tspan><tspan
         y="2594.8118"
         x="1247.2832"
         style="font-size:40.6767px;line-height:1.25"
         sodipodi:role="line"
         id="tspan40992">tempo!</tspan></text>
    <text
       id="text4178-0-5-4-6-9"
       y="1507.3773"
       x="1771.4691"
       style="font-style:normal;font-variant:normal;font-weight:normal;font-stretch:normal;line-height:0%;font-family:Lavi;-inkscape-font-specification:Lavi;text-align:center;letter-spacing:0px;word-spacing:0px;text-anchor:middle;fill:#000000;fill-opacity:1;stroke:none"
       xml:space="preserve"><tspan
         y="1507.3773"
         x="1771.4691"
         style="font-size:40.6767px;line-height:1.25"
         sodipodi:role="line"
         id="tspan12109">Qua, almeno, hanno</tspan><tspan
         y="1558.2231"
         x="1771.4691"
         style="font-size:40.6767px;line-height:1.25"
         sodipodi:role="line"
         id="tspan41739">bisogno di me e</tspan><tspan
         y="1609.0691"
         x="1771.4691"
         style="font-size:40.6767px;line-height:1.25"
         sodipodi:role="line"
         id="tspan41741">mi apprezzano</tspan><tspan
         y="1659.9149"
         x="1771.4691"
         style="font-size:40.6767px;line-height:1.25"
         sodipodi:role="line"
         id="tspan41743">per le <tspan
   style="font-weight:bold"
   id="tspan41745">mie</tspan> qualità!</tspan></text>
    <text
       id="text4178-0-5"
       y="2362.896"
       x="1723.9517"
       style="font-style:normal;font-variant:normal;font-weight:normal;font-stretch:normal;font-size:12.0531px;line-height:0%;font-family:Lavi;-inkscape-font-specification:Lavi;text-align:center;letter-spacing:0px;word-spacing:0px;text-anchor:middle;fill:#000000;fill-opacity:1;stroke:none;stroke-width:1"
       xml:space="preserve"><tspan
         y="2362.896"
         x="1723.9517"
         style="font-weight:bold;font-size:40.8567px;line-height:1.25;stroke-width:1"
         sodipodi:role="line"
         id="tspan4245-6-6-5">Guaritrice!</tspan></text>
    <text
       id="text4178-0-5-4"
       y="2448.3254"
       x="1722.2692"
       style="font-style:normal;font-variant:normal;font-weight:normal;font-stretch:normal;font-size:10.4011px;line-height:0%;font-family:Lavi;-inkscape-font-specification:Lavi;text-align:center;letter-spacing:0px;word-spacing:0px;text-anchor:middle;fill:#000000;fill-opacity:1;stroke:none;stroke-width:1"
       xml:space="preserve"><tspan
         y="2448.3254"
         x="1722.2692"
         style="font-size:35.2567px;line-height:1.25;stroke-width:1"
         sodipodi:role="line"
         id="tspan1008">Non allontanarti</tspan><tspan
         y="2492.3962"
         x="1722.2692"
         style="font-size:35.2567px;line-height:1.25;stroke-width:1"
         sodipodi:role="line"
         id="tspan42475">troppo!</tspan></text>
    <text
       id="text4178-0-5-4-6"
       y="2551.437"
       x="1722.809"
       style="font-style:normal;font-variant:normal;font-weight:normal;font-stretch:normal;font-size:10.4011px;line-height:0%;font-family:Lavi;-inkscape-font-specification:Lavi;text-align:center;letter-spacing:0px;word-spacing:0px;text-anchor:middle;fill:#000000;fill-opacity:1;stroke:none;stroke-width:1"
       xml:space="preserve"><tspan
         y="2551.437"
         x="1722.809"
         style="font-size:35.2567px;line-height:1.25;stroke-width:1"
         sodipodi:role="line"
         id="tspan15177">Vinya si</tspan><tspan
         y="2595.5078"
         x="1722.809"
         style="font-size:35.2567px;line-height:1.25;stroke-width:1"
         sodipodi:role="line"
         id="tspan43208">è presa un</tspan><tspan
         y="2639.5789"
         x="1722.809"
         style="font-size:35.2567px;line-height:1.25;stroke-width:1"
         sodipodi:role="line"
         id="tspan43210">brutto colpo.</tspan></text>
    <text
       xml:space="preserve"
       style="font-style:normal;font-variant:normal;font-weight:normal;font-stretch:normal;line-height:0%;font-family:Lavi;-inkscape-font-specification:Lavi;letter-spacing:3.02325px;word-spacing:0px;fill:#daf9ff;fill-opacity:1;stroke:#00bfff;stroke-width:0.808288;stroke-miterlimit:4;stroke-dasharray:none;stroke-opacity:1;filter:url(#filter4375-4-1-1-1-9-5-8-8-3-3)"
       x="787.65729"
       y="1584.5073"
       id="text4580-6-0-0-3"
       transform="matrix(0.63625061,-0.3004975,0.12503652,1.0615485,234.6135,1589.0183)"><tspan
         sodipodi:role="line"
         id="tspan4582-1-1-0-6"
         x="787.65729"
         y="1584.5073"
         style="font-style:normal;font-variant:normal;font-weight:bold;font-stretch:normal;font-size:70px;line-height:1.25;font-family:Lavi;-inkscape-font-specification:'Lavi Bold';fill:#daf9ff;fill-opacity:1;stroke:#00bfff;stroke-width:0.808288;stroke-opacity:1"><tspan
           style="font-size:68.6116px;fill:#daf9ff;fill-opacity:1;stroke:#00bfff;stroke-width:0.808288;stroke-opacity:1"
           id="tspan853-6">Dzing</tspan><tspan
           style="font-size:79.977px;fill:#daf9ff;fill-opacity:1;stroke:#00bfff;stroke-width:0.808288;stroke-opacity:1"
           id="tspan929" /></tspan></text>
  </g>
</svg>
