<?xml version="1.0" encoding="UTF-8" standalone="no"?>
<svg
   xmlns:dc="http://purl.org/dc/elements/1.1/"
   xmlns:cc="http://creativecommons.org/ns#"
   xmlns:rdf="http://www.w3.org/1999/02/22-rdf-syntax-ns#"
   xmlns:svg="http://www.w3.org/2000/svg"
   xmlns="http://www.w3.org/2000/svg"
   xmlns:xlink="http://www.w3.org/1999/xlink"
   xmlns:sodipodi="http://sodipodi.sourceforge.net/DTD/sodipodi-0.dtd"
   xmlns:inkscape="http://www.inkscape.org/namespaces/inkscape"
   id="svg2"
   version="1.1"
   inkscape:version="1.0.1 (0767f8302a, 2020-10-17)"
   width="2481"
   height="3503"
   sodipodi:docname="E07P05.svg"
   viewBox="0 0 2481 3503">
  <metadata
     id="metadata8">
    <rdf:RDF>
      <cc:Work
         rdf:about="">
        <dc:format>image/svg+xml</dc:format>
        <dc:type
           rdf:resource="http://purl.org/dc/dcmitype/StillImage" />
        <dc:title />
      </cc:Work>
    </rdf:RDF>
  </metadata>
  <defs
     id="defs6">
    <filter
       id="filter4375-5-4-81-5-7"
       inkscape:label="deevad outline effect"
       style="color-interpolation-filters:sRGB">
      <feFlood
         id="feFlood4377-0-3-3-6-2"
         flood-opacity="1"
         flood-color="rgb(255,255,255)"
         result="flood" />
      <feComposite
         id="feComposite4379-6-6-36-2-8"
         in2="SourceGraphic"
         in="flood"
         operator="in"
         result="composite1" />
      <feMorphology
         id="feMorphology4393-0-9-1-4-4"
         operator="dilate"
         radius="4"
         result="result3" />
      <feComposite
         id="feComposite4385-7-5-4-1-1"
         in2="result3"
         in="SourceGraphic"
         operator="over"
         result="composite2" />
    </filter>
    <filter
       id="filter4375-5-4-81-0"
       inkscape:label="deevad outline effect"
       style="color-interpolation-filters:sRGB">
      <feFlood
         id="feFlood4377-0-3-3-7"
         flood-opacity="1"
         flood-color="rgb(255,255,255)"
         result="flood" />
      <feComposite
         id="feComposite4379-6-6-36-8"
         in2="SourceGraphic"
         in="flood"
         operator="in"
         result="composite1" />
      <feMorphology
         id="feMorphology4393-0-9-1-3"
         operator="dilate"
         radius="4"
         result="result3" />
      <feComposite
         id="feComposite4385-7-5-4-2"
         in2="result3"
         in="SourceGraphic"
         operator="over"
         result="composite2" />
    </filter>
  </defs>
  <sodipodi:namedview
     pagecolor="#ffffff"
     bordercolor="#666666"
     borderopacity="1"
     objecttolerance="10"
     gridtolerance="10"
     guidetolerance="10"
     inkscape:pageopacity="0"
     inkscape:pageshadow="2"
     inkscape:window-width="1920"
     inkscape:window-height="1016"
     id="namedview4"
     showgrid="false"
     inkscape:zoom="0.3478261"
     inkscape:cx="1263.1264"
     inkscape:cy="1025.7325"
     inkscape:window-x="0"
     inkscape:window-y="27"
     inkscape:window-maximized="1"
     inkscape:current-layer="layer3"
     inkscape:document-units="px"
     inkscape:document-rotation="0" />
  <g
     inkscape:groupmode="layer"
     id="layer2"
     inkscape:label="artwork"
     sodipodi:insensitive="true">
    <image
       sodipodi:absref="/home/ondrej/Projekte/Private_Arbeiten/peppercarrot/webcomics/ep07_The-Wish/lang/gfx_Pepper-and-Carrot_by-David-Revoy_E07P05.png"
       xlink:href="../gfx_Pepper-and-Carrot_by-David-Revoy_E07P05.png"
       width="2481"
       height="3503"
       id="image10"
       x="0"
       y="0" />
  </g>
  <g
     inkscape:groupmode="layer"
     id="layer3"
     inkscape:label="speechbubbles">
    <path
       style="color:#000000;display:inline;overflow:visible;visibility:visible;fill:#ffffff;fill-opacity:1;fill-rule:nonzero;stroke:none;stroke-width:1px;marker:none;enable-background:accumulate"
       d="m 1996.7176,1484.5049 c -47.1394,-16.9109 -95.2291,-33.6666 -9.0001,-72.3629 -80.9016,8.705 -30.846,-12.6528 -10.5778,-27.1724 -144.8727,26.4521 -50.369,-19.2753 -14.061,-47.455 -32.4523,10.8398 -84.6634,42.2328 -63.8362,-2.3497 -35.4005,13.8188 -57.4971,24.199 -27.1895,-1.5531 -32.0187,19.5903 -35.5211,16.4609 -28.4045,3.2316 -13.1531,10.9792 -21.5018,13.764 -21.0079,1.4679 -12.3875,9.0111 -15.9916,5.7387 -18.914,1.5134 -21.3995,19.4595 -28.9359,13.675 -36.9823,8.8187 -12.1397,11.6991 -25.7637,8.6933 -40.633,-6.6565 -16.4602,19.9882 -33.342,18.3834 -50.4598,4.6767 -3.7282,15.8822 -14.0183,31.6451 -24.4,-1.8321 -7.0737,2.5225 -12.2104,23.4274 -34.6528,-12.0175 -3.2708,38.3574 -84.8938,23.4715 -118.7097,3.2507 9.2084,30.0243 -8.972,43.2253 -66.4338,12.0274 -3.4915,11.9322 -21.2855,16.4212 -51.8419,14.2691 30.8888,15.1631 32.2161,23.4421 -40.3248,14.5191 50.3258,12.9614 96.6713,25.8361 17.605,35.9853 18.2569,5.1083 78.8549,-4.658 10.819,50.2713 47.3494,-11.4206 90.0519,-13.7272 101.4022,36.8442 25.7714,-12.6746 54.0235,-18.6166 75.018,12.215 20.5836,-13.7851 48.5698,-9.7599 62.9568,-2.4808 4.5021,-15.4894 35.2275,-38.7271 74.2058,5.4617 -8.0245,-24.809 0.068,-63.8707 44.9896,1.9399 1.329,-11.2493 -15.961,-72.9589 113.0471,3.4192 -14.6911,-49.6818 27.993,-20.0315 61.91,-2.5035 -16.0301,-31.2974 9.8024,-33.1292 65.4536,-13.9732 -42.3889,-30.3076 1.9677,-21.2303 30.022,-19.5545 z"
       id="path3549-3-3-0"
       inkscape:connector-curvature="0"
       sodipodi:nodetypes="ccccccccccccccccccccccccccccc" />
    <path
       style="color:#000000;display:inline;overflow:visible;visibility:visible;fill:#ffffff;fill-opacity:1;fill-rule:nonzero;stroke:none;stroke-width:1px;marker:none;enable-background:accumulate"
       d="m 1517.2853,1692.0575 c 9.9479,-105.9522 95.0215,-165.3338 366.7405,-151.1662 200.0129,10.4288 269.6233,13.4542 291.2644,128.7344 22.5138,119.9288 -143.7107,85.2326 -309.4359,93.5159 -166.1697,8.3055 -358.5169,34.8681 -348.569,-71.0841 z"
       id="path5026"
       inkscape:connector-curvature="0"
       sodipodi:nodetypes="zsssz" />
    <path
       style="color:#000000;display:inline;overflow:visible;visibility:visible;fill:#ffffff;fill-opacity:1;fill-rule:nonzero;stroke:none;stroke-width:1px;marker:none;enable-background:accumulate"
       d="m 1667.6666,1599.9074 c -6.9031,32.4545 -3.5852,52.0587 -0.3875,56.8994 3.1978,4.8405 10.7873,17.717 13.4862,25.0045 2.2026,6.0554 7.1646,12.976 2.161,17.5999 -5.0037,4.6241 -38.4161,18.132 -44.1909,39.9564 -5.7748,21.8241 -0.1403,27.5491 10.4746,33.2413 10.6148,5.6925 24.344,13.4351 21.1361,29.7508 -3.208,16.316 -15.5688,27.4701 -22.2247,30.5744 -6.656,3.1043 -46.6521,14.3489 -57.1468,23.4201 -10.4947,9.0712 -39.8627,42.5729 -36.735,61.188 14.1899,-25.2101 21.7337,-36.9026 31.5274,-42.5482 9.7937,-5.6454 27.5656,-17.8856 38.2038,-16.7848 10.6383,1.1009 31.0235,5.7392 40.0561,-3.8627 9.0327,-9.6017 27.6322,-37.8115 28.8907,-54.8348 1.2586,-17.0232 -3.7351,-33.5555 -20.7923,-39.746 -10.6147,-5.6925 -15.0843,-10.0747 -13.7892,-15.1244 1.2952,-5.05 13.656,-16.2042 26.2669,-18.9873 12.6111,-2.7832 23.5931,-11.6775 25.2089,-22.1312 1.6155,-10.4537 -5.7824,-33.1186 -5.7358,-42.3016 0.047,-9.1832 -3.9006,-59.6356 -3.9006,-59.6356 z"
       id="path5058"
       inkscape:connector-curvature="0"
       sodipodi:nodetypes="cscsssssscssssccscccc" />
    <path
       inkscape:connector-curvature="0"
       id="path5208"
       d="m 1500.129,1219.4288 -23.6347,9.2241 c 13.4678,34.6216 23.7209,58.3448 36.8806,76.007 13.1598,17.6621 29.9172,28.3769 51.4769,34.5478 38.8046,11.1066 87.6095,29.6504 110.3563,63.7856 13.0544,19.5903 30.899,46.3181 40.3968,72.4104 9.4976,26.0925 10.8991,48.9765 -5.1622,67.5115 -18.3856,21.2176 -33.6353,27.9827 -49.2375,38.7459 -15.602,10.7633 -30.0776,26.7633 -37.7985,58.7242 l 24.6486,5.9701 c 6.6685,-27.6038 14.5297,-34.8223 27.5599,-43.8114 13.0304,-8.9892 32.7304,-18.4797 53.994,-43.0185 23.5881,-27.2213 20.8667,-62.4598 9.8275,-92.7869 -11.0391,-30.3271 -30.1459,-58.3231 -43.1213,-77.7948 -29.3128,-43.9883 -84.2642,-62.5983 -124.4829,-74.1097 -17.952,-5.1382 -27.8248,-11.5322 -38.1173,-25.346 -10.2925,-13.8139 -20.3066,-35.9214 -33.5862,-70.0593 z"
       style="color:#000000;font-style:normal;font-variant:normal;font-weight:normal;font-stretch:normal;font-size:medium;line-height:normal;font-family:Sans;-inkscape-font-specification:Sans;text-indent:0;text-align:start;text-decoration:none;text-decoration-line:none;letter-spacing:normal;word-spacing:normal;text-transform:none;direction:ltr;block-progression:tb;writing-mode:lr-tb;baseline-shift:baseline;text-anchor:start;display:inline;overflow:visible;visibility:visible;fill:#ffffff;fill-opacity:1;fill-rule:nonzero;stroke:none;stroke-width:31.89999962;marker:none;enable-background:accumulate" />
    <path
       style="color:#000000;display:inline;overflow:visible;visibility:visible;fill:#ffffff;fill-opacity:1;fill-rule:nonzero;stroke:none;stroke-width:1px;marker:none;enable-background:accumulate"
       d="m 1203.4779,1133.4625 c -33.0675,-118.2595 3.9121,-166.93656 304.0693,-167.10157 236.5688,-0.13005 293.0695,26.99827 312.7576,43.19077 33.1877,27.2952 64.2293,186.2329 -105.8159,210.9316 -248.6603,36.1174 -479.2786,26.4641 -511.011,-87.0208 z"
       id="path3525"
       inkscape:connector-curvature="0"
       sodipodi:nodetypes="sssss" />
    <flowRoot
       xml:space="preserve"
       id="flowRoot2987-4-9-3"
       style="font-style:normal;font-variant:normal;font-weight:normal;font-stretch:normal;line-height:0.01%;font-family:Lavi;-inkscape-font-specification:Lavi;text-align:center;letter-spacing:0px;word-spacing:0px;text-anchor:middle;fill:#000000;fill-opacity:1;stroke:none"
       transform="translate(1235.7882,1126.5326)"><flowRegion
         id="flowRegion2989-5-4-5"><rect
           id="rect2991-7-9-6"
           width="602.40173"
           height="310.73996"
           x="120.55251"
           y="265.53046"
           style="font-style:normal;font-variant:normal;font-weight:normal;font-stretch:normal;font-family:Lavi;-inkscape-font-specification:Lavi;text-align:center;text-anchor:middle" /></flowRegion><flowPara
         style="font-size:48px;line-height:1.25;text-align:center;text-anchor:middle"
         id="flowPara3058">... aber ernsthaft?</flowPara></flowRoot>
    <flowRoot
       xml:space="preserve"
       id="flowRoot2987-4-9-3-9"
       style="font-style:normal;font-variant:normal;font-weight:normal;font-stretch:normal;line-height:0.01%;font-family:Lavi;-inkscape-font-specification:Lavi;text-align:center;letter-spacing:0px;word-spacing:0px;text-anchor:middle;fill:#000000;fill-opacity:1;stroke:none"
       transform="translate(1098.4864,754.4571)"><flowRegion
         id="flowRegion2989-5-4-5-3"><rect
           id="rect2991-7-9-6-6"
           width="602.40173"
           height="310.73996"
           x="120.55251"
           y="265.53046"
           style="font-style:normal;font-variant:normal;font-weight:normal;font-stretch:normal;font-family:Lavi;-inkscape-font-specification:Lavi;text-align:center;text-anchor:middle" /></flowRegion><flowPara
         style="font-size:48px;line-height:1.25;text-align:center;text-anchor:middle"
         id="flowPara4232">Ich weiß, dass es manchmal</flowPara><flowPara
         style="font-size:48px;line-height:1.25;text-align:center;text-anchor:middle"
         id="flowPara4239">wünschenswert ist, wenn</flowPara><flowPara
         style="font-size:48px;line-height:1.25;text-align:center;text-anchor:middle"
         id="flowPara4241">alles bleibt, wie es ist...</flowPara></flowRoot>
    <flowRoot
       xml:space="preserve"
       id="flowRoot2987-4-9-3-9-1"
       style="font-style:normal;font-variant:normal;font-weight:normal;font-stretch:normal;line-height:0.01%;font-family:Lavi;-inkscape-font-specification:Lavi;text-align:center;letter-spacing:0px;word-spacing:0px;text-anchor:middle;fill:#000000;fill-opacity:1;stroke:none"
       transform="translate(1419.4733,1293.6115)"><flowRegion
         id="flowRegion2989-5-4-5-3-6"><rect
           id="rect2991-7-9-6-6-1"
           width="619.31653"
           height="300.10397"
           x="120.55251"
           y="265.53046"
           style="font-style:normal;font-variant:normal;font-weight:normal;font-stretch:normal;font-family:Lavi;-inkscape-font-specification:Lavi;text-align:center;text-anchor:middle" /></flowRegion><flowPara
         style="font-size:48px;line-height:1.25;text-align:center;text-anchor:middle"
         id="flowPara4250">„Ich will einfach</flowPara><flowPara
         style="font-size:48px;line-height:1.25;text-align:center;text-anchor:middle"
         id="flowPara4198">nur weiterschlafen“?</flowPara><flowPara
         style="font-size:48px;line-height:1.25;text-align:center;text-anchor:middle"
         id="flowPara4200">Was für ’ne Verschwendung!</flowPara></flowRoot>
    <flowRoot
       xml:space="preserve"
       id="flowRoot2987-7-9-9-7-4-5-16-68"
       style="font-style:normal;font-variant:normal;font-weight:normal;font-stretch:normal;line-height:0.01%;font-family:Lavi;-inkscape-font-specification:Lavi;letter-spacing:0px;word-spacing:0px;fill:#000000;fill-opacity:1;stroke:#000000;stroke-width:0.992362;stroke-miterlimit:4;stroke-dasharray:none;stroke-opacity:1;filter:url(#filter4375-5-4-81-0)"
       transform="matrix(0.82433366,-0.36081689,0,0.88465495,667.96771,2206.9247)"><flowRegion
         id="flowRegion2989-4-5-8-7-8-5-9-9"
         style="stroke-width:5.40286"><rect
           id="rect2991-45-1-3-3-4-3-6-1"
           width="319.66232"
           height="56.089447"
           x="120.55251"
           y="265.53046"
           style="font-style:normal;font-variant:normal;font-weight:normal;font-stretch:normal;font-family:Lavi;-inkscape-font-specification:Lavi;fill:#000000;fill-opacity:1;stroke:#000000;stroke-width:0.99236238;stroke-miterlimit:4;stroke-dasharray:none;stroke-opacity:1" /></flowRegion><flowPara
         id="flowPara2995-4-1-5-0-07-0-9-5"
         style="font-weight:normal;font-size:48px;line-height:1.25;-inkscape-font-specification:Lavi;fill:#000000;fill-opacity:1;stroke:#000000;stroke-width:0.992362;stroke-linejoin:miter;stroke-miterlimit:4;stroke-dasharray:none;stroke-opacity:1">Zzzzz</flowPara></flowRoot>
    <flowRoot
       xml:space="preserve"
       id="flowRoot2987-7-9-9-7-4-5-16-6-6"
       style="font-style:normal;font-variant:normal;font-weight:normal;font-stretch:normal;line-height:0.01%;font-family:Lavi;-inkscape-font-specification:Lavi;letter-spacing:0px;word-spacing:0px;fill:#000000;fill-opacity:1;stroke:#000000;stroke-width:0.992362;stroke-miterlimit:4;stroke-dasharray:none;stroke-opacity:1;filter:url(#filter4375-5-4-81-5-7)"
       transform="matrix(0.89377961,-0.3912139,0,0.95918268,698.75071,2115.8028)"><flowRegion
         id="flowRegion2989-4-5-8-7-8-5-9-8-4"
         style="stroke-width:5.40286"><rect
           id="rect2991-45-1-3-3-4-3-6-8-4"
           width="319.66232"
           height="56.089447"
           x="120.55251"
           y="265.53046"
           style="font-style:normal;font-variant:normal;font-weight:normal;font-stretch:normal;font-family:Lavi;-inkscape-font-specification:Lavi;fill:#000000;fill-opacity:1;stroke:#000000;stroke-width:0.99236238;stroke-miterlimit:4;stroke-dasharray:none;stroke-opacity:1" /></flowRegion><flowPara
         id="flowPara2995-4-1-5-0-07-0-9-3-7"
         style="font-weight:normal;font-size:48px;line-height:1.25;-inkscape-font-specification:Lavi;fill:#000000;fill-opacity:1;stroke:#000000;stroke-width:0.992362;stroke-linejoin:miter;stroke-miterlimit:4;stroke-dasharray:none;stroke-opacity:1">Zzzzz</flowPara></flowRoot>
  </g>
  <g
     inkscape:groupmode="layer"
     id="layer1"
     inkscape:label="txt">
    <flowRoot
       xml:space="preserve"
       id="flowRoot2987-4-9-3-6-3-8-7-2-7-2"
       style="font-style:normal;font-variant:normal;font-weight:normal;font-stretch:normal;line-height:0.01%;font-family:Lavi;-inkscape-font-specification:Lavi;text-align:center;letter-spacing:0px;word-spacing:0px;text-anchor:middle;opacity:0.916279;fill:#ffffff;fill-opacity:1;stroke:none;stroke-width:0.855718"
       transform="translate(126.49999,-19.125)"><flowRegion
         id="flowRegion2989-5-4-5-5-3-0-6-76-8-1"
         style="fill:#ffffff;fill-opacity:1;stroke-width:0.855718"><rect
           id="rect2991-7-9-6-21-9-8-0-3-1-7"
           width="1787.6803"
           height="115.74487"
           x="195.86313"
           y="3295.801"
           style="font-style:normal;font-variant:normal;font-weight:normal;font-stretch:normal;font-family:Lavi;-inkscape-font-specification:Lavi;text-align:center;text-anchor:middle;fill:#ffffff;fill-opacity:1;stroke-width:0.8557182" /></flowRegion><flowPara
         style="font-size:37.3333px;line-height:1.25;text-align:center;text-anchor:middle;fill:#ffffff;fill-opacity:1;stroke-width:0.855718"
         id="flowPara3272-6-3-1">April 2015 - www.peppercarrot.com - Grafik und Handlung: David Revoy</flowPara><flowPara
         style="font-size:37.3333px;line-height:1.25;text-align:center;text-anchor:middle;fill:#ffffff;fill-opacity:1;stroke-width:0.855718"
         id="flowPara4192">Übersetzung: Helmar Suschka &amp; Alexandra Jordan</flowPara></flowRoot>
    <flowRoot
       xml:space="preserve"
       id="flowRoot2987-4-9-3-6-3-8-7-2"
       style="font-style:normal;font-variant:normal;font-weight:normal;font-stretch:normal;line-height:0.01%;font-family:Lavi;-inkscape-font-specification:Lavi;text-align:center;letter-spacing:0px;word-spacing:0px;text-anchor:middle;fill:#000000;fill-opacity:1;stroke:none"
       transform="translate(1253.2911,3153.5637)"><flowRegion
         id="flowRegion2989-5-4-5-5-3-0-6-76"><rect
           id="rect2991-7-9-6-21-9-8-0-3"
           width="1041.0548"
           height="56.977448"
           x="120.55251"
           y="265.53046"
           style="font-style:normal;font-variant:normal;font-weight:normal;font-stretch:normal;font-family:Lavi;-inkscape-font-specification:Lavi;text-align:center;text-anchor:middle" /></flowRegion><flowPara
         style="font-size:48px;line-height:1.25;text-align:center;text-anchor:middle"
         id="flowPara3272-6">Episode 7: Der Wunsch</flowPara></flowRoot>
    <flowRoot
       transform="matrix(0.90617713,0,-0.22078013,1.6225798,1888.7408,2974.0462)"
       style="font-style:normal;font-variant:normal;font-weight:normal;font-stretch:normal;line-height:0.01%;font-family:Lavi;-inkscape-font-specification:Lavi;text-align:center;letter-spacing:0px;word-spacing:0px;text-anchor:middle;fill:#000000;fill-opacity:1;stroke:#000000;stroke-width:4.7;stroke-miterlimit:4;stroke-dasharray:none;stroke-opacity:1"
       id="flowRoot4212-3-7-8-6"
       xml:space="preserve"><flowRegion
         id="flowRegion4214-6-7-8-3"><rect
           style="font-style:normal;font-variant:normal;font-weight:normal;font-stretch:normal;font-family:Lavi;-inkscape-font-specification:Lavi;text-align:center;text-anchor:middle;stroke:#000000;stroke-width:4.69999981;stroke-miterlimit:4;stroke-dasharray:none;stroke-opacity:1"
           y="265.53046"
           x="120.55251"
           height="355.03918"
           width="798.1947"
           id="rect4216-4-0-26-5" /></flowRegion><flowPara
         style="font-size:48px;line-height:1.25;text-align:center;letter-spacing:5.20896px;text-anchor:middle;stroke:#000000;stroke-width:4.7;stroke-miterlimit:4;stroke-dasharray:none;stroke-opacity:1"
         id="flowPara4358-7-1">ENDE</flowPara></flowRoot>
  </g>
</svg>
