<?xml version="1.0" encoding="UTF-8" standalone="no"?>
<!-- Created with Inkscape (http://www.inkscape.org/) -->

<svg
   xmlns:dc="http://purl.org/dc/elements/1.1/"
   xmlns:cc="http://creativecommons.org/ns#"
   xmlns:rdf="http://www.w3.org/1999/02/22-rdf-syntax-ns#"
   xmlns:svg="http://www.w3.org/2000/svg"
   xmlns="http://www.w3.org/2000/svg"
   xmlns:xlink="http://www.w3.org/1999/xlink"
   xmlns:sodipodi="http://sodipodi.sourceforge.net/DTD/sodipodi-0.dtd"
   xmlns:inkscape="http://www.inkscape.org/namespaces/inkscape"
   id="svg2"
   version="1.1"
   inkscape:version="0.92.3 (2405546, 2018-03-11)"
   width="2481"
   height="3503"
   sodipodi:docname="E12P03.svg">
  <sodipodi:namedview
     pagecolor="#ffffff"
     bordercolor="#666666"
     inkscape:pageopacity="0"
     inkscape:pageshadow="2"
     inkscape:window-width="1920"
     inkscape:window-height="1017"
     id="namedview70"
     showgrid="false"
     inkscape:zoom="0.38874756"
     inkscape:cx="1094.1302"
     inkscape:cy="2308.5701"
     inkscape:current-layer="layer1"
     inkscape:window-x="1672"
     inkscape:window-y="-8"
     inkscape:window-maximized="1" />
  <metadata
     id="metadata8">
    <rdf:RDF>
      <cc:Work
         rdf:about="">
        <dc:format>image/svg+xml</dc:format>
        <dc:type
           rdf:resource="http://purl.org/dc/dcmitype/StillImage" />
        <dc:title />
      </cc:Work>
    </rdf:RDF>
  </metadata>
  <defs
     id="defs6">
    <filter
       style="color-interpolation-filters:sRGB"
       id="filter4375-4-1-7-3-7"
       inkscape:label="deevad outline effect">
      <feFlood
         id="feFlood4377-7-9-2-4-1"
         flood-opacity="1"
         flood-color="rgb(60,100,48)"
         result="flood" />
      <feComposite
         id="feComposite4379-3-8-5-4-75"
         in2="SourceGraphic"
         in="flood"
         operator="in"
         result="composite1" />
      <feMorphology
         id="feMorphology4393-1-0-4-5-8"
         operator="dilate"
         radius="4"
         result="result3" />
      <feComposite
         id="feComposite4385-9-5-2-1-5"
         in2="result3"
         in="SourceGraphic"
         operator="over"
         result="composite2" />
    </filter>
    <filter
       style="color-interpolation-filters:sRGB"
       id="filter4375-4-1-7-3-7-6"
       inkscape:label="deevad outline effect">
      <feFlood
         id="feFlood4377-7-9-2-4-1-8"
         flood-opacity="1"
         flood-color="rgb(60,100,48)"
         result="flood" />
      <feComposite
         id="feComposite4379-3-8-5-4-75-5"
         in2="SourceGraphic"
         in="flood"
         operator="in"
         result="composite1" />
      <feMorphology
         id="feMorphology4393-1-0-4-5-8-4"
         operator="dilate"
         radius="4"
         result="result3" />
      <feComposite
         id="feComposite4385-9-5-2-1-5-1"
         in2="result3"
         in="SourceGraphic"
         operator="over"
         result="composite2" />
    </filter>
  </defs>
  <sodipodi:namedview
     pagecolor="#ffffff"
     bordercolor="#666666"
     borderopacity="1"
     objecttolerance="10"
     gridtolerance="10"
     guidetolerance="10"
     inkscape:pageopacity="0"
     inkscape:pageshadow="2"
     inkscape:window-width="1920"
     inkscape:window-height="1025"
     id="namedview4"
     showgrid="false"
     inkscape:zoom="0.52900001"
     inkscape:cx="1115.0786"
     inkscape:cy="1421.7276"
     inkscape:window-x="0"
     inkscape:window-y="26"
     inkscape:window-maximized="1"
     inkscape:current-layer="layer1" />
  <g
     inkscape:groupmode="layer"
     id="layer2"
     inkscape:label="artwork"
     sodipodi:insensitive="true">
    <image
       sodipodi:absref="C:\Users\ato\OneDrive - Høgskulen i Volda\Vevsida\Teikneseriesida\Pepar &amp; Gulrot\ep12_Autumn-Clearout_lang-pack\lang\nn\../gfx_Pepper-and-Carrot_by-David-Revoy_E12P03.png"
       xlink:href="../gfx_Pepper-and-Carrot_by-David-Revoy_E12P03.png"
       y="0"
       x="0"
       id="image10"
       height="3503"
       width="2481" />
  </g>
  <g
     inkscape:groupmode="layer"
     id="layer3"
     inkscape:label="speechbubbles" />
  <g
     inkscape:groupmode="layer"
     id="layer1"
     inkscape:label="txt">
    <path
       style="color:#000000;display:inline;overflow:visible;visibility:visible;fill:#ffffff;fill-opacity:1;fill-rule:nonzero;stroke:none;stroke-width:1px;marker:none;enable-background:accumulate"
       d="m 360.65741,1428.9168 c 3.96899,-2.1762 19.79333,-6.9821 19.79333,-6.9821 0.55874,-0.5426 31.82703,-6.6724 33.89724,-3.2539 23.50142,-1.8382 18.51495,16.9819 16.90818,17.9577 23.09413,3.5551 36.75984,-0.6117 56.56622,-7.1964 -18.01666,1.9167 -27.40814,2.7487 -39.91218,-3.6394 -9.20058,-5.3807 -7.73265,-12.4453 -4.16316,-19.8417 -16.63434,-0.4326 -32.65372,-1.9056 -38.35236,-20.837 l -3.29059,-6.528 c -65.32627,-16.3385 -79.16215,32.6762 -41.44668,50.3208 z"
       id="path4448"
       inkscape:connector-curvature="0"
       sodipodi:nodetypes="cccccccccc" />
    <path
       style="display:inline;fill:#ffffff;fill-rule:evenodd;stroke:none;stroke-width:0.891469px;stroke-linecap:butt;stroke-linejoin:miter;stroke-opacity:1"
       d="m 2169.8201,247.99065 c 0.1661,54.62206 -16.7865,37.30928 -35.8468,61.37536 -19.5125,24.63688 -18.2367,28.6876 -48.6217,38.26595 -25.1591,7.93073 -53.6445,11.52688 -71.6584,18.74447 -18.0141,7.21723 -26.3856,25.70376 -51.3474,27.0838 -24.9621,1.38038 -47.7873,-34.65211 -63.7822,-35.51748 -15.9951,-0.86529 -41.1021,25.23497 -53.543,24.56195 -12.4406,-0.673 -38.9217,-23.49038 -53.1396,-24.25952 -14.2179,-0.76925 -29.8062,24.54017 -54.6069,20.46784 -24.8006,-4.07244 -41.8191,-28.24441 -57.8947,-26.38338 -16.0757,1.86089 -27.9893,26.40599 -56.2639,19.41489 -28.2746,-6.99087 -48.2027,-25.62959 -59.0272,-20.75377 -10.8245,4.87569 -25.4368,13.65448 -55.4079,3.84107 -29.9713,-9.81352 -30.5497,-38.62319 -46.545,-39.48857 -15.9949,-0.86528 -59.5505,-0.76395 -68.314,-19.67197 -11.6759,-25.1923 22.2409,-28.28915 12.3526,-55.70446 -8.5568,-23.72455 -11.0514,-21.38139 -6.1595,-49.26594 3.7593,-21.42867 25.3783,-29.11953 45.089,-33.51447 19.7106,-4.39504 15.2332,-31.30597 38.4178,-32.78248 23.1846,-1.47639 35.0099,19.68197 59.8911,21.02798 24.8813,1.34604 49.1272,-35.71005 70.293,-29.10368 21.1656,6.60635 44.186,22.87873 70.5727,20.98778 42.6174,-3.054 46.0713,-21.46541 71.0333,-22.84568 24.9618,-1.38028 44.5864,25.72272 64.136,26.78037 19.5498,1.05764 38.275,-29.30663 66.5534,-22.34844 28.172,6.93211 18.2451,11.12593 52.8369,18.047 24.6646,4.93484 15.7746,-20.24643 64.1533,-18.70814 28.4525,0.90469 46.1477,13.33899 70.3024,26.39646 24.7085,13.35655 30.2025,-6.40289 55.7278,7.15168 31.5068,16.73088 47.0875,66.21184 40.7989,96.20138 z"
       id="path5057"
       inkscape:connector-curvature="0"
       sodipodi:nodetypes="cssssssssssssssssssssssssssssc" />
    <flowRoot
       xml:space="preserve"
       id="flowRoot2987-4-9-3-7-8-6-6-6-0-7"
       style="font-style:normal;font-variant:normal;font-weight:normal;font-stretch:normal;line-height:0.01%;font-family:Lavi;-inkscape-font-specification:Lavi;text-align:center;letter-spacing:0px;word-spacing:0px;text-anchor:middle;display:inline;fill:#000000;fill-opacity:1;stroke:none"
       transform="translate(1202.4889,-99.301375)"><flowRegion
         id="flowRegion2989-5-4-5-5-1-2-4-2-0-8"><rect
           id="rect2991-7-9-6-9-5-7-2-1-3-2"
           width="926.47235"
           height="193.26711"
           x="120.55251"
           y="265.53046"
           style="font-style:normal;font-variant:normal;font-weight:normal;font-stretch:normal;font-family:Lavi;-inkscape-font-specification:Lavi;text-align:center;text-anchor:middle" /></flowRegion><flowPara
         style="font-size:45px;line-height:1.25;text-align:center;text-anchor:middle"
         id="flowPara3595">«Og ikkje finn på å bruka magi!</flowPara><flowPara
         style="font-size:45px;line-height:1.25;text-align:center;text-anchor:middle"
         id="flowPara871">Ei ekte kaosah-heks brukar aldri</flowPara><flowPara
         style="font-size:45px;line-height:1.25;text-align:center;text-anchor:middle"
         id="flowPara877">magi til husarbeidet.»</flowPara></flowRoot>    <path
       style="color:#000000;display:inline;overflow:visible;visibility:visible;fill:#ffffff;fill-opacity:1;fill-rule:nonzero;stroke:none;stroke-width:1px;marker:none;enable-background:accumulate"
       d="m 1422.2566,272.72798 c -9.0465,17.17821 -22.1298,35.41844 -25.8633,37.63371 -3.7335,2.21528 -29.1071,-2.82552 -32.6588,2.42499 -3.5516,5.25048 -0.184,20.39637 -3.1892,23.03676 -3.005,2.64026 -22.248,2.15282 -24.7979,6.52322 -2.55,4.3704 -5.4057,31.01895 -7.9857,32.93092 -2.5801,1.91189 -16.4823,12.35157 -25.5588,27.07123 27.6826,-18.9975 34.9365,-17.20605 38.4881,-22.45653 3.5518,-5.25051 3.3409,-22.45998 7.9244,-26.13214 4.5834,-3.67214 23.0981,-3.60961 26.498,-9.43687 3.3999,-5.82716 2.2477,-17.23961 2.2477,-17.23961 5.6756,2.82332 37.3315,12.99419 59.43,-13.16691 22.0987,-26.16114 -14.5345,-41.18877 -14.5345,-41.18877 z"
       id="path5050"
       inkscape:connector-curvature="0" />
    <path
       style="color:#000000;display:inline;overflow:visible;visibility:visible;fill:#ffffff;fill-opacity:1;fill-rule:nonzero;stroke:none;stroke-width:1px;marker:none;enable-background:accumulate"
       d="m 302.45497,1247.2041 c -0.72586,10.7691 4.61327,46.7566 23.3544,17.1486 11.73064,53.8925 50.01371,45.6317 113.9568,25.6267 -30.0755,25.5248 -33.68351,63.3139 -4.70964,70.2726 -10.52722,10.176 -6.2823,22.0327 11.14346,35.3894 -30.96555,-4.2774 -40.13682,0.9564 5.15189,29.9566 -38.37944,-15.3101 -74.68819,-28.7424 -45.75549,16.9831 -14.34068,-5.2656 -34.47176,-41.7222 -57.06199,30.4356 -11.83439,-31.1777 -30.72405,-53.6181 -88.35886,-23.228 0.19749,-21.5567 -7.76041,-39.5401 -49.90586,-27.8686 3.92195,-19.8183 -29.52488,-35.7654 -44.17028,-37.6038 36.60897,-8.5199 42.68214,-20.873 9.24023,-37.3588 78.04732,-10.2422 27.69985,-25.0426 23.47944,-37.812 52.40176,7.2754 40.696,-16.2319 41.20861,-34.5048 52.5427,21.6245 49.23904,-9.4184 62.42729,-27.4366 z"
       id="path3549-3"
       inkscape:connector-curvature="0"
       sodipodi:nodetypes="ccccccccccccccc" />
    <flowRoot
       transform="matrix(0.90617713,0,-0.22078013,1.6225798,-94.595202,888.77795)"
       style="font-style:normal;font-variant:normal;font-weight:normal;font-stretch:normal;line-height:0.01%;font-family:Lavi;-inkscape-font-specification:Lavi;text-align:center;letter-spacing:0px;word-spacing:0px;text-anchor:middle;fill:#000000;fill-opacity:1;stroke:#000000;stroke-width:2.47324347;stroke-miterlimit:4;stroke-dasharray:none;stroke-opacity:1"
       id="flowRoot4212-3-7-8-6"
       xml:space="preserve"><flowRegion
         id="flowRegion4214-6-7-8-3"><rect
           style="font-style:normal;font-variant:normal;font-weight:normal;font-stretch:normal;font-family:Lavi;-inkscape-font-specification:Lavi;text-align:center;text-anchor:middle;stroke:#000000;stroke-width:2.47324347;stroke-miterlimit:4;stroke-dasharray:none;stroke-opacity:1"
           y="265.53046"
           x="120.55251"
           height="355.03918"
           width="798.1947"
           id="rect4216-4-0-26-5" /></flowRegion><flowPara
         style="font-size:48px;line-height:1.25;text-align:center;letter-spacing:5.20896292px;text-anchor:middle;stroke:#000000;stroke-width:2.47324347;stroke-miterlimit:4;stroke-dasharray:none;stroke-opacity:1"
         id="flowPara4358-7-1">Grrr!</flowPara></flowRoot>    <path
       style="color:#000000;display:inline;overflow:visible;visibility:visible;fill:#ffffff;fill-opacity:1;fill-rule:nonzero;stroke:none;stroke-width:0.97134763px;marker:none;enable-background:accumulate"
       d="m 1771.6004,1063.9682 -58.7994,-17.6058 14.8545,31.612 c -27.3905,1.054 -41.6615,-5.0425 -61.096,-8.3248 l 30.5479,24.9744 -5.0913,6.9375 c 4.9595,4.0563 12.4432,6.8229 14.2557,12.4872 -13.8366,3.5299 -23.7849,3.5276 -35.2279,4.8829 10.7671,4.6911 19.7312,10.1192 26.0635,16.623 l -36.6575,11.0997 33.6006,9.7107 c -25.2734,15.9684 -57.0385,26.0392 -86.5505,38.1572 l 86.9328,-4.4691 -21.4492,26.0385 c 12.2086,-2.3337 18.8562,-5.6968 37.3614,-9.7759 -11.5174,6.7972 -46.6134,30.6095 -43.1426,28.6845 4.073,-0.6938 49.2521,-9.9537 49.2521,-9.9537 0,0 -30.5479,19.4248 -26.4749,19.4248 4.073,0 37.6759,-4.8562 37.6759,-4.8562 l -11.201,18.7309 43.7855,-10.4062 -18.3288,23.2901 c 11.3918,-1.3701 18.742,-1.8485 14.6917,6.2499 40.6974,-15.4792 22.6402,-0.076 -12.7689,37.1555 23.2275,-11.0759 36.7357,-22.3054 69.9456,-34.2808 8.0043,10.6468 9.1353,25.4383 5.5198,39.734 10.9022,-10.8729 19.8739,-23.752 40.7307,-24.2808 8.3882,2.4261 6.5935,10.143 7.1279,16.6497 l 30.548,-20.8121 v 21.5059 c 14.0999,-16.6485 26.3786,-21.0466 39.7124,-24.9746 11.0123,5.285 22.0335,11.8867 20.3573,33.89 16.2949,-18.7084 34.1628,-26.7881 48.8848,-21.4026 8.7567,8.6603 10.8521,18.5791 13.2375,28.4431 2.499,-9.3042 2.7473,-19.9077 10.1828,-26.362 4.6351,6.1471 3.6059,14.2562 3.0548,22.1996 7.1876,-15.1584 17.8283,-22.5421 28.5113,-29.8306 16.1316,6.0416 17.8529,16.8478 21.3838,27.0557 5.5291,-11.93 7.0908,-14.0495 20.3651,-24.9745 40.1639,0.6347 61.5349,36.8319 76.37,67.9861 -4.298,-28.0049 -7.8847,-55.2021 -6.1096,-76.311 11.5403,-2.1997 23.0806,2.2 34.6211,8.3249 l -6.1096,-18.731 42.7672,12.4873 -19.3472,-29.137 c 65.2828,-0.9336 52.1772,4.0668 67.2059,6.9375 l -12.2194,-18.731 44.8039,14.5685 c -12.2397,-15.5004 -23.6239,-24.5877 -31.9656,-38.7602 l 42.1481,-4.2516 c -18.3552,-12.4698 -27.1358,-18.9068 -44.0575,-31.5997 l 30.8202,-7.9432 -38.6942,-20.8121 30.5479,-11.7935 -24.4383,-2.775 40.7306,-24.9745 -53.9682,-2.0812 65.1692,-45.0929 -75.3517,9.7124 6.1096,-32.6057 -41.7489,23.5871 20.0639,-64.9555 c -34.4616,27.952 -43.0134,26.7728 -83.774,56.9246 l 12.6521,-29.2312 -43.6409,25.2678 4.073,-23.3863 -60.0776,28.4431 6.1096,-13.1809 -18.3288,12.4872 4.0728,-17.3434 -31.5661,20.8121 2.9064,-18.1335 -15.1256,11.8898 -4.6576,-11.3937 -17.7443,7.2313 c -5.339,-30.0619 -7.9109,-38.9919 -1.5633,-69.05386 -20.8329,34.41376 -35.5438,44.41146 -70.7337,70.44136 l -11.2008,-13.1763 -13.9659,12.1839 -14.1071,-15.7489 -21.2399,18.8194 c -16.7961,-14.3372 -26.5787,-23.1215 -33.1667,-37.4586 3.2489,13.4369 5.6113,22.4634 0.872,37.261 -62.0037,-22.6555 -83.3516,-37.261 -83.3516,-37.261 0,0 9.9269,23.6387 14.4152,37.3303 z"
       id="path4024"
       inkscape:connector-curvature="0"
       sodipodi:nodetypes="cccccccccccccccccsccccccccccccccccccccccccccccccccccccccccccccccccccccccccccccccccccc" />
    <path
       style="color:#000000;display:inline;overflow:visible;visibility:visible;fill:#ffffff;fill-opacity:1;fill-rule:nonzero;stroke:none;stroke-width:1px;marker:none;enable-background:accumulate"
       d="m 1495.2162,1161.0088 c 45.2667,-1.3399 91.122,-12.2107 135.7051,-2.4766 l -30.5598,-34.6986 c 17.4874,-8.2093 36.1977,-1.4791 54.4929,0.1778 l -16.1244,-25.907 c 41.4303,-18.6844 80.9068,-12.0098 121.3275,-17.5923 l -30.8631,-41.9161 c -40.548,12.2593 -79.3563,33.3843 -121.8615,35.6716 l 13.7717,27.627 c -14.6613,3.6275 -29.4343,6.4581 -44.7057,5.7293 l 19.6323,32.4356 z"
       id="path4032"
       inkscape:connector-curvature="0"
       sodipodi:nodetypes="cccccccccccc" />
    <path
       style="color:#000000;display:inline;overflow:visible;visibility:visible;fill:#ffffff;fill-opacity:1;fill-rule:nonzero;stroke:none;stroke-width:1px;marker:none;enable-background:accumulate"
       d="m 1716.7283,920.23711 c -7.297,22.2136 -48.4531,24.0763 -63.6038,19.561 30.5403,24.84999 29.4756,40.28969 -11.9895,42.68699 69.5377,44.7862 12.7124,38.009 1.504,49.3655 54.6,15.4343 30.1714,34.6427 20.4507,53.7643 62.7573,0.6568 42.2197,31.3081 44.8648,55.7199 5.3203,-11.4551 30.5956,-46.3295 32.1164,-7.4992 41.5103,-37.0462 91.5084,-60.9762 95.4784,3.8548 16.7252,-32.6147 33.4002,-46.399 32.1164,-7.4992 41.4398,-50.5941 78.6792,-32.3826 116.1393,-18.0828 9.8387,-15.2705 10.9851,-38.7304 42.8156,-33.2327 -4.463,-15.1358 6.2843,-25.5401 30.5553,-31.7186 -32.2523,-9.1431 -38.1963,-18.574 21.689,-28.7231 -45.5692,-0.9817 -88.0628,-2.993 -34.6002,-37.6044 -16.7727,-0.8375 -56.5677,28.0432 -38.0137,-56.47679 -28.8416,27.05779 -59.613,41.99179 -98.2031,-14.6874 -18.2628,28.3158 -49.9392,42.32759 -63.72,6.9589 -4.9531,15.0783 -25.4913,20.749 -42.9267,21.4367 -6.7423,-5.9894 -13.6962,-14.1245 -20.9529,-24.7828 -11.8605,22.3796 -29.6025,37.49379 -63.72,6.9589 z"
       id="path3549-3-7"
       inkscape:connector-curvature="0"
       sodipodi:nodetypes="cccccccccccccccccccc" />
    <flowRoot
       xml:space="preserve"
       id="flowRoot2987-4-9-3-0"
       style="font-style:normal;font-variant:normal;font-weight:normal;font-stretch:normal;line-height:0.01%;font-family:Lavi;-inkscape-font-specification:Lavi;text-align:center;letter-spacing:0px;word-spacing:0px;text-anchor:middle;fill:#000000;fill-opacity:1;stroke:none"
       transform="matrix(1.0770452,0,0,1.2835583,1383.7088,634.66334)"><flowRegion
         id="flowRegion2989-5-4-5-1"><rect
           id="rect2991-7-9-6-4"
           width="602.40173"
           height="310.73996"
           x="120.55251"
           y="265.53046"
           style="font-style:normal;font-variant:normal;font-weight:normal;font-stretch:normal;font-family:Lavi;-inkscape-font-specification:Lavi;text-align:center;text-anchor:middle" /></flowRegion><flowPara
         style="font-size:45px;line-height:1.25;text-align:center;letter-spacing:1.5px;text-anchor:middle;stroke:#000000;stroke-width:1.10000002;stroke-miterlimit:4;stroke-dasharray:none;stroke-opacity:1"
         id="flowPara3030-8-7">GULROT!</flowPara></flowRoot>    <flowRoot
       xml:space="preserve"
       id="flowRoot2987-4-9-3-7-8-6-6-6-0-7-2"
       style="font-style:normal;font-variant:normal;font-weight:normal;font-stretch:normal;line-height:0.01%;font-family:Lavi;-inkscape-font-specification:Lavi;text-align:center;letter-spacing:0px;word-spacing:0px;text-anchor:middle;display:inline;fill:#000000;fill-opacity:1;stroke:none"
       transform="translate(1417.5706,832.02983)"><flowRegion
         id="flowRegion2989-5-4-5-5-1-2-4-2-0-8-9"><rect
           id="rect2991-7-9-6-9-5-7-2-1-3-2-1"
           width="926.47235"
           height="193.26711"
           x="120.55251"
           y="265.53046"
           style="font-style:normal;font-variant:normal;font-weight:normal;font-stretch:normal;font-family:Lavi;-inkscape-font-specification:Lavi;text-align:center;text-anchor:middle" /></flowRegion><flowPara
         style="font-size:45px;line-height:1.25;text-align:center;text-anchor:middle"
         id="flowPara4244">Finn bind 7 av Kaosah-</flowPara><flowPara
         style="font-size:45px;line-height:1.25;text-align:center;text-anchor:middle"
         id="flowPara71">bøkene – «Tyngdefelt» –</flowPara><flowPara
         style="font-size:45px;line-height:1.25;text-align:center;text-anchor:middle"
         id="flowPara73">og skund deg!</flowPara></flowRoot>    <path
       style="fill:#ffffff;fill-opacity:1;stroke:none;stroke-width:1.02703762"
       d="m 1327.0774,2084.7633 c 39.0112,7.9508 54.0154,15.3335 47.0132,19.877 16.0047,2.2716 22.0066,61.3353 7.0022,72.1255 -1.0002,1.1362 -8.0023,4.5435 -5.0014,5.1115 3.0007,0.568 21.0059,-1.1357 24.0067,1.1358 3.0009,2.2718 -27.0076,34.6431 -23.0067,35.7789 4.0014,1.1358 61.6955,-21.8141 72.1466,-12.5408 20.8277,18.4806 42.8865,15.3802 46.8878,15.9484 4.0008,0.5679 41.0117,-2.8395 46.0131,-2.2718 5.0012,0.568 14.0035,17.6053 19.005,18.1733 5.0016,0.5679 28.0081,-7.3827 32.0094,-6.815 4.0013,0.5681 2.0004,14.7661 7.0019,15.3335 5.0015,0.5683 27.0077,-11.9261 30.0085,-11.3582 3.0008,0.5681 14.0042,28.9643 19.0054,30.6679 5.0015,1.7037 37.0106,-31.2358 40.0115,-31.8036 3.0006,-0.5679 22.0062,38.6188 26.0074,39.1864 4.0013,0.5681 24.0069,-26.6925 27.0078,-26.1242 3.0007,0.5678 22.0062,16.4696 26.0073,17.6054 4.001,1.136 30.0085,-35.2108 34.0097,-35.2108 4.0013,0 38.0109,15.3336 41.0119,18.1732 3.0007,2.8397 6.0013,-14.7659 10.0027,-14.7659 4.0012,0 50.0144,10.2226 51.0145,9.6548 1.0001,-0.5681 -7.0021,-11.3585 -4.001,-11.3585 3.0009,0 50.0141,14.1981 52.0149,11.3585 2.0003,-2.8395 102.0289,14.1979 109.0308,11.9261 7.0023,-2.2714 -45.0127,-46.5693 -40.0117,-49.9765 5.0016,-3.4077 23.0071,0.5675 24.0072,-1.136 1.0003,-1.704 -11.0031,-9.0866 -8.0025,-11.3586 3.0011,-2.2716 37.0107,-11.358 40.0115,-14.1976 3.0009,-2.8398 -15.0041,-10.2228 -11.0031,-11.9264 4.0012,-1.7039 63.0182,-12.4943 64.0185,-15.334 1.0001,-2.8395 -30.0085,-16.4692 -26.0078,-20.4449 4.0012,-3.9754 15.0046,-5.6791 14.0042,-8.5188 -1.0003,-2.8397 -20.0058,-6.2472 -19.0054,-9.0868 1.0005,-2.8396 11.003,-17.0374 14.0039,-19.3091 3.0009,-2.2716 -21.0059,-1.1357 -21.0059,-3.4076 0,-2.2715 66.1599,-59.1805 64.1593,-76.2181 -31.0089,10.7906 -120.3186,19.8106 -153.3277,15.2671 -33.0098,-4.5434 -14.8612,-26.5085 -19.8626,-28.212 -5.0013,-1.704 -42.0121,9.6547 -47.0136,5.679 -5.0015,-3.9755 -7.0017,-11.3581 -11.0032,-11.3581 -4.0009,0 -27.0077,15.9011 -32.0089,15.3338 -5.0015,-0.5683 -52.0148,-25.5565 -59.0168,-26.1246 -7.0021,-0.5677 -34.0098,9.6547 -40.0115,10.2226 -6.0017,0.5682 -11.0031,-13.6301 -16.0046,-12.494 -5.0016,1.1357 -37.0106,11.3583 -42.0117,10.2225 -5.0016,-1.136 -9.0026,-5.6789 -13.0042,-4.5434 -4.0007,1.1358 -22.0059,5.6792 -22.0059,5.6792 -11.0425,2.8816 -20.6754,-5.7275 -19.0056,-3.4076 3.6377,5.0531 -46.7937,19.4284 -52.0148,19.877 -5.0013,1.1356 -48.0137,-43.1617 -45.0128,-46.569 3.0011,-3.4076 -45.0128,47.1373 -52.0149,48.8408 -7.0018,1.7037 -28.0079,-3.4073 -30.0084,-1.7035 -2.0008,1.7035 -8.0025,10.7903 -14.0041,11.3581 -6.0017,0.5678 -20.0057,2.8395 -20.0057,2.8395 l 2.0006,3.4079 c 0,0 -42.012,-9.0871 -47.0133,-12.4946 -5.0014,-3.4074 3.0007,14.7659 6.0016,19.3093 -18.0049,-4.5434 -71.0202,-14.1979 -75.021,-17.0376 -4.0016,-2.8394 7.0017,10.2229 13.0035,14.1979 -8.0024,-1.7037 -15.0045,-2.2715 -15.0045,-2.2715 l 23.0067,13.63 -7.0021,1.1359 c 0,0 15.0043,6.2471 15.0043,9.0868 0,2.8394 -39.0112,6.247 -39.0112,6.247 0,0 16.0047,5.1111 12.0036,7.9507 -4.0013,2.8395 -14.004,4.5433 -14.004,4.5433 l -2.0006,7.383 z"
       id="path5888"
       inkscape:connector-curvature="0"
       sodipodi:nodetypes="cccsccscccccccccccscscsccsscsccccccscsssscccccscsccsccccsccccccsccccc" />
    <path
       style="color:#000000;fill:#ffffff;fill-opacity:1;fill-rule:nonzero;stroke:none;stroke-width:1px;marker:none;visibility:visible;display:inline;overflow:visible;enable-background:accumulate"
       d="m 1476.1891,2360.3093 c 58.7023,-40.2328 74.2517,-66.7852 83.6395,-84.5531 -18.192,-19.5453 -34.2979,-26.4643 -42.5827,-40.8563 31.517,-4.8173 59.7042,-4.3629 69.2765,1.3288 22.6858,-33.1454 -24.8003,-30.4847 -24.8003,-30.4847 0,0 -49.2813,4.066 -77.5084,12.5569 5.4898,31.6668 40.314,52.0029 45.4103,58.94 -10.9648,48.502 -45.6639,73.3026 -53.4349,83.0684 z"
       id="path5162"
       inkscape:connector-curvature="0"
       sodipodi:nodetypes="cccccccc" />
    <flowRoot
       xml:space="preserve"
       id="flowRoot2987-7-9-9-7-0-3-5-2-6"
       style="font-style:normal;font-variant:normal;font-weight:normal;font-stretch:normal;line-height:0.01%;font-family:Lavi;-inkscape-font-specification:Lavi;letter-spacing:0px;word-spacing:0px;fill:#000000;fill-opacity:1;stroke:#000000;stroke-width:0.99236238;stroke-miterlimit:4;stroke-dasharray:none;stroke-opacity:1;filter:url(#filter4375-4-1-7-3-7)"
       transform="matrix(0.69413547,-0.3960575,-0.18345695,1.6511803,1948.8802,2819.5754)"
       inkscape:transform-center-x="192.72092"
       inkscape:transform-center-y="-136.44814"><flowRegion
         id="flowRegion2989-4-5-8-7-41-7-68-63-1"
         style="stroke-width:5.40286207"><rect
           id="rect2991-45-1-3-3-8-0-3-6-32"
           width="319.66232"
           height="56.089447"
           x="120.55251"
           y="265.53046"
           style="font-style:normal;font-variant:normal;font-weight:normal;font-stretch:normal;font-family:Lavi;-inkscape-font-specification:Lavi;fill:#000000;fill-opacity:1;stroke:#000000;stroke-width:0.99236238;stroke-miterlimit:4;stroke-dasharray:none;stroke-opacity:1" /></flowRegion><flowPara
         id="flowPara2995-4-1-5-0-7-2-5-3-0"
         style="font-weight:normal;font-size:48px;line-height:1.25;-inkscape-font-specification:Lavi;letter-spacing:7.06853437px;fill:#ffffff;fill-opacity:1;stroke:#ffffff;stroke-width:0.99236238;stroke-linejoin:miter;stroke-miterlimit:4;stroke-dasharray:none;stroke-opacity:1">Tapp</flowPara></flowRoot>    <flowRoot
       xml:space="preserve"
       id="flowRoot2987-7-9-9-7-0-3-5-2-6-5"
       style="font-style:normal;font-variant:normal;font-weight:normal;font-stretch:normal;line-height:0.01%;font-family:Lavi;-inkscape-font-specification:Lavi;letter-spacing:0px;word-spacing:0px;fill:#000000;fill-opacity:1;stroke:#000000;stroke-width:0.99236238;stroke-miterlimit:4;stroke-dasharray:none;stroke-opacity:1;filter:url(#filter4375-4-1-7-3-7-6)"
       transform="matrix(0.74738538,-0.36226504,-0.23031168,1.5278671,2226.8064,2821.3226)"
       inkscape:transform-center-x="202.28223"
       inkscape:transform-center-y="-127.60543"><flowRegion
         id="flowRegion2989-4-5-8-7-41-7-68-63-1-5"
         style="stroke-width:5.40286207"><rect
           id="rect2991-45-1-3-3-8-0-3-6-32-1"
           width="319.66232"
           height="56.089447"
           x="120.55251"
           y="265.53046"
           style="font-style:normal;font-variant:normal;font-weight:normal;font-stretch:normal;font-family:Lavi;-inkscape-font-specification:Lavi;fill:#000000;fill-opacity:1;stroke:#000000;stroke-width:0.99236238;stroke-miterlimit:4;stroke-dasharray:none;stroke-opacity:1" /></flowRegion><flowPara
         id="flowPara2995-4-1-5-0-7-2-5-3-0-4"
         style="font-weight:normal;font-size:48px;line-height:1.25;-inkscape-font-specification:Lavi;letter-spacing:7.06853437px;fill:#ffffff;fill-opacity:1;stroke:#ffffff;stroke-width:0.99236238;stroke-linejoin:miter;stroke-miterlimit:4;stroke-dasharray:none;stroke-opacity:1">Tapp</flowPara></flowRoot>    <flowRoot
       xml:space="preserve"
       id="flowRoot2987-4-9-3-7-8-6-6-6-0-7-2-6"
       style="font-style:normal;font-variant:normal;font-weight:normal;font-stretch:normal;line-height:0.01%;font-family:Lavi;-inkscape-font-specification:Lavi;text-align:center;letter-spacing:0px;word-spacing:0px;text-anchor:middle;display:inline;fill:#000000;fill-opacity:1;stroke:none"
       transform="translate(1236.8354,1776.4458)"><flowRegion
         id="flowRegion2989-5-4-5-5-1-2-4-2-0-8-9-7"><rect
           id="rect2991-7-9-6-9-5-7-2-1-3-2-1-0"
           width="762.83008"
           height="208.81429"
           x="120.55251"
           y="265.53046"
           style="font-style:normal;font-variant:normal;font-weight:normal;font-stretch:normal;font-family:Lavi;-inkscape-font-specification:Lavi;text-align:center;text-anchor:middle" /></flowRegion><flowPara
         style="font-size:45px;line-height:1.25;text-align:center;text-anchor:middle"
         id="flowPara3597">Eg skal nok visa den innpåslitne</flowPara><flowPara
         style="font-size:45px;line-height:1.25;text-align:center;text-anchor:middle"
         id="flowPara77">gamle kråka korleis ei ekte</flowPara><flowPara
         style="font-size:45px;line-height:1.25;text-align:center;text-anchor:middle"
         id="flowPara875">kaosah-heks ordnar ting!</flowPara></flowRoot>  </g>
</svg>
