<?xml version="1.0" encoding="UTF-8" standalone="no"?>
<!-- Created with Inkscape (http://www.inkscape.org/) -->

<svg
   id="svg2"
   version="1.1"
   inkscape:version="1.2.2 (b0a8486541, 2022-12-01)"
   width="2481"
   height="3503"
   sodipodi:docname="E32P03.svg"
   xmlns:inkscape="http://www.inkscape.org/namespaces/inkscape"
   xmlns:sodipodi="http://sodipodi.sourceforge.net/DTD/sodipodi-0.dtd"
   xmlns:xlink="http://www.w3.org/1999/xlink"
   xmlns="http://www.w3.org/2000/svg"
   xmlns:svg="http://www.w3.org/2000/svg"
   xmlns:rdf="http://www.w3.org/1999/02/22-rdf-syntax-ns#"
   xmlns:cc="http://creativecommons.org/ns#"
   xmlns:dc="http://purl.org/dc/elements/1.1/">
  <metadata
     id="metadata8">
    <rdf:RDF>
      <cc:Work
         rdf:about="">
        <dc:format>image/svg+xml</dc:format>
        <dc:type
           rdf:resource="http://purl.org/dc/dcmitype/StillImage" />
        <dc:title />
      </cc:Work>
    </rdf:RDF>
  </metadata>
  <defs
     id="defs6">
    <filter
       inkscape:collect="always"
       style="color-interpolation-filters:sRGB"
       id="filter4213-8-8"
       x="-0.003445244"
       width="1.0068905"
       y="-0.018071196"
       height="1.0361424">
      <feGaussianBlur
         inkscape:collect="always"
         stdDeviation="0.24308766"
         id="feGaussianBlur4215-7-9" />
    </filter>
    <filter
       inkscape:collect="always"
       style="color-interpolation-filters:sRGB"
       id="filter1266-5-1"
       x="-0.018186017"
       width="1.036372"
       y="-0.041792474"
       height="1.0835849">
      <feGaussianBlur
         inkscape:collect="always"
         stdDeviation="0.78825367"
         id="feGaussianBlur1268-9-2" />
    </filter>
    <filter
       inkscape:collect="always"
       style="color-interpolation-filters:sRGB"
       id="filter1395"
       x="-0.013284188"
       width="1.0282696"
       y="-0.018242652"
       height="1.0361358">
      <feGaussianBlur
         inkscape:collect="always"
         stdDeviation="0.26634151"
         id="feGaussianBlur1397" />
    </filter>
    <filter
       inkscape:collect="always"
       style="color-interpolation-filters:sRGB"
       id="filter1266"
       x="-0.014147883"
       width="1.0282958"
       y="-0.047298278"
       height="1.0945966">
      <feGaussianBlur
         inkscape:collect="always"
         stdDeviation="0.78825367"
         id="feGaussianBlur1268" />
    </filter>
    <filter
       inkscape:collect="always"
       style="color-interpolation-filters:sRGB"
       id="filter1639"
       x="-0.03035097"
       width="1.0643777"
       y="-0.058300044"
       height="1.133489">
      <feGaussianBlur
         inkscape:collect="always"
         stdDeviation="0.45636794"
         id="feGaussianBlur1641" />
    </filter>
    <filter
       inkscape:collect="always"
       style="color-interpolation-filters:sRGB"
       id="filter1266-5"
       x="-0.019702641"
       width="1.0394053"
       y="-0.071588827"
       height="1.1431777">
      <feGaussianBlur
         inkscape:collect="always"
         stdDeviation="0.78825367"
         id="feGaussianBlur1268-9" />
    </filter>
    <filter
       inkscape:collect="always"
       style="color-interpolation-filters:sRGB"
       id="filter4213-0"
       x="-0.0041358209"
       width="1.0082716"
       y="-0.017208387"
       height="1.0344168">
      <feGaussianBlur
         inkscape:collect="always"
         stdDeviation="0.24308766"
         id="feGaussianBlur4215-2" />
    </filter>
    <filter
       inkscape:collect="always"
       style="color-interpolation-filters:sRGB"
       id="filter4213"
       x="-0.0047720341"
       width="1.0095441"
       y="-0.013635715"
       height="1.0272714">
      <feGaussianBlur
         inkscape:collect="always"
         stdDeviation="0.24308766"
         id="feGaussianBlur4215" />
    </filter>
    <filter
       style="color-interpolation-filters:sRGB"
       id="filter5561-1"
       inkscape:label="deevad outline effect"
       x="-0.01851619"
       y="-0.14629394"
       width="1.0370324"
       height="1.2925879">
      <feFlood
         id="feFlood5563-9"
         flood-opacity="1"
         flood-color="rgb(0,0,0)"
         result="flood" />
      <feComposite
         id="feComposite5565-0"
         in2="SourceGraphic"
         in="flood"
         operator="in"
         result="composite1" />
      <feMorphology
         id="feMorphology5567-7"
         operator="dilate"
         radius="1.8999999999999999 6.0999999999999996"
         result="result3" />
      <feComposite
         id="feComposite5569-2"
         in2="result3"
         in="SourceGraphic"
         operator="over"
         result="composite2" />
    </filter>
  </defs>
  <sodipodi:namedview
     pagecolor="#ffffff"
     bordercolor="#666666"
     borderopacity="1"
     objecttolerance="10"
     gridtolerance="10"
     guidetolerance="10"
     inkscape:pageopacity="0"
     inkscape:pageshadow="2"
     inkscape:window-width="1920"
     inkscape:window-height="1011"
     id="namedview4"
     showgrid="false"
     inkscape:zoom="0.4058178"
     inkscape:cx="1287.5236"
     inkscape:cy="2560.2623"
     inkscape:window-x="0"
     inkscape:window-y="0"
     inkscape:window-maximized="1"
     inkscape:current-layer="layer1"
     inkscape:snap-global="false"
     inkscape:showpageshadow="2"
     inkscape:pagecheckerboard="0"
     inkscape:deskcolor="#d1d1d1" />
  <g
     inkscape:groupmode="layer"
     id="layer2"
     inkscape:label="artwork"
     sodipodi:insensitive="true">
    <image
       xlink:href="../gfx_Pepper-and-Carrot_by-David-Revoy_E32P03.png"
       y="0"
       x="0"
       id="image10"
       height="3503"
       width="2481" />
  </g>
  <g
     inkscape:groupmode="layer"
     id="layer3"
     inkscape:label="speechbubbles">
    <path
       style="fill:#ffffff;stroke:none;stroke-width:1"
       d="m 881.81416,211.2925 c 5.49879,51.69419 83.25672,59.68933 119.15254,61.21736 35.8957,1.52748 131.3647,8.19477 163.7089,-35.04616 32.3441,-43.24035 18.1378,-63.07567 -2.8968,-84.14687 -17.9376,-17.96915 -60.1088,-26.66186 -97.0236,-30.91794 -45.8371,-5.28392 -121.93721,6.9987 -153.71836,29.11345 -16.94853,11.79308 -34.72161,8.08598 -29.22268,59.78016 z"
       id="path3100-98"
       inkscape:connector-curvature="0"
       sodipodi:nodetypes="zsssssz" />
    <path
       style="color:#000000;display:inline;overflow:visible;visibility:visible;fill:#ffffff;fill-opacity:1;fill-rule:nonzero;stroke:none;stroke-width:1px;marker:none;enable-background:accumulate"
       d="m 864.50832,226.91731 c -2.5936,-29.9854 -2.96591,-58.9339 -37.27157,-76.53429 -34.30559,-17.59964 -94.74283,-22.47289 -170.65608,-18.10118 -40.66319,2.34151 -91.88831,5.4981 -124.31403,17.66882 -32.42571,12.17072 -46.0521,33.35555 -42.72459,77.27343 3.3275,43.91789 21.28423,63.10561 58.74161,74.38604 37.4573,11.28118 94.41538,14.65509 108.1308,15.90855 13.71542,1.25347 56.25457,0.17295 98.45961,-4.89881 42.20497,-5.07176 71.07301,-8.61861 83.4519,-23.3331 19.40593,-18.63429 27.36247,-40.54474 26.18235,-62.36946 z"
       id="path4546-6-2-0"
       inkscape:connector-curvature="0"
       sodipodi:nodetypes="cssssssscc" />
    <path
       style="color:#000000;display:inline;overflow:visible;visibility:visible;fill:#ffffff;fill-opacity:1;fill-rule:nonzero;stroke:none;stroke-width:1.14579px;marker:none;enable-background:accumulate"
       d="m 306.98708,124.02126 c 38.57971,0.58365 77.56647,6.32092 113.33743,21.27922 12.06497,5.72512 20.22167,17.24755 25.26245,29.27394 9.37816,21.23772 19.24304,42.81785 21.92294,66.12967 3.43091,25.99225 1.47611,53.28155 -9.35715,77.41389 -9.02606,19.83652 -26.45541,34.93682 -46.12492,43.7539 -22.93911,10.56724 -47.66281,16.28909 -72.02248,22.5268 -31.06033,7.30157 -63.26394,9.78871 -95.07492,7.31984 -24.53582,-2.25148 -48.84847,-8.01753 -71.46912,-17.86104 -12.1104,-5.38702 -24.07126,-11.82575 -33.36167,-21.46519 -9.65846,-9.65337 -16.54171,-21.84348 -20.54012,-34.858 -5.35066,-17.0308 -6.64436,-35.01765 -6.92945,-52.7696 0.045,-20.71842 2.90892,-41.81833 11.46247,-60.84643 9.52898,-20.4262 25.88254,-37.12535 44.8621,-49.01488 27.73643,-17.87529 60.42371,-26.84126 93.10926,-29.47043 14.9357,-1.28586 29.94027,-1.49247 44.92318,-1.41169 z"
       id="path4040-41"
       inkscape:connector-curvature="0"
       sodipodi:nodetypes="zssssz" />
    <path
       style="opacity:1;fill:#ffffff;fill-rule:evenodd;stroke:none;stroke-width:1px;stroke-linecap:butt;stroke-linejoin:miter;stroke-opacity:1"
       d="m 262.73079,510.74622 c -79.9896,-25.34188 -116.4009,-40.38771 -130.7924,-88.3665 -12.0423,-40.14692 33.9999,-116.14332 96.0942,-157.07156 74.30428,-48.97611 720.91559,-69.58576 737.53456,-86.65613 24.24194,-24.90039 28.29447,37.40472 7.48472,36.66367 -110.11684,-3.92132 -657.67116,25.43523 -724.93768,68.50333 -62.3575,39.92512 -107.1789,103.00167 -91.9981,146.96092 14.5457,42.11997 106.6147,79.96627 106.6147,79.96627 z"
       id="path4324-2"
       inkscape:connector-curvature="0"
       sodipodi:nodetypes="cssssssc" />
    <path
       style="color:#000000;display:inline;overflow:visible;visibility:visible;fill:#ffffff;fill-opacity:1;fill-rule:nonzero;stroke:none;stroke-width:1px;marker:none;enable-background:accumulate"
       d="m 1454.5762,160.75586 c 5.1041,58.0424 -54.6597,45.56473 -81.7685,27.27436 -2.5338,-1.6925 -4.992,-3.49395 -7.4698,-5.26655 8.3571,32.63909 8.7318,63.94917 -31.5176,57.06055 19.4295,29.50108 -25.094,34.82714 -35.7402,35.84961 55.5645,10.44428 18.8575,27.33762 -10.5935,34.65625 29.9889,5.47045 74.4949,-1.33603 36.6111,37.39648 55.8802,-15.87086 78.1075,0.39261 50.4218,49.15625 52.2001,-36.63239 82.7104,-61.70826 88.8301,4.9375 31.8416,-53.579 65.5874,-66.95947 108.1666,2.65777 3.5209,-66.17428 57.9738,-33.5212 76.5507,-6.88267 -5.1776,-47.05832 54.7651,-39.35867 70.0889,-27.18325 -7.1056,-46.93794 40.9813,-20.43662 60.6801,-12.24614 -31.1212,-31.80398 -12.1843,-56.49275 15.0547,-53.41602 -56.2208,-27.61301 -57.696,-45.70415 -7.8965,-57.75977 -28.9602,-6.35909 -66.4601,-19.18971 -49.8379,-55.71679 -41.3032,17.91152 -55.8226,8.59899 -36.8652,-31.42383 -19.1944,22.94734 -68.0396,61.05751 -59.2544,3.58044 -42.5758,37.59194 -77.5392,43.77553 -108.4409,2.38831 -21.6651,31.9191 -33.915,51.04462 -77.321,-6.27184 z"
       id="path3549-3-7-1"
       inkscape:connector-curvature="0"
       sodipodi:nodetypes="ccccccccccccccccccccc" />
    <path
       style="color:#000000;display:inline;overflow:visible;visibility:visible;fill:#ffffff;fill-opacity:1;fill-rule:nonzero;stroke:none;stroke-width:1px;marker:none;enable-background:accumulate"
       d="m 1898.5376,423.83603 c -31.5172,-40.32544 -51.0315,-61.90879 -76.4783,-108.99711 l 3.258,50.97171 c -16.0686,-10.44733 -25.4093,-31.97446 -37.0346,-49.73896 l -2.127,38.51455 c -36.3006,-43.2467 -51.7192,-53.55742 -83.7945,-82.67547 l -29.5303,38.66317 c 49.3632,6.12619 92.5351,44.77214 122.6506,81.95014 l 4.6002,-30.96826 c 11.8245,10.93146 23.3216,22.49541 33.3564,36.88708 l 3.0413,-39.51242 z"
       id="path4032-8"
       inkscape:connector-curvature="0"
       sodipodi:nodetypes="cccccccccccc" />
    <path
       style="fill:#ffffff;fill-opacity:1;stroke:none;stroke-width:2.08585"
       d="m 975.5892,1219.3743 c -65.96631,1.5041 -132.40719,2.2264 -197.44007,14.633 -26.90261,5.4633 -52.16539,21.8972 -65.64333,46.15 -9.96875,18.9528 -10.94089,41.4051 -6.88028,62.1015 2.38117,15.0931 7.56513,30.8381 19.53032,41.0752 12.602,10.7672 29.57561,14.1812 45.68812,15.1555 89.59365,7.9595 179.6716,9.3449 269.55034,6.926 38.6687,-1.5434 78.1067,-6.2496 113.6544,-22.4785 19.2156,-8.6659 38.0051,-20.6071 49.546,-38.7197 15.5466,-24.428 18.0588,-57.4592 3.8025,-83.0462 -7.6476,-13.9525 -21.3773,-24.4666 -36.9923,-27.7646 -18.7764,-5.1091 -38.2445,-6.7121 -57.462,-9.3389 -45.6069,-4.857 -91.5486,-4.7564 -137.3537,-4.6933 z"
       id="path3659-8-8"
       inkscape:connector-curvature="0"
       sodipodi:nodetypes="cssssc" />
    <path
       style="color:#000000;display:inline;overflow:visible;visibility:visible;fill:#ffffff;fill-opacity:1;fill-rule:nonzero;stroke:none;stroke-width:1px;marker:none;enable-background:accumulate"
       d="m 180.44297,1262.3053 c 41.76085,-49.1309 273.33371,-41.6168 345.36233,-28.9623 78.6061,13.8097 102.8078,33.3771 106.3227,76.2637 1.0858,13.2467 -5.2724,73.317 -43.9382,85.1428 -38.6656,11.8249 -149.38992,17.7378 -188.05562,17.7378 -38.6656,0 -162.09488,-7.5264 -193.32854,-24.8336 -29.87795,-16.5549 -68.12363,-76.2182 -26.36267,-125.3484 z"
       id="path3330-0"
       inkscape:connector-curvature="0"
       sodipodi:nodetypes="zsssssz" />
    <path
       style="color:#000000;display:inline;overflow:visible;visibility:visible;fill:#ffffff;fill-opacity:1;fill-rule:nonzero;stroke:none;stroke-width:0.99999994px;marker:none;enable-background:accumulate"
       d="M 1127.7031 1285.3086 C 1092.5552 1285.8441 1058.1064 1293.742 1024.0877 1301.9027 C 974.95395 1312.3109 924.54864 1316.9562 874.34321 1315.1816 C 836.49134 1313.2099 799.61632 1303.7026 762.13281 1298.7949 C 734.99975 1294.9525 707.63349 1292.7299 680.22775 1292.4274 C 658.61809 1291.7661 636.60413 1291.427 615.51233 1296.8313 C 608.81321 1299.6045 602.41087 1305.8472 602.80279 1313.588 C 604.18008 1322.0196 615.21381 1326.4833 622.27887 1321.9386 C 648.12281 1314.0716 675.51631 1315.2077 702.14578 1316.9461 C 755.63276 1320.7743 807.68268 1335.2218 861.09284 1339.6659 C 897.16535 1342.4662 933.45221 1340.346 969.27328 1335.6383 C 1010.5721 1330.9445 1050.9896 1320.9392 1091.8719 1313.7577 C 1142.0061 1306.2965 1192.7632 1310.9359 1243.1777 1311.2773 C 1277.8468 1310.6571 1312.049 1317.2944 1346.0336 1323.3061 C 1359.112 1325.5698 1371.8244 1329.4786 1384.6429 1332.8152 C 1404.9653 1336.6273 1425.9616 1337.2918 1445.666 1344.0329 C 1447.7405 1344.6023 1450.7004 1345.5883 1452.2182 1345.9087 C 1426.2276 1333.0901 1398.6868 1323.5532 1370.5334 1316.7771 C 1353.3729 1310.3776 1335.7739 1304.7944 1317.5815 1302.301 C 1302.8794 1298.015 1288.5209 1290.6437 1272.8192 1291.4657 C 1224.3424 1292.4539 1176.163 1284.9034 1127.7031 1285.3086 z "
       id="path5050-5"
       inkscape:connector-curvature="0"
       sodipodi:nodetypes="csccscccccccccccc" />
  </g>
  <g
     inkscape:groupmode="layer"
     id="layer1"
     inkscape:label="txt">
    <text
       xml:space="preserve"
       style="font-style:normal;font-variant:normal;font-weight:normal;font-stretch:normal;font-size:64px;line-height:0%;font-family:Midan;-inkscape-font-specification:Midan;text-align:center;letter-spacing:0px;word-spacing:0px;direction:rtl;text-anchor:middle;fill:#000000;fill-opacity:1;stroke:none"
       x="1031.3413"
       y="206.28658"
       id="text4246-10"><tspan
         sodipodi:role="line"
         style="font-style:normal;font-variant:normal;font-weight:normal;font-stretch:normal;font-size:64px;line-height:1.25;font-family:Midan;-inkscape-font-specification:Midan;direction:rtl"
         x="1031.3413"
         y="206.28658"
         id="tspan4262">خیلی ببخشیدا!</tspan></text>
    <text
       xml:space="preserve"
       style="font-style:normal;font-variant:normal;font-weight:normal;font-stretch:normal;font-size:64px;line-height:1;font-family:Midan;-inkscape-font-specification:Midan;text-align:center;letter-spacing:0px;word-spacing:0px;direction:rtl;text-anchor:middle;fill:#000000;fill-opacity:1;stroke:none"
       x="676.83801"
       y="194.86496"
       id="text4246-10-3"><tspan
         sodipodi:role="line"
         style="font-style:normal;font-variant:normal;font-weight:normal;font-stretch:normal;font-size:64px;font-family:Midan;-inkscape-font-specification:Midan;direction:rtl"
         x="676.83801"
         y="194.86496"
         id="tspan863">من یه جادوگر</tspan><tspan
         sodipodi:role="line"
         style="font-style:normal;font-variant:normal;font-weight:normal;font-stretch:normal;font-size:64px;font-family:Midan;-inkscape-font-specification:Midan;direction:rtl"
         x="676.83801"
         y="258.86496"
         id="tspan1822">واقعی کاواسا هستم.</tspan></text>
    <text
       xml:space="preserve"
       style="font-style:normal;font-variant:normal;font-weight:normal;font-stretch:normal;font-size:64px;line-height:1;font-family:Midan;-inkscape-font-specification:Midan;text-align:center;letter-spacing:0px;word-spacing:0px;direction:rtl;text-anchor:middle;fill:#000000;fill-opacity:1;stroke:none"
       x="280.48904"
       y="210.38042"
       id="text4246-10-3-7"><tspan
         sodipodi:role="line"
         style="font-style:normal;font-variant:normal;font-weight:normal;font-stretch:normal;font-size:64px;font-family:Midan;-inkscape-font-specification:Midan;direction:rtl"
         x="280.48904"
         y="210.38042"
         id="tspan1829">من حتی یه گواهی </tspan><tspan
         sodipodi:role="line"
         style="font-style:normal;font-variant:normal;font-weight:normal;font-stretch:normal;font-size:64px;font-family:Midan;-inkscape-font-specification:Midan;direction:rtl"
         x="280.48904"
         y="274.38043"
         id="tspan1831">هم دارم که این رو </tspan><tspan
         sodipodi:role="line"
         style="font-style:normal;font-variant:normal;font-weight:normal;font-stretch:normal;font-size:64px;font-family:Midan;-inkscape-font-specification:Midan;direction:rtl"
         x="280.48904"
         y="338.38043"
         id="tspan1839">ثابت می‌کنه...</tspan></text>
    <text
       xml:space="preserve"
       style="font-style:normal;font-variant:normal;font-weight:normal;font-stretch:normal;line-height:0%;font-family:'XM Yermook';-inkscape-font-specification:'XM Yermook';text-align:center;letter-spacing:0px;word-spacing:0px;text-anchor:middle;display:inline;opacity:0.6;fill:#000000;fill-opacity:1;stroke:none;stroke-width:0.61894;filter:url(#filter4213);font-size:74.58682354px"
       x="-447.29675"
       y="2872.5061"
       id="text4246-85"
       transform="matrix(1.3745356,0.03085482,-0.2413062,1.3023184,2295.9581,-3114.939)"><tspan
         sodipodi:role="line"
         style="font-style:normal;font-variant:normal;font-weight:normal;font-stretch:normal;line-height:1.27;font-family:'XM Yermook';-inkscape-font-specification:'XM Yermook';stroke:#000000;stroke-width:0.709879;stroke-opacity:1;font-size:74.58682354px"
         x="-447.29675"
         y="2872.5061"
         id="tspan4172">مدرک</tspan></text>
    <text
       xml:space="preserve"
       style="font-style:normal;font-variant:normal;font-weight:normal;font-stretch:normal;line-height:0%;font-family:'XM Yermook';-inkscape-font-specification:'XM Yermook';text-align:center;letter-spacing:0px;word-spacing:0px;text-anchor:middle;display:inline;opacity:0.6;fill:#000000;fill-opacity:1;stroke:none;stroke-width:0.763319;filter:url(#filter4213-0);font-size:91.98553601px"
       x="-447.29675"
       y="2872.5061"
       id="text4246-85-3"
       transform="matrix(1.1126099,0.07589889,-0.1953239,1.0489042,2013.3945,-2215.8631)"><tspan
         sodipodi:role="line"
         style="font-style:normal;font-variant:normal;font-weight:normal;font-stretch:normal;line-height:1.27;font-family:'XM Yermook';-inkscape-font-specification:'XM Yermook';stroke:#000000;stroke-width:0.875471;stroke-opacity:1;font-size:91.98553601px"
         x="-447.29675"
         y="2872.5061"
         id="tspan4172-7">کاواسا</tspan></text>
    <text
       xml:space="preserve"
       style="font-style:normal;font-variant:normal;font-weight:normal;font-stretch:normal;font-size:40.0199px;line-height:0%;font-family:'XP Ziba';-inkscape-font-specification:'XP Ziba';text-align:center;letter-spacing:0px;word-spacing:0px;text-anchor:middle;display:inline;opacity:0.699;fill:#202020;fill-opacity:1;stroke:#000000;stroke-width:0.341967;stroke-miterlimit:4;stroke-dasharray:none;stroke-opacity:1;filter:url(#filter1266);direction:rtl"
       x="903.31201"
       y="2924.6372"
       id="text4246-8-3-7"
       transform="matrix(0.80955154,-0.40978088,0.27969911,1.0585814,-682.35126,-1804.5653)"><tspan
         sodipodi:role="line"
         style="font-style:normal;font-variant:normal;font-weight:normal;font-stretch:normal;font-size:40.0199px;line-height:1.25;font-family:'XP Ziba';-inkscape-font-specification:'XP Ziba';fill:#202020;fill-opacity:1;stroke:#000000;stroke-width:0.341967;stroke-miterlimit:4;stroke-dasharray:none;stroke-opacity:1;direction:rtl"
         x="903.31201"
         y="2924.6372"
         id="tspan4150-8-6-5">فلفل قرمز</tspan></text>
    <text
       xml:space="preserve"
       style="font-style:normal;font-variant:normal;font-weight:normal;font-stretch:normal;line-height:0%;font-family:'XP Vosta';-inkscape-font-specification:'XP Vosta';text-align:center;letter-spacing:0px;word-spacing:0px;text-anchor:middle;display:inline;opacity:0.699;fill:#202020;fill-opacity:1;stroke:#000000;stroke-width:0.330534;stroke-miterlimit:4;stroke-dasharray:none;stroke-opacity:1;filter:url(#filter1266-5);direction:rtl"
       x="903.31201"
       y="2924.6372"
       id="text4246-8-3-7-2"
       transform="matrix(1.2249224,-0.16351137,-0.05268865,1.2640987,91.486297,-2673.153)"><tspan
         sodipodi:role="line"
         style="font-style:normal;font-variant:normal;font-weight:normal;font-stretch:normal;font-size:38.3128px;line-height:1.25;font-family:'XP Vosta';-inkscape-font-specification:'XP Vosta';fill:#202020;fill-opacity:1;stroke:#000000;stroke-width:0.330534;stroke-miterlimit:4;stroke-dasharray:none;stroke-opacity:1;direction:rtl"
         x="903.31201"
         y="2924.6372"
         id="tspan4150-8-6-5-2">زیره</tspan></text>
    <text
       xml:space="preserve"
       style="font-style:normal;font-variant:normal;font-weight:normal;font-stretch:normal;line-height:0%;font-family:Mj_Talat;-inkscape-font-specification:Mj_Talat;text-align:center;letter-spacing:-0.0334897px;word-spacing:0px;direction:rtl;text-anchor:middle;display:inline;opacity:0.699;fill:#202020;fill-opacity:1;stroke:#000000;stroke-width:0.314035;stroke-miterlimit:4;stroke-dasharray:none;stroke-opacity:1;filter:url(#filter1266-5-1)"
       x="903.31201"
       y="2924.6372"
       id="text4246-8-3-7-2-9"
       transform="matrix(1.5993603,-0.02348228,-0.70043762,1.2971685,1546.4676,-2776.5736)"><tspan
         sodipodi:role="line"
         style="font-style:normal;font-variant:normal;font-weight:normal;font-stretch:normal;font-size:38.3128px;line-height:1.25;font-family:Mj_Talat;-inkscape-font-specification:Mj_Talat;letter-spacing:-0.0334897px;direction:rtl;fill:#202020;fill-opacity:1;stroke:#000000;stroke-width:0.314035;stroke-miterlimit:4;stroke-dasharray:none;stroke-opacity:1"
         x="903.31201"
         y="2924.6372"
         id="tspan4150-8-6-5-2-3">آویشن</tspan></text>
    <text
       xml:space="preserve"
       style="font-style:normal;font-variant:normal;font-weight:normal;font-stretch:normal;line-height:0%;font-family:'XM Yermook';-inkscape-font-specification:'XM Yermook';text-align:center;letter-spacing:0px;word-spacing:0px;direction:rtl;text-anchor:middle;display:inline;opacity:0.6;fill:#000000;fill-opacity:1;stroke:none;stroke-width:0.738759;filter:url(#filter4213-8-8)"
       x="-447.29675"
       y="2872.5061"
       id="text4246-85-9-7"
       transform="matrix(1.1828982,0.04767634,-0.21975017,1.1657981,2074.2066,-2234.9702)"><tspan
         sodipodi:role="line"
         style="font-style:normal;font-variant:normal;font-weight:normal;font-stretch:normal;font-size:49.1939px;line-height:1.27;font-family:'XM Yermook';-inkscape-font-specification:'XM Yermook';direction:rtl;stroke:#000000;stroke-width:0.847303;stroke-opacity:1"
         x="-447.29675"
         y="2872.5061"
         id="tspan1120-6">~ برای فلفل ~</tspan></text>
    <text
       xml:space="preserve"
       style="font-style:normal;font-variant:normal;font-weight:bold;font-stretch:normal;font-size:101.333px;line-height:0%;font-family:Midan;-inkscape-font-specification:'Midan Bold';text-align:center;letter-spacing:0px;word-spacing:0px;direction:rtl;text-anchor:middle;fill:#000000;fill-opacity:1;stroke:#000000;stroke-width:1.3;stroke-miterlimit:4;stroke-dasharray:none;stroke-opacity:1"
       x="1616.4438"
       y="298.94467"
       id="text4246-7-6-4-0"
       transform="matrix(0.99650308,0,-0.23158448,1.0035092,0,0)"><tspan
         sodipodi:role="line"
         style="font-style:normal;font-variant:normal;font-weight:bold;font-stretch:normal;font-size:101.333px;line-height:1.25;font-family:Midan;-inkscape-font-specification:'Midan Bold';direction:rtl;stroke:#000000;stroke-width:1.3;stroke-miterlimit:4;stroke-dasharray:none;stroke-opacity:1"
         x="1616.4438"
         y="298.94467"
         id="tspan4212-7">ساکت!</tspan></text>
    <path
       style="opacity:0.69899998;fill:none;fill-rule:evenodd;stroke:#202020;stroke-width:1.0516634;stroke-linecap:butt;stroke-linejoin:miter;stroke-miterlimit:4;stroke-dasharray:none;stroke-opacity:1;filter:url(#filter1639)"
       d="m 1547.1934,2802.853 c 3.8646,-3.5133 9.3102,-3.689 12.2965,-3.5133 2.9863,0.1757 7.0265,-4.7429 9.8371,-5.6212 2.8106,-0.8783 12.8234,0.1756 13.8774,-0.8783 1.054,-1.054 11.2425,-2.108 11.5938,-3.8646 0.3513,-1.7567 -0.086,-5.8644 -0.086,-5.8644"
       id="path1409"
       inkscape:connector-curvature="0"
       transform="matrix(2.332865,0.27867164,-0.32316546,2.0116733,-1731.1758,-5165.5624)"
       sodipodi:nodetypes="cssccc" />
    <path
       style="opacity:0.69899998;vector-effect:none;fill:none;fill-opacity:1;fill-rule:evenodd;stroke:#202020;stroke-width:0.32464391;stroke-linecap:butt;stroke-linejoin:miter;stroke-miterlimit:4;stroke-dasharray:none;stroke-dashoffset:0;stroke-opacity:1;filter:url(#filter1395)"
       d="m 1077.1201,752.52314 c 0.8783,-6.4995 5.6852,-7.2186 2.699,3.8482 -2.9863,11.0668 -52.5234,35.3083 -52.5234,35.3083"
       id="path910"
       inkscape:connector-curvature="0"
       sodipodi:nodetypes="ccc"
       transform="matrix(2.3551423,0,0,2.0308834,-1611.2802,-642.97344)" />
    <text
       xml:space="preserve"
       style="font-style:normal;font-variant:normal;font-weight:normal;font-stretch:normal;font-size:64px;line-height:1;font-family:Midan;-inkscape-font-specification:Midan;text-align:center;letter-spacing:0px;word-spacing:0px;direction:rtl;text-anchor:middle;fill:#000000;fill-opacity:1;stroke:none"
       x="959.54504"
       y="1288.2856"
       id="text4246-5-5"><tspan
         sodipodi:role="line"
         style="font-style:normal;font-variant:normal;font-weight:normal;font-stretch:normal;font-size:64px;font-family:Midan;-inkscape-font-specification:Midan;text-align:center;direction:rtl;text-anchor:middle"
         x="959.54504"
         y="1288.2856"
         id="tspan1096">من توی این لشکر</tspan><tspan
         sodipodi:role="line"
         style="font-style:normal;font-variant:normal;font-weight:normal;font-stretch:normal;font-size:64px;font-family:Midan;-inkscape-font-specification:Midan;text-align:center;direction:rtl;text-anchor:middle"
         x="959.54504"
         y="1352.2856"
         id="tspan1704">جایی برای بچه‌ها ندارم.</tspan></text>
    <text
       xml:space="preserve"
       style="font-style:normal;font-variant:normal;font-weight:normal;font-stretch:normal;font-size:64px;line-height:1;font-family:Midan;-inkscape-font-specification:Midan;text-align:center;letter-spacing:0px;word-spacing:0px;direction:rtl;text-anchor:middle;fill:#000000;fill-opacity:1;stroke:none"
       x="397.42352"
       y="1294.843"
       id="text4246-5-5-3"><tspan
         sodipodi:role="line"
         style="font-style:normal;font-variant:normal;font-weight:normal;font-stretch:normal;font-size:64px;font-family:Midan;-inkscape-font-specification:Midan;text-align:center;direction:rtl;text-anchor:middle"
         x="397.42352"
         y="1294.843"
         id="tspan1127">برو خونه و با </tspan><tspan
         sodipodi:role="line"
         style="font-style:normal;font-variant:normal;font-weight:normal;font-stretch:normal;font-size:64px;font-family:Midan;-inkscape-font-specification:Midan;text-align:center;direction:rtl;text-anchor:middle"
         x="397.42352"
         y="1358.843"
         id="tspan1708">عروسک‌هات بازی کن.</tspan></text>
    <text
       xml:space="preserve"
       style="color:#000000;font-style:normal;font-variant:normal;font-weight:normal;font-stretch:normal;line-height:1;font-family:Midan;-inkscape-font-specification:Midan;letter-spacing:0.00861404px;word-spacing:0px;direction:rtl;clip-rule:nonzero;display:inline;overflow:visible;visibility:visible;opacity:1;isolation:auto;mix-blend-mode:normal;color-interpolation:sRGB;color-interpolation-filters:linearRGB;solid-color:#000000;solid-opacity:1;fill:#ffffff;fill-opacity:1;fill-rule:nonzero;stroke:#ffffff;stroke-width:0.968549;stroke-linecap:butt;stroke-linejoin:miter;stroke-miterlimit:4;stroke-dasharray:none;stroke-dashoffset:0;stroke-opacity:1;marker:none;filter:url(#filter5561-1);color-rendering:auto;image-rendering:auto;shape-rendering:auto;text-rendering:auto;enable-background:accumulate"
       id="text4251-1-3"
       inkscape:transform-center-x="-330.90573"
       inkscape:transform-center-y="73.924284"
       y="1742.2045"
       x="1705.2566"
       transform="matrix(1.1235311,-0.82948374,0.09203873,1.7257004,-1232.1183,32.0426)"><tspan
         sodipodi:role="line"
         id="tspan4253-5-1"
         x="1705.2566"
         y="1742.2045"
         style="font-style:normal;font-variant:normal;font-weight:normal;font-stretch:normal;font-size:45.5771px;font-family:Midan;-inkscape-font-specification:Midan;direction:rtl;stroke-width:0.968549">ضربه!</tspan></text>
    <flowRoot
       xml:space="preserve"
       id="flowRoot971"
       style="font-style:normal;font-variant:normal;font-weight:normal;font-stretch:normal;font-size:0.66666669px;line-height:0%;font-family:Lavi;-inkscape-font-specification:Lavi;text-align:center;letter-spacing:22.65999985px;word-spacing:-79.63999939px;writing-mode:lr-tb;text-anchor:middle;fill:#000000;fill-opacity:1;stroke:none;stroke-width:1px;stroke-linecap:butt;stroke-linejoin:miter;stroke-opacity:1"><flowRegion
         id="flowRegion973"><rect
           id="rect975"
           width="33.872047"
           height="9.9623671"
           x="1695.5948"
           y="340.94467" /></flowRegion><flowPara
         id="flowPara977" /></flowRoot>
    <text
       xml:space="preserve"
       style="font-style:normal;font-variant:normal;font-weight:bold;font-stretch:normal;font-size:47.99999999px;line-height:0%;font-family:Midan;-inkscape-font-specification:'Midan Bold';text-align:center;letter-spacing:0px;word-spacing:0px;text-anchor:middle;fill:#000000;fill-opacity:1;stroke:#000000;stroke-width:3.72;stroke-miterlimit:4;stroke-dasharray:none;stroke-opacity:1;direction:rtl"
       x="2098.6653"
       y="2255.6174"
       id="text4246-6-5-6-0-2-1"
       transform="matrix(0.88228376,0,-0.23605329,1.1334222,0,0)"><tspan
         sodipodi:role="line"
         style="font-style:normal;font-variant:normal;font-weight:bold;font-stretch:normal;line-height:1.25;font-family:Midan;-inkscape-font-specification:'Midan Bold';fill:#000000;fill-opacity:1;stroke:none;stroke-width:3.72;stroke-miterlimit:4;stroke-dasharray:none;stroke-opacity:1;direction:rtl;font-size:47.99999999px"
         x="2098.6653"
         y="2255.6174"
         id="tspan4252-7-3-1-2-9-2">هاها ها ها!</tspan></text>
    <text
       xml:space="preserve"
       style="font-style:normal;font-variant:normal;font-weight:bold;font-stretch:normal;font-size:47.99999999px;line-height:0%;font-family:Midan;-inkscape-font-specification:'Midan Bold';text-align:center;letter-spacing:0px;word-spacing:0px;text-anchor:middle;fill:#000000;fill-opacity:1;stroke:#000000;stroke-width:3.72;stroke-miterlimit:4;stroke-dasharray:none;stroke-opacity:1;direction:rtl"
       x="2367.9607"
       y="2228.4077"
       id="text4246-6-5-6-0-2-1-9"
       transform="matrix(0.88228376,0,-0.23605329,1.1334222,0,0)"><tspan
         sodipodi:role="line"
         style="font-style:normal;font-variant:normal;font-weight:bold;font-stretch:normal;line-height:1.25;font-family:Midan;-inkscape-font-specification:'Midan Bold';fill:#000000;fill-opacity:1;stroke:none;stroke-width:3.72;stroke-miterlimit:4;stroke-dasharray:none;stroke-opacity:1;direction:rtl;font-size:47.99999999px"
         x="2367.9607"
         y="2228.4077"
         id="tspan4252-7-3-1-2-9-2-3">هاها ها ها!</tspan></text>
    <text
       xml:space="preserve"
       style="font-style:normal;font-variant:normal;font-weight:bold;font-stretch:normal;font-size:47.99999999px;line-height:0%;font-family:Midan;-inkscape-font-specification:'Midan Bold';text-align:center;letter-spacing:0px;word-spacing:0px;text-anchor:middle;fill:#000000;fill-opacity:1;stroke:#000000;stroke-width:3.72;stroke-miterlimit:4;stroke-dasharray:none;stroke-opacity:1;direction:rtl"
       x="2640.1641"
       y="2240.2549"
       id="text4246-6-5-6-0-2-1-9-6"
       transform="matrix(0.88228376,0,-0.23605329,1.1334222,0,0)"><tspan
         sodipodi:role="line"
         style="font-style:normal;font-variant:normal;font-weight:bold;font-stretch:normal;line-height:1.25;font-family:Midan;-inkscape-font-specification:'Midan Bold';fill:#000000;fill-opacity:1;stroke:none;stroke-width:3.72;stroke-miterlimit:4;stroke-dasharray:none;stroke-opacity:1;direction:rtl;font-size:47.99999999px"
         x="2640.1641"
         y="2240.2549"
         id="tspan4252-7-3-1-2-9-2-3-0">هاها ها ها!</tspan></text>
    <text
       xml:space="preserve"
       style="font-style:normal;font-variant:normal;font-weight:bold;font-stretch:normal;font-size:47.99999999px;line-height:0%;font-family:Midan;-inkscape-font-specification:'Midan Bold';text-align:center;letter-spacing:0px;word-spacing:0px;text-anchor:middle;fill:#000000;fill-opacity:1;stroke:#000000;stroke-width:3.72;stroke-miterlimit:4;stroke-dasharray:none;stroke-opacity:1;direction:rtl"
       x="3150.7107"
       y="2239.4143"
       id="text4246-6-5-6-0-2-1-9-6-6"
       transform="matrix(0.88228376,0,-0.23605329,1.1334222,0,0)"><tspan
         sodipodi:role="line"
         style="font-style:normal;font-variant:normal;font-weight:bold;font-stretch:normal;line-height:1.25;font-family:Midan;-inkscape-font-specification:'Midan Bold';fill:#000000;fill-opacity:1;stroke:none;stroke-width:3.72;stroke-miterlimit:4;stroke-dasharray:none;stroke-opacity:1;direction:rtl;font-size:47.99999999px"
         x="3150.7107"
         y="2239.4143"
         id="tspan4252-7-3-1-2-9-2-3-0-2">ها ها هاها!</tspan></text>
  </g>
</svg>
