<?xml version="1.0" encoding="UTF-8" standalone="no"?>
<!-- Created with Inkscape (http://www.inkscape.org/) -->

<svg
   id="svg2"
   version="1.1"
   inkscape:version="1.2.2 (b0a8486541, 2022-12-01)"
   width="2481"
   height="3503"
   sodipodi:docname="E38P05.svg"
   xmlns:inkscape="http://www.inkscape.org/namespaces/inkscape"
   xmlns:sodipodi="http://sodipodi.sourceforge.net/DTD/sodipodi-0.dtd"
   xmlns:xlink="http://www.w3.org/1999/xlink"
   xmlns="http://www.w3.org/2000/svg"
   xmlns:svg="http://www.w3.org/2000/svg"
   xmlns:rdf="http://www.w3.org/1999/02/22-rdf-syntax-ns#"
   xmlns:cc="http://creativecommons.org/ns#"
   xmlns:dc="http://purl.org/dc/elements/1.1/">
  <metadata
     id="metadata8">
    <rdf:RDF>
      <cc:Work
         rdf:about="">
        <dc:format>image/svg+xml</dc:format>
        <dc:type
           rdf:resource="http://purl.org/dc/dcmitype/StillImage" />
        <dc:title />
      </cc:Work>
    </rdf:RDF>
  </metadata>
  <defs
     id="defs6">
    <rect
       x="1398.1733"
       y="1593.3295"
       width="200.50287"
       height="72.181032"
       id="rect563" />
    <filter
       inkscape:label="underwater"
       inkscape:menu="Distort"
       inkscape:menu-tooltip="Something like a water noise"
       height="1.0511301"
       y="-0.025565068"
       width="1.0310469"
       x="-0.015523466"
       style="color-interpolation-filters:sRGB"
       id="filter4172">
      <feTurbulence
         numOctaves="1"
         seed="196"
         type="fractalNoise"
         baseFrequency="0.017000000000000001"
         result="result1"
         id="feTurbulence4174" />
      <feGaussianBlur
         stdDeviation="2"
         result="result2"
         id="feGaussianBlur4176" />
      <feDisplacementMap
         scale="50"
         yChannelSelector="B"
         xChannelSelector="R"
         in="SourceGraphic"
         in2="result2"
         id="feDisplacementMap4178" />
    </filter>
  </defs>
  <sodipodi:namedview
     pagecolor="#ffffff"
     bordercolor="#666666"
     borderopacity="1"
     objecttolerance="10"
     gridtolerance="10"
     guidetolerance="10"
     inkscape:pageopacity="0"
     inkscape:pageshadow="2"
     inkscape:window-width="1888"
     inkscape:window-height="1144"
     id="namedview4"
     showgrid="false"
     inkscape:zoom="0.37405949"
     inkscape:cx="1259.158"
     inkscape:cy="1350.0526"
     inkscape:window-x="32"
     inkscape:window-y="0"
     inkscape:window-maximized="1"
     inkscape:current-layer="layer1"
     inkscape:showpageshadow="0"
     inkscape:pagecheckerboard="0"
     inkscape:deskcolor="#d1d1d1" />
  <g
     inkscape:groupmode="layer"
     id="layer2"
     inkscape:label="artwork"
     sodipodi:insensitive="true">
    <image
       xlink:href="../gfx_Pepper-and-Carrot_by-David-Revoy_E38P05.png"
       y="0"
       x="0"
       id="image10"
       height="3503"
       width="2481" />
  </g>
  <g
     inkscape:groupmode="layer"
     id="layer3"
     inkscape:label="speechbubbles">
    <path
       style="color:#000000;display:inline;overflow:visible;visibility:visible;fill:#ffffff;fill-opacity:1;fill-rule:nonzero;stroke:none;stroke-width:0.99999px;marker:none;enable-background:accumulate"
       d="m 413.2248,861.85541 c -41.69798,-0.39133 -83.982,3.68408 -123.10524,16.27852 -15.91495,5.68774 -29.32341,17.62545 -32.58634,32.22598 -2.27165,14.18982 3.55421,29.4125 16.00369,39.29599 10.53282,7.71869 24.27811,11.03443 37.46017,14.03256 29.67296,6.12722 60.37571,6.58282 90.72962,7.42257 21.3201,0.44389 42.66987,1.02123 63.9818,0.18965 26.67178,-1.25412 53.53306,-4.01601 78.89668,-11.33492 13.66537,-3.97961 27.16018,-10.35159 35.14536,-20.85727 8.30256,-10.81583 10.12685,-25.38577 2.99509,-37.02396 -6.39421,-11.06531 -18.71342,-19.00579 -32.19222,-23.22021 -25.27779,-9.3576 -52.98751,-12.04706 -80.12737,-14.66739 -19.01674,-1.51389 -38.12048,-1.91463 -57.20124,-2.34152 z"
       id="path4040-4-4"
       inkscape:connector-curvature="0"
       sodipodi:nodetypes="zssssz" />
    <path
       style="fill:#ffffff;fill-rule:evenodd;stroke:none;stroke-width:0.999992px;stroke-linecap:butt;stroke-linejoin:miter;stroke-opacity:1"
       d="m 435.26341,563.21672 c 16.27678,-7.70306 54.74615,26.14786 39.58227,51.34243 -8.28227,13.76087 -48.97093,53.80439 -43.9925,66.35898 8.40555,21.19708 75.83803,24.06425 75.34563,52.97874 -1.26904,74.51888 -53.41279,72.33106 -59.81975,139.52761 -3.58819,37.63308 -34.40093,22.34932 -33.33057,3.73049 4.2792,-74.43645 66.79894,-75.39649 71.06678,-137.361 1.53877,-22.34137 -67.05507,-30.56749 -73.83163,-54.62707 -6.77656,-24.05958 42.65978,-65.6915 48.95364,-74.90388 19.06934,-27.91202 -17.29835,-49.15245 -23.97387,-47.0463 z"
       id="path4324-2"
       inkscape:connector-curvature="0"
       sodipodi:nodetypes="cssssssssc" />
    <path
       style="display:inline;fill:#ffffff;fill-opacity:1;stroke:none;stroke-width:0.999991"
       d="m 1187.1514,625.51532 c -61.8594,-0.44449 -123.9684,4.77227 -181.0786,20.20367 -61.22312,17.21023 -102.78034,62.35193 -106.10762,111.03199 -1.92953,26.09684 6.82849,53.70051 28.51104,75.88049 18.27089,18.55125 43.59254,32.89748 70.56775,43.84802 33.09133,13.32012 68.96963,21.91586 105.02593,28.41944 34.984,6.13903 70.4499,10.18038 105.9378,12.65777 67.0594,4.17213 133.8806,1.70112 200.267,-1.53212 46.9525,-3.53102 92.5111,-13.19668 134.0279,-28.33515 25.0038,-8.43608 49.8874,-18.3178 67.9156,-33.7499 20.8235,-17.1472 33.4571,-39.53822 35.976,-63.03449 3.1432,-23.27877 -1.521,-48.12875 -18.0232,-69.38667 -15.0377,-18.86911 -37.0074,-34.19466 -59.3178,-48.47463 -20.4118,-12.45719 -44.4982,-21.7632 -70.007,-25.87571 -44.9417,-8.65875 -90.8484,-12.49669 -136.5339,-15.91163 -59.0693,-4.04148 -118.17,-5.19828 -177.1609,-5.74108 z"
       id="path3238-0"
       inkscape:connector-curvature="0"
       sodipodi:nodetypes="cssssc" />
    <path
       style="color:#000000;display:inline;overflow:visible;visibility:visible;fill:#ffffff;fill-opacity:1;fill-rule:nonzero;stroke:none;stroke-width:0.999996px;marker:none;enable-background:accumulate"
       d="m 1168.2281,472.58746 c -54.0752,0.23302 -108.6607,6.91259 -159.5969,24.81261 -26.67465,9.25073 -50.15797,28.17604 -61.9567,53.03997 -4.84077,10.55254 -3.9394,22.64185 -1.04812,33.57163 4.64075,19.25685 18.50698,35.92224 36.37286,45.68574 11.46218,6.47307 24.66406,9.1346 37.55526,11.69854 24.9423,4.48658 50.3649,5.71587 75.6754,6.74437 28.5764,1.04107 57.1854,1.68274 85.6871,4.04214 54.6609,3.71231 109.8308,6.46939 164.3549,-0.39796 36.8865,-4.24248 73.7892,-10.13143 109.1246,-21.33927 14.3034,-5.01913 26.7908,-14.62578 35.1931,-26.73159 7.6119,-10.81062 10.9586,-24.15057 9.4927,-37.08249 -1.829,-19.02165 -12.5792,-37.05529 -28.8361,-48.23051 -16.6537,-12.26074 -36.0204,-20.81411 -55.9452,-27.00832 -25.8812,-7.69969 -53.0658,-9.86872 -79.9874,-11.43138 -55.2722,-3.92125 -110.6314,-7.49363 -166.0855,-7.37348 z"
       id="path3365-74"
       inkscape:connector-curvature="0"
       sodipodi:nodetypes="csssssc" />
    <path
       style="color:#000000;display:inline;overflow:visible;visibility:visible;fill:#ffffff;fill-opacity:1;fill-rule:nonzero;stroke:none;stroke-width:1.02384px;marker:none;enable-background:accumulate"
       d="m 1106.3903,278.52504 c -39.0225,0.85263 -78.7745,4.09621 -115.05906,15.96586 -40.04455,13.14712 -75.21011,36.28645 -95.68104,66.25971 -17.43092,27.00596 -18.02178,59.50992 -4.76283,87.65733 9.08049,20.31447 26.70146,38.48007 50.29865,49.93944 21.61225,10.92739 47.26615,16.04408 72.77498,17.59225 26.4761,1.78764 53.086,0.92375 79.6123,1.84317 47.2197,1.05098 94.3886,3.14234 141.6024,4.30537 35.1245,0.76133 70.3914,0.86487 105.3657,-2.07391 34.9647,-4.32767 67.822,-15.18756 99.7978,-26.56618 24.8626,-9.72937 46.2873,-25.31349 58.4541,-44.8844 13.1574,-19.62683 19.195,-42.73309 13.0736,-64.57055 -5.766,-18.07265 -20.771,-33.43544 -37.9328,-46.05308 -33.9795,-25.65811 -78.0511,-43.49542 -125.0596,-49.06061 -25.0806,-3.13541 -50.4908,-4.08937 -75.7698,-5.80646 -54.9757,-3.1005 -110.1034,-4.67381 -165.2243,-4.57508 -0.4967,0.009 -0.9932,0.0181 -1.4901,0.0271 z"
       id="path4546-6-3"
       inkscape:connector-curvature="0"
       sodipodi:nodetypes="cssssssc" />
    <path
       style="fill:#ffffff;fill-rule:evenodd;stroke:none;stroke-width:1.01795px;stroke-linecap:butt;stroke-linejoin:miter;stroke-opacity:1"
       d="m 1064.0525,1498.3424 c -56.6602,208.6894 358.7758,123.6101 393.7891,114.2814 28.5915,-5.6917 48.5014,-82.131 11.1039,-139.6889 -19.7307,-33.5423 -349.8833,-85.4812 -404.893,25.4075 z"
       id="path4430-0"
       inkscape:connector-curvature="0"
       sodipodi:nodetypes="cccc" />
    <path
       style="fill:#ffffff;fill-rule:evenodd;stroke:none;stroke-width:0.999998px;stroke-linecap:butt;stroke-linejoin:miter;stroke-opacity:1"
       d="m 1665.3875,867.24265 c -47.6883,36.63018 -121.3078,34.71042 -164.497,-19.84273 -42.9447,-54.24437 -27.7187,24.61422 -27.7187,24.61422 0,0 103.5598,86.80674 192.2157,-4.77149 z"
       id="path914"
       inkscape:connector-curvature="0"
       sodipodi:nodetypes="cscc" />
    <path
       style="color:#000000;display:inline;overflow:visible;visibility:visible;fill:#ffffff;fill-opacity:1;fill-rule:nonzero;stroke:none;stroke-width:1.35151px;marker:none;enable-background:accumulate"
       d="m 1330.7973,1623.6031 c -65.5836,0.7135 -131.7901,5.888 -194.2109,21.456 -43.6505,10.8353 -84.6801,30.0985 -111.5251,58.193 -28.47993,30.21 -40.11408,67.9932 -36.88599,104.4796 2.69481,32.659 23.55499,64.8556 58.68569,85.1326 27.5385,15.326 60.9372,23.3117 94.0758,29.1881 44.2096,7.3419 89.4017,10.5219 134.3733,14.1203 69.7982,4.2339 139.8744,1.9598 209.7982,1.6295 34.6855,-0.5098 69.4478,-0.3404 104.0303,-2.6224 53.2711,-4.1901 105.5959,-14.6663 154.6513,-30.5458 27.5558,-9.6778 51.7966,-25.7607 64.2252,-46.631 12.6454,-20.7009 14.7428,-43.9744 12.3928,-66.358 -2.5491,-28.0233 -11.7324,-56.3745 -32.5962,-80.1668 -20.6317,-23.648 -52.1862,-41.3364 -87.0267,-52.2005 -56.4916,-17.9999 -118.1638,-23.9047 -178.8767,-28.3484 -62.4309,-4.5034 -125.1334,-7.2751 -187.8731,-7.3543 -1.0793,0.01 -2.1586,0.019 -3.2379,0.029 z"
       id="path4546-6-5-3"
       inkscape:connector-curvature="0"
       sodipodi:nodetypes="cssssc" />
    <path
       style="color:#000000;display:inline;overflow:visible;visibility:visible;fill:#ffffff;fill-opacity:1;fill-rule:nonzero;stroke:none;stroke-width:1px;marker:none;enable-background:accumulate"
       d="m 1766.7234,1821.7857 c 62.1287,15.8148 150.4475,-33.6088 136.8651,-118.9732 -8.8478,92.8343 -96.9988,91.9805 -130.0298,76.4776 -19.3706,-12.294 -6.8353,42.4956 -6.8353,42.4956 z"
       id="path3978-4"
       inkscape:connector-curvature="0"
       sodipodi:nodetypes="cccc" />
    <path
       style="display:inline;fill:#ffffff;stroke:none;stroke-width:1"
       d="m 917.38033,2397.4226 c -5.2069,-10.7866 -17.1717,-15.0052 -25.6304,-13.039 -8.45839,1.9675 -11.4441,2.5263 -18.2896,8.7513 -6.8457,6.2252 -25.67917,11.3207 -33.31721,7.9632 -7.63783,-3.3561 -47.89164,-12.1144 -47.89164,-12.1144 0,0 20.67765,21.3567 29.65507,27.1533 8.97867,5.7973 6.3573,2.1556 10.75117,3.341 4.39314,1.1846 20.97342,-0.094 30.05862,-2.4708 7.13511,-1.8659 16.12447,-3.9027 23.29985,-12.6861 4.76574,-5.8354 18.47194,-4.2799 21.40374,4.5948 3.2536,9.8488 10.0144,11.0209 24.9122,8.2211 13.8184,-2.5977 34.3544,-11.9913 34.3544,-11.9913 -47.4943,6.1566 -43.47,4.3673 -49.3062,-7.7231 z"
       id="path3023-0"
       inkscape:connector-curvature="0"
       sodipodi:nodetypes="sssscsssssscs" />
    <path
       id="path3549-3-8"
       style="color:#000000;display:inline;overflow:visible;visibility:visible;fill:#ffffff;fill-opacity:1;fill-rule:nonzero;stroke:none;stroke-width:1px;marker:none;enable-background:accumulate;opacity:1"
       d="M 102.15625 2217.2109 L 102.15625 2478.543 C 145.9925 2472.706 160.94567 2488.6872 139.18945 2531.1875 C 197.21049 2465.1315 224.23694 2527.4578 222.31055 2568.6289 C 255.71026 2500.4131 304.96137 2507.443 326.14453 2587.5938 C 360.93641 2473.267 399.07113 2504.0873 434.1875 2560.6914 C 420.777 2505.1483 437.56327 2438.6418 497.66211 2517.5801 C 467.09516 2450.9428 485.45202 2429.6849 507.51562 2420.8828 L 507.51562 2378.793 C 499.91039 2359.7846 497.68349 2335.7155 507.51562 2313.5098 L 507.51562 2217.2109 L 102.15625 2217.2109 z " />
    <path
       style="fill:#ffffff;fill-rule:evenodd;stroke:none;stroke-width:0.999994px;stroke-linecap:butt;stroke-linejoin:miter;stroke-opacity:1"
       d="m 614.69152,2340.522 c 7.05235,-3.601 33.2353,4.8814 50.66259,-11.6568 17.3658,-4.6578 35.46201,6.8066 52.98671,1.1069 15.37158,-7.578 34.82449,-8.6667 48.56449,0.8486 15.40639,8.9999 36.92182,-0.7271 53.03221,5.6648 6.69492,8.206 6.9597,19.4158 26.99718,21.5829 21.5571,5.2381 -1.77091,17.894 -0.28758,26.7746 1.38743,9.3103 18.40505,24.6189 -7.73882,27.2113 -18.20043,2.9349 -18.56886,15.2718 -34.22106,20.9814 -12.5923,5.5164 -37.84995,-3.7856 -55.95286,1.7611 -14.2241,1.8686 -25.81327,12.9594 -34.34447,1.624 -14.95925,-8.3514 -38.17762,-11.7684 -57.73109,-7.3788 -20.1281,-0.9978 -19.21741,-19.3737 -41.09308,-18.909 -20.44721,0.6854 -32.43613,-8.8738 -23.06167,-19.6272 4.33918,-9.8105 -23.92667,-17.5942 -8.02695,-25.8265 15.29244,-4.9116 18.09501,-19.4032 30.2144,-24.1573 z"
       id="path16024"
       sodipodi:nodetypes="cccccccccccccccc" />
    <path
       style="color:#000000;display:inline;overflow:visible;visibility:visible;fill:#ffffff;fill-opacity:1;fill-rule:nonzero;stroke:none;stroke-width:1px;marker:none;enable-background:accumulate"
       d="m 2087.9681,3285.9397 c 0.5382,-35.4026 11.0244,-68.8822 103.9813,-67.7236 69.6996,0.8683 88.2609,28.1452 89.8052,63.9302 1.0883,25.2186 -36.6197,48.5616 -96.5036,47.3246 -57.2375,-1.1819 -93.0971,-16.5325 -97.2829,-43.5312 z"
       id="path5026-3"
       inkscape:connector-curvature="0"
       sodipodi:nodetypes="csssc" />
    <path
       style="display:inline;fill:#ffffff;fill-rule:evenodd;stroke:none;stroke-width:1px;stroke-linecap:butt;stroke-linejoin:miter;stroke-opacity:1"
       d="m 2216.2701,3274.5534 c -61.8984,-21.049 28.9638,-64.9043 19.6446,-80.7113 -6.8485,-11.6163 -47.2918,2.0303 -76.0255,-47.5276 36.5257,35.7762 71.9507,15.1139 89.789,28.9312 33.8795,26.2412 -13.779,72.8752 -16.93,82.2108 -4.2143,12.4859 -16.4781,17.0969 -16.4781,17.0969 z"
       id="path4186-80"
       inkscape:connector-curvature="0"
       sodipodi:nodetypes="cscssc" />
    <path
       style="display:inline;fill:#ffffff;stroke:none;stroke-width:1"
       d="m 150.33564,197.02745 c -0.56248,-16.53428 17.59238,-62.27919 95.40492,-57.01611 77.81255,5.26308 101.82519,24.09797 103.52442,53.50769 2.68819,46.52623 -38.52788,57.79921 -97.42464,59.61049 -60.71626,1.86792 -98.18412,-14.27969 -101.5047,-56.10207 z"
       id="path3280-9"
       inkscape:connector-curvature="0"
       sodipodi:nodetypes="csssc" />
    <path
       style="color:#000000;display:inline;overflow:visible;visibility:visible;fill:#ffffff;fill-opacity:1;fill-rule:nonzero;stroke:none;stroke-width:1px;marker:none;enable-background:accumulate"
       d="m 243.93137,340.60992 c -25.02662,-22.16944 -37.57619,-65.64997 -6.57569,-106.68443 31.00051,-41.03445 15.89917,-51.35957 15.89917,-51.35957 l -32.36315,12.91552 c 0,0 -47.82019,105.74427 23.03967,145.12848 z"
       id="path3072-6"
       inkscape:connector-curvature="0"
       sodipodi:nodetypes="csccc" />
    <path
       style="fill:#ffffff;stroke:none;stroke-width:1.1243"
       d="m 953.9822,248.47701 c -0.9247,-41.40473 26.6861,-50.70181 54.7056,-56.53003 28.0194,-5.82724 115.1003,0.63187 108.7035,51.29906 -6.3968,50.66623 -48.53,57.68798 -83.3415,55.44825 -34.81158,-2.23972 -75.0164,-10.98502 -80.0676,-50.21728 z"
       id="path3938-8-5"
       inkscape:connector-curvature="0"
       sodipodi:nodetypes="csssc" />
  </g>
  <g
     inkscape:groupmode="layer"
     id="layer1"
     inkscape:label="txt">
    <text
       id="text4178-0-7"
       y="210.26805"
       x="250.5466"
       style="font-style:normal;font-variant:normal;font-weight:normal;font-stretch:normal;line-height:0%;font-family:Lavi;-inkscape-font-specification:Lavi;text-align:center;letter-spacing:0px;word-spacing:0px;text-anchor:middle;fill:#000000;fill-opacity:1;stroke:none"
       xml:space="preserve"><tspan
         y="210.26805"
         x="250.5466"
         style="font-size:40.6767px;line-height:1.25"
         sodipodi:role="line"
         id="tspan13656-7">Darum!</tspan></text>
    <text
       id="text4178-0"
       y="928.42755"
       x="421.42911"
       style="font-style:normal;font-variant:normal;font-weight:normal;font-stretch:normal;font-size:11.3747px;line-height:0%;font-family:Lavi;-inkscape-font-specification:Lavi;text-align:center;letter-spacing:0px;word-spacing:0px;text-anchor:middle;fill:#000000;fill-opacity:1;stroke:none;stroke-width:1"
       xml:space="preserve"><tspan
         y="928.42755"
         x="421.42911"
         style="font-size:38.5572px;line-height:1.25;stroke-width:1"
         sodipodi:role="line"
         id="tspan463">Sonst noch was?</tspan></text>
    <text
       id="text4178-0-7-3"
       y="264.2692"
       x="1012.9329"
       style="font-style:normal;font-variant:normal;font-weight:normal;font-stretch:normal;font-size:14.0366px;line-height:0%;font-family:Lavi;-inkscape-font-specification:Lavi;text-align:center;letter-spacing:0px;word-spacing:0px;text-anchor:middle;fill:#000000;fill-opacity:1;stroke:none;stroke-width:1"
       xml:space="preserve"
       transform="scale(1.0254518,0.97517992)"><tspan
         y="264.2692"
         x="1012.9329"
         style="font-weight:bold;font-size:47.5802px;line-height:1.25;stroke-width:1"
         sodipodi:role="line"
         id="tspan13656-7-6">Ja.</tspan></text>
    <text
       id="text4178-0-3"
       y="358.68857"
       x="1196.3206"
       style="font-style:normal;font-variant:normal;font-weight:normal;font-stretch:normal;line-height:0%;font-family:Lavi;-inkscape-font-specification:Lavi;text-align:center;letter-spacing:0px;word-spacing:0px;text-anchor:middle;fill:#000000;fill-opacity:1;stroke:none"
       xml:space="preserve"><tspan
         y="358.68857"
         x="1196.3206"
         style="font-size:40.6767px;line-height:1.25"
         sodipodi:role="line"
         id="tspan13828">Für eine Hexe von Chaosāh</tspan><tspan
         y="409.53445"
         x="1196.3206"
         style="font-size:40.6767px;line-height:1.25"
         sodipodi:role="line"
         id="tspan476">ist es völlig <tspan
   style="font-style:normal;font-variant:normal;font-weight:bold;font-stretch:normal;font-family:Lavi;-inkscape-font-specification:'Lavi Bold'"
   id="tspan482">normal</tspan>, auf einem</tspan><tspan
         y="460.38031"
         x="1196.3206"
         style="font-size:40.6767px;line-height:1.25"
         sodipodi:role="line"
         id="tspan480">Steckbrief genannt zu werden.</tspan></text>
    <text
       id="text4178-0-3-7"
       y="563.04523"
       x="1218.1459"
       style="font-style:normal;font-variant:normal;font-weight:normal;font-stretch:normal;line-height:0%;font-family:Lavi;-inkscape-font-specification:Lavi;text-align:center;letter-spacing:0px;word-spacing:0px;text-anchor:middle;fill:#000000;fill-opacity:1;stroke:none"
       xml:space="preserve"><tspan
         y="563.04523"
         x="1218.1459"
         style="font-size:40.6767px;line-height:1.25"
         sodipodi:role="line"
         id="tspan563">Das macht sogar unseren</tspan><tspan
         y="613.89111"
         x="1218.1459"
         style="font-size:40.6767px;line-height:1.25"
         sodipodi:role="line"
         id="tspan486">guten Ruf aus!</tspan></text>
    <text
       id="text4178-0-3-7-4"
       y="699.81525"
       x="1278.6748"
       style="font-style:normal;font-variant:normal;font-weight:normal;font-stretch:normal;line-height:0%;font-family:Lavi;-inkscape-font-specification:Lavi;text-align:center;letter-spacing:0px;word-spacing:0px;text-anchor:middle;fill:#000000;fill-opacity:1;stroke:none"
       xml:space="preserve"><tspan
         y="699.81525"
         x="1278.6748"
         style="font-size:40.6767px;line-height:1.25"
         sodipodi:role="line"
         id="tspan662">Ignoriere die Nein-Sager,</tspan><tspan
         y="750.66113"
         x="1278.6748"
         style="font-size:40.6767px;line-height:1.25"
         sodipodi:role="line"
         id="tspan500">was auch immer sie meinen.</tspan><tspan
         y="801.50702"
         x="1278.6748"
         style="font-size:40.6767px;line-height:1.25"
         sodipodi:role="line"
         id="tspan504">Wenn dir keiner eine Karriere bietet,</tspan><tspan
         y="852.35284"
         x="1278.6748"
         style="font-size:40.6767px;line-height:1.25"
         sodipodi:role="line"
         id="tspan506">dann gehe deinen eigenen Weg!</tspan></text>
    <text
       id="text4178-0-3-7-4-4-9"
       y="1518.2205"
       x="1276.4719"
       style="font-style:normal;font-variant:normal;font-weight:normal;font-stretch:normal;font-size:13.0616px;line-height:0%;font-family:Lavi;-inkscape-font-specification:Lavi;text-align:center;letter-spacing:0px;word-spacing:0px;text-anchor:middle;fill:#000000;fill-opacity:1;stroke:none;stroke-width:1"
       xml:space="preserve"><tspan
         y="1518.2205"
         x="1276.4719"
         style="font-weight:bold;font-size:44.2754px;line-height:1.25;stroke-width:1"
         sodipodi:role="line"
         id="tspan572"><tspan
   id="tspan1008"
   style="font-style:normal;font-variant:normal;font-weight:normal;font-stretch:normal;font-size:44.2754px;line-height:1.25;font-family:Lavi;-inkscape-font-specification:Lavi;stroke-width:1">Aber vor allem: </tspan>Du</tspan><tspan
         y="1573.5647"
         x="1276.4719"
         style="font-weight:bold;font-size:44.2754px;line-height:1.25;stroke-width:1"
         sodipodi:role="line"
         id="tspan1010">bist keine Heilerin.</tspan></text>
    <text
       id="text4178-0-3-7-4-6"
       y="1690.7418"
       x="1405.5183"
       style="font-style:normal;font-variant:normal;font-weight:normal;font-stretch:normal;line-height:0%;font-family:Lavi;-inkscape-font-specification:Lavi;text-align:center;letter-spacing:0px;word-spacing:0px;text-anchor:middle;fill:#000000;fill-opacity:1;stroke:none;stroke-width:1.4;stroke-dasharray:none"
       xml:space="preserve"><tspan
         y="1690.7418"
         x="1405.5183"
         style="font-size:40.6767px;line-height:1.25;stroke-width:1.4;stroke-dasharray:none"
         sodipodi:role="line"
         id="tspan546">Spätestens, wenn dein</tspan><tspan
         y="1741.5876"
         x="1405.5183"
         style="font-size:40.6767px;line-height:1.25;stroke-width:1.4;stroke-dasharray:none"
         sodipodi:role="line"
         id="tspan552">unglaublicher Vorrat an <tspan
   style="font-style:normal;font-variant:normal;font-weight:bold;font-stretch:normal;font-family:Lavi;-inkscape-font-specification:'Lavi Bold'"
   id="tspan1330">Phönixtränen </tspan></tspan><tspan
         y="1792.4336"
         x="1405.5183"
         style="font-size:40.6767px;line-height:1.25;stroke-width:1.4;stroke-dasharray:none"
         sodipodi:role="line"
         id="tspan548">aufgebraucht ist, den du mit dir rumträgst,</tspan><tspan
         y="1843.2794"
         x="1405.5183"
         style="font-size:40.6767px;line-height:1.25;stroke-width:1.4;stroke-dasharray:none"
         sodipodi:role="line"
         id="tspan558">werden sie merken, dass du nur</tspan><tspan
         y="1894.1254"
         x="1405.5183"
         style="font-size:40.6767px;line-height:1.25;stroke-width:1.4;stroke-dasharray:none"
         sodipodi:role="line"
         id="tspan556">vorgaukelst, Heilkräfte zu haben.</tspan></text>
    <text
       id="text4178-0-3-7-4-4-9-8"
       y="2304.5208"
       x="299.76089"
       style="font-style:normal;font-variant:normal;font-weight:normal;font-stretch:normal;font-size:19.6833px;line-height:0%;font-family:Lavi;-inkscape-font-specification:Lavi;text-align:center;letter-spacing:0px;word-spacing:0px;text-anchor:middle;fill:#000000;fill-opacity:1;stroke:none;stroke-width:1"
       xml:space="preserve"><tspan
         y="2304.5208"
         x="299.76089"
         style="font-weight:bold;font-size:66.7212px;line-height:1.25;stroke-width:1"
         sodipodi:role="line"
         id="tspan14981">Wie... ?</tspan></text>
    <text
       id="text4178-0-3-7-4-4-9-8-2"
       y="2390.5906"
       x="304.07828"
       style="font-style:normal;font-variant:normal;font-weight:normal;font-stretch:normal;font-size:17.9224px;line-height:0%;font-family:Lavi;-inkscape-font-specification:Lavi;text-align:center;letter-spacing:0px;word-spacing:0px;text-anchor:middle;fill:#000000;fill-opacity:1;stroke:none;stroke-width:1"
       xml:space="preserve"><tspan
         y="2390.5906"
         x="304.07828"
         style="font-weight:bold;font-size:60.7521px;line-height:1.25;stroke-width:1"
         sodipodi:role="line"
         id="tspan1834">Hast du</tspan><tspan
         y="2466.5308"
         x="304.07828"
         style="font-weight:bold;font-size:60.7521px;line-height:1.25;stroke-width:1"
         sodipodi:role="line"
         id="tspan681">das...</tspan></text>
    <text
       id="text4178-0-3-7-4-6-2"
       y="2387.5559"
       x="724.6922"
       style="font-style:normal;font-variant:normal;font-weight:normal;font-stretch:normal;font-size:13.0698px;line-height:0%;font-family:Lavi;-inkscape-font-specification:Lavi;text-align:center;letter-spacing:0px;word-spacing:0px;text-anchor:middle;fill:#000000;fill-opacity:1;stroke:none;stroke-width:0.999999"
       xml:space="preserve"
       transform="scale(0.99716257,1.0028455)"><tspan
         y="2387.5559"
         x="724.6922"
         style="font-size:44.303px;line-height:1.25;stroke-width:0.999999"
         sodipodi:role="line"
         id="tspan14909-4">...erraten.</tspan></text>
    <text
       id="text4178-0-3-7-4-6-2-9"
       y="3394.865"
       x="2115.7561"
       style="font-style:normal;font-variant:normal;font-weight:normal;font-stretch:normal;font-size:15.5528px;line-height:0%;font-family:Lavi;-inkscape-font-specification:Lavi;text-align:center;letter-spacing:0px;word-spacing:0px;text-anchor:middle;fill:#000000;fill-opacity:1;stroke:none;stroke-width:1"
       xml:space="preserve"
       transform="scale(1.0311049,0.96983341)"><tspan
         y="3394.865"
         x="2115.7561"
         style="font-size:52.7197px;line-height:1.25;stroke-width:1"
         sodipodi:role="line"
         id="tspan14909-4-0">Tsss!</tspan></text>
    <text
       xml:space="preserve"
       id="text561"
       style="fill:black;fill-opacity:1;line-height:1.25;stroke:none;font-family:sans-serif;font-style:normal;font-weight:normal;font-size:40px;letter-spacing:0px;word-spacing:0px;white-space:pre;shape-inside:url(#rect563)" />
  </g>
</svg>
