<?xml version="1.0" encoding="UTF-8" standalone="no"?>
<!-- Created with Inkscape (http://www.inkscape.org/) -->

<svg
   id="svg2"
   version="1.1"
   inkscape:version="1.2.2 (b0a8486541, 2022-12-01)"
   width="2481"
   height="3503"
   sodipodi:docname="E38P03.svg"
   xmlns:inkscape="http://www.inkscape.org/namespaces/inkscape"
   xmlns:sodipodi="http://sodipodi.sourceforge.net/DTD/sodipodi-0.dtd"
   xmlns:xlink="http://www.w3.org/1999/xlink"
   xmlns="http://www.w3.org/2000/svg"
   xmlns:svg="http://www.w3.org/2000/svg"
   xmlns:rdf="http://www.w3.org/1999/02/22-rdf-syntax-ns#"
   xmlns:cc="http://creativecommons.org/ns#"
   xmlns:dc="http://purl.org/dc/elements/1.1/">
  <metadata
     id="metadata8">
    <rdf:RDF>
      <cc:Work
         rdf:about="">
        <dc:format>image/svg+xml</dc:format>
        <dc:type
           rdf:resource="http://purl.org/dc/dcmitype/StillImage" />
        <dc:title />
      </cc:Work>
    </rdf:RDF>
  </metadata>
  <defs
     id="defs6" />
  <sodipodi:namedview
     pagecolor="#ffffff"
     bordercolor="#666666"
     borderopacity="1"
     objecttolerance="10"
     gridtolerance="10"
     guidetolerance="10"
     inkscape:pageopacity="0"
     inkscape:pageshadow="2"
     inkscape:window-width="1888"
     inkscape:window-height="1144"
     id="namedview4"
     showgrid="false"
     inkscape:zoom="0.43016841"
     inkscape:cx="1434.322"
     inkscape:cy="2287.4762"
     inkscape:window-x="32"
     inkscape:window-y="0"
     inkscape:window-maximized="1"
     inkscape:current-layer="layer1"
     inkscape:showpageshadow="0"
     inkscape:pagecheckerboard="0"
     inkscape:deskcolor="#d1d1d1" />
  <g
     inkscape:groupmode="layer"
     id="layer2"
     inkscape:label="artwork"
     sodipodi:insensitive="true">
    <image
       xlink:href="../gfx_Pepper-and-Carrot_by-David-Revoy_E38P03.png"
       y="0"
       x="0"
       id="image10"
       height="3503"
       width="2481" />
  </g>
  <g
     inkscape:groupmode="layer"
     id="layer3"
     inkscape:label="speechbubbles">
    <path
       style="color:#000000;display:inline;overflow:visible;visibility:visible;fill:#ffffff;fill-opacity:1;fill-rule:nonzero;stroke:none;stroke-width:0.999997px;marker:none;enable-background:accumulate"
       d="m 1996.7446,2524.0023 c -36.6698,0.7074 -73.7634,3.3308 -108.9338,13.6099 -14.9229,4.7847 -26.8935,14.7706 -38.4376,24.3938 -8.7139,7.4821 -16.9603,16.4139 -19.5163,27.4671 -3.5919,15.2611 -2.8924,31.079 -0.8585,46.4852 1.7357,10.9964 6.2489,21.6877 13.7219,30.4299 10.1156,12.2812 24.7246,20.8736 40.3838,25.7958 26.7717,9.4153 55.2981,14.8813 83.9833,14.7807 18.5551,0.074 37.1105,-0.9693 55.6623,-0.2291 23.0977,0.448 46.4177,1.1083 69.244,-2.8368 20.0283,-3.3049 39.6531,-8.892 58.1267,-16.8084 13.1127,-5.9715 24.9043,-15.0379 32.093,-26.9797 13.7097,-21.769 14.1523,-50.3081 0.5402,-72.2136 -11.1411,-18.7422 -29.6959,-32.9588 -50.3223,-42.101 -21.4331,-9.706 -45.0685,-14.2705 -68.6267,-16.7611 -22.2374,-2.7191 -44.5877,-5.2795 -67.06,-5.0327 z"
       id="path4040-4-5-3"
       inkscape:connector-curvature="0"
       sodipodi:nodetypes="zssssz" />
    <path
       style="color:#000000;display:inline;overflow:visible;visibility:visible;fill:#ffffff;fill-opacity:1;fill-rule:nonzero;stroke:none;stroke-width:1px;marker:none;enable-background:accumulate"
       d="m 2094.9205,2699.9974 c -44.6207,0.7487 -89.6593,1.0104 -133.5023,10.3456 -20.0354,4.5451 -38.8192,16.3489 -49.829,33.9383 -16.4377,25.5022 -18.0161,59.552 -4.7273,86.7337 7.7462,16.5516 20.7575,30.4361 36.4575,39.717 11.7806,7.4634 25.17,12.476 39.0727,13.9401 34.9885,5.0662 70.3271,8.3014 105.7104,7.6084 26.7691,-0.5027 53.5616,-2.8985 79.842,-8.1008 19.3193,-4.1463 38.5962,-11.795 52.8738,-25.8706 11.0422,-10.7924 18.3528,-25.3156 20.2807,-40.6496 2.017,-13.2405 2.7237,-26.6919 2.2021,-40.0716 -0.7071,-13.9966 -4.3101,-28.1698 -12.505,-39.7241 -7.5618,-11.0508 -18.8971,-18.9758 -31.1183,-24.1327 -17.566,-7.5149 -36.7064,-10.1685 -55.5732,-12.0913 -16.3475,-1.4944 -32.7782,-1.7435 -49.1841,-1.6424 z"
       id="path3365-33"
       inkscape:connector-curvature="0"
       sodipodi:nodetypes="csssssc" />
    <path
       style="color:#000000;display:inline;overflow:visible;visibility:visible;fill:#ffffff;fill-opacity:1;fill-rule:nonzero;stroke:none;stroke-width:0.999999px;marker:none;enable-background:accumulate"
       d="m 1263.1642,1831.4688 c -42.5257,-42.2705 -19.5395,-108.0364 17.6028,-114.3414 51.4374,-8.7316 -11.3103,20.5827 -11.3103,20.5827 0,0 -37.0509,43.6527 -6.2925,93.7587 z"
       id="path5002-7"
       inkscape:connector-curvature="0"
       sodipodi:nodetypes="cscc" />
    <path
       style="color:#000000;display:inline;overflow:visible;visibility:visible;fill:#ffffff;fill-opacity:1;fill-rule:nonzero;stroke:none;stroke-width:1px;marker:none;enable-background:accumulate"
       d="m 1916.9709,2636.425 c -77.3885,-61.1144 -158.5933,-65.3254 -208.3967,7.4705 60.8364,-52.278 143.8743,-25.5157 174.2291,8.7518 16.5264,23.0336 34.1676,-16.2223 34.1676,-16.2223 z"
       id="path3978-4"
       inkscape:connector-curvature="0"
       sodipodi:nodetypes="cccc" />
    <path
       style="fill:#ffffff;fill-rule:evenodd;stroke:none;stroke-width:0.999997px;stroke-linecap:butt;stroke-linejoin:miter;stroke-opacity:1"
       d="m 1571.1,1438.6662 c 1.0295,-18.6517 13.3828,-52.846 31.913,-59.0632 18.53,-6.2173 70.0024,-6.2173 80.2969,-3.1082 10.2946,3.1082 26.7657,25.9044 30.8835,35.2307 4.1179,9.3254 15.4418,42.4833 -3.0882,55.9542 -18.5302,13.4708 -37.0602,23.8325 -56.6198,22.7962 -19.5596,-1.0364 -58.6787,-8.29 -67.9436,-20.7235 -9.2651,-12.4345 -15.4418,-31.0862 -15.4418,-31.0862 z"
       id="path1355"
       inkscape:connector-curvature="0" />
    <path
       style="fill:#ffffff;fill-rule:evenodd;stroke:none;stroke-width:1px;stroke-linecap:butt;stroke-linejoin:miter;stroke-opacity:1"
       d="m 1005.9554,1564.5354 c 18.5259,2.0314 45.654,-7.5765 30.6765,-38.1612 29.0714,21.6699 52.9068,17.8869 100.1958,-16.1391 -3.9297,47.4093 17.206,42.9799 36.2603,33.8779 -18.2868,15.9536 14.5387,25.0955 32.196,25.9916 -37.3521,34.5064 -17.7382,45.4806 -3.0201,58.4772 -36.7083,-9.6156 -27.8302,9.8675 -32.2148,20.8848 -31.4901,-24.9624 -54.3909,-19.038 -72.4831,4.1769 -9.4625,-12.6249 -12.4326,-38.7184 -47.3154,1.3923 12.8273,-34.6271 -3.9864,-30.9924 -31.2079,-13.9231 4.2662,-11.7944 29.6222,-29.7296 -13.0873,-27.8464 26.6772,-11.2123 32.2716,-26.401 0,-48.7309 z"
       id="path4584"
       inkscape:connector-curvature="0"
       sodipodi:nodetypes="cccccccccccc" />
    <path
       style="color:#000000;display:inline;overflow:visible;visibility:visible;fill:#ffffff;fill-opacity:1;fill-rule:nonzero;stroke:none;stroke-width:1px;marker:none;enable-background:accumulate"
       d="m 1092.7675,1600.0887 c 32.5118,17.1362 69.5241,50.078 26.9344,88.4809 5.5785,26.0417 6.6264,46.3987 -29.7935,75.4959 22.4386,-26.2104 31.5308,-42.9396 20.1333,-80.7335 19.0733,-22.4288 9.883,-53.2464 -33.7163,-67.4214 -43.5993,-14.1751 -33.1079,-7.2586 -33.1079,-7.2586 l 36.9086,-13.1055 z"
       id="path5074"
       inkscape:connector-curvature="0"
       sodipodi:nodetypes="ccccsccc" />
    <path
       style="fill:#ffffff;stroke:none;stroke-width:0.999998"
       d="m 1641.2389,1626.3692 c -23.6692,-22.5115 -16.2357,-35.8105 -6.3972,-46.3314 9.8357,-10.5203 11.5626,-22.6355 9.6907,-30.0237 -1.8719,-7.3881 -10.8731,-18.1272 -18.2553,-23.021 -7.3832,-4.8937 2.0396,-17.023 7.4292,-24.7215 7.1196,-10.1717 17.3403,-10.9015 17.3403,-10.9015 0,0 -8.6513,-43.4434 -16.6505,-33.7546 -7.9983,9.6888 -25.6203,43.7517 -27.4427,48.1059 -1.8214,4.3541 -5.0288,17.8771 0.4234,24.5114 5.4533,6.6341 17.5984,9.8769 21.8896,18.2273 4.4207,8.6023 3.0414,15.2934 -2.2485,24.1895 -5.2898,8.8961 -13.1942,29.5079 -2.6908,39.3668 10.5043,9.8587 16.9118,14.3528 16.9118,14.3528 z"
       id="path3023-9"
       inkscape:connector-curvature="0"
       sodipodi:nodetypes="csssscssssssc" />
  </g>
  <g
     inkscape:groupmode="layer"
     id="layer1"
     inkscape:label="txt">
    <path
       style="color:#000000;display:inline;overflow:visible;visibility:visible;fill:#ffffff;fill-opacity:1;fill-rule:nonzero;stroke:none;stroke-width:0.999992px;marker:none;enable-background:accumulate"
       d="m 1279.7872,1807.108 c 10.4382,-20.3383 30.7897,-37.1585 39.774,-1.1986 25.2297,-33.6162 37.374,-22.5171 57.0926,1.4233 0.1765,-7.6634 6.7525,-38.2829 35.1265,-19.2 -8.9945,-27.4607 18.4482,-29.9156 31.8506,-26.8438 -5.0932,-13.4295 2.5967,-23.5139 21.6915,-30.6116 -27.0608,-6.2829 -21.2725,-22.5018 14.11,-38.0853 -37.0738,1.934 -45.8843,-16.9263 -17.3724,-41.7471 -13.6919,0.2808 -61.1419,35.7853 -55.7469,-33.9738 -16.3834,23.6061 -46.4322,50.8692 -75.4732,6.9277 -5.8749,18.8575 -25.4113,32.1313 -49.5858,9.1993 -2.9672,18.4687 -29.1728,22.2539 -39.2149,19.4253 21.4497,18.507 21.9615,31.117 -4.3909,35.3732 47.9346,32.5498 11.0508,30.2197 4.7485,40.0776 36.125,9.5133 30.8257,27.4288 14.9947,35.8709 31.7916,-23.2311 24.591,17.6521 22.3957,43.3629 z"
       id="path3549-3-8"
       inkscape:connector-curvature="0"
       sodipodi:nodetypes="cccccccccccccccc" />
    <text
       id="text4178-0"
       y="1600.2191"
       x="1106.0676"
       style="font-style:normal;font-variant:normal;font-weight:normal;font-stretch:normal;font-size:37.3333px;line-height:0%;font-family:Lavi;-inkscape-font-specification:Lavi;text-align:center;letter-spacing:0px;word-spacing:0px;text-anchor:middle;fill:#000000;fill-opacity:1;stroke:none"
       xml:space="preserve"><tspan
         y="1600.2191"
         x="1106.0676"
         style="font-size:37.3333px;line-height:1.25"
         sodipodi:role="line"
         id="tspan4245-6-6">Meins!</tspan></text>
    <text
       id="text4178-0-1"
       y="1696.3229"
       x="1340.0499"
       style="font-style:normal;font-variant:normal;font-weight:normal;font-stretch:normal;font-size:32.7584px;line-height:0%;font-family:Lavi;-inkscape-font-specification:Lavi;text-align:center;letter-spacing:0px;word-spacing:0px;text-anchor:middle;fill:#000000;fill-opacity:1;stroke:none;stroke-width:0.999996"
       xml:space="preserve"
       transform="scale(1.0080992,0.99196588)"><tspan
         y="1696.3229"
         x="1340.0499"
         style="font-size:32.7584px;line-height:1.25;stroke-width:0.999996"
         sodipodi:role="line"
         id="tspan8148">Nein, </tspan><tspan
         y="1737.2709"
         x="1340.0499"
         style="font-size:32.7584px;line-height:1.25;stroke-width:0.999996"
         sodipodi:role="line"
         id="tspan451">lasst mich</tspan><tspan
         y="1778.2189"
         x="1340.0499"
         style="font-size:32.7584px;line-height:1.25;stroke-width:0.999996"
         sodipodi:role="line"
         id="tspan1475">machen!</tspan></text>
    <text
       id="text4178-0-7"
       y="1453.9064"
       x="1646.5745"
       style="font-style:normal;font-variant:normal;font-weight:normal;font-stretch:normal;font-size:18.9857px;line-height:0%;font-family:Lavi;-inkscape-font-specification:Lavi;text-align:center;letter-spacing:0px;word-spacing:0px;text-anchor:middle;fill:#000000;fill-opacity:1;stroke:none;stroke-width:0.999996"
       xml:space="preserve"><tspan
         y="1453.9064"
         x="1646.5745"
         style="font-size:64.3559px;line-height:1.25;stroke-width:0.999996"
         sodipodi:role="line"
         id="tspan4245-6-6-9">?</tspan></text>
    <text
       id="text4178-0-2"
       y="2605.2053"
       x="2003.4584"
       style="font-style:normal;font-variant:normal;font-weight:normal;font-stretch:normal;line-height:0%;font-family:Lavi;-inkscape-font-specification:Lavi;text-align:center;letter-spacing:0px;word-spacing:0px;text-anchor:middle;fill:#000000;fill-opacity:1;stroke:none"
       xml:space="preserve"><tspan
         y="2605.2053"
         x="2003.4584"
         style="font-size:40.6767px;line-height:1.25"
         sodipodi:role="line"
         id="tspan424">Was glaubst du</tspan><tspan
         y="2656.0513"
         x="2003.4584"
         style="font-size:40.6767px;line-height:1.25"
         sodipodi:role="line"
         id="tspan1481"> was du hier tust?</tspan></text>
    <text
       id="text4178-0-2-2"
       y="2756.8384"
       x="2071.1394"
       style="font-style:normal;font-variant:normal;font-weight:normal;font-stretch:normal;line-height:0%;font-family:Lavi;-inkscape-font-specification:Lavi;text-align:center;letter-spacing:0px;word-spacing:0px;text-anchor:middle;fill:#000000;fill-opacity:1;stroke:none"
       xml:space="preserve"><tspan
         y="2756.8384"
         x="2071.1394"
         style="font-size:40.6767px;line-height:1.25"
         sodipodi:role="line"
         id="tspan501">Wir suchen</tspan><tspan
         y="2807.6843"
         x="2071.1394"
         style="font-size:40.6767px;line-height:1.25"
         sodipodi:role="line"
         id="tspan1487">dich schon seit </tspan><tspan
         y="2858.53"
         x="2071.1394"
         style="font-size:40.6767px;line-height:1.25"
         sodipodi:role="line"
         id="tspan1489">Monaten.</tspan></text>
  </g>
</svg>
