<?xml version="1.0" encoding="UTF-8" standalone="no"?>
<svg
   xmlns:dc="http://purl.org/dc/elements/1.1/"
   xmlns:cc="http://creativecommons.org/ns#"
   xmlns:rdf="http://www.w3.org/1999/02/22-rdf-syntax-ns#"
   xmlns:svg="http://www.w3.org/2000/svg"
   xmlns="http://www.w3.org/2000/svg"
   xmlns:xlink="http://www.w3.org/1999/xlink"
   xmlns:sodipodi="http://sodipodi.sourceforge.net/DTD/sodipodi-0.dtd"
   xmlns:inkscape="http://www.inkscape.org/namespaces/inkscape"
   id="svg2"
   version="1.1"
   inkscape:version="1.0.2-2 (e86c870879, 2021-01-15)"
   width="2481"
   height="3503"
   sodipodi:docname="E19P01.svg">
  <sodipodi:namedview
     pagecolor="#ffffff"
     bordercolor="#666666"
     inkscape:pageopacity="0"
     inkscape:pageshadow="2"
     inkscape:window-width="1350"
     inkscape:window-height="729"
     id="namedview70"
     showgrid="false"
     inkscape:zoom="0.21386973"
     inkscape:cx="1028.4117"
     inkscape:cy="1782.8773"
     inkscape:current-layer="layer1"
     inkscape:window-x="0"
     inkscape:window-y="0"
     inkscape:window-maximized="0"
     inkscape:document-rotation="0" />
  <metadata
     id="metadata8">
    <rdf:RDF>
      <cc:Work
         rdf:about="">
        <dc:format>image/svg+xml</dc:format>
        <dc:type
           rdf:resource="http://purl.org/dc/dcmitype/StillImage" />
        <dc:title />
      </cc:Work>
    </rdf:RDF>
  </metadata>
  <defs
     id="defs6" />
  <sodipodi:namedview
     pagecolor="#ffffff"
     bordercolor="#666666"
     borderopacity="1"
     objecttolerance="10"
     gridtolerance="10"
     guidetolerance="10"
     inkscape:pageopacity="0"
     inkscape:pageshadow="2"
     inkscape:window-width="1920"
     inkscape:window-height="1025"
     id="namedview4"
     showgrid="false"
     inkscape:zoom="0.31941595"
     inkscape:cx="1410.2665"
     inkscape:cy="585.67346"
     inkscape:window-x="0"
     inkscape:window-y="26"
     inkscape:window-maximized="1"
     inkscape:current-layer="layer1"
     showguides="false" />
  <g
     inkscape:groupmode="layer"
     id="layer2"
     inkscape:label="artwork"
     sodipodi:insensitive="true">
    <image
       sodipodi:absref="C:\Users\quentinlipeck\Downloads\webcomics-master-ec7d62e6553c2c63bb1cf2e799ee31f9cb9ce5e2\webcomics-master-ec7d62e6553c2c63bb1cf2e799ee31f9cb9ce5e2\ep19_Pollution\lang\gfx_Pepper-and-Carrot_by-David-Revoy_E19P01.png"
       xlink:href="../gfx_Pepper-and-Carrot_by-David-Revoy_E19P01.png"
       y="0"
       x="0"
       id="image10"
       height="3503"
       width="2481" />
  </g>
  <g
     inkscape:groupmode="layer"
     id="layer3"
     inkscape:label="speechbubbles">
    <path
       style="color:#000000;display:inline;overflow:visible;visibility:visible;fill:#ffffff;fill-opacity:1;fill-rule:nonzero;stroke:none;stroke-width:1.30497px;marker:none;enable-background:accumulate"
       d="m 944.12394,1944.6884 c -6.83342,-29.8516 46.69928,-65.8653 240.50736,-57.9056 193.8084,7.9598 231.9347,21.984 237.659,60.2936 2.3733,15.8826 -49.2463,40.5945 -77.8409,44.5744 -28.5947,3.9798 -147.1371,4.5754 -194.795,1.3916 -47.6576,-3.1839 -149.92955,-10.1473 -178.52422,-24.4749 -28.59495,-14.3274 -23.82894,-20.6952 -27.00624,-23.8791 z"
       id="path3365"
       inkscape:connector-curvature="0"
       sodipodi:nodetypes="csssssc" />
    <path
       style="color:#000000;display:inline;overflow:visible;visibility:visible;fill:#ffffff;fill-opacity:1;fill-rule:nonzero;stroke:none;stroke-width:1.14523px;marker:none;enable-background:accumulate"
       d="m 1390.9795,2076.8706 c -11.6617,54.0667 -64.4372,78.2371 -108.232,92.8985 -81.7335,23.2222 -167.3841,11.5665 -249.7312,-0.9669 -42.7237,-8.9095 -86.73237,-47.3197 -82.26526,-99.1832 4.31719,-46.4894 45.73583,-76.7852 85.65706,-81.1038 58.5234,-15.0719 119.5577,-22.414 179.0626,-9.5916 51.095,7.3208 105.816,9.3053 151.3246,38.2204 15.2083,15.2781 21.0515,38.1542 24.1842,59.7266 z"
       id="path3365-3"
       inkscape:connector-curvature="0" />
    <path
       style="fill:#ffffff;stroke:none;stroke-width:1.06664"
       d="m 946.21205,2279.7271 c 6.6004,-61.6305 58.15925,-94.9797 133.83785,-103.564 92.7801,-18.3183 179.259,-26.7108 271.8459,-9.1588 60.5444,14.5189 110.303,16.1672 157.3414,57.8418 31.1925,30.565 42.4236,146.2343 -8.0991,176.2126 -52.5945,43.8283 -193.5258,53.5381 -264.8298,52.3401 -102.6299,1.8038 -192.5751,-6.1775 -243.25872,-42.6819 -47.39193,-35.0232 -53.29265,-85.3666 -46.83753,-130.9898 z"
       id="path3065"
       inkscape:connector-curvature="0"
       sodipodi:nodetypes="cccccccc" />
    <path
       style="display:inline;fill:#ffffff;stroke:none"
       d="m 1639.5841,2318.3167 c -21.9558,36.2988 -64.6442,61.9501 -96.7367,35.7869 -19.4449,-15.8524 -29.1134,-28.291 -29.1134,-28.291 l -6.3679,30.9322 20.7854,19.5483 c 0,0 65.508,31.9103 111.4326,-57.9764 z"
       id="path3063-1"
       inkscape:connector-curvature="0"
       sodipodi:nodetypes="cscccc" />
    <path
       style="color:#000000;display:inline;overflow:visible;visibility:visible;fill:#ffffff;fill-opacity:1;fill-rule:nonzero;stroke:none;stroke-width:1.08139px;marker:none;enable-background:accumulate"
       d="m 1859.6312,2318.7633 c 25.752,-14.8351 127.1586,-27.5791 228.4384,-26.0229 101.2797,1.5563 198.3494,9.704 257.6893,46.2927 87.4273,53.907 47.6059,177.1599 2.3245,197.9002 -32.8173,15.0314 -131.0377,28.518 -225.1123,30.0346 -94.0743,1.5168 -184.0027,-8.9363 -227.939,-22.5197 -37.9184,-11.723 -93.164,-43.6247 -97.6748,-120.7802 -1.841,-31.4904 10.7701,-75.2341 62.2739,-104.9047 z"
       id="path4040"
       inkscape:connector-curvature="0"
       sodipodi:nodetypes="ssssssss" />
    <path
       style="color:#000000;display:inline;overflow:visible;visibility:visible;fill:#ffffff;fill-opacity:1;fill-rule:nonzero;stroke:none;stroke-width:1px;marker:none;enable-background:accumulate"
       d="m 2091.5868,2309.6031 c -12.6779,-33.6245 -30.9699,-60.7293 -65.977,-55.676 52.3023,-18.546 92.9308,35.3617 103.6224,53.2726 10.6914,17.9109 -37.6454,2.4034 -37.6454,2.4034 z"
       id="path5010"
       inkscape:connector-curvature="0" />
    <path
       style="color:#000000;display:inline;overflow:visible;visibility:visible;fill:#ffffff;fill-opacity:1;fill-rule:nonzero;stroke:none;stroke-width:1.08188px;marker:none;enable-background:accumulate"
       d="m 606.51392,2726.3612 c -1.11545,-26.3558 11.20528,-45.2414 58.05135,-62.4534 46.84628,-17.2119 113.33028,-9.0026 130.77431,-8.4347 81.86038,2.665 109.28936,11.5648 126.02008,30.9284 16.73081,19.3634 21.00514,15.1087 20.41385,48.6465 -0.52935,30.0255 -5.25838,44.1361 -25.33528,50.5905 -20.07703,6.4545 -174.31412,13.8487 -198.06017,13.5611 -23.2492,-0.2816 -52.85047,-3.5096 -75.90079,-14.0823 -21.76007,-9.9808 -34.84798,-32.4002 -35.96335,-58.7561 z"
       id="path3373"
       inkscape:connector-curvature="0"
       sodipodi:nodetypes="zsssssssz" />
    <path
       style="color:#000000;display:inline;overflow:visible;visibility:visible;fill:#ffffff;fill-opacity:1;fill-rule:nonzero;stroke:none;stroke-width:1px;marker:none;enable-background:accumulate"
       d="m 653.17027,2853.9321 c 9.91133,-71.4433 85.33335,-96.2842 300.62391,-100.5518 56.30772,-1.1161 151.16032,7.4337 195.37852,24.0922 44.2183,16.6585 69.3963,73.9993 62.7888,126.3501 -13.2151,104.7015 -151.2975,87.2502 -189.2911,88.4821 -37.99357,1.2319 -299.48532,4.6116 -336.9684,-42.9057 -35.94549,-45.5681 -34.1836,-73.2947 -32.53173,-95.4669 z"
       id="path4546"
       inkscape:connector-curvature="0"
       sodipodi:nodetypes="csssssc" />
    <path
       style="color:#000000;display:inline;overflow:visible;visibility:visible;fill:#ffffff;fill-opacity:1;fill-rule:nonzero;stroke:none;stroke-width:1px;marker:none;enable-background:accumulate"
       d="m 847.67224,2985.8994 c 32.61893,-42.4872 210.03646,-38.8602 269.06646,-20.4526 59.0299,18.4073 84.5489,23.4094 83.7401,61.358 -0.7572,35.5277 -19.7934,68.7281 -49.9949,78.9545 -30.2013,10.2263 -101.0118,10.0146 -131.2132,10.0146 -30.20128,0 -126.6106,-6.509 -151.00686,-21.4754 -23.33742,-14.3168 -53.21068,-65.9121 -20.5916,-108.3991 z"
       id="path3330"
       inkscape:connector-curvature="0"
       sodipodi:nodetypes="zsssssz" />
    <path
       style="color:#000000;display:inline;overflow:visible;visibility:visible;fill:#ffffff;fill-opacity:1;fill-rule:nonzero;stroke:none;stroke-width:1px;marker:none;enable-background:accumulate"
       d="m 929.99953,3158.9683 c 39.78505,-10.9584 53.20162,-17.1208 58.43434,-65.1641 5.23266,-48.0433 23.16173,-44.6696 23.16173,-44.6696 l 14.7504,30.3838 c 0,0 -18.3423,101.2684 -96.34647,79.4499 z"
       id="path3072"
       inkscape:connector-curvature="0" />
    <path
       style="fill:#ffffff;fill-rule:evenodd;stroke:none;stroke-width:1.19011px;stroke-linecap:butt;stroke-linejoin:miter;stroke-opacity:1"
       d="m 1891.4963,3244.3497 c 26.6951,3.0138 61.4614,-11.9884 39.8796,-57.3624 38.842,36.3572 75.6369,43.1673 114.3733,3.3648 -5.6625,40.1818 57.6748,43.282 79.3772,16.6936 -6.6217,41.8735 23.8267,43.4888 49.2701,44.8183 -53.8229,51.1924 -25.5599,67.473 -4.352,86.7543 -52.895,-14.2654 -40.1021,14.639 -46.42,30.9838 -45.376,-37.0332 -78.375,-28.2441 -104.4452,6.1967 -13.6349,-18.7298 -17.9148,-57.441 -68.1794,2.0655 18.4836,-51.3712 -5.7442,-45.9791 -44.9694,-20.6555 9.0245,-11.8087 47.0085,-43.3576 -14.5342,-40.5638 9.6103,-4.1585 17.3217,-8.6857 22.7565,-13.655 5.4349,-4.9694 -29.5123,-18.2362 -29.0085,-24.1629 0.5038,-5.9268 36.4588,-4.5135 31.2758,-11.5446 -5.183,-7.031 -13.3983,-14.6507 -25.0238,-22.9328 z"
       id="path4584"
       inkscape:connector-curvature="0"
       sodipodi:nodetypes="cccccccccccsssc" />
    <path
       style="color:#000000;display:inline;overflow:visible;visibility:visible;fill:#ffffff;fill-opacity:1;fill-rule:nonzero;stroke:none;stroke-width:1px;marker:none;enable-background:accumulate"
       d="m 1929.0839,3276.1051 c -26.7744,0.1934 -96.6935,-12.0611 -103.8888,-13.0148 6.0705,-5.4371 10.1298,-10.8932 13.4021,-15.1162 -13.7156,-0.9263 -59.5001,-2.596 -79.7676,1.5975 50.7453,-11.4228 73.8083,-12.6417 95.8809,-9.8645 -2.9601,5.998 -5.8701,9.4267 -7.3188,12.6033 18.7307,6.708 117.9634,8.8349 106.078,1.4065 z"
       id="path5066"
       inkscape:connector-curvature="0"
       sodipodi:nodetypes="cccccccc" />
  </g>
  <g
     inkscape:groupmode="layer"
     id="layer1"
     inkscape:label="txt"
     style="display:inline">
    <text
       xml:space="preserve"
       style="font-style:normal;font-variant:normal;font-weight:normal;font-stretch:normal;line-height:0%;font-family:Lavi;-inkscape-font-specification:Lavi;text-align:center;letter-spacing:0px;word-spacing:0px;text-anchor:middle;fill:#000000;fill-opacity:1;stroke:none"
       x="1177.4561"
       y="1950.6425"
       id="text4246-3-9"><tspan
         sodipodi:role="line"
         style="font-size:45px;line-height:1.25"
         x="1184.4873"
         y="1950.6425"
         id="tspan4183-8">mi tawa tomo tan ni: </tspan></text>
    <text
       xml:space="preserve"
       style="font-style:normal;font-variant:normal;font-weight:normal;font-stretch:normal;line-height:0%;font-family:Lavi;-inkscape-font-specification:Lavi;text-align:center;letter-spacing:0px;word-spacing:0px;text-anchor:middle;fill:#000000;fill-opacity:1;stroke:none"
       x="2132.0017"
       y="2370.491"
       id="text4246"><tspan
         sodipodi:role="line"
         id="tspan69"
         x="1171.6747"
         y="2150.7527"><text
   xml:space="preserve"
   style="font-style:normal;font-variant:normal;font-weight:normal;font-stretch:normal;line-height:1.25;font-family:Lavi;-inkscape-font-specification:Lavi;text-align:center;letter-spacing:0px;word-spacing:0px;text-anchor:middle;fill:#000000;fill-opacity:1;stroke:none"
   x="1169.7997"
   y="2038.2527"
   id="text4246-3"><tspan
     sodipodi:role="line"
     style="font-size:45px;line-height:1.25"
     x="1169.7997"
     y="2094.5027"
     id="tspan73">mi lukin e </tspan><tspan
     sodipodi:role="line"
     style="font-size:45px;line-height:1.25"
     x="1169.7997"
     y="2094.5027"
     id="tspan77">pali sina la, pali ni </tspan><tspan
     sodipodi:role="line"
     style="font-size:45px;line-height:1.25"
     x="1176.8309"
     y="2150.7527"
     id="tspan71">li ante ala... </tspan></text> <tspan
   style="line-height:1.25"
   id="tspan860">   </tspan></tspan></text>
    <text
       xml:space="preserve"
       style="font-style:normal;font-variant:normal;font-weight:normal;font-stretch:normal;line-height:0%;font-family:Lavi;-inkscape-font-specification:Lavi;text-align:center;letter-spacing:0px;word-spacing:0px;text-anchor:middle;fill:#000000;fill-opacity:1;stroke:none"
       x="1244.4561"
       y="2249.5215"
       id="text4246-3-7"><tspan
         sodipodi:role="line"
         style="font-size:45px;line-height:1.25"
         x="1244.4561"
         y="2249.5215"
         id="tspan88">o weka e telo pali ike sina </tspan><tspan
         sodipodi:role="line"
         style="font-size:45px;line-height:1.25"
         x="1244.4561"
         y="2305.7715"
         id="tspan92">lon anpa ma. pini la, </tspan><tspan
         sodipodi:role="line"
         style="font-size:45px;line-height:1.25"
         x="1244.4561"
         y="2362.0215"
         id="tspan94">sina kin o tawa tomo, </tspan><tspan
         sodipodi:role="line"
         style="font-size:45px;line-height:1.25"
         x="1251.4873"
         y="2418.2715"
         id="tspan96">o lape. </tspan></text>
    <text
       xml:space="preserve"
       style="font-style:normal;font-variant:normal;font-weight:normal;font-stretch:normal;line-height:0%;font-family:Lavi;-inkscape-font-specification:Lavi;text-align:center;letter-spacing:0px;word-spacing:0px;text-anchor:middle;fill:#000000;fill-opacity:1;stroke:none"
       x="2103.6384"
       y="2365.1826"
       id="text4246-3-7-6"><tspan
         sodipodi:role="line"
         style="font-size:45px;line-height:1.25"
         x="2103.6384"
         y="2365.1826"
         id="tspan3983">mi wile e ni: sina pini e </tspan><tspan
         sodipodi:role="line"
         style="font-size:45px;line-height:1.25"
         x="2103.6384"
         y="2421.4326"
         id="tspan113">ale lon tenpo suno kama. </tspan><tspan
         sodipodi:role="line"
         style="font-size:45px;line-height:1.25"
         x="2103.6384"
         y="2477.6826"
         id="tspan109">mi pilin e ni: sina pini ala e </tspan><tspan
         sodipodi:role="line"
         style="font-size:45px;line-height:1.25"
         x="2103.6384"
         y="2533.9326"
         id="tspan115">ale. taso ken li ken!</tspan></text>
    <text
       xml:space="preserve"
       style="font-style:normal;font-variant:normal;font-weight:normal;font-stretch:normal;line-height:0%;font-family:Lavi;-inkscape-font-specification:Lavi;text-align:center;letter-spacing:0px;word-spacing:0px;text-anchor:middle;fill:#000000;fill-opacity:1;stroke:none"
       x="775.45044"
       y="2707.4324"
       id="text4246-3-7-6-7"><tspan
         sodipodi:role="line"
         style="font-size:45px;line-height:1.25"
         x="775.45044"
         y="2707.4324"
         id="tspan4515">mi kute,</tspan><tspan
         sodipodi:role="line"
         style="font-size:45px;line-height:1.25"
         x="782.48169"
         y="2763.6824"
         id="tspan3987">mi pali mute! </tspan></text>
    <text
       xml:space="preserve"
       style="font-style:normal;font-variant:normal;font-weight:normal;font-stretch:normal;line-height:0%;font-family:Lavi;-inkscape-font-specification:Lavi;text-align:center;letter-spacing:0px;word-spacing:0px;text-anchor:middle;fill:#000000;fill-opacity:1;stroke:none"
       x="942.81274"
       y="2838.0046"
       id="text4246-3-7-6-7-0"><tspan
         sodipodi:role="line"
         style="font-size:45px;line-height:1.25"
         x="942.81274"
         y="2838.0046"
         id="tspan128">taso, mi wile sona e ni: </tspan><tspan
         sodipodi:role="line"
         style="font-size:45px;line-height:1.25"
         x="942.81274"
         y="2894.2546"
         id="tspan135">mi <tspan
   style="font-weight:bold"
   id="tspan130">weka ale lon anpa ma</tspan> </tspan><tspan
         sodipodi:role="line"
         style="font-size:45px;line-height:1.25"
         x="949.84399"
         y="2950.5046"
         id="tspan126">lon tenpo ale tan seme? </tspan></text>
    <text
       xml:space="preserve"
       style="font-style:normal;font-variant:normal;font-weight:normal;font-stretch:normal;line-height:0%;font-family:Lavi;-inkscape-font-specification:Lavi;text-align:center;letter-spacing:0px;word-spacing:0px;text-anchor:middle;fill:#000000;fill-opacity:1;stroke:none"
       x="1026.5442"
       y="3025.0105"
       id="text4246-3-7-6-7-0-9"><tspan
         sodipodi:role="line"
         style="font-size:45px;line-height:1.25"
         x="1026.5442"
         y="3025.0105"
         id="tspan4782">mi pilin e ni: </tspan><tspan
         sodipodi:role="line"
         style="font-size:45px;line-height:1.25"
         x="1033.5754"
         y="3081.2605"
         id="tspan140">pona la... </tspan></text>
    <text
       xml:space="preserve"
       style="font-style:normal;font-variant:normal;font-weight:normal;font-stretch:normal;line-height:0%;font-family:Lavi;-inkscape-font-specification:Lavi;text-align:center;letter-spacing:0px;word-spacing:0px;text-anchor:middle;fill:#000000;fill-opacity:1;stroke:none"
       x="2029.533"
       y="3269.2891"
       id="text4246-3-7-6-7-0-9-3"><tspan
         sodipodi:role="line"
         style="font-size:45px;line-height:1.25"
         x="2029.533"
         y="3269.2891"
         id="tspan142">pona la <tspan
   style="stroke:#000000;stroke-width:2.6;stroke-miterlimit:4;stroke-dasharray:none;stroke-opacity:1"
   id="tspan4493" /></tspan><tspan
         sodipodi:role="line"
         style="font-size:45px;line-height:1.25"
         x="2029.533"
         y="3325.5391"
         id="tspan147"><tspan
   style="stroke:#000000;stroke-width:2.6;stroke-miterlimit:4;stroke-dasharray:none;stroke-opacity:1"
   id="tspan149">SEME</tspan>?</tspan></text>
  </g>
</svg>
