<?xml version="1.0" encoding="UTF-8" standalone="no"?>
<!-- Created with Inkscape (http://www.inkscape.org/) -->

<svg
   xmlns:dc="http://purl.org/dc/elements/1.1/"
   xmlns:cc="http://creativecommons.org/ns#"
   xmlns:rdf="http://www.w3.org/1999/02/22-rdf-syntax-ns#"
   xmlns:svg="http://www.w3.org/2000/svg"
   xmlns="http://www.w3.org/2000/svg"
   xmlns:xlink="http://www.w3.org/1999/xlink"
   xmlns:sodipodi="http://sodipodi.sourceforge.net/DTD/sodipodi-0.dtd"
   xmlns:inkscape="http://www.inkscape.org/namespaces/inkscape"
   id="svg2"
   version="1.1"
   inkscape:version="0.92.3 (2405546, 2018-03-11)"
   width="2481"
   height="3503"
   sodipodi:docname="E32P02.svg">
  <metadata
     id="metadata8">
    <rdf:RDF>
      <cc:Work
         rdf:about="">
        <dc:format>image/svg+xml</dc:format>
        <dc:type
           rdf:resource="http://purl.org/dc/dcmitype/StillImage" />
        <dc:title />
      </cc:Work>
    </rdf:RDF>
  </metadata>
  <defs
     id="defs6" />
  <sodipodi:namedview
     pagecolor="#ffffff"
     bordercolor="#666666"
     borderopacity="1"
     objecttolerance="10"
     gridtolerance="10"
     guidetolerance="10"
     inkscape:pageopacity="0"
     inkscape:pageshadow="2"
     inkscape:window-width="1920"
     inkscape:window-height="1017"
     id="namedview4"
     showgrid="false"
     inkscape:zoom="0.46000001"
     inkscape:cx="1292.9602"
     inkscape:cy="3221.2628"
     inkscape:window-x="-8"
     inkscape:window-y="-8"
     inkscape:window-maximized="1"
     inkscape:current-layer="layer3"
     inkscape:snap-global="false" />
  <g
     inkscape:groupmode="layer"
     id="layer2"
     inkscape:label="artwork"
     sodipodi:insensitive="true">
    <image
       sodipodi:absref="C:\Users\ruden\Desktop\lang\ru\../gfx_Pepper-and-Carrot_by-David-Revoy_E32P02.png"
       xlink:href="../gfx_Pepper-and-Carrot_by-David-Revoy_E32P02.png"
       y="0"
       x="0"
       id="image10"
       height="3503"
       width="2481" />
  </g>
  <g
     inkscape:groupmode="layer"
     id="layer3"
     inkscape:label="speechbubbles"
     style="display:inline">
    <path
       style="color:#000000;display:inline;overflow:visible;visibility:visible;fill:#ffffff;fill-opacity:1;fill-rule:nonzero;stroke:none;stroke-width:1.02949166px;marker:none;enable-background:accumulate"
       d="m 309.47261,231.7097 c 6.03831,-11.91191 31.50249,-10.35714 40.51446,-6.88777 -17.06971,-15.76338 -15.33939,-24.29557 10.35224,-23.01859 -39.68748,-29.32322 -5.17932,-21.96956 2.51095,-27.58853 -32.53573,-12.03499 -16.16093,-21.19366 -8.84591,-31.23081 -38.58595,-4.31913 -23.80964,-20.09598 -23.73843,-33.85861 -4.07246,6.04503 -22.05909,23.87538 -20.292,2.15371 -28.13159,18.01788 -60.57498,28.19627 -58.50541,-8.16064 -12.56613,17.11068 -23.7904,23.73765 -20.29207,2.1537 -29.03138,25.56728 -50.68705,13.0793 -72.75091,2.75558 -7.11952,7.88519 -9.45843,20.87834 -28.66963,15.81142 1.69358,8.71095 -5.64651,13.82885 -21.01721,15.74111 19.21709,7.12336 22.2195,12.74994 -15.350779,14.63056 27.982799,3.41721 54.000619,7.21359 18.680979,23.12231 10.26642,1.52313 36.77376,-12.05491 19.46829,33.84865 19.6378,-13.25277 39.61953,-19.63185 59.42856,14.36509 13.21336,-14.61943 33.68792,-20.42829 39.70872,0.13771 4.09868,-8.08563 17.13617,-9.94983 27.91678,-9.23486 3.73339,3.76064 7.44767,8.7291 11.1727,15.12224 8.85902,-11.71675 20.8327,-19.01709 39.70867,0.13773 z"
       id="path3549-3-7-5"
       inkscape:connector-curvature="0"
       sodipodi:nodetypes="cccccccccccccccccccc" />
    <path
       style="color:#000000;display:inline;overflow:visible;visibility:visible;fill:#ffffff;fill-opacity:1;fill-rule:nonzero;stroke:none;stroke-width:0.84355038px;marker:none;enable-background:accumulate"
       d="m 494.54713,132.24869 c -43.36645,1.21762 -87.07806,8.35174 -126.39412,24.90527 -27.16622,12.27709 -45.41393,37.32022 -49.09939,63.71062 -4.40338,24.78382 -0.12028,51.25551 14.89077,72.85152 10.22415,12.14874 25.81988,19.27936 40.31304,26.78889 23.89633,12.55907 49.69504,23.36919 77.52826,26.81961 31.47768,4.56408 63.53486,3.52439 95.26928,2.27298 28.57369,-1.87889 57.49759,-7.92148 81.77996,-21.74341 26.47283,-14.73484 47.47006,-37.89147 55.02079,-64.83303 6.77172,-23.67054 4.13917,-49.94224 -10.24414,-71.11816 C 662.02524,175.08847 642.58646,163.58744 622.05321,156.53946 587.08195,144.05957 550.34024,134.21 512.4345,132.43485 c -5.95564,-0.27837 -11.92611,-0.37487 -17.88737,-0.18616 z"
       id="path3970-3"
       inkscape:connector-curvature="0"
       sodipodi:nodetypes="cccscsc" />
    <path
       style="color:#000000;display:inline;overflow:visible;visibility:visible;fill:#ffffff;fill-opacity:1;fill-rule:nonzero;stroke:none;stroke-width:1px;marker:none;enable-background:accumulate"
       d="m 577.63531,468.51204 c 24.15675,-46.43871 15.15598,-67.79787 10.19676,-83.83511 -5.04081,0.18752 -14.08073,-1.23448 -14.08073,-1.23448 0,0 -7.00281,-32.37916 -13.50272,-43.8635 -6.49993,-11.48435 -19.9552,-4.33851 -19.9552,-4.33851 0,0 12.13026,63.2638 10.96525,77.57434 13.78917,-1.09946 20.70461,0.20644 25.45323,-2.31613 5.66701,8.19382 8.96155,41.29633 0.92341,58.01339 z"
       id="path4456-8"
       inkscape:connector-curvature="0" />
    <path
       style="color:#000000;display:inline;overflow:visible;visibility:visible;opacity:1;fill:#ffffff;fill-opacity:1;fill-rule:nonzero;stroke:none;stroke-width:0.81998831px;marker:none;enable-background:accumulate"
       d="m 817.68634,616.56574 c 30.39576,-34.73488 214.01606,-45.64103 263.46516,10.23069 34.4611,38.93654 25.5548,100.25582 -8.3705,133.0428 -32.8736,31.77053 -172.14296,24.9128 -212.67387,15.0134 -36.44759,-8.90098 -74.70469,-28.06114 -76.72168,-79.05679 -0.82312,-20.81283 3.90514,-44.49523 34.30089,-79.2301 z"
       id="path4040-5"
       inkscape:connector-curvature="0"
       sodipodi:nodetypes="zssssz" />
    <path
       style="color:#000000;display:inline;overflow:visible;visibility:visible;fill:#ffffff;fill-opacity:1;fill-rule:nonzero;stroke:none;stroke-width:1px;marker:none;enable-background:accumulate"
       d="m 1172.2087,638.16525 c -22.426,10.78245 -21.9205,17.27525 -23.5228,31.76828 -1.6032,14.49315 -6.5002,31.6111 -27.1248,48.30404 -30.1996,17.58679 -94.1328,69.98654 -71.7029,5.83439 5.3345,-23.46958 48.5109,-22.99772 64.4153,-32.38817 15.9045,-9.39055 14.6245,-34.55514 25.6984,-44.48017 11.0738,-9.92492 18.2375,-9.80409 32.2368,-9.03837 z"
       id="path4538-0"
       inkscape:connector-curvature="0"
       sodipodi:nodetypes="ccccccc" />
    <path
       style="fill:#ffffff;stroke:none;stroke-width:0.88384742"
       d="m 756.26435,557.50653 c -9.60492,-26.81841 16.5275,-60.89912 133.80407,-60.92496 123.16328,-0.0269 145.90778,17.50239 147.32068,61.78874 1.8023,56.48897 -67.63757,58.62673 -140.37404,59.74905 -111.74809,1.72427 -140.14895,-20.76104 -140.75071,-60.61283 z"
       id="path3280-10"
       inkscape:connector-curvature="0"
       sodipodi:nodetypes="csssc" />
    <path
       style="display:inline;fill:#ffffff;fill-rule:evenodd;stroke:none;stroke-width:1.01106095px;stroke-linecap:butt;stroke-linejoin:miter;stroke-opacity:1"
       d="m 1409.8779,2561.8415 c 1.1689,83.5342 -37.612,98.8759 -105.6944,64.1999 20.8463,50.4348 45.1378,104.9194 -8.2899,68.0394 34.5802,45.5015 19.9692,57.3907 -29.0141,45.797 43.4525,41.668 19.0498,65.7375 -22.7968,85.2807 28.0514,0.1263 50.859,2.737 68.1709,7.9492 -29.0603,12.9115 -53.5039,12.9302 -53.5039,12.9302 0,0 27.9633,8.9734 40.6377,20.8521 4.8269,8.5392 -1.2033,19.6217 -26.7671,2.9271 0,0 7.2319,10.7046 10.2809,16.6899 -8.1764,-1.2395 -14.9521,-6.2296 -37.5886,-21.8695 25.8809,27.4954 38.6953,48.7919 1.6312,46.4305 17.7107,20.4458 5.0703,23.2697 -15.218,21.6491 33.7565,14.5988 15.5458,17.0787 20.6746,22.3546 37.9938,44.9297 -9.4714,28.2264 -25.8036,37.9578 83.4026,26.9262 54.2985,39.1354 45.5476,54.0079 57.5084,-5.1914 -13.5473,50.0842 -32.1115,88.5171 43.784,-35.5444 74.2535,-58.9218 56.31,-11.0543 47.4095,-42.9433 39.259,-22.8887 26.0313,2.9226 27.2283,-23.4675 35.1909,-14.178 11.5782,48.7958 35.296,-50.6626 69.6398,-98.0035 77.1934,-51.7542 39.6031,-23.7402 44.8085,-13.8014 48.4607,-2.3453 66.861,-26.0061 49.5757,-5.3429 53.8476,3.3668 14.4071,-1.3786 31.7297,-16.0422 37.4895,21.9921 22.2037,-28.6449 48.8505,-39.1861 88.4602,3.0805 15.4207,-47.0332 29.4521,-37.7428 54.3046,20.3094 3.4724,-89.2234 41.9011,-103.5157 105.9661,-62.8495 -17.4212,-54.951 -29.5565,-61.966 20.1853,-19.7339 -31.0021,-50.4225 -16.1875,-62.3293 30.6414,-47.3254 -39.8113,-46.8072 -14.8376,-71.1872 26.792,-89.8005 -21.5498,-1.3009 -39.8153,-4.0916 -54.6801,-8.4274 -0.8958,-2.6733 6.3189,-10.7057 28.2025,-14.1092 -30.6986,0.5726 -27.4742,-3.5972 -25.8586,-13.5789 2.4513,-9.9973 14.2104,-7.7407 51.5452,-1.8991 -21.7772,-14.0619 -63.4349,-29.6997 -17.5786,-33.5784 -23.9583,-12.3204 -15.3606,-37.151 40.0504,-6.2801 -28.092,-24.3476 -42.4085,-43.5818 -4.1449,-43.2938 -19.3106,-18.1844 -6.4551,-21.4749 14.5071,-21.0108 -35.5104,-11.8917 -16.9037,-15.152 -22.4615,-19.8155 -41.4824,-40.0081 8.2456,-26.859 24.5338,-36.7955 -87.2504,-20.8391 -57.9523,-33.7524 -49.7385,-48.0995 -58.8986,7.8258 30.5239,-74.9912 64.2456,-123.7687 -67.4145,66.3933 -109.1792,98.301 -93.2597,52.6535 -46.5009,42.572 -39.1809,23.4156 -26.9418,-1.3823 -26.77,23.3328 -35.4571,15.0663 -14.507,-44.9872 -33.6263,49.1566 -66.4501,95.1605 -76.6803,52.3443 -39.489,24.2281 -45.3717,15.2128 -49.7387,4.6992 -67.416,27.7555 -50.7279,7.5559 -55.5865,-0.3597 -14.7515,2.0334 -31.7977,16.6301 -39.7458,-18.6044 -21.3245,27.9098 -48.1837,39.1375 -91.1873,1.7008 -13.3681,44.7375 -35.9088,24.963 -68.3906,-64.7244 z"
       id="path4508-2"
       inkscape:connector-curvature="0"
       sodipodi:nodetypes="ccccccccccccccccccccccccccccccccccccccccccccccccccc" />
    <path
       style="color:#000000;display:inline;overflow:visible;visibility:visible;fill:#ffffff;fill-opacity:1;fill-rule:nonzero;stroke:none;stroke-width:0.99999988px;marker:none;enable-background:accumulate"
       d="m 1159.215,2912.3636 c 24.9289,15.9696 53.0046,32.3355 73.7186,51.7212 l -4.4671,-22.5612 c 12.3017,3.6243 20.5576,9.2984 29.8695,16.4802 l 0.282,-14.4184 c 28.8782,8.8394 47.895,25.3613 71.6781,38.17 l -1.1627,-32.9839 c -26.1704,-10.6456 -58.8089,-18.5611 -82.5747,-33.2158 l 0.2558,18.7223 c -9.1838,-4.1156 -21.518,-9.7867 -29.518,-15.5652 l 2.2339,19.9359 z"
       id="path4032-7"
       inkscape:connector-curvature="0"
       sodipodi:nodetypes="cccccccccccc" />
    <path
       style="fill:#ffffff;fill-rule:evenodd;stroke:none;stroke-width:1px;stroke-linecap:butt;stroke-linejoin:miter;stroke-opacity:1"
       d="m 1753.7087,204.34351 c 1.185,-20.50278 15.4056,-58.09068 36.7365,-64.92493 21.3308,-6.83426 80.5831,-6.83426 92.4336,-3.41661 11.8505,3.41661 30.8112,28.4752 35.5515,38.72712 4.7402,10.25086 17.7757,46.69954 -3.5551,61.50728 -21.3309,14.80774 -42.6617,26.19782 -65.1777,25.0586 -22.5159,-1.13922 -67.5477,-9.1127 -78.2131,-22.78016 -10.6654,-13.66852 -17.7757,-34.1713 -17.7757,-34.1713 z"
       id="path1355"
       inkscape:connector-curvature="0" />
    <path
       style="fill:#ffffff;stroke:none"
       d="m 1847.3696,354.09054 c -13.8328,-28.3217 -7.9502,-36.13851 -0.501,-44.49778 7.4497,-8.36018 15.1632,-15.13458 14.5125,-22.36198 -0.6506,-7.22728 -5.6372,-15.60621 -10.1839,-21.34253 -4.5468,-5.73632 4.0413,-9.66514 7.9076,-16.31667 3.8657,-6.6508 10.7042,-47.80659 10.7042,-47.80659 0,0 -26.0852,17.5715 -32.236,25.43439 -6.1509,7.86277 -8.4405,10.70667 -10.0173,14.51431 -1.5759,3.80696 -4.0646,13.75357 -0.9533,20.82655 3.1118,7.07218 9.494,12.21912 13.0595,17.0376 3.5649,4.81933 -1.3116,12.15392 -5.5827,19.6909 -4.2712,7.53691 -6.1414,13.7099 -2.3508,27.83912 3.2494,12.11102 15.6412,26.98268 15.6412,26.98268 z"
       id="path3023-4"
       inkscape:connector-curvature="0"
       sodipodi:nodetypes="csssscssssssc" />
    <path
       style="color:#000000;display:inline;overflow:visible;visibility:visible;fill:#ffffff;fill-opacity:1;fill-rule:nonzero;stroke:none;stroke-width:1px;marker:none;enable-background:accumulate"
       d="m 1776.3464,1315.529 c 3.2527,-11.321 20.627,-46.387 25.7118,-9.291 37.4381,-49.672 83.6395,-32.169 93.8806,-24.931 -4.7258,-14.705 4.8022,-41.137 32.0153,-34.638 -5.1706,-14.206 2.6362,-24.873 22.022,-32.381 -27.4731,-6.646 -33.2796,-15.291 15.0553,-28.938 -37.6389,2.046 -72.8702,2.901 -32.2408,-33.757 -13.9008,0.297 -43.8343,30.571 -36.8893,-51.608 -21.0909,27.809 -44.9596,44.128 -82.345,-7.637 -7.5628,22.215 -20.6761,37.852 -51.7969,10.837 -3.8196,21.757 -37.5549,26.216 -50.4824,22.884 27.6128,21.802 28.2717,36.657 -5.6527,41.671 61.708,38.345 14.2263,35.6 6.113,47.213 46.5049,11.207 28.2717,31.183 22.1502,50.136 51.7672,-3.483 37.8708,27.229 42.4589,50.44 z"
       id="path3549-3-8"
       inkscape:connector-curvature="0"
       sodipodi:nodetypes="ccccccccccccccc" />
    <path
       style="color:#000000;display:inline;overflow:visible;visibility:visible;fill:#ffffff;fill-opacity:1;fill-rule:nonzero;stroke:none;stroke-width:1px;marker:none;enable-background:accumulate"
       d="m 1862.3291,1246.0499 c 14.3861,24.2296 28.6134,53.9163 31.3484,61.3263 -9.104,1.8541 -16.3446,4.7584 -22.9617,5.3139 6.2417,13.3724 31.8119,68.3466 45.0873,79.3414 -33.7825,-25.8525 -61.563,-70.2493 -70.1237,-92.8544 8.499,-2.3387 14.007,-2.5569 18.4447,-3.9047 -3.7254,-11.4708 -23.6989,-46.1206 -23.6989,-46.1206 z"
       id="path5066-8"
       inkscape:connector-curvature="0"
       sodipodi:nodetypes="cccccccc" />
    <path
       style="fill:#ffffff;stroke:none;stroke-width:0.94609624"
       d="m 585.04713,1474.1909 c -1.37338,-24.3215 23.25103,-85.2092 143.36788,-80.6297 120.11691,4.5795 157.71158,31.3335 161.23156,74.5656 5.56834,68.3924 -57.625,86.6688 -148.365,91.7352 -93.54306,5.2219 -157.68622,-41.7245 -156.23444,-85.6711 z"
       id="path3280-7"
       inkscape:connector-curvature="0"
       sodipodi:nodetypes="csssc" />
    <path
       style="color:#000000;display:inline;overflow:visible;visibility:visible;fill:#ffffff;fill-opacity:1;fill-rule:nonzero;stroke:none;stroke-width:1px;marker:none;enable-background:accumulate"
       d="m 869.08895,1636.9955 c -67.24677,1.2844 -93.00504,-48.0053 -100.0269,-87.4546 -9.92573,-55.7646 -2.09042,-31.0329 -2.09042,-31.0329 l -33.99104,26.0816 c -4.43616,0.2077 36.58553,127.7062 136.10836,92.4059 z"
       id="path3072-12"
       inkscape:connector-curvature="0"
       sodipodi:nodetypes="csccc" />
    <path
       style="fill:#ffffff;fill-rule:evenodd;stroke:none;stroke-width:1.18301105px;stroke-linecap:butt;stroke-linejoin:miter;stroke-opacity:1"
       d="m 542.83913,1378.9971 c 1.5126,-19.455 19.66403,-55.122 46.89131,-61.607 27.22716,-6.485 102.85822,-6.485 117.98445,-3.242 15.12624,3.242 39.3282,27.02 45.37872,36.748 6.05052,9.727 22.68936,44.313 -4.53779,58.364 -27.22729,14.051 -54.45443,24.859 -83.19432,23.778 -28.73988,-1.081 -86.21951,-8.647 -99.83301,-21.616 -13.61364,-12.97 -22.68936,-32.425 -22.68936,-32.425 z"
       id="path1355-3"
       inkscape:connector-curvature="0" />
  </g>
  <g
     inkscape:groupmode="layer"
     id="layer1"
     inkscape:label="txt">
    <text
       xml:space="preserve"
       style="font-style:normal;font-variant:normal;font-weight:normal;font-stretch:normal;line-height:0%;font-family:Lavi;-inkscape-font-specification:Lavi;text-align:center;letter-spacing:0px;word-spacing:0px;text-anchor:middle;fill:#000000;fill-opacity:1;stroke:none"
       x="232.91664"
       y="180.37326"
       id="text4246-3-3"><tspan
         sodipodi:role="line"
         style="font-style:normal;font-variant:normal;font-weight:bold;font-stretch:normal;font-size:45px;line-height:1.25;font-family:Lavi;-inkscape-font-specification:'Lavi Bold'"
         x="232.91664"
         y="180.37326"
         id="tspan852">Капитан!</tspan></text>
    <text
       xml:space="preserve"
       style="font-style:normal;font-variant:normal;font-weight:normal;font-stretch:normal;line-height:0%;font-family:Lavi;-inkscape-font-specification:Lavi;text-align:center;letter-spacing:0px;word-spacing:0px;text-anchor:middle;fill:#000000;fill-opacity:1;stroke:none"
       x="507.19189"
       y="191.54291"
       id="text4246-3-5-9"><tspan
         sodipodi:role="line"
         style="font-size:45px;line-height:1.25"
         x="507.19189"
         y="191.54291"
         id="tspan868">Вы наняли</tspan><tspan
         sodipodi:role="line"
         style="font-size:45px;line-height:1.25"
         x="507.19189"
         y="247.79291"
         id="tspan874">ведьму,</tspan><tspan
         sodipodi:role="line"
         style="font-size:45px;line-height:1.25"
         x="507.19189"
         y="304.04291"
         id="tspan876">как я просил?</tspan></text>
    <text
       xml:space="preserve"
       style="font-style:normal;font-variant:normal;font-weight:normal;font-stretch:normal;line-height:0%;font-family:Lavi;-inkscape-font-specification:Lavi;text-align:center;letter-spacing:0px;word-spacing:0px;text-anchor:middle;fill:#000000;fill-opacity:1;stroke:none"
       x="900.8006"
       y="572.71637"
       id="text4246-1-6"><tspan
         sodipodi:role="line"
         style="font-style:normal;font-variant:normal;font-weight:normal;font-stretch:normal;font-size:45px;line-height:1.25;font-family:Lavi;-inkscape-font-specification:Lavi"
         x="900.8006"
         y="572.71637"
         id="tspan915">Да, милорд!</tspan></text>
    <text
       xml:space="preserve"
       style="font-style:normal;font-variant:normal;font-weight:normal;font-stretch:normal;line-height:0%;font-family:Lavi;-inkscape-font-specification:Lavi;text-align:center;letter-spacing:0px;word-spacing:0px;text-anchor:middle;display:inline;fill:#000000;fill-opacity:1;stroke:none"
       x="945.81696"
       y="664.9931"
       id="text4246-7-6-1-7-6-3-5"><tspan
         sodipodi:role="line"
         style="font-size:45px;line-height:1.25"
         x="945.81696"
         y="664.9931"
         id="tspan931">Она стоит</tspan><tspan
         sodipodi:role="line"
         style="font-size:45px;line-height:1.25"
         x="945.81696"
         y="721.2431"
         id="tspan899">рядом с вами.</tspan></text>
    <text
       xml:space="preserve"
       style="font-style:normal;font-variant:normal;font-weight:normal;font-stretch:normal;font-size:15.90748692px;line-height:0%;font-family:Lavi;-inkscape-font-specification:Lavi;text-align:center;letter-spacing:0px;word-spacing:0px;text-anchor:middle;fill:#000000;fill-opacity:1;stroke:none;stroke-width:0.99999988"
       x="1859.6963"
       y="214.15907"
       id="text4246-86-3-3"
       transform="scale(0.98795945,1.0121873)"><tspan
         sodipodi:role="line"
         style="font-size:59.65306854px;line-height:1.20000005;stroke-width:0.99999988"
         x="1859.6963"
         y="214.15907"
         id="tspan1044-3"><tspan
           style="font-style:normal;font-variant:normal;font-weight:bold;font-stretch:normal;font-family:Lavi;-inkscape-font-specification:'Lavi Bold';stroke-width:0.99999988"
           id="tspan1046-9">...?</tspan></tspan></text>
    <text
       xml:space="preserve"
       style="font-style:normal;font-variant:normal;font-weight:normal;font-stretch:normal;line-height:0%;font-family:Lavi;-inkscape-font-specification:Lavi;text-align:center;letter-spacing:0px;word-spacing:0px;text-anchor:middle;fill:#000000;fill-opacity:1;stroke:none"
       x="655.01514"
       y="1381.2814"
       id="text4246-3-7-7-6-7-2-9-6-1-4"><tspan
         sodipodi:role="line"
         style="font-size:45px;line-height:1.20000005"
         x="655.01514"
         y="1381.2814"
         id="tspan1183-0">Привет!</tspan></text>
    <text
       xml:space="preserve"
       style="font-style:normal;font-variant:normal;font-weight:normal;font-stretch:normal;line-height:0%;font-family:Lavi;-inkscape-font-specification:Lavi;text-align:center;letter-spacing:0px;word-spacing:0px;text-anchor:middle;fill:#000000;fill-opacity:1;stroke:none"
       x="742.65729"
       y="1457.2035"
       id="text4246-7-5"><tspan
         sodipodi:role="line"
         style="font-size:45px;line-height:1.25"
         x="742.65729"
         y="1457.2035"
         id="tspan1089">Меня</tspan><tspan
         sodipodi:role="line"
         style="font-size:45px;line-height:1.25"
         x="742.65729"
         y="1513.4535"
         id="tspan901">зовут Пепп...</tspan></text>
    <text
       xml:space="preserve"
       style="font-style:normal;font-variant:normal;font-weight:normal;font-stretch:normal;line-height:0%;font-family:Lavi;-inkscape-font-specification:Lavi;text-align:center;letter-spacing:0px;word-spacing:0px;text-anchor:middle;display:inline;fill:#000000;fill-opacity:1;stroke:none"
       x="2271.7188"
       y="1112.7358"
       id="text4246-2-3-1-3-9-9-7"
       transform="matrix(0.89365154,0,-0.19329856,1.1190044,0,0)"><tspan
         sodipodi:role="line"
         style="font-size:104.29582214px;line-height:1.25;letter-spacing:-5px"
         x="2269.2188"
         y="1112.7358"
         id="tspan4161-6">?!!</tspan></text>
    <text
       xml:space="preserve"
       style="font-style:normal;font-variant:normal;font-weight:normal;font-stretch:normal;font-size:28.73172379px;line-height:0%;font-family:Lavi;-inkscape-font-specification:Lavi;text-align:center;letter-spacing:29.10897446px;word-spacing:0px;text-anchor:middle;fill:#000000;fill-opacity:1;stroke:none;stroke-width:1"
       x="2275.8645"
       y="2640.0872"
       id="text4246-6-6-3-6"
       transform="matrix(0.94427779,0,-0.21829887,1.0590104,0,0)"><tspan
         sodipodi:role="line"
         style="font-style:normal;font-variant:normal;font-weight:bold;font-stretch:normal;font-size:107.74396515px;line-height:1.20000005;font-family:Lavi;-inkscape-font-specification:'Lavi Bold';letter-spacing:4px;stroke-width:1"
         x="2277.8645"
         y="2640.0872"
         id="tspan4252-00-4-7-3">ГЛУПЕЦ!!!</tspan></text>
    <text
       xml:space="preserve"
       style="font-style:normal;font-variant:normal;font-weight:normal;font-stretch:normal;font-size:14.11471462px;line-height:0%;font-family:Lavi;-inkscape-font-specification:Lavi;text-align:center;letter-spacing:14.30004215px;word-spacing:0px;text-anchor:middle;fill:#000000;fill-opacity:1;stroke:none;stroke-width:1"
       x="1637.6649"
       y="2724.7988"
       id="text4246-6-3"
       transform="scale(0.94973823,1.0529217)"><tspan
         sodipodi:role="line"
         style="font-style:normal;font-variant:normal;font-weight:bold;font-stretch:normal;font-size:52.9301796px;line-height:1.20000005;font-family:Lavi;-inkscape-font-specification:'Lavi Bold';letter-spacing:0.90000004px;stroke-width:1"
         x="1638.1149"
         y="2724.7988"
         id="tspan1117">Зачем ты</tspan><tspan
         sodipodi:role="line"
         style="font-style:normal;font-variant:normal;font-weight:bold;font-stretch:normal;font-size:52.9301796px;line-height:1.20000005;font-family:Lavi;-inkscape-font-specification:'Lavi Bold';letter-spacing:0.90000004px;stroke-width:1"
         x="1638.1149"
         y="2788.3149"
         id="tspan903">завербовал это дитя?!</tspan></text>
    <text
       xml:space="preserve"
       style="font-style:normal;font-variant:normal;font-weight:normal;font-stretch:normal;font-size:14.11471462px;line-height:0%;font-family:Lavi;-inkscape-font-specification:Lavi;text-align:center;letter-spacing:14.30004215px;word-spacing:0px;text-anchor:middle;fill:#000000;fill-opacity:1;stroke:none;stroke-width:1"
       x="1626.6107"
       y="2846.6843"
       id="text4246-6-3-4"
       transform="scale(0.94973823,1.0529217)"><tspan
         sodipodi:role="line"
         style="font-style:normal;font-variant:normal;font-weight:bold;font-stretch:normal;font-size:52.9301796px;line-height:1.20000005;font-family:Lavi;-inkscape-font-specification:'Lavi Bold';letter-spacing:0.90000004px;stroke-width:1"
         x="1627.0607"
         y="2846.6843"
         id="tspan1142">Мне нужна настоящая</tspan><tspan
         sodipodi:role="line"
         style="font-style:normal;font-variant:normal;font-weight:bold;font-stretch:normal;font-size:52.9301796px;line-height:1.20000005;font-family:Lavi;-inkscape-font-specification:'Lavi Bold';letter-spacing:0.90000004px;stroke-width:1"
         x="1627.0607"
         y="2910.2004"
         id="tspan905"> боевая ведьма!</tspan></text>
    <text
       xml:space="preserve"
       style="font-style:normal;font-weight:normal;font-size:40px;line-height:1.25;font-family:sans-serif;letter-spacing:0px;word-spacing:0px;fill:#000000;fill-opacity:1;stroke:none"
       x="902.17389"
       y="731.26093"
       id="text882"><tspan
         sodipodi:role="line"
         id="tspan880"
         x="902.17389"
         y="766.65155"></tspan></text>
    <text
       xml:space="preserve"
       style="font-style:normal;font-weight:normal;font-size:40px;line-height:1.25;font-family:sans-serif;letter-spacing:0px;word-spacing:0px;fill:#000000;fill-opacity:1;stroke:none"
       x="771.73914"
       y="1483.4348"
       id="text891"><tspan
         sodipodi:role="line"
         id="tspan889"
         x="771.73914"
         y="1518.8254"></tspan></text>
  </g>
</svg>
