<?xml version="1.0" encoding="UTF-8" standalone="no"?>
<!-- Created with Inkscape (http://www.inkscape.org/) -->

<svg
   id="svg2"
   version="1.1"
   inkscape:version="1.3 (0e150ed6c4, 2023-07-21)"
   width="2481"
   height="3503"
   sodipodi:docname="E17P01.svg"
   xmlns:inkscape="http://www.inkscape.org/namespaces/inkscape"
   xmlns:sodipodi="http://sodipodi.sourceforge.net/DTD/sodipodi-0.dtd"
   xmlns:xlink="http://www.w3.org/1999/xlink"
   xmlns="http://www.w3.org/2000/svg"
   xmlns:svg="http://www.w3.org/2000/svg"
   xmlns:rdf="http://www.w3.org/1999/02/22-rdf-syntax-ns#"
   xmlns:cc="http://creativecommons.org/ns#"
   xmlns:dc="http://purl.org/dc/elements/1.1/">
  <sodipodi:namedview
     pagecolor="#ffffff"
     bordercolor="#666666"
     inkscape:pageopacity="0"
     inkscape:pageshadow="2"
     inkscape:window-width="1888"
     inkscape:window-height="1144"
     id="namedview70"
     showgrid="false"
     inkscape:zoom="0.4"
     inkscape:cx="1452.5"
     inkscape:cy="2582.5"
     inkscape:current-layer="layer1"
     inkscape:window-x="32"
     inkscape:window-y="0"
     inkscape:window-maximized="1"
     borderopacity="1"
     inkscape:showpageshadow="0"
     inkscape:pagecheckerboard="0"
     inkscape:deskcolor="#d1d1d1" />
  <metadata
     id="metadata8">
    <rdf:RDF>
      <cc:Work
         rdf:about="">
        <dc:format>image/svg+xml</dc:format>
        <dc:type
           rdf:resource="http://purl.org/dc/dcmitype/StillImage" />
        <dc:title />
      </cc:Work>
    </rdf:RDF>
  </metadata>
  <defs
     id="defs6">
    <filter
       style="color-interpolation-filters:sRGB"
       id="filter4375-4-1-1-1"
       inkscape:label="deevad outline effect"
       x="-0.019674984"
       y="-0.046761007"
       width="1.03935"
       height="1.093522">
      <feFlood
         id="feFlood4377-7-9-0-8"
         flood-opacity="1"
         flood-color="rgb(0,0,0)"
         result="flood" />
      <feComposite
         id="feComposite4379-3-8-8-2"
         in2="SourceGraphic"
         in="flood"
         operator="in"
         result="composite1" />
      <feMorphology
         id="feMorphology4393-1-0-49-8"
         operator="dilate"
         radius="4"
         result="result3" />
      <feComposite
         id="feComposite4385-9-5-7-0"
         in2="result3"
         in="SourceGraphic"
         operator="over"
         result="composite2" />
    </filter>
  </defs>
  <sodipodi:namedview
     pagecolor="#ffffff"
     bordercolor="#666666"
     borderopacity="1"
     objecttolerance="10"
     gridtolerance="10"
     guidetolerance="10"
     inkscape:pageopacity="0"
     inkscape:pageshadow="2"
     inkscape:window-width="1920"
     inkscape:window-height="1025"
     id="namedview4"
     showgrid="false"
     inkscape:zoom="0.74389472"
     inkscape:cx="1692.5409"
     inkscape:cy="901.90755"
     inkscape:window-x="0"
     inkscape:window-y="26"
     inkscape:window-maximized="1"
     inkscape:current-layer="layer1" />
  <g
     inkscape:groupmode="layer"
     id="layer2"
     inkscape:label="artwork"
     sodipodi:insensitive="true">
    <image
       xlink:href="../gfx_Pepper-and-Carrot_by-David-Revoy_E17P01.png"
       width="2481"
       height="3503"
       id="image10"
       x="0"
       y="0" />
  </g>
  <g
     inkscape:groupmode="layer"
     id="layer3"
     inkscape:label="speechbubbles">
    <path
       style="fill:#ffe4a0;fill-opacity:1;stroke:none;stroke-width:0.858415"
       d="m 1917.5054,2418.4439 c 4.5924,-53.4889 19.777,-85.0821 61.3309,-117.5934 35.6979,-27.9294 226.2886,-25.5997 280.1507,-15.184 39.4174,7.6224 117.2426,29.5394 120.415,77.645 3.0147,45.715 12.9909,144.9081 -19.5132,174.3759 -34.2975,31.0938 -244.4865,21.9062 -322.7544,12.1405 -104.6133,-13.053 -115.7748,-90.5901 -119.629,-131.384 z"
       id="path3021"
       inkscape:connector-curvature="0"
       sodipodi:nodetypes="csssssc" />
    <path
       style="color:#000000;display:inline;overflow:visible;visibility:visible;fill:#ffe4a0;fill-opacity:1;fill-rule:nonzero;stroke:none;stroke-width:1px;marker:none;enable-background:accumulate"
       d="m 1849.7824,2279.7648 c 43.8189,1.8298 71.3011,29.464 77.0111,37.3983 5.7101,7.9343 23.3572,32.8088 58.6317,32.3245 35.2747,-0.484 37.7343,18.3612 37.7343,18.3612 l -41.5287,16.5227 c 0,0 -41.9383,-13.6398 -59.2825,-30.6566 -17.3441,-17.0169 -29.9877,-46.4489 -40.1695,-53.7692 -10.1817,-7.3203 -18.4121,-17.306 -32.3964,-20.1809 z"
       id="path4018"
       inkscape:connector-curvature="0"
       sodipodi:nodetypes="cssccssc" />
    <path
       style="fill:#ffe4a0;fill-opacity:1;fill-rule:evenodd;stroke:none;stroke-width:0.931637"
       d="m 935.91566,1800.2309 c 30.09143,12.6815 57.29198,20.5658 48.04433,-32.0325 53.26381,71.41 45.62321,22.5039 54.04991,5.3387 31.6673,50.4438 58.9144,43.2552 82.5762,-10.6774 13.3765,77.7952 41.3679,40.1028 66.0609,28.4734 -0.06,21.8772 -6.8024,46.9633 66.061,33.8121 -20.8334,19.7588 -28.6045,37.6961 18.0166,48.0487 -32.3851,15.8867 -50.1706,32.7915 -15.0138,53.3875 -18.6767,30.0036 -6.185,47.8346 19.518,60.5059 -60.1814,1.7548 -45.6884,18.2614 -36.0334,33.8121 -51.2379,-31.9723 -58.4067,-19.1718 -54.0497,5.3388 -23.8484,-14.0605 -41.4754,-47.2937 -84.0776,-3.5591 -12.6703,-14.5148 -24.3496,-32.8471 -52.5484,12.457 -1.9893,-39.5176 -22.6061,-38.031 -52.54863,-16.0162 -7.89751,-37.0604 -37.55278,-18.2436 -69.06372,5.3388 25.72014,-36.1715 10.68607,-49.4968 -23.72778,-86.2395 36.48577,-29.7891 15.57431,-29.5869 10.1565,-50.7886 18.46976,-15.0491 42.58216,-31.4427 -5.94673,-60.5059 28.37363,4.5184 58.58495,10.3435 28.52632,-26.6938 z"
       id="path4582"
       inkscape:connector-curvature="0"
       sodipodi:nodetypes="ccccccccccccccccccc" />
    <path
       style="color:#000000;display:inline;overflow:visible;visibility:visible;fill:#ffe4a0;fill-opacity:1;fill-rule:nonzero;stroke:none;stroke-width:1px;marker:none;enable-background:accumulate"
       d="m 1196.0761,1952.9058 c 23.7239,14.2255 61.9488,43.044 76.2655,59.624 3.0955,-13.8639 8.4416,-25.7793 12.4353,-35.1298 16.784,12.1296 90.9257,73.1169 100.8209,94.759 -22.0361,-54.5674 -74.3748,-104.9506 -103.7006,-122.6017 -7.5332,11.6229 -10.4968,19.4636 -14.6173,25.5024 -25.4071,-2.5419 -56.6177,-44.4327 -56.8452,-44.9452 z"
       id="path5066"
       inkscape:connector-curvature="0"
       sodipodi:nodetypes="cccccccc" />
    <path
       style="color:#000000;display:inline;overflow:visible;visibility:visible;fill:#d3d3d3;fill-opacity:1;fill-rule:nonzero;stroke:none;stroke-width:1px;marker:none;enable-background:accumulate"
       d="m 580.8868,2280.1636 c -30.11408,-18.4643 -40.65397,-35.6097 -37.64245,-46.1608 3.01138,-10.551 30.11393,-64.6251 63.23924,-71.2196 33.12545,-6.5944 118.95024,-14.5076 138.52442,-7.9132 19.57418,6.5943 75.28504,50.1175 75.28504,72.5384 0,22.421 -10.53989,65.944 -40.65397,79.1327 -30.11393,13.1889 -162.6156,21.1022 -198.75228,-26.3775 z"
       id="path3349"
       inkscape:connector-curvature="0" />
    <path
       style="fill:#d3d3d3;stroke:none;stroke-width:1.02088;fill-opacity:1"
       d="m 540.60234,2364.5645 c -0.83018,-19.319 25.962,-72.7667 140.79394,-66.6175 114.83193,6.1493 150.2687,28.1557 152.77639,62.5181 3.96709,54.3602 -56.85758,67.5317 -143.77465,69.6481 -89.60212,2.1819 -144.89543,-16.6844 -149.79568,-65.5487 z"
       id="path3280"
       inkscape:connector-curvature="0"
       sodipodi:nodetypes="csssc" />
    <path
       style="fill:#d3d3d3;stroke:none;fill-opacity:1"
       d="m 462.7487,2323.4218 c 19.54312,23.3799 27.8615,17.4813 37.10761,9.6978 9.24609,-7.7835 17.24434,-16.2258 23.0997,-13.9259 5.85539,2.3001 11.36723,10.3556 14.79931,17.3132 3.4321,6.9575 9.3438,2.994 16.07856,-0.5744 6.73479,-3.5684 43.2244,-10.0681 43.2244,-10.0681 0,0 -22.57858,29.6369 -31.0169,35.8681 -8.43834,6.2309 -11.50973,8.5673 -15.17309,9.7994 -3.66342,1.232 -12.74208,2.3755 -17.72582,-3.0266 -4.98374,-5.4019 -7.3681,-14.5768 -10.32818,-20.0976 -2.95996,-5.5207 -11.05253,-6.3898 -18.65118,-2.486 -7.59863,3.9039 -25.24054,9.1542 -32.47234,-0.9969 -7.2318,-10.1511 -8.94207,-21.503 -8.94207,-21.503 z"
       id="path3023"
       inkscape:connector-curvature="0"
       sodipodi:nodetypes="csssscssssssc" />
  </g>
  <g
     inkscape:groupmode="layer"
     id="layer1"
     inkscape:label="txt">
    <text
       xml:space="preserve"
       style="font-style:normal;font-variant:normal;font-weight:normal;font-stretch:normal;line-height:0%;font-family:Lavi;-inkscape-font-specification:Lavi;text-align:center;letter-spacing:0px;word-spacing:0px;text-anchor:middle;fill:#000000;fill-opacity:1;stroke:none"
       x="691.19836"
       y="2210.9702"
       id="text4246"><tspan
         sodipodi:role="line"
         style="font-size:45px;line-height:1.25"
         x="691.19836"
         y="2210.9702"
         id="tspan4252">Daj no,</tspan><tspan
         sodipodi:role="line"
         style="font-size:45px;line-height:1.25"
         x="691.19836"
         y="2267.2202"
         id="tspan4146">Paprika …</tspan><tspan
         sodipodi:role="line"
         style="font-size:45px;line-height:1.25"
         x="691.19836"
         y="2323.4702"
         id="tspan4152"> </tspan><tspan
         sodipodi:role="line"
         style="font-size:45px;line-height:1.25"
         x="691.19836"
         y="2379.7202"
         id="tspan1329">Ne odhajaj …</tspan></text>
    <text
       xml:space="preserve"
       style="font-style:normal;font-variant:normal;font-weight:normal;font-stretch:normal;line-height:0%;font-family:Lavi;-inkscape-font-specification:Lavi;text-align:center;letter-spacing:0px;word-spacing:0px;text-anchor:middle;fill:#000000;fill-opacity:1;stroke:#000000;stroke-width:2.65555;stroke-miterlimit:4;stroke-dasharray:none;stroke-opacity:1"
       x="1085.9773"
       y="1896.1261"
       id="text4246-7"><tspan
         sodipodi:role="line"
         style="font-style:normal;font-variant:normal;font-weight:bold;font-stretch:normal;font-size:65px;line-height:1.25;font-family:Lavi;-inkscape-font-specification:'Lavi Bold';stroke:#000000;stroke-width:2.65555;stroke-miterlimit:4;stroke-dasharray:none;stroke-opacity:1"
         x="1085.9773"
         y="1896.1261"
         id="tspan4150-5">NE!</tspan><tspan
         sodipodi:role="line"
         style="font-style:normal;font-variant:normal;font-weight:bold;font-stretch:normal;font-size:49.7915px;line-height:1.25;font-family:Lavi;-inkscape-font-specification:'Lavi Bold';stroke:#000000;stroke-width:2.65555;stroke-miterlimit:4;stroke-dasharray:none;stroke-opacity:1"
         x="1085.9773"
         y="1963.6284"
         id="tspan4190">ŠLA BOM!</tspan></text>
    <text
       xml:space="preserve"
       style="font-style:normal;font-variant:normal;font-weight:normal;font-stretch:normal;line-height:0%;font-family:Lavi;-inkscape-font-specification:Lavi;text-align:center;letter-spacing:0px;word-spacing:0px;text-anchor:middle;fill:#000000;fill-opacity:1;stroke:none"
       x="2156.7544"
       y="2346.2056"
       id="text4246-9"><tspan
         sodipodi:role="line"
         style="font-size:45px;line-height:1.25"
         x="2156.7544"
         y="2346.2056"
         id="tspan44">Vaš pouk nima</tspan><tspan
         sodipodi:role="line"
         style="font-size:45px;line-height:1.25"
         x="2156.7544"
         y="2402.4556"
         id="tspan1394">nič s čarovništvom!</tspan><tspan
         sodipodi:role="line"
         style="font-size:45px;line-height:1.25"
         x="2156.7544"
         y="2458.7056"
         id="tspan1396">K aškim čarovnicam</tspan><tspan
         sodipodi:role="line"
         style="font-size:45px;line-height:1.25"
         x="2156.7544"
         y="2514.9556"
         id="tspan1398">grem, da veste!</tspan></text>
    <text
       xml:space="preserve"
       style="font-style:normal;font-variant:normal;font-weight:normal;font-stretch:normal;line-height:0%;font-family:Lavi;-inkscape-font-specification:Lavi;letter-spacing:0px;word-spacing:0px;fill:#000000;fill-opacity:1;stroke:#000000;stroke-width:0.992362;stroke-miterlimit:4;stroke-dasharray:none;stroke-opacity:1;filter:url(#filter4375-4-1-1-1)"
       x="787.65729"
       y="1584.5073"
       id="text4580"
       transform="matrix(0.64545612,-0.14502854,-0.28870948,0.70997447,753.86791,2340.5307)"><tspan
         sodipodi:role="line"
         id="tspan4582"
         x="787.65729"
         y="1584.5073"
         style="font-size:70px;line-height:1.25;fill:#ffffff"><tspan
           id="tspan4938"
           style="font-size:62.0322px">Vu</tspan><tspan
           style="font-size:80.4001px"
           id="tspan4617">uu</tspan><tspan
           id="tspan4942"
           style="font-size:100.299px">š</tspan><tspan
           id="tspan4940"
           style="font-size:123.259px">!</tspan></tspan></text>
  </g>
</svg>
