<?xml version="1.0" encoding="UTF-8" standalone="no"?>
<svg
   xmlns:dc="http://purl.org/dc/elements/1.1/"
   xmlns:cc="http://creativecommons.org/ns#"
   xmlns:rdf="http://www.w3.org/1999/02/22-rdf-syntax-ns#"
   xmlns:svg="http://www.w3.org/2000/svg"
   xmlns="http://www.w3.org/2000/svg"
   xmlns:xlink="http://www.w3.org/1999/xlink"
   xmlns:sodipodi="http://sodipodi.sourceforge.net/DTD/sodipodi-0.dtd"
   xmlns:inkscape="http://www.inkscape.org/namespaces/inkscape"
   id="svg2"
   version="1.1"
   inkscape:version="1.0.2 (e86c870879, 2021-01-15)"
   width="2481"
   height="3503"
   sodipodi:docname="E34P01.svg">
  <metadata
     id="metadata8">
    <rdf:RDF>
      <cc:Work
         rdf:about="">
        <dc:format>image/svg+xml</dc:format>
        <dc:type
           rdf:resource="http://purl.org/dc/dcmitype/StillImage" />
        <dc:title />
      </cc:Work>
    </rdf:RDF>
  </metadata>
  <defs
     id="defs6">
    <filter
       inkscape:collect="always"
       style="color-interpolation-filters:sRGB"
       id="filter7961"
       x="-0.0038362744"
       width="1.0076725"
       y="-0.012583922"
       height="1.0251678"
       inkscape:label="blur-layer-whisper">
      <feGaussianBlur
         inkscape:collect="always"
         stdDeviation="2.6222679"
         id="feGaussianBlur7963" />
    </filter>
    <filter
       style="color-interpolation-filters:sRGB;"
       inkscape:label="narrator-drop-shadow"
       id="filter8274"
       width="1.3"
       height="1.5">
      <feFlood
         flood-opacity="0.603922"
         flood-color="rgb(0,21,64)"
         result="flood"
         id="feFlood8264" />
      <feComposite
         in="flood"
         in2="SourceGraphic"
         operator="in"
         result="composite1"
         id="feComposite8266" />
      <feGaussianBlur
         in="composite1"
         stdDeviation="2.0230825044646368"
         result="blur"
         id="feGaussianBlur8268" />
      <feOffset
         dx="-7.4077921838061513"
         dy="4.8380533854166714"
         result="offset"
         id="feOffset8270" />
      <feComposite
         in="SourceGraphic"
         in2="offset"
         operator="over"
         result="fbSourceGraphic"
         id="feComposite8272" />
      <feColorMatrix
         result="fbSourceGraphicAlpha"
         in="fbSourceGraphic"
         values="0 0 0 -1 0 0 0 0 -1 0 0 0 0 -1 0 0 0 0 1 0"
         id="feColorMatrix8420" />
      <feFlood
         id="feFlood8422"
         flood-opacity="0.061934527228860295"
         flood-color="rgb(0,12,37)"
         result="flood"
         in="fbSourceGraphic" />
      <feComposite
         in2="fbSourceGraphic"
         id="feComposite8424"
         in="flood"
         operator="in"
         result="composite1" />
      <feGaussianBlur
         id="feGaussianBlur8426"
         in="composite1"
         stdDeviation="1"
         result="blur" />
      <feOffset
         id="feOffset8428"
         dx="-3.3194756113327486"
         dy="-2.8318869588504754"
         result="offset" />
      <feComposite
         in2="offset"
         id="feComposite8430"
         in="fbSourceGraphic"
         operator="over"
         result="composite2" />
    </filter>
  </defs>
  <sodipodi:namedview
     pagecolor="#ffffff"
     bordercolor="#666666"
     borderopacity="1"
     objecttolerance="10"
     gridtolerance="10"
     guidetolerance="10"
     inkscape:pageopacity="0"
     inkscape:pageshadow="2"
     inkscape:window-width="1920"
     inkscape:window-height="967"
     id="namedview4"
     showgrid="false"
     inkscape:zoom="0.87545491"
     inkscape:cx="1354.0982"
     inkscape:cy="2845.7364"
     inkscape:window-x="0"
     inkscape:window-y="72"
     inkscape:window-maximized="1"
     inkscape:current-layer="layer3"
     inkscape:document-rotation="0"
     borderlayer="true"
     inkscape:snap-global="false" />
  <g
     inkscape:groupmode="layer"
     id="layer2"
     inkscape:label="artwork"
     sodipodi:insensitive="true">
    <image
       sodipodi:absref="/felles/omsetting/pepper-carrot/webcomics/new-ep34_The-Knighting-of-Shichimi/lang/gfx_Pepper-and-Carrot_by-David-Revoy_E34P01.png"
       xlink:href="../gfx_Pepper-and-Carrot_by-David-Revoy_E34P01.png"
       width="2481"
       height="3503.7233"
       id="image10"
       x="0"
       y="0" />
  </g>
  <g
     inkscape:groupmode="layer"
     id="layer3"
     inkscape:label="speechbubbles-whisper"
     style="display:inline;opacity:0.65;filter:url(#filter7961)">
    <path
       id="path1299"
       style="fill:#e0ffff;fill-rule:evenodd;stroke:none;stroke-width:1.254px;stroke-linecap:butt;stroke-linejoin:miter;stroke-opacity:1"
       d="m 1494.1913,2601.6209 c -39.5695,2.4419 -95.8723,3.2176 -134.7098,12.4396 -32.0862,9.1392 -55.3324,-0.3081 -77.1307,36.8559 -11.7048,24.4254 -27.3363,57.4634 -24.3773,87.6416 3.3869,34.5422 18.1295,76.4193 46.8559,92.985 56.3435,32.4917 138.9081,24.0743 202.8788,24.1076 31.0046,-2.8768 52.7213,-4.2816 73.1553,-6.3118 30.5304,-3.0332 83.1263,5.9751 116.9604,-13.9456 29.9996,-24.3668 50.283,-58.7322 54.738,-114.3503 -5.0951,-36.5264 -16.1411,-66.3086 -40.1059,-87.7601 -22.8713,-20.4726 -57.0894,-23.5329 -87.4674,-28.8003 -31.4375,-5.451 -65.5505,-0.562 -95.8636,-2.5126 -11.6289,-0.527 -23.283,-0.5987 -34.9337,-0.349 z"
       sodipodi:nodetypes="cccascsccaacc" />
    <path
       style="fill:#e0ffff;fill-rule:evenodd;stroke:none;stroke-width:1.42105px;stroke-linecap:butt;stroke-linejoin:miter;stroke-opacity:1"
       d="m 1293.5629,2520.4406 c -15.5202,0.5715 -31.3006,3.124 -45.4727,10.569 -16.754,9.335 -28.3693,29.5951 -28.3289,50.6444 0.3769,10.9745 5.0769,21.3476 11.6777,29.2934 4.7422,5.6779 10.6956,9.8604 16.9047,13.2307 12.501,7.0126 26.5104,10.2679 40.4448,10.4477 22.2028,1.3792 44.6619,-0.345 66.2704,-6.3959 10.1693,-2.9712 20.294,-7.7122 27.83,-16.162 7.714,-8.3459 13.3681,-19.6239 14.0353,-31.7683 0.2047,-10.8875 -4.0108,-21.2253 -9.4997,-29.9724 -6.9948,-11.6163 -17.6838,-20.6918 -29.978,-23.8402 -14.9571,-4.5851 -30.5618,-5.1076 -45.9621,-5.8492 -5.9721,-0.1945 -11.9473,-0.2195 -17.9215,-0.1972 z"
       id="path1285"
       inkscape:connector-curvature="0" />
    <path
       style="font-variation-settings:normal;vector-effect:none;fill:#e0ffff;fill-opacity:1;stroke:none;stroke-width:1.28082px;stroke-linecap:butt;stroke-linejoin:miter;stroke-miterlimit:4;stroke-dasharray:none;stroke-dashoffset:0;stroke-opacity:1;stop-color:#000000"
       d="m 245.39468,2520.078 c -31.14093,1.2291 -62.40644,10.5086 -86.67072,28.6668 -20.44111,14.7836 -37.55279,34.2765 -45.47877,57.1712 -13.15498,41.1822 2.91333,88.8641 39.58615,115.8559 19.88323,14.8981 44.53549,23.2898 69.30536,28.7186 41.86933,8.8386 85.67676,9.8436 128.02767,3.2781 25.65869,-4.6715 50.81985,-14.492 69.89647,-31.142 20.68625,-18.074 34.19918,-43.3618 35.14296,-69.6182 0.65946,-14.7078 -1.26797,-29.4332 -4.41913,-43.8387 -5.37615,-22.4903 -18.44682,-43.7064 -38.12706,-58.3422 -13.12302,-9.8917 -28.88128,-16.6035 -45.33723,-20.4038 -28.08945,-7.1055 -57.34453,-9.146 -86.3649,-10.0843 -11.85088,-0.2861 -23.7068,-0.2664 -35.5608,-0.2614 z"
       id="path3280-8-90"
       inkscape:connector-curvature="0"
       sodipodi:nodetypes="csssc" />
    <path
       style="fill:#e0ffff;fill-opacity:1;fill-rule:evenodd;stroke:none;stroke-width:1.28082px;stroke-linecap:butt;stroke-linejoin:miter;stroke-opacity:1"
       d="m 405.61348,2631.9631 c 42.85265,-5.0607 58.06957,-2.3086 68.49973,0.7202 10.42915,3.0295 34.5561,33.0962 43.85358,53.3011 -34.06156,-36.1486 -48.52756,-39.3772 -65.05064,-34.4498 -16.52311,4.9273 -63.29994,23.4366 -63.29994,23.4366 l 11.09296,-45.4041 z"
       id="path1291"
       inkscape:connector-curvature="0"
       sodipodi:nodetypes="csccccc" />
    <path
       style="fill:#e0ffff;fill-rule:evenodd;stroke:none;stroke-width:0.964753px;stroke-linecap:butt;stroke-linejoin:miter;stroke-opacity:1"
       d="m 1434.2038,2989.2388 c 48.3667,-37.0134 81.9085,-79.2404 77.928,-171.8638 l 30.8393,-3.1198 c -4.7727,67.6875 -17.9327,144.5385 -108.7673,174.9836 z"
       id="path1291-6"
       inkscape:connector-curvature="0"
       sodipodi:nodetypes="cccc" />
  </g>
  <g
     inkscape:groupmode="layer"
     id="layer4"
     inkscape:label="speechbubbles"
     style="display:inline">
    <path
       id="path4040-4-1"
       style="color:#000000;display:inline;overflow:visible;visibility:visible;fill:#ffffff;fill-opacity:1;fill-rule:nonzero;stroke:none;stroke-width:0.874474px;marker:none;enable-background:accumulate"
       d="m 408.58939,1883.1559 c -64.93487,0.572 -130.31897,0.3559 -194.50434,10.2996 -37.97584,6.4965 -74.2578,23.3483 -99.81899,49.4291 -11.64947,12.0157 -19.865459,26.6472 -23.283515,42.2419 -6.026157,24.9363 -3.542351,50.9635 3.29373,75.5535 7.248545,24.8082 21.478295,48.6238 43.773645,65.276 20.15537,15.4198 45.40951,24.8739 71.41996,29.0997 25.85162,4.5949 52.09097,7.2616 78.3386,9.2759 73.28228,5.1338 146.83048,2.1687 220.21986,1.2497 42.78942,-1.004 86.13503,-4.6449 126.68421,-17.5703 22.55905,-6.8128 45.32228,-15.2546 62.91129,-29.9635 15.78051,-14.4558 23.38659,-34.0966 28.69464,-53.2713 6.37169,-24.3263 8.38403,-49.7394 4.29221,-74.5053 -4.84016,-24.2516 -19.97096,-46.6381 -41.56939,-62.0201 -18.31943,-13.4463 -40.62155,-21.8125 -63.3927,-27.2608 -64.80633,-17.1058 -133.05572,-17.7951 -200.0983,-17.8666 -5.65371,-0.016 -11.30725,0.01 -16.96091,0.033 z" />
    <path
       style="color:#000000;display:inline;overflow:visible;visibility:visible;fill:#ffffff;fill-opacity:1;fill-rule:nonzero;stroke:none;stroke-width:1.80075px;marker:none;enable-background:accumulate"
       d="m 545.19946,1927.3519 c 7.55014,-44.8382 62.74837,-99.1824 137.61984,-61.3131 -80.77928,-16.5552 -107.19343,39.0539 -106.74645,81.3775 0.39562,37.4602 -16.36437,17.1598 -16.36437,17.1598 z"
       id="path4440-1"
       inkscape:connector-curvature="0"
       sodipodi:nodetypes="ccscc" />
    <path
       style="color:#000000;display:inline;overflow:visible;visibility:visible;fill:#ffffff;fill-opacity:1;fill-rule:nonzero;stroke:none;stroke-width:0.774122px;marker:none;enable-background:accumulate"
       d="m 1816.3362,2838.742 c -27.1037,2.5941 -54.3853,6.1471 -79.991,15.0673 -13.4815,5.0192 -24.4209,15.2749 -30.9946,27.5302 -5.1339,9.6259 -7.6431,20.8902 -5.402,31.7544 3.4186,17.7548 16.6486,33.6763 34.0572,40.7039 16.5925,7.3046 34.756,9.9763 52.6403,11.8771 41.217,4.1258 82.5799,2.1775 123.8627,3.6831 18.1389,0.5793 36.6582,-1.5255 53.1546,-8.7592 13.9137,-5.9879 26.3943,-15.7271 33.5907,-28.7969 5.2175,-9.1181 7.215,-20.0225 5.0736,-30.4029 -1.7193,-9.349 -6.5069,-18.1027 -13.1735,-25.1567 -10.1865,-11.1973 -24.1766,-18.6282 -38.7472,-22.9969 -19.6856,-6.3166 -40.1202,-9.99 -60.5783,-12.6239 -24.4149,-2.8848 -49.0443,-3.1672 -73.4925,-1.8795 z"
       id="path4040-2"
       inkscape:connector-curvature="0"
       sodipodi:nodetypes="zssssz" />
    <path
       style="color:#000000;display:inline;overflow:visible;visibility:visible;fill:#ffffff;fill-opacity:1;fill-rule:nonzero;stroke:none;stroke-width:0.811733px;marker:none;enable-background:accumulate"
       d="m 1970.7532,2998.2521 c 42.5246,54.5422 86.7334,47.5024 118.7066,15.8691 -23.32,34.399 -69.359,69.3478 -144.2603,0.1036 -14.3413,-13.258 25.5537,-15.9727 25.5537,-15.9727 z"
       id="path5010-4"
       inkscape:connector-curvature="0"
       sodipodi:nodetypes="ccsc" />
    <path
       style="color:#000000;display:inline;overflow:visible;visibility:visible;fill:#ffffff;fill-opacity:1;fill-rule:nonzero;stroke:none;stroke-width:0.866707px;marker:none;enable-background:accumulate"
       d="m 1865.2,2923.8575 c -26.2127,1.0558 -4.7728,-1.5097 -26.7427,15.0771 -13.5706,10.663 -37.0971,12.5614 -54.3282,28.9147 -14.7385,13.9876 -24.4212,61.5873 -23.7503,85.6918 0.6051,21.738 1.741,41.8668 20.6311,48.0244 51.4142,16.7597 97.2389,16.1985 142.7342,12.1585 58.0352,-11.0747 65.8224,-22.9885 71.7257,-54.3494 9.6167,-28.0539 -1.1661,-53.9283 -17.2937,-78.5209 -20.0089,-26.4131 -25.3272,-37.0689 -46.7912,-43.3634 -21.4484,-6.9304 -43.8441,-13.928 -66.1849,-13.6328 z"
       id="path4040-2-5"
       inkscape:connector-curvature="0"
       sodipodi:nodetypes="zssssccccz" />
    <rect
       style="color:#000000;overflow:visible;fill:#eeffdb;fill-opacity:0.89322;stroke:#807e00;stroke-width:8.65277;stroke-opacity:1;paint-order:stroke fill markers;filter:url(#filter8274);stop-color:#000000"
       id="rect8238"
       width="417.40149"
       height="86.261734"
       x="128.97966"
       y="127.99652"
       transform="matrix(0.86600912,0,0,1,16.658061,0)" />
  </g>
  <g
     inkscape:groupmode="layer"
     id="layer1"
     inkscape:label="txt">
    <text
       xml:space="preserve"
       style="font-style:normal;font-variant:normal;font-weight:normal;font-stretch:normal;font-size:45px;line-height:1.25;font-family:Lavi;-inkscape-font-specification:Lavi;text-align:center;letter-spacing:0px;word-spacing:0px;text-anchor:middle;fill:#000000;fill-opacity:1;stroke:none"
       x="311.49481"
       y="186.49605"
       id="text4246-3-2-2-35"><tspan
         style="font-size:45px"
         sodipodi:role="line"
         x="311.49481"
         y="186.49605"
         id="tspan905-2">Same kveld ...</tspan></text>
    <text
       xml:space="preserve"
       style="font-style:normal;font-variant:normal;font-weight:normal;font-stretch:normal;font-size:45px;line-height:1.25;font-family:Lavi;-inkscape-font-specification:Lavi;text-align:center;letter-spacing:0px;word-spacing:0px;text-anchor:middle;fill:#000000;fill-opacity:1;stroke:none"
       x="412.92212"
       y="1958.5396"
       id="text4246-3-2-2"><tspan
         style="font-size:45px"
         sodipodi:role="line"
         x="412.92212"
         y="1958.5396"
         id="tspan905">... og i kveld kan me</tspan><tspan
         style="font-size:45px"
         sodipodi:role="line"
         x="412.92212"
         y="2014.7896"
         id="tspan901">dermed ynskja deg, Shichimi,</tspan><tspan
         style="font-size:45px"
         sodipodi:role="line"
         x="412.92212"
         y="2071.0396"
         id="tspan903">velkomen som den yngste</tspan><tspan
         style="font-size:45px"
         sodipodi:role="line"
         x="412.92212"
         y="2127.2896"
         id="tspan920">riddaren av ah.</tspan></text>
    <text
       xml:space="preserve"
       style="font-style:normal;font-variant:normal;font-weight:normal;font-stretch:normal;font-size:45px;line-height:1.25;font-family:Lavi;-inkscape-font-specification:Lavi;text-align:center;letter-spacing:0px;word-spacing:0px;text-anchor:middle;fill:#000000;fill-opacity:1;stroke:none"
       x="281.28052"
       y="2595.9211"
       id="text4246-3-2-2-3"><tspan
         style="font-size:45px;fill:#000000;fill-opacity:1"
         sodipodi:role="line"
         x="281.28052"
         y="2595.9211"
         id="tspan1165">Pepar har</tspan><tspan
         style="font-size:45px;fill:#000000;fill-opacity:1"
         sodipodi:role="line"
         x="281.28052"
         y="2652.1711"
         id="tspan927">enno ikkje</tspan><tspan
         style="font-size:45px;fill:#000000;fill-opacity:1"
         sodipodi:role="line"
         x="281.28052"
         y="2708.4211"
         id="tspan929">dukka opp?</tspan></text>
    <text
       xml:space="preserve"
       style="font-style:normal;font-variant:normal;font-weight:normal;font-stretch:normal;font-size:45px;line-height:1.25;font-family:Lavi;-inkscape-font-specification:Lavi;text-align:center;letter-spacing:0px;word-spacing:0px;text-anchor:middle;white-space:pre;inline-size:253.323;fill:#000000;fill-opacity:1;stroke:none"
       x="1320.327"
       y="2594.489"
       id="text4246-3-2-2-3-5"
       transform="translate(-8.5641283,-0.01445069)"><tspan
         x="1320.327"
         y="2594.489"><tspan>Nei.</tspan></tspan></text>
    <text
       xml:space="preserve"
       style="font-style:normal;font-variant:normal;font-weight:normal;font-stretch:normal;font-size:45px;line-height:1.25;font-family:Lavi;-inkscape-font-specification:Lavi;text-align:center;letter-spacing:0px;word-spacing:0px;text-anchor:middle;fill:#000000;fill-opacity:1;stroke:none"
       x="1506.9663"
       y="2690.5828"
       id="text4246-3-2-2-3-5-1"><tspan
         style="font-size:45px;fill:#000000;fill-opacity:1"
         sodipodi:role="line"
         x="1506.9663"
         y="2690.5828"
         id="tspan7590">Ho må skunda seg.</tspan><tspan
         style="font-size:45px;fill:#000000;fill-opacity:1"
         sodipodi:role="line"
         x="1506.9663"
         y="2746.8328"
         id="tspan936">No går ho glipp av</tspan><tspan
         style="font-size:45px;fill:#000000;fill-opacity:1"
         sodipodi:role="line"
         x="1506.9663"
         y="2803.0828"
         id="tspan938">talen til Shichimi ...</tspan></text>
    <text
       xml:space="preserve"
       style="font-style:normal;font-variant:normal;font-weight:normal;font-stretch:normal;font-size:45px;line-height:1.25;font-family:Lavi;-inkscape-font-specification:Lavi;text-align:center;letter-spacing:0px;word-spacing:0px;text-anchor:middle;fill:#000000;fill-opacity:1;stroke:none"
       x="1851.2487"
       y="2918.1755"
       id="text4246-3-2-2-3-5-1-7"><tspan
         style="font-size:45px"
         sodipodi:role="line"
         x="1851.2487"
         y="2918.1755"
         id="tspan7676">Tusen takk.</tspan></text>
    <text
       xml:space="preserve"
       style="font-style:normal;font-variant:normal;font-weight:normal;font-stretch:normal;font-size:45px;line-height:1.25;font-family:Lavi;-inkscape-font-specification:Lavi;text-align:center;letter-spacing:0px;word-spacing:0px;text-anchor:middle;fill:#000000;fill-opacity:1;stroke:none"
       x="1883.04"
       y="3012.1243"
       id="text4246-3-2-2-3-5-1-7-3"><tspan
         style="font-size:45px"
         sodipodi:role="line"
         x="1883.04"
         y="3012.1243"
         id="tspan7730">Eg vil</tspan><tspan
         style="font-size:45px"
         sodipodi:role="line"
         x="1883.04"
         y="3068.3743"
         id="tspan942">gjerne ...</tspan></text>
  </g>
</svg>
