<?xml version="1.0" encoding="UTF-8" standalone="no"?>
<!-- Created with Inkscape (http://www.inkscape.org/) -->

<svg
   xmlns:dc="http://purl.org/dc/elements/1.1/"
   xmlns:cc="http://creativecommons.org/ns#"
   xmlns:rdf="http://www.w3.org/1999/02/22-rdf-syntax-ns#"
   xmlns:svg="http://www.w3.org/2000/svg"
   xmlns="http://www.w3.org/2000/svg"
   xmlns:xlink="http://www.w3.org/1999/xlink"
   xmlns:sodipodi="http://sodipodi.sourceforge.net/DTD/sodipodi-0.dtd"
   xmlns:inkscape="http://www.inkscape.org/namespaces/inkscape"
   id="svg2"
   version="1.1"
   inkscape:version="0.92.1 r15371"
   width="2481"
   height="3503"
   sodipodi:docname="E31P06.svg"
   inkscape:export-filename="/home/dash/Downloads/pepper carrot EPS/ep31_The-Fight_lang-pack/lang/ph/E31P06.svg.png"
   inkscape:export-xdpi="90"
   inkscape:export-ydpi="90">
  <metadata
     id="metadata8">
    <rdf:RDF>
      <cc:Work
         rdf:about="">
        <dc:format>image/svg+xml</dc:format>
        <dc:type
           rdf:resource="http://purl.org/dc/dcmitype/StillImage" />
        <dc:title />
      </cc:Work>
    </rdf:RDF>
  </metadata>
  <defs
     id="defs6">
    <filter
       style="color-interpolation-filters:sRGB"
       id="filter4375-4-1-1-1-9-5-8-3-8"
       inkscape:label="Drop Shadow">
      <feFlood
         id="feFlood4377-7-9-0-8-1-7-3-8-3"
         flood-opacity="1"
         flood-color="rgb(39,39,39)"
         result="flood" />
      <feComposite
         id="feComposite4379-3-8-8-2-77-4-1-8-7"
         in2="SourceGraphic"
         in="flood"
         operator="in"
         result="composite1" />
      <feMorphology
         id="feMorphology4393-1-0-49-8-9-3-0-31-8"
         operator="dilate"
         radius="6.2000000000000002"
         result="result3" />
      <feComposite
         id="feComposite4385-9-5-7-0-8-8-7-8-2"
         in2="result3"
         in="SourceGraphic"
         operator="over"
         result="fbSourceGraphic" />
      <feColorMatrix
         result="fbSourceGraphicAlpha"
         in="fbSourceGraphic"
         values="0 0 0 -1 0 0 0 0 -1 0 0 0 0 -1 0 0 0 0 1 0"
         id="feColorMatrix4544-96-1" />
      <feTurbulence
         id="feTurbulence4546-4-0"
         type="fractalNoise"
         numOctaves="3"
         seed="37"
         baseFrequency="0.129 0.0050000000000000001"
         result="turbulence" />
      <feDisplacementMap
         id="feDisplacementMap4548-3-5"
         in2="turbulence"
         in="fbSourceGraphic"
         scale="6.6"
         yChannelSelector="G"
         xChannelSelector="R"
         result="fbSourceGraphic" />
      <feColorMatrix
         result="fbSourceGraphicAlpha"
         in="fbSourceGraphic"
         values="0 0 0 -1 0 0 0 0 -1 0 0 0 0 -1 0 0 0 0 1 0"
         id="feColorMatrix4670-33-8" />
      <feFlood
         id="feFlood4672-8-5"
         flood-opacity="0.40999999999999998"
         flood-color="rgb(0,0,0)"
         result="flood"
         in="fbSourceGraphic" />
      <feComposite
         id="feComposite4674-6-5"
         in2="fbSourceGraphic"
         in="flood"
         operator="in"
         result="composite1" />
      <feGaussianBlur
         id="feGaussianBlur4676-0-0"
         in="composite1"
         stdDeviation="0"
         result="blur" />
      <feOffset
         id="feOffset4678-4-7"
         dx="6"
         dy="6"
         result="offset" />
      <feComposite
         id="feComposite4680-8-3"
         in2="offset"
         in="fbSourceGraphic"
         operator="over"
         result="composite2" />
    </filter>
    <filter
       style="color-interpolation-filters:sRGB"
       id="filter4375-4-1-1-1-9-0"
       inkscape:label="deevad outline effect">
      <feFlood
         id="feFlood4377-7-9-0-8-1-9"
         flood-opacity="1"
         flood-color="rgb(0,0,0)"
         result="flood" />
      <feComposite
         id="feComposite4379-3-8-8-2-77-1"
         in2="SourceGraphic"
         in="flood"
         operator="in"
         result="composite1" />
      <feMorphology
         id="feMorphology4393-1-0-49-8-9-9"
         operator="dilate"
         radius="3"
         result="result3" />
      <feComposite
         id="feComposite4385-9-5-7-0-8-6"
         in2="result3"
         in="SourceGraphic"
         operator="over"
         result="composite2" />
    </filter>
    <filter
       style="color-interpolation-filters:sRGB"
       id="filter4375-4-1-1-1-9-0-5"
       inkscape:label="deevad outline effect">
      <feFlood
         id="feFlood4377-7-9-0-8-1-9-6"
         flood-opacity="1"
         flood-color="rgb(0,0,0)"
         result="flood" />
      <feComposite
         id="feComposite4379-3-8-8-2-77-1-2"
         in2="SourceGraphic"
         in="flood"
         operator="in"
         result="composite1" />
      <feMorphology
         id="feMorphology4393-1-0-49-8-9-9-9"
         operator="dilate"
         radius="3"
         result="result3" />
      <feComposite
         id="feComposite4385-9-5-7-0-8-6-1"
         in2="result3"
         in="SourceGraphic"
         operator="over"
         result="composite2" />
    </filter>
  </defs>
  <sodipodi:namedview
     pagecolor="#ffffff"
     bordercolor="#666666"
     borderopacity="1"
     objecttolerance="10"
     gridtolerance="10"
     guidetolerance="10"
     inkscape:pageopacity="0"
     inkscape:pageshadow="2"
     inkscape:window-width="1920"
     inkscape:window-height="997"
     id="namedview4"
     showgrid="false"
     inkscape:zoom="0.4574026"
     inkscape:cx="1144.3329"
     inkscape:cy="3057.4213"
     inkscape:window-x="0"
     inkscape:window-y="0"
     inkscape:window-maximized="1"
     inkscape:current-layer="layer3"
     inkscape:snap-global="false" />
  <g
     inkscape:groupmode="layer"
     id="layer2"
     inkscape:label="artwork"
     sodipodi:insensitive="true">
    <image
       sodipodi:absref="/home/dash/Downloads/pepper carrot EPS/ep31_The-Fight_lang-pack/lang/ph/../gfx_Pepper-and-Carrot_by-David-Revoy_E31P06.png"
       xlink:href="../gfx_Pepper-and-Carrot_by-David-Revoy_E31P06.png"
       width="2481"
       height="3503"
       id="image10"
       x="0"
       y="0" />
  </g>
  <g
     inkscape:groupmode="layer"
     id="layer3"
     inkscape:label="speechbubbles">
    <path
       style="color:#000000;display:inline;overflow:visible;visibility:visible;fill:#ffffff;fill-opacity:1;fill-rule:nonzero;stroke:none;stroke-width:1.13598561px;marker:none;enable-background:accumulate"
       d="m 714.24171,2905.175 c -14.80028,-3.0753 -58.45766,-31.0327 -6.72605,-31.992 -38.6631,-10.7706 -34.90211,-36.1548 -4.41813,-52.3649 -40.82017,5.0058 -71.54896,0.2287 -51.76978,-26.7489 -59.75395,19.5804 -86.47836,24.2844 -75.75637,-12.7729 -26.37374,31.4363 -53.44242,27.1345 -62.14965,-7.7042 -4.94369,26.527 -45.87541,36.8922 -94.6941,4.185 16.63089,30.8416 26.07486,46.8938 -60.70537,42.3823 33.65993,16.7365 55.04665,27.4574 -0.22941,37.9391 28.79808,6.861 47.46713,17.1507 4.1581,37.0684 28.9419,4.2054 74.18851,0.3429 20.88649,36.9929 35.46738,-17.8244 96.60337,-9.1912 71.84071,17.9721 69.62268,-32.5667 83.69967,-25.4803 95.5098,-5.1642 24.87407,-31.8112 76.75374,-37.7434 99.89334,-21.0916 -12.19597,-26.5151 31.503,-17.1146 64.16042,-18.7011 z"
       id="path3549-3-78-5-3"
       inkscape:connector-curvature="0"
       sodipodi:nodetypes="ccccccccccccccc" />
    <path
       style="color:#000000;display:inline;overflow:visible;visibility:visible;fill:#ffffff;fill-opacity:1;fill-rule:nonzero;stroke:none;stroke-width:1.13598561px;marker:none;enable-background:accumulate"
       d="m 888.43668,3016.9394 c -11.89713,-2.9785 -24.17157,-22.306 -4.83933,-35.2868 -16.04099,-0.688 -25.22109,-7.3316 -10.09016,-20.9326 -33.63592,17.0282 -42.55262,-6.109 -31.54836,-33.2935 -49.36943,13.0575 -71.28017,15.72 -61.02027,-12.9191 -22.7425,23.6321 -44.55674,19.2215 -50.17625,-8.4238 -5.12498,20.6058 -16.0656,31.8674 -48.67807,5.9229 -2.4006,7.5606 8.64658,32.4271 -61.67596,25.5615 26.65036,14.4116 42.6399,17.0575 -2.71109,23.1541 23.11252,6.4833 53.82905,16.2056 17.80741,30.1585 23.34031,4.4069 45.22812,8.7539 0.38797,35.4404 29.56268,-12.6127 61.01949,-4.4394 39.76453,15.9049 57.9305,-22.8594 69.07237,-16.7642 77.8197,-0.3847 21.53965,-23.9836 52.66833,-21.2672 70.7742,-7.3256 -8.80189,-21.2539 37.58447,-17.5851 64.18568,-17.5762 z"
       id="path3549-3-78-5"
       inkscape:connector-curvature="0"
       sodipodi:nodetypes="ccccccccccccccc" />
    <path
       style="fill:#ffffff;fill-opacity:1;stroke:none;stroke-width:1.25115037"
       d="m 380.39295,339.54903 c 0,-0.0674 -0.0238,-0.13694 -0.0542,-0.20462 -0.99151,-2.16832 -10.45342,-10.27153 -9.46204,-12.43972 0.99229,-2.16833 9.79064,-12.08323 8.79927,-13.81799 -0.99137,-1.73451 -14.62444,-8.09528 -14.62444,-8.09528 0,0 6.56327,-10.51646 14.56443,-21.49596 -7.81319,-3.23848 -22.5796,-6.16316 -23.57097,-8.33162 -0.9915,-2.16819 16.89706,-24.42896 23.09379,-33.23287 -8.18396,-3.24403 -24.4246,-6.00916 -25.07653,-8.83259 -1.48811,-3.03557 17.47536,-22.24768 15.9883,-23.1148 -1.48705,-0.86739 -23.92191,6.63478 -24.4176,4.03276 -0.49568,-2.60202 -2.47843,-8.67278 -2.47843,-8.67278 l -2.97411,0.8662 c 0,0 7.93348,-18.214 10.90773,-20.38233 2.97503,-2.16819 -12.89206,1.30187 -16.8586,2.60295 3.96654,-7.80619 12.39637,-30.79001 14.87585,-32.52451 2.47843,-1.73463 -8.92498,3.03598 -12.39478,5.63786 1.48706,-3.46927 1.98274,-6.50617 1.98274,-6.50617 l -11.89909,9.97518 -0.99137,-3.03492 c 0,0 -5.45241,6.50419 -7.93097,6.50419 -2.47935,0 -5.45505,-16.91345 -5.45505,-16.91345 -14.85325,19.18686 -19.2371,7.09927 -21.81532,-7.80461 -3.32255,8.09633 -6.52732,13.77953 -9.40507,17.20069 l -4.91297,-16.52259 -9.99897,17.15958 -4.28563,-9.15247 -7.14356,9.15247 -11.42919,-25.16867 -7.14355,26.3139 -12.85941,-19.45004 -7.14355,19.45004 -9.99884,-10.2977 -1.92088,23.05361 c -4.1549,0 -25.16998,-6.71251 -30.76079,-10.05594 0.0397,13.16924 -0.17818,35.06307 -0.17818,50.97815 -1.53914,0.0291 -2.65251,0.12425 -2.79593,0.62628 -0.24348,0.85205 0.35451,5.17377 0.96295,9.59079 l -5.85015,14.05209 c -4.16838,1.65625 -8.72353,3.36022 -8.99464,4.54629 -0.30984,1.35527 2.28518,5.75868 4.15398,9.29483 2.6e-4,8e-4 -4e-4,0 0,0 l 1.20048,5.06723 c -2.53672,1.08747 -12.34931,0.62298 -12.78974,2.54901 -0.49569,2.16846 10.40939,11.70929 9.91371,13.01023 -0.49569,1.30094 -25.28512,6.0705 -26.77218,8.23856 -1.48705,2.16846 27.26786,16.04659 27.76355,17.3478 0.49674,1.30081 -33.71177,9.53871 -34.20746,11.27334 -0.49568,1.73477 23.30238,10.40874 22.80669,11.70982 -0.49568,1.30107 -14.38003,9.54108 -15.37141,11.27559 -0.99137,1.73476 30.74031,13.00996 30.74031,14.74472 0,1.73464 -13.38616,16.47871 -15.86458,17.77978 -2.47949,1.30108 12.89046,2.60268 12.89046,4.33732 0,1.73476 -8.92498,21.68128 -8.42929,22.11497 0.49568,0.43383 9.91635,-3.03558 9.91635,-1.7345 0,1.30094 -12.39478,21.68393 -9.91635,22.55131 2.47948,0.86712 -4.58146,37.23339 -10.41191,47.26884 12.63813,-7.7824 40.65282,-19.51574 43.62799,-17.34754 2.97411,2.16833 -0.49568,9.97584 0.99137,10.40953 1.48706,0.43356 7.93361,-4.76995 9.91636,-3.46901 1.98366,1.30094 9.91622,16.04448 12.39465,17.34529 2.47948,1.30095 8.92234,-6.50392 10.40939,-4.76942 1.48812,1.73464 10.90931,27.32113 13.38867,27.75482 2.47856,0.43356 14.37739,-13.01022 17.84732,-11.27559 3.47086,1.73464 4.9558,6.50578 7.43528,6.07195 2.47843,-0.43369 5.45506,-8.67423 7.93348,-8.24054 2.47856,0.43356 14.87321,4.77101 16.85595,6.07182 1.98275,1.30121 0.99138,-9.10673 2.97412,-9.10673 1.9838,0 12.86813,-23.79608 42.22262,2.94741 -6.26705,-38.28437 1.40537,-25.06437 5.37086,-39.37515 3.96654,-14.31103 28.75756,-8.67317 30.24461,-10.84136 1.48812,-2.16846 -8.4293,-18.2144 -4.95937,-20.38259 3.47073,-2.16833 9.91623,-3.0369 9.91623,-4.77167 0,-1.73437 -10.65922,-20.36937 -10.16354,-22.5377 0.49569,-2.16833 19.08852,-13.88911 19.58421,-16.92482 0.49568,-3.03558 -8.4293,-14.74565 -8.92499,-17.34767 -0.48022,-2.52046 11.13667,-4.63221 10.96192,-6.73339 z"
       id="path5888-3"
       inkscape:connector-curvature="0"
       sodipodi:nodetypes="ccccccccccscccccccccscccccccccccccccscccccccccccccscsssccccccccccccsccccsccccc" />
    <path
       style="color:#000000;display:inline;overflow:visible;visibility:visible;fill:#ffffff;fill-opacity:1;fill-rule:nonzero;stroke:none;stroke-width:1px;marker:none;enable-background:accumulate"
       d="m 291.00584,625.18537 c -2.85017,-2.46657 -28.01928,44.0725 -28.01928,44.0725 0,0 -24.11478,-17.84175 -27.74672,-16.80254 -7.01181,8.57053 -9.24798,19.67151 -9.24798,19.67151 l -49.06825,-17.09303 37.2035,4.73465 c 6.99649,-7.04558 13.40676,-14.88431 13.45592,-31.32768 l 27.67444,17.15607 15.70189,-31.33207 z"
       id="path4448"
       inkscape:connector-curvature="0"
       sodipodi:nodetypes="cccccccccc" />
    <path
       style="fill:#ffffff;fill-opacity:1;stroke:none;stroke-width:1.29790115"
       d="m 541.85947,602.11499 c 0,-0.0624 -0.0277,-0.12686 -0.063,-0.18947 -1.15232,-2.00773 -12.14896,-9.51082 -10.99678,-11.51844 1.15325,-2.00775 11.37868,-11.18836 10.22651,-12.79465 -1.15216,-1.60604 -16.99652,-7.49576 -16.99652,-7.49576 0,0 7.62783,-9.73762 16.92678,-19.90399 -9.08048,-2.99864 -26.24201,-5.70672 -27.39418,-7.71458 -1.15233,-2.00762 19.63776,-22.61978 26.83961,-30.77169 -9.51141,-3.00378 -28.38628,-5.56412 -29.14395,-8.17846 -1.72948,-2.81075 20.30986,-20.60005 18.58161,-21.40294 -1.72826,-0.80315 -27.80205,6.14342 -28.37813,3.7341 -0.57608,-2.40931 -2.88044,-8.03049 -2.88044,-8.03049 l -3.4565,0.80205 c 0,0 9.22029,-16.86508 12.67695,-18.87284 3.45758,-2.0076 -14.98315,1.20546 -19.59306,2.41018 4.60991,-7.22807 14.40706,-28.50973 17.28871,-30.11577 2.88043,-1.60617 -10.3726,2.81114 -14.40521,5.22032 1.72827,-3.21233 2.30434,-6.02433 2.30434,-6.02433 l -13.82911,9.23643 -1.15219,-2.81016 c 0,0 -6.33678,6.0225 -9.21736,6.0225 -2.88151,0 -6.33986,-15.66085 -6.33986,-15.66085 -17.26246,17.7659 -22.35736,6.5735 -25.35375,-7.22662 -3.86148,7.49673 -7.58607,12.75904 -10.93058,15.92682 l -5.70986,-15.29894 -11.62081,15.88876 -4.98075,-8.47464 -8.30225,8.47464 -13.28301,-23.30471 -8.30221,24.36513 -14.94522,-18.0096 -8.30223,18.0096 -11.62066,-9.53506 -2.23245,21.34627 c -4.82882,0 -29.25254,-6.21538 -35.75017,-9.3112 0.0462,12.19395 -0.20709,32.46633 -0.20709,47.20277 -1.78878,0.0269 -3.08274,0.11512 -3.24944,0.5799 -0.28295,0.78894 0.41203,4.79061 1.11917,8.8805 l -6.79905,13.01141 c -4.8445,1.5336 -10.13849,3.11137 -10.45358,4.2096 -0.36008,1.2549 2.65584,5.3322 4.82775,8.60647 3.3e-4,7.3e-4 -4.5e-4,0 0,0 l 1.39521,4.69195 c -2.94818,1.00693 -14.35237,0.57685 -14.86424,2.36024 -0.57608,2.00786 12.0978,10.84211 11.52171,12.0467 -0.5761,1.20459 -29.38636,5.62092 -31.11462,7.62842 -1.72824,2.00786 31.69071,14.8582 32.26679,16.06304 0.57733,1.20448 -39.17981,8.83228 -39.7559,10.43846 -0.57607,1.60629 27.08202,9.63787 26.50594,10.8426 -0.57608,1.20471 -16.71248,8.83447 -17.86465,10.44053 -1.15218,1.60628 35.72637,12.04646 35.72637,13.65275 0,1.60618 -15.55739,15.25831 -18.4378,16.46301 -2.88166,1.20473 14.98127,2.40994 14.98127,4.01611 0,1.60629 -10.37259,20.07559 -9.79651,20.47716 0.57607,0.40171 11.52479,-2.81077 11.52479,-1.60605 0,1.20461 -14.40522,20.07805 -11.52479,20.8812 2.88166,0.80289 -5.32458,34.47592 -12.10072,43.76816 14.68803,-7.20604 47.24669,-18.07043 50.70444,-16.0628 3.45652,2.00774 -0.57608,9.23704 1.15219,9.6386 1.72825,0.40145 9.22044,-4.41669 11.52478,-3.2121 2.30541,1.20461 11.52463,14.85625 14.40507,16.06073 2.88165,1.20461 10.36953,-6.02224 12.09778,-4.4162 1.72949,1.60618 12.67881,25.29775 15.56031,25.69933 2.88057,0.40145 16.7094,-12.0467 20.74217,-10.44054 4.03382,1.60617 5.75962,6.02398 8.64127,5.62227 2.88041,-0.40156 6.33987,-8.03183 9.2203,-7.63025 2.88057,0.40144 17.28563,4.41766 19.58997,5.62214 2.30435,1.20485 1.15218,-8.43228 3.45652,-8.43228 2.30557,0 14.95535,-22.03379 49.07114,2.72911 -7.28358,-35.44907 1.63331,-23.20813 6.242,-36.45906 4.6099,-13.25118 33.42203,-8.03084 35.15029,-10.03847 1.72949,-2.00785 -9.79653,-16.86545 -5.76378,-18.87307 4.03368,-2.00775 11.52464,-2.81199 11.52464,-4.41828 0,-1.60593 -12.38814,-18.86085 -11.81207,-20.8686 0.57609,-2.00773 22.18467,-12.86049 22.76076,-15.67138 0.57609,-2.81077 -9.79653,-13.6536 -10.37261,-16.06291 -0.5581,-2.33381 12.94303,-4.28916 12.73994,-6.23473 z"
       id="path5888-3-3"
       inkscape:connector-curvature="0"
       sodipodi:nodetypes="ccccccccccscccccccccscccccccccccccccscccccccccccccscsssccccccccccccsccccsccccc" />
    <g
       id="g4620"
       transform="matrix(1.1511767,0,0,1.1511767,-81.579154,-610.32095)">
      <path
         sodipodi:nodetypes="cccccccccccccccccccccccccccc"
         inkscape:connector-curvature="0"
         id="path4508-9"
         d="m 914.09845,3116.4223 c -16.99578,31.0828 -30.03617,58.0032 15.16426,38.3747 -34.18146,24.2211 -19.95873,35.196 -0.88517,42.2639 -17.48879,19.3425 -32.77934,32.5605 -21.2458,43.0219 -15.54295,3.045 -9.67735,11.2626 -9.20926,18.1761 -3.57844,2.1162 8.50528,-13.774 18.67233,18.1669 22.26236,-2.9637 -3.427,19.8798 5.99363,38.7384 -18.90361,3.9668 -30.36212,0.8119 -5.15152,28.9855 -25.5198,-10.8886 -29.35805,-6.9943 -19.96797,5.9195 -10.43675,-6.1686 -18.55921,-9.939 -1.36052,12.531 -19.39808,-8.2742 -7.49835,18.522 11.6412,45.0478 -21.39713,-25.3799 -45.12117,-60.4538 -43.37843,-32.8558 -6.00636,-4.0968 -10.79499,-17.9938 -22.31508,22.2819 -3.86046,-7.7777 3.25779,-30.709 -15.30603,-12.1237 -2.18448,2.5031 -3.07641,-6.2299 -9.24798,10.0982 0.79237,-9.7613 -0.27577,-15.8147 -8.72695,-7.1548 1.20441,-17.8285 -7.56171,-11.5158 -18.93976,1.1216 22.60345,-32.5589 26.92105,-43.1194 4.48605,-27.8917 20.30583,-31.5778 18.37612,-43.0839 2.65062,-39.6254 17.1019,-13.0778 20.66831,-28.7422 2.14711,-42.3517 20.26617,-12.7882 18.64986,-22.1649 5.04424,-51.244 16.02789,16.0602 6.33532,-6.2232 0.17919,-23.2349 20.45332,10.0513 7.77098,-13.7689 -11.24494,-44.064 22.31179,17.4672 14.80148,-1.6038 -0.34966,-30.0367 22.16533,11.4506 33.83713,-5.1413 36.47247,-45.8835 7.31789,19.8697 17.09468,31.6939 36.43588,12.2214 -6.42172,22.6132 -1.66368,29.6457 19.09359,14.3801 -17.54035,24.2115 6.83299,13.9094 29.3485,5.1373 z"
         style="display:inline;fill:#ffffff;fill-rule:evenodd;stroke:none;stroke-width:0.64211345px;stroke-linecap:butt;stroke-linejoin:miter;stroke-opacity:1" />
      <path
         sodipodi:nodetypes="cccccccccccccccccccccccccccc"
         inkscape:connector-curvature="0"
         id="path4508-9-6"
         d="m 874.04742,3118.1974 c 17.58308,30.7545 31.13242,57.4223 -14.43267,38.6558 34.63534,23.5676 20.62361,34.8106 1.68773,42.2395 17.85301,19.0069 33.39185,31.9321 22.05909,42.6106 15.59798,2.7493 9.88952,11.0768 9.55282,17.9979 3.61798,2.0479 -8.76535,-13.6099 -18.32392,18.5182 -22.31463,-2.5402 3.80396,19.8112 -5.25678,38.8453 18.97553,3.607 30.37206,0.2351 5.70111,28.8824 25.30839,-11.3713 29.2199,-7.5507 20.07679,5.5392 10.31771,-6.3657 18.36709,-10.2896 1.59827,12.503 19.23744,-8.6411 7.8488,18.3761 -10.78349,45.2608 20.91122,-25.7818 43.96482,-61.3 42.74657,-33.6738 5.92746,-4.2102 10.45128,-18.1956 22.73425,21.854 3.71205,-7.8496 -3.84045,-30.6415 15.07301,-12.4122 2.23162,2.4611 2.95752,-6.2872 9.4381,9.9207 -0.97762,-9.7445 -0.0246,-15.817 8.58949,-7.3192 -1.54281,-17.8025 7.34162,-11.6574 18.95761,0.7616 -23.21773,-32.1236 -27.73513,-42.6003 -5.01496,-27.8015 -20.90192,-31.1863 -19.19109,-42.727 -3.40275,-39.5679 -17.34719,-12.7506 -21.21048,-28.3444 -2.9511,-42.3032 -20.5054,-12.401 -19.06747,-21.8067 -6.01662,-51.139 -15.71996,16.3618 -6.45237,-6.1018 -0.62045,-23.2273 -20.25873,10.438 -8.03109,-13.6188 10.406,-44.2696 -21.97601,17.8878 -14.82927,-1.3224 -0.22089,-30.038 -21.94385,11.8696 -33.92868,-4.4977 -37.33736,-45.1825 -6.93918,20.0052 -16.48963,32.013 -36.19718,12.9113 6.85005,22.4872 2.22644,29.6087 -18.81703,14.7402 17.99704,23.8739 -6.56757,14.0366 -29.24564,5.6937 z"
         style="display:inline;fill:#ffffff;fill-rule:evenodd;stroke:none;stroke-width:0.64211345px;stroke-linecap:butt;stroke-linejoin:miter;stroke-opacity:1" />
      <path
         sodipodi:nodetypes="ccccccccccccccc"
         inkscape:connector-curvature="0"
         id="path3549-3-78-5-7"
         d="m 849.98281,3341.5536 c 2.9785,-11.8971 22.306,-24.1716 35.2868,-4.8393 0.688,-16.041 7.3316,-25.2211 20.9326,-10.0902 -17.0282,-33.6359 6.109,-42.5526 33.2935,-31.5483 -13.0575,-49.3695 -15.72,-71.2802 12.9191,-61.0203 -23.6321,-22.7425 -19.2215,-44.5567 8.4238,-50.1763 -20.6058,-5.1249 -31.8674,-16.0656 -5.9229,-48.678 -7.5606,-2.4006 -32.4271,8.6466 -25.5615,-61.676 -14.4116,26.6504 -17.0575,42.6399 -23.1541,-2.7111 -6.4833,23.1125 -16.2056,53.8291 -30.1585,17.8074 -4.4069,23.3403 -8.7539,45.2282 -35.4404,0.388 12.6127,29.5627 4.4394,61.0195 -15.9049,39.7645 22.8594,57.9305 16.7642,69.0724 0.3847,77.8197 23.9836,21.5397 21.2672,52.6684 7.3256,70.7742 21.2539,-8.8019 17.5851,37.5845 17.5762,64.1857 z"
         style="color:#000000;display:inline;overflow:visible;visibility:visible;fill:#ffffff;fill-opacity:1;fill-rule:nonzero;stroke:none;stroke-width:1.13598561px;marker:none;enable-background:accumulate" />
      <path
         sodipodi:nodetypes="ccccccccccccccc"
         inkscape:connector-curvature="0"
         id="path3549-3-78-5-7-5"
         d="m 953.48409,3168.2069 c -3.68875,11.8971 -27.62505,24.1716 -43.70123,4.8393 -0.85206,16.041 -9.07988,25.2211 -25.92415,10.0902 21.08871,33.6359 -7.56575,42.5526 -41.23262,31.5483 16.17117,49.3695 19.46857,71.2802 -15.99977,61.0203 29.26738,22.7425 23.80503,44.5567 -10.43252,50.1763 25.51942,5.1249 39.46645,16.0656 7.33526,48.678 9.36349,2.4006 40.15962,-8.6466 31.65686,61.676 17.84816,-26.6504 21.125,-42.6399 28.67539,2.7111 8.02929,-23.1125 20.06996,-53.8291 37.35004,-17.8074 5.45777,-23.3403 10.84134,-45.2282 43.89146,-0.388 -15.6203,-29.5627 -5.49801,-61.0195 19.69756,-39.7645 -28.31042,-57.9305 -20.76176,-69.0724 -0.47643,-77.8197 -29.7027,-21.5397 -26.33855,-52.6684 -9.07246,-70.7742 -26.32207,8.8019 -21.77841,-37.5845 -21.76739,-64.1857 z"
         style="color:#000000;display:inline;overflow:visible;visibility:visible;fill:#ffffff;fill-opacity:1;fill-rule:nonzero;stroke:none;stroke-width:1.26419342px;marker:none;enable-background:accumulate" />
    </g>
  </g>
  <g
     inkscape:groupmode="layer"
     id="layer1"
     inkscape:label="txt">
    <text
       xml:space="preserve"
       style="font-style:normal;font-variant:normal;font-weight:normal;font-stretch:normal;font-size:15.89058971px;line-height:0%;font-family:Lavi;-inkscape-font-specification:Lavi;text-align:center;letter-spacing:0px;word-spacing:0px;text-anchor:middle;fill:#000000;fill-opacity:1;stroke:none;stroke-width:1.17751098"
       x="260.75604"
       y="307.92661"
       id="text4246-1-3-2-8"
       transform="scale(0.99789912,1.0021053)"><tspan
         sodipodi:role="line"
         style="font-style:normal;font-variant:normal;font-weight:bold;font-stretch:normal;font-size:46.66666794px;line-height:1.25;font-family:Lavi;-inkscape-font-specification:'Lavi Bold';stroke-width:1.17751098"
         x="268.95917"
         y="307.92661"
         id="tspan829">Sabi ko </tspan><tspan
         sodipodi:role="line"
         style="font-style:normal;font-variant:normal;font-weight:bold;font-stretch:normal;font-size:46.66666794px;line-height:1.25;font-family:Lavi;-inkscape-font-specification:'Lavi Bold';stroke-width:1.17751098"
         x="260.75604"
         y="366.25995"
         id="tspan4540">TIGIL!!!</tspan></text>
    <text
       xml:space="preserve"
       style="font-style:normal;font-variant:normal;font-weight:normal;font-stretch:normal;font-size:15.89058971px;line-height:0%;font-family:Lavi;-inkscape-font-specification:Lavi;text-align:center;letter-spacing:0px;word-spacing:0px;text-anchor:middle;fill:#000000;fill-opacity:1;stroke:none;stroke-width:1.17751098"
       x="402.72925"
       y="546.28973"
       id="text4246-1-3-2-8-3"
       transform="scale(0.99789912,1.0021053)"><tspan
         sodipodi:role="line"
         style="font-style:normal;font-variant:normal;font-weight:bold;font-stretch:normal;font-size:46.66666794px;line-height:1.25;font-family:Lavi;-inkscape-font-specification:'Lavi Bold';stroke-width:1.17751098"
         x="410.93237"
         y="546.28973"
         id="tspan829-7">Tama </tspan><tspan
         sodipodi:role="line"
         style="font-style:normal;font-variant:normal;font-weight:bold;font-stretch:normal;font-size:46.66666794px;line-height:1.25;font-family:Lavi;-inkscape-font-specification:'Lavi Bold';stroke-width:1.17751098"
         x="402.72925"
         y="604.62305"
         id="tspan4542">na yan!</tspan></text>
    <text
       xml:space="preserve"
       style="font-style:normal;font-variant:normal;font-weight:normal;font-stretch:normal;line-height:0%;font-family:Lavi;-inkscape-font-specification:Lavi;letter-spacing:0px;word-spacing:0px;fill:#000000;fill-opacity:1;stroke:#ffffff;stroke-width:2.66678286;stroke-miterlimit:4;stroke-dasharray:none;stroke-opacity:1;filter:url(#filter4375-4-1-1-1-9-0)"
       x="787.65729"
       y="1584.5073"
       id="text4580-25"
       transform="matrix(0.55718765,-0.37423929,0.21813977,1.0749149,-120.92735,-234.76499)"><tspan
         sodipodi:role="line"
         id="tspan4582-4"
         x="787.65729"
         y="1584.5073"
         style="font-size:70px;line-height:100%;letter-spacing:4.88345098px;fill:#ffffff;stroke:#ffffff;stroke-width:2.66678286;stroke-miterlimit:4;stroke-dasharray:none;stroke-opacity:1"><tspan
           style="font-size:55.34964371px;line-height:100%;letter-spacing:4.88345098px;stroke:#ffffff;stroke-width:2.66678286;stroke-miterlimit:4;stroke-dasharray:none;stroke-opacity:1"
           id="tspan4439-4">Snap</tspan><tspan
           style="font-size:80.40014648px;line-height:100%;letter-spacing:4.88345098px;stroke:#ffffff;stroke-width:2.66678286;stroke-miterlimit:4;stroke-dasharray:none;stroke-opacity:1"
           id="tspan4617-9">!</tspan></tspan></text>
    <text
       xml:space="preserve"
       style="font-style:normal;font-variant:normal;font-weight:normal;font-stretch:normal;line-height:0%;font-family:Lavi;-inkscape-font-specification:Lavi;letter-spacing:0px;word-spacing:0px;display:inline;fill:#ffffff;fill-opacity:1;stroke:#000000;stroke-width:0.48148537;stroke-miterlimit:4;stroke-dasharray:none;stroke-opacity:1;filter:url(#filter4375-4-1-1-1-9-5-8-3-8)"
       x="787.65729"
       y="1584.5073"
       id="text4580-6-0-8-8"
       transform="matrix(1.5492299,-0.0813593,-0.87667877,1.9075458,1570.733,-1836.1775)"><tspan
         sodipodi:role="line"
         id="tspan4582-1-1-8-2"
         x="787.65729"
         y="1584.5073"
         style="font-style:normal;font-variant:normal;font-weight:bold;font-stretch:normal;font-size:70px;line-height:1.25;font-family:'Noto Sans';-inkscape-font-specification:'Noto Sans Bold';letter-spacing:5.87610865px;fill:#ffffff;fill-opacity:1;stroke:#000000;stroke-width:0.48148537;stroke-opacity:1"><tspan
           style="font-style:normal;font-variant:normal;font-weight:bold;font-stretch:normal;font-size:93.14950562px;font-family:'Noto Sans';-inkscape-font-specification:'Noto Sans Bold';letter-spacing:5.87610865px;fill:#ffffff;fill-opacity:1;stroke:#000000;stroke-width:0.48148537;stroke-opacity:1"
           id="tspan4315-8-97-3">PO<tspan
   style="font-style:normal;font-variant:normal;font-weight:bold;font-stretch:normal;font-size:81.11493683px;font-family:'Noto Sans';-inkscape-font-specification:'Noto Sans Bold';stroke-width:0.48148537"
   id="tspan912">OOF</tspan></tspan><tspan
           style="font-style:normal;font-variant:normal;font-weight:bold;font-stretch:normal;font-size:114.73223114px;font-family:'Noto Sans';-inkscape-font-specification:'Noto Sans Bold';letter-spacing:5.87610865px;fill:#ffffff;fill-opacity:1;stroke:#000000;stroke-width:0.48148537;stroke-opacity:1"
           id="tspan4313-2-76-0">!</tspan></tspan></text>
    <text
       xml:space="preserve"
       style="font-style:normal;font-variant:normal;font-weight:normal;font-stretch:normal;line-height:0%;font-family:Lavi;-inkscape-font-specification:Lavi;letter-spacing:0px;word-spacing:0px;fill:#000000;fill-opacity:1;stroke:#ffffff;stroke-width:4.21925974;stroke-miterlimit:4;stroke-dasharray:none;stroke-opacity:1;filter:url(#filter4375-4-1-1-1-9-0-5)"
       x="787.65729"
       y="1584.5073"
       id="text4580-25-2"
       transform="matrix(0.37191843,0.11061463,-0.38324889,0.61702867,2371.8774,1301.4149)"><tspan
         sodipodi:role="line"
         id="tspan4582-4-7"
         x="787.65729"
         y="1584.5073"
         style="font-style:normal;font-variant:normal;font-weight:bold;font-stretch:normal;font-size:80.40014648px;line-height:100%;font-family:'Noto Sans';-inkscape-font-specification:'Noto Sans Bold';letter-spacing:4.88345098px;fill:#ffffff;stroke:#ffffff;stroke-width:4.21925974;stroke-miterlimit:4;stroke-dasharray:none;stroke-opacity:1">TCHK!</tspan></text>
    <text
       xml:space="preserve"
       style="font-style:normal;font-variant:normal;font-weight:normal;font-stretch:normal;font-size:15.89058971px;line-height:0%;font-family:Lavi;-inkscape-font-specification:Lavi;text-align:center;letter-spacing:0px;word-spacing:0px;text-anchor:middle;fill:#000000;fill-opacity:1;stroke:none;stroke-width:1.17751098"
       x="525.8335"
       y="2847.2649"
       id="text4246-1-3-2-8-3-3"
       transform="scale(0.99789912,1.0021053)"><tspan
         sodipodi:role="line"
         style="font-style:normal;font-variant:normal;font-weight:bold;font-stretch:normal;font-size:46.66666794px;line-height:1.25;font-family:Lavi;-inkscape-font-specification:'Lavi Bold';stroke-width:1.17751098"
         x="534.03662"
         y="2847.2649"
         id="tspan829-7-6">Kayong </tspan><tspan
         sodipodi:role="line"
         style="font-style:normal;font-variant:normal;font-weight:bold;font-stretch:normal;font-size:46.66666794px;line-height:1.25;font-family:Lavi;-inkscape-font-specification:'Lavi Bold';stroke-width:1.17751098"
         x="525.8335"
         y="2905.5981"
         id="tspan4559">dalawa!</tspan></text>
    <text
       xml:space="preserve"
       style="font-style:normal;font-variant:normal;font-weight:normal;font-stretch:normal;font-size:15.89058971px;line-height:0%;font-family:Lavi;-inkscape-font-specification:Lavi;text-align:center;letter-spacing:0px;word-spacing:0px;text-anchor:middle;fill:#000000;fill-opacity:1;stroke:none;stroke-width:1.17751098"
       x="755.59882"
       y="2989.9026"
       id="text4246-1-3-2-8-3-3-7"
       transform="scale(0.99789912,1.0021053)"><tspan
         sodipodi:role="line"
         style="font-style:normal;font-variant:normal;font-weight:bold;font-stretch:normal;font-size:46.66666794px;line-height:1.25;font-family:Lavi;-inkscape-font-specification:'Lavi Bold';stroke-width:1.17751098"
         x="755.59882"
         y="2989.9026"
         id="tspan829-7-6-5">DITO!</tspan></text>
    <text
       xml:space="preserve"
       style="font-style:normal;font-variant:normal;font-weight:normal;font-stretch:normal;font-size:15.89058971px;line-height:0%;font-family:Lavi;-inkscape-font-specification:Lavi;text-align:center;letter-spacing:0px;word-spacing:0px;text-anchor:middle;fill:#000000;fill-opacity:1;stroke:none;stroke-width:1.17751098"
       x="2017.1255"
       y="3132.6614"
       id="text4246-1-3-2-8-36-2"
       transform="matrix(0.99789912,0,-0.33950833,1.0021053,0,0)"><tspan
         sodipodi:role="line"
         style="font-style:normal;font-variant:normal;font-weight:bold;font-stretch:normal;font-size:46.66666794px;line-height:1.25;font-family:Lavi;-inkscape-font-specification:'Lavi Bold';fill:#800000;stroke:#800000;stroke-width:1.17751098"
         x="2017.1255"
         y="3132.6614"
         id="tspan1020-8">NGAYON</tspan><tspan
         sodipodi:role="line"
         style="font-style:normal;font-variant:normal;font-weight:bold;font-stretch:normal;font-size:46.66666794px;line-height:1.25;font-family:Lavi;-inkscape-font-specification:'Lavi Bold';fill:#800000;stroke:#800000;stroke-width:1.17751098"
         x="2017.1255"
         y="3190.9946"
         id="tspan4561"> DIN!</tspan></text>
    <flowRoot
       xml:space="preserve"
       id="flowRoot4563"
       style="fill:black;fill-opacity:1;stroke:none;font-family:sans-serif;font-style:normal;font-weight:normal;font-size:40px;line-height:1.25;letter-spacing:0px;word-spacing:0px"><flowRegion
         id="flowRegion4565"><rect
           id="rect4567"
           width="81.93364"
           height="129.08412"
           x="645.42065"
           y="3080.9644" /></flowRegion><flowPara
         id="flowPara4569"></flowPara></flowRoot>  </g>
</svg>
