<?xml version="1.0" encoding="UTF-8" standalone="no"?>
<!-- Created with Inkscape (http://www.inkscape.org/) -->

<svg
   xmlns:dc="http://purl.org/dc/elements/1.1/"
   xmlns:cc="http://creativecommons.org/ns#"
   xmlns:rdf="http://www.w3.org/1999/02/22-rdf-syntax-ns#"
   xmlns:svg="http://www.w3.org/2000/svg"
   xmlns="http://www.w3.org/2000/svg"
   xmlns:xlink="http://www.w3.org/1999/xlink"
   xmlns:sodipodi="http://sodipodi.sourceforge.net/DTD/sodipodi-0.dtd"
   xmlns:inkscape="http://www.inkscape.org/namespaces/inkscape"
   id="svg2"
   version="1.1"
   inkscape:version="0.92.1 unknown"
   width="2481"
   height="3503"
   sodipodi:docname="Pepper-and-Carrot_by-David-Revoy_E22P03.svg"
   viewBox="0 0 2481 3503">
  <metadata
     id="metadata8">
    <rdf:RDF>
      <cc:Work
         rdf:about="">
        <dc:format>image/svg+xml</dc:format>
        <dc:type
           rdf:resource="http://purl.org/dc/dcmitype/StillImage" />
        <dc:title />
      </cc:Work>
    </rdf:RDF>
  </metadata>
  <defs
     id="defs6">
    <filter
       style="color-interpolation-filters:sRGB"
       inkscape:label="OSD glow"
       id="filter4610">
      <feFlood
         flood-opacity="1"
         flood-color="rgb(155,255,249)"
         result="flood"
         id="feFlood4612" />
      <feComposite
         in="flood"
         in2="SourceGraphic"
         operator="in"
         result="composite1"
         id="feComposite4614" />
      <feGaussianBlur
         in="composite1"
         stdDeviation="6.5"
         result="blur"
         id="feGaussianBlur4616" />
      <feOffset
         dx="0"
         dy="0"
         result="offset"
         id="feOffset4618" />
      <feComposite
         in="SourceGraphic"
         in2="offset"
         operator="over"
         result="composite2"
         id="feComposite4620" />
    </filter>
    <filter
       id="filter4761"
       inkscape:label="thumb-glow"
       style="color-interpolation-filters:sRGB">
      <feFlood
         id="feFlood4763"
         result="flood"
         flood-color="rgb(255,255,255)"
         flood-opacity="1" />
      <feComposite
         id="feComposite4765"
         result="composite1"
         operator="in"
         in2="SourceGraphic"
         in="flood" />
      <feGaussianBlur
         id="feGaussianBlur4767"
         result="blur"
         stdDeviation="6.5"
         in="composite1" />
      <feOffset
         id="feOffset4769"
         result="offset"
         dy="0"
         dx="0" />
      <feComposite
         id="feComposite4771"
         result="composite2"
         operator="over"
         in2="offset"
         in="SourceGraphic" />
    </filter>
    <filter
       style="color-interpolation-filters:sRGB"
       id="filter4375-4-1-1-1-9-5-8-8"
       inkscape:label="fx-green">
      <feFlood
         id="feFlood4377-7-9-0-8-1-7-3-1"
         flood-opacity="1"
         flood-color="rgb(104,199,61)"
         result="flood" />
      <feComposite
         id="feComposite4379-3-8-8-2-77-4-1-0"
         in2="SourceGraphic"
         in="flood"
         operator="in"
         result="composite1"
         baseFrequency="0.053999999999999999 0.053999999999999999" />
      <feMorphology
         id="feMorphology4393-1-0-49-8-9-3-0-1"
         operator="dilate"
         radius="5"
         result="result3" />
      <feComposite
         id="feComposite4385-9-5-7-0-8-8-7-5"
         in2="result3"
         in="SourceGraphic"
         operator="over"
         result="fbSourceGraphic" />
      <feColorMatrix
         result="fbSourceGraphicAlpha"
         in="fbSourceGraphic"
         values="0 0 0 -1 0 0 0 0 -1 0 0 0 0 -1 0 0 0 0 1 0"
         id="feColorMatrix4544-9" />
      <feTurbulence
         id="feTurbulence4546-3"
         type="fractalNoise"
         numOctaves="5"
         seed="174"
         baseFrequency="0 0"
         result="turbulence" />
      <feDisplacementMap
         id="feDisplacementMap4548-8"
         in2="turbulence"
         in="fbSourceGraphic"
         scale="0"
         yChannelSelector="G"
         xChannelSelector="R"
         result="fbSourceGraphic" />
      <feColorMatrix
         result="fbSourceGraphicAlpha"
         in="fbSourceGraphic"
         values="0 0 0 -1 0 0 0 0 -1 0 0 0 0 -1 0 0 0 0 1 0"
         id="feColorMatrix4670-7" />
      <feFlood
         id="feFlood4672-4"
         flood-opacity="1"
         flood-color="rgb(255,255,255)"
         result="flood"
         in="fbSourceGraphic"
         stdDeviation="2.7999999999999998" />
      <feComposite
         id="feComposite4674-8"
         in2="fbSourceGraphic"
         in="flood"
         operator="in"
         result="composite1" />
      <feGaussianBlur
         id="feGaussianBlur4676-3"
         in="composite1"
         stdDeviation="0.90000000000000002"
         result="blur" />
      <feOffset
         id="feOffset4678-6"
         dx="0"
         dy="0"
         result="offset" />
      <feComposite
         id="feComposite4680-4"
         in2="offset"
         in="fbSourceGraphic"
         operator="over"
         result="composite2" />
    </filter>
    <filter
       style="color-interpolation-filters:sRGB"
       id="filter4375-4-1-1-1-9-5-8-8-0"
       inkscape:label="fx-red">
      <feFlood
         id="feFlood4377-7-9-0-8-1-7-3-1-4"
         flood-opacity="1"
         flood-color="rgb(198,65,60)"
         result="flood" />
      <feComposite
         id="feComposite4379-3-8-8-2-77-4-1-0-1"
         in2="SourceGraphic"
         in="flood"
         operator="in"
         result="composite1"
         baseFrequency="0.053999999999999999 0.053999999999999999" />
      <feMorphology
         id="feMorphology4393-1-0-49-8-9-3-0-1-3"
         operator="dilate"
         radius="5"
         result="result3" />
      <feComposite
         id="feComposite4385-9-5-7-0-8-8-7-5-02"
         in2="result3"
         in="SourceGraphic"
         operator="over"
         result="fbSourceGraphic" />
      <feColorMatrix
         result="fbSourceGraphicAlpha"
         in="fbSourceGraphic"
         values="0 0 0 -1 0 0 0 0 -1 0 0 0 0 -1 0 0 0 0 1 0"
         id="feColorMatrix4544-9-9" />
      <feTurbulence
         id="feTurbulence4546-3-6"
         type="fractalNoise"
         numOctaves="5"
         seed="174"
         baseFrequency="0 0"
         result="turbulence" />
      <feDisplacementMap
         id="feDisplacementMap4548-8-0"
         in2="turbulence"
         in="fbSourceGraphic"
         scale="0"
         yChannelSelector="G"
         xChannelSelector="R"
         result="fbSourceGraphic" />
      <feColorMatrix
         result="fbSourceGraphicAlpha"
         in="fbSourceGraphic"
         values="0 0 0 -1 0 0 0 0 -1 0 0 0 0 -1 0 0 0 0 1 0"
         id="feColorMatrix4670-7-93" />
      <feFlood
         id="feFlood4672-4-5"
         flood-opacity="1"
         flood-color="rgb(255,255,255)"
         result="flood"
         in="fbSourceGraphic"
         stdDeviation="2.7999999999999998" />
      <feComposite
         id="feComposite4674-8-4"
         in2="fbSourceGraphic"
         in="flood"
         operator="in"
         result="composite1" />
      <feGaussianBlur
         id="feGaussianBlur4676-3-3"
         in="composite1"
         stdDeviation="0.90000000000000002"
         result="blur" />
      <feOffset
         id="feOffset4678-6-6"
         dx="0"
         dy="0"
         result="offset" />
      <feComposite
         id="feComposite4680-4-4"
         in2="offset"
         in="fbSourceGraphic"
         operator="over"
         result="composite2" />
    </filter>
    <filter
       style="color-interpolation-filters:sRGB"
       id="filter4375-4-1-1-1-9-6-9-2-1"
       inkscape:label="deevad outline effect">
      <feFlood
         id="feFlood4377-7-9-0-8-1-0-2-2-06"
         flood-opacity="1"
         flood-color="rgb(0,0,0)"
         result="flood" />
      <feComposite
         id="feComposite4379-3-8-8-2-77-6-0-8-3"
         in2="SourceGraphic"
         in="flood"
         operator="in"
         result="composite1" />
      <feMorphology
         id="feMorphology4393-1-0-49-8-9-2-2-9-2"
         operator="dilate"
         radius="4"
         result="result3" />
      <feComposite
         id="feComposite4385-9-5-7-0-8-6-3-7-0"
         in2="result3"
         in="SourceGraphic"
         operator="over"
         result="composite2" />
    </filter>
    <linearGradient
       inkscape:collect="always"
       xlink:href="#linearGradient4197"
       id="linearGradient4203"
       x1="1294.5955"
       y1="356.86307"
       x2="1292.6337"
       y2="414.89822"
       gradientUnits="userSpaceOnUse" />
    <linearGradient
       inkscape:collect="always"
       id="linearGradient4197">
      <stop
         style="stop-color:#ffd005;stop-opacity:1"
         offset="0"
         id="stop4199" />
      <stop
         style="stop-color:#fff798;stop-opacity:1"
         offset="1"
         id="stop4201" />
    </linearGradient>
    <filter
       style="color-interpolation-filters:sRGB"
       id="filter4375-4-1-1-1-9-5-8-8-8"
       inkscape:label="Score-style">
      <feFlood
         id="feFlood4377-7-9-0-8-1-7-3-1-45"
         flood-opacity="1"
         flood-color="rgb(210,55,0)"
         result="flood" />
      <feComposite
         id="feComposite4379-3-8-8-2-77-4-1-0-0"
         in2="SourceGraphic"
         in="flood"
         operator="in"
         result="composite1"
         baseFrequency="0.053999999999999999 0.053999999999999999" />
      <feMorphology
         id="feMorphology4393-1-0-49-8-9-3-0-1-36"
         operator="dilate"
         radius="3.7999999999999998"
         result="result3" />
      <feComposite
         id="feComposite4385-9-5-7-0-8-8-7-5-1"
         in2="result3"
         in="SourceGraphic"
         operator="over"
         result="fbSourceGraphic" />
      <feColorMatrix
         result="fbSourceGraphicAlpha"
         in="fbSourceGraphic"
         values="0 0 0 -1 0 0 0 0 -1 0 0 0 0 -1 0 0 0 0 1 0"
         id="feColorMatrix4544-9-0" />
      <feTurbulence
         id="feTurbulence4546-3-63"
         type="fractalNoise"
         numOctaves="5"
         seed="174"
         baseFrequency="0 0"
         result="turbulence" />
      <feDisplacementMap
         id="feDisplacementMap4548-8-2"
         in2="turbulence"
         in="fbSourceGraphic"
         scale="0"
         yChannelSelector="G"
         xChannelSelector="R"
         result="fbSourceGraphic" />
      <feColorMatrix
         result="fbSourceGraphicAlpha"
         in="fbSourceGraphic"
         values="0 0 0 -1 0 0 0 0 -1 0 0 0 0 -1 0 0 0 0 1 0"
         id="feColorMatrix4670-7-0" />
      <feFlood
         id="feFlood4672-4-6"
         flood-opacity="1"
         flood-color="rgb(255,255,255)"
         result="flood"
         in="fbSourceGraphic"
         stdDeviation="2.7999999999999998" />
      <feComposite
         id="feComposite4674-8-1"
         in2="fbSourceGraphic"
         in="flood"
         operator="in"
         result="composite1" />
      <feGaussianBlur
         id="feGaussianBlur4676-3-5"
         in="composite1"
         stdDeviation="0.01"
         result="blur" />
      <feOffset
         id="feOffset4678-6-5"
         dx="0"
         dy="0"
         result="offset"
         stdDeviation="4.7000000000000002" />
      <feComposite
         id="feComposite4680-4-47"
         in2="offset"
         in="fbSourceGraphic"
         operator="over"
         result="composite2" />
    </filter>
    <linearGradient
       inkscape:collect="always"
       xlink:href="#linearGradient4197"
       id="linearGradient4203-3"
       x1="1294.5955"
       y1="356.86307"
       x2="1292.6337"
       y2="414.89822"
       gradientUnits="userSpaceOnUse" />
    <filter
       style="color-interpolation-filters:sRGB"
       id="filter4375-4-1-1-1-9-5-8-8-8-5"
       inkscape:label="Score-style">
      <feFlood
         id="feFlood4377-7-9-0-8-1-7-3-1-45-3"
         flood-opacity="1"
         flood-color="rgb(210,55,0)"
         result="flood" />
      <feComposite
         id="feComposite4379-3-8-8-2-77-4-1-0-0-5"
         in2="SourceGraphic"
         in="flood"
         operator="in"
         result="composite1"
         baseFrequency="0.053999999999999999 0.053999999999999999" />
      <feMorphology
         id="feMorphology4393-1-0-49-8-9-3-0-1-36-6"
         operator="dilate"
         radius="3.7999999999999998"
         result="result3" />
      <feComposite
         id="feComposite4385-9-5-7-0-8-8-7-5-1-2"
         in2="result3"
         in="SourceGraphic"
         operator="over"
         result="fbSourceGraphic" />
      <feColorMatrix
         result="fbSourceGraphicAlpha"
         in="fbSourceGraphic"
         values="0 0 0 -1 0 0 0 0 -1 0 0 0 0 -1 0 0 0 0 1 0"
         id="feColorMatrix4544-9-0-9" />
      <feTurbulence
         id="feTurbulence4546-3-63-1"
         type="fractalNoise"
         numOctaves="5"
         seed="174"
         baseFrequency="0 0"
         result="turbulence" />
      <feDisplacementMap
         id="feDisplacementMap4548-8-2-2"
         in2="turbulence"
         in="fbSourceGraphic"
         scale="0"
         yChannelSelector="G"
         xChannelSelector="R"
         result="fbSourceGraphic" />
      <feColorMatrix
         result="fbSourceGraphicAlpha"
         in="fbSourceGraphic"
         values="0 0 0 -1 0 0 0 0 -1 0 0 0 0 -1 0 0 0 0 1 0"
         id="feColorMatrix4670-7-0-7" />
      <feFlood
         id="feFlood4672-4-6-0"
         flood-opacity="1"
         flood-color="rgb(255,255,255)"
         result="flood"
         in="fbSourceGraphic"
         stdDeviation="2.7999999999999998" />
      <feComposite
         id="feComposite4674-8-1-9"
         in2="fbSourceGraphic"
         in="flood"
         operator="in"
         result="composite1" />
      <feGaussianBlur
         id="feGaussianBlur4676-3-5-3"
         in="composite1"
         stdDeviation="0.01"
         result="blur" />
      <feOffset
         id="feOffset4678-6-5-6"
         dx="0"
         dy="0"
         result="offset"
         stdDeviation="4.7000000000000002" />
      <feComposite
         id="feComposite4680-4-47-0"
         in2="offset"
         in="fbSourceGraphic"
         operator="over"
         result="composite2" />
    </filter>
    <linearGradient
       inkscape:collect="always"
       xlink:href="#linearGradient4197"
       id="linearGradient4317"
       x1="1294.5955"
       y1="356.86307"
       x2="1292.6337"
       y2="414.89822"
       gradientUnits="userSpaceOnUse" />
    <linearGradient
       inkscape:collect="always"
       xlink:href="#linearGradient4197"
       id="linearGradient4325"
       x1="1294.5955"
       y1="356.86307"
       x2="1292.6337"
       y2="414.89822"
       gradientUnits="userSpaceOnUse" />
  </defs>
  <sodipodi:namedview
     pagecolor="#ffffff"
     bordercolor="#666666"
     borderopacity="1"
     objecttolerance="10"
     gridtolerance="10"
     guidetolerance="10"
     inkscape:pageopacity="0"
     inkscape:pageshadow="2"
     inkscape:window-width="1920"
     inkscape:window-height="1056"
     id="namedview4"
     showgrid="false"
     inkscape:zoom="0.57625456"
     inkscape:cx="1323.2"
     inkscape:cy="1958.8758"
     inkscape:window-x="0"
     inkscape:window-y="24"
     inkscape:window-maximized="1"
     inkscape:current-layer="layer1" />
  <g
     inkscape:groupmode="layer"
     id="layer2"
     inkscape:label="artwork"
     sodipodi:insensitive="true">
    <image
       sodipodi:absref="/home/oet/peppercarrot/peppercarrot_ep22_translation/sv/../gfx_Pepper-and-Carrot_by-David-Revoy_E22P03.png"
       xlink:href="../gfx_Pepper-and-Carrot_by-David-Revoy_E22P03.png"
       width="2481"
       height="3503"
       id="image10"
       x="0"
       y="0" />
  </g>
  <g
     inkscape:groupmode="layer"
     id="layer3"
     inkscape:label="speechbubbles">
    <rect
       style="color:#000000;clip-rule:nonzero;display:inline;overflow:visible;visibility:visible;opacity:1;isolation:auto;mix-blend-mode:normal;color-interpolation:sRGB;color-interpolation-filters:linearRGB;solid-color:#000000;solid-opacity:1;fill:#fff6d5;fill-opacity:1;fill-rule:nonzero;stroke:none;stroke-width:2.5999999;stroke-linecap:butt;stroke-linejoin:miter;stroke-miterlimit:4;stroke-dasharray:none;stroke-dashoffset:0;stroke-opacity:1;marker:none;color-rendering:auto;image-rendering:auto;shape-rendering:auto;text-rendering:auto;enable-background:accumulate"
       id="rect4632-8-6-1-3-6"
       width="583.86481"
       height="265.19736"
       x="1662.6915"
       y="129.10603"
       ry="40"
       rx="40" />
    <path
       style="color:#000000;display:inline;overflow:visible;visibility:visible;fill:#fff6d5;fill-opacity:1;fill-rule:nonzero;stroke:none;stroke-width:1px;marker:none;enable-background:accumulate"
       d="m 1940.0848,496.53236 c -27.8283,-33.96643 -32.0923,-64.71125 -30.1011,-76.04443 3.5778,-0.7235 20.7854,3.45902 20.7854,3.45902 0,0 -17.5322,-59.49698 -8.0697,-73.09078 5.5758,-8.01017 28.9541,-17.59308 28.9541,-17.59308 -5.3461,-2.14721 -11.091,95.54695 -1.1435,108.89283 -10.5747,1.00496 -24.5265,-3.85534 -28.3824,-4.82187 -7.0159,8.18655 8.6388,48.88275 17.9572,59.19831 z"
       id="path4456"
       inkscape:connector-curvature="0"
       sodipodi:nodetypes="cccscccc" />
    <rect
       style="color:#000000;clip-rule:nonzero;display:inline;overflow:visible;visibility:visible;opacity:1;isolation:auto;mix-blend-mode:normal;color-interpolation:sRGB;color-interpolation-filters:linearRGB;solid-color:#000000;solid-opacity:1;fill:#fff6d5;fill-opacity:1;fill-rule:nonzero;stroke:none;stroke-width:2.5999999;stroke-linecap:butt;stroke-linejoin:miter;stroke-miterlimit:4;stroke-dasharray:none;stroke-dashoffset:0;stroke-opacity:1;marker:none;color-rendering:auto;image-rendering:auto;shape-rendering:auto;text-rendering:auto;enable-background:accumulate"
       id="rect4632-8-6-1-3-6-1"
       width="598.63202"
       height="202.58936"
       x="336.18924"
       y="1223.7054"
       ry="40"
       rx="40" />
    <path
       style="color:#000000;display:inline;overflow:visible;visibility:visible;fill:#fff6d5;fill-opacity:1;fill-rule:nonzero;stroke:none;stroke-width:1px;marker:none;enable-background:accumulate"
       d="m 1034.4938,1344.5966 c -23.1699,-34.4548 -48.44971,-42.4066 -66.12283,-49.0831 -3.50035,2.0798 -11.32095,4.8639 -11.32095,4.8639 0,0 -33.49266,-14.6616 -48.29287,-18.2853 -14.79997,-3.6237 -28.18476,22.5703 -28.18476,22.5703 0,0 74.18225,12.1871 85.88822,20.3397 9.06109,-6.0047 15.23482,-8.0174 16.47518,-11.238 11.3069,2.181 42.73921,18.6876 51.55801,30.8325 z"
       id="path4456-1"
       inkscape:connector-curvature="0"
       sodipodi:nodetypes="cccscccc" />
    <rect
       style="color:#000000;display:inline;overflow:visible;visibility:visible;fill:#fff6d5;fill-opacity:1;fill-rule:nonzero;stroke:none;stroke-width:2.5999999;marker:none;enable-background:accumulate"
       id="rect4632-8-6-1-3-6-1-2"
       width="493.83698"
       height="261.03046"
       x="161.00441"
       y="1887.2285"
       ry="40"
       rx="33.649372" />
    <path
       style="color:#000000;display:inline;overflow:visible;visibility:visible;fill:#fff6d5;fill-opacity:1;fill-rule:nonzero;stroke:none;stroke-width:1px;marker:none;enable-background:accumulate"
       d="m 645.78007,2067.4887 c 34.2205,17.8461 76.6139,35.3258 87.02877,38.6403 -1.66692,-12.2157 -0.70531,-23.1312 -0.13042,-31.6658 18.83598,7.6639 104.40667,47.7878 120.13844,64.5725 -37.06817,-42.7722 -99.81556,-77.302 -131.59566,-87.6942 -3.00481,11.0071 -3.14343,18.104 -4.88881,23.8549 -16.10825,-4.4774 -65.02857,-29.2275 -65.02857,-29.2275 z"
       id="path5066"
       inkscape:connector-curvature="0" />
    <path
       style="color:#000000;display:inline;overflow:visible;visibility:visible;fill:#fff6d5;fill-opacity:1;fill-rule:nonzero;stroke:none;stroke-width:1px;marker:none;enable-background:accumulate"
       d="m 1823.2723,2344.4571 c -25.0087,-7.9764 -53.8389,-22.7314 -60.4663,-27.3877 6.4928,-11.5575 6.8883,-11.5697 10.5751,-21.0049 9.1393,-6.2262 -64.1343,-30.6326 -92.3113,-25.5192 37.9872,-16.0391 92.2254,1.6882 112.5774,15.6037 -3.6492,13.939 -5.2075,12.0478 -7.0287,19.4678 9.9486,7.8849 43.9602,11.8632 43.9602,11.8632 z"
       id="path5066-3"
       inkscape:connector-curvature="0"
       sodipodi:nodetypes="cccccccc" />
    <rect
       style="color:#000000;clip-rule:nonzero;display:inline;overflow:visible;visibility:visible;opacity:1;isolation:auto;mix-blend-mode:normal;color-interpolation:sRGB;color-interpolation-filters:linearRGB;solid-color:#000000;solid-opacity:1;fill:#fff6d5;fill-opacity:1;fill-rule:nonzero;stroke:none;stroke-width:2.5999999;stroke-linecap:butt;stroke-linejoin:miter;stroke-miterlimit:4;stroke-dasharray:none;stroke-dashoffset:0;stroke-opacity:1;marker:none;color-rendering:auto;image-rendering:auto;shape-rendering:auto;text-rendering:auto;enable-background:accumulate"
       id="rect4632-8-6-1-3-6-1-2-7"
       width="355.42853"
       height="113.58244"
       x="1819.2611"
       y="2277.4941"
       ry="40"
       rx="40" />
  </g>
  <g
     inkscape:groupmode="layer"
     id="layer1"
     inkscape:label="txt">
    <text
       xml:space="preserve"
       style="font-style:normal;font-variant:normal;font-weight:normal;font-stretch:normal;line-height:0%;font-family:Lavi;-inkscape-font-specification:Lavi;text-align:center;letter-spacing:0px;word-spacing:0px;text-anchor:middle;display:inline;fill:#000000;fill-opacity:1;stroke:none"
       x="1957.4062"
       y="194.31369"
       id="text4246-2-3-1-3-9"><tspan
         sodipodi:role="line"
         style="font-size:45px;line-height:1.25"
         x="1957.4062"
         y="194.31369"
         id="tspan1390">Och som grädden på moset,</tspan><tspan
         sodipodi:role="line"
         style="font-size:45px;line-height:1.25"
         x="1957.4062"
         y="250.56369"
         id="tspan1384">poängen kommer att</tspan><tspan
         sodipodi:role="line"
         style="font-size:45px;line-height:1.25"
         x="1957.4062"
         y="306.81369"
         id="tspan1386">dyka upp ovanför den</tspan><tspan
         sodipodi:role="line"
         style="font-size:45px;line-height:1.25"
         x="1957.4062"
         y="363.06369"
         id="tspan1388">tävlandes huvud!</tspan></text>
    <text
       xml:space="preserve"
       style="font-style:normal;font-variant:normal;font-weight:normal;font-stretch:normal;line-height:0%;font-family:Lavi;-inkscape-font-specification:Lavi;text-align:center;letter-spacing:0px;word-spacing:0px;text-anchor:middle;display:inline;fill:#000000;fill-opacity:1;stroke:none"
       x="637.68427"
       y="1282.8372"
       id="text4246-2-3-1-3-9-0"><tspan
         sodipodi:role="line"
         style="font-size:45px;line-height:1.25"
         x="637.68427"
         y="1282.8372"
         id="tspan4952">De tre häxorna med</tspan><tspan
         sodipodi:role="line"
         style="font-size:45px;line-height:1.25"
         x="637.68427"
         y="1339.0872"
         id="tspan1403">högst poäng går till</tspan><tspan
         sodipodi:role="line"
         style="font-size:45px;line-height:1.25"
         x="637.68427"
         y="1395.3372"
         id="tspan1405">final!</tspan></text>
    <text
       xml:space="preserve"
       style="font-style:normal;font-variant:normal;font-weight:normal;font-stretch:normal;line-height:0%;font-family:Lavi;-inkscape-font-specification:Lavi;text-align:center;letter-spacing:0px;word-spacing:0px;text-anchor:middle;display:inline;fill:#000000;fill-opacity:1;stroke:none"
       x="407.45877"
       y="1948.0242"
       id="text4246-2-3-1-3-9-0-5"><tspan
         sodipodi:role="line"
         style="font-size:45px;line-height:1.25"
         x="407.45877"
         y="1948.0242"
         id="tspan4985">Glöm inte, the stora</tspan><tspan
         sodipodi:role="line"
         style="font-size:45px;line-height:1.25"
         x="407.45877"
         y="2004.2742"
         id="tspan1416">priset som</tspan><tspan
         sodipodi:role="line"
         style="font-size:45px;line-height:1.25"
         x="407.45877"
         y="2060.5242"
         id="tspan1418">vinnaren plockar</tspan><tspan
         sodipodi:role="line"
         style="font-size:45px;line-height:1.25"
         x="407.45877"
         y="2116.7742"
         id="tspan1424">hem är…</tspan></text>
    <g
       id="g3512">
      <text
         id="text4246-2-3-1-3-9-0-5-4"
         y="2349.5002"
         x="2003.4491"
         style="font-variant:normal;font-weight:normal;font-stretch:normal;line-height:0%;font-family:Lavi;-inkscape-font-specification:Lavi;text-align:center;letter-spacing:0px;word-spacing:0px;text-anchor:middle;display:inline;fill:#000000;fill-opacity:1;stroke:none"
         xml:space="preserve"><tspan
           id="tspan5800-1"
           y="2349.5002"
           x="2003.4491"
           style="font-size:45px;line-height:1.25"
           sodipodi:role="line"><tspan
             style="stroke:#000000;stroke-width:2.9000001;stroke-miterlimit:4;stroke-dasharray:none;stroke-opacity:1"
             id="tspan4277">…50 000 Ko!</tspan></tspan></text>
    </g>
    <use
       x="0"
       y="0"
       xlink:href="#text4580-1-7-3-6"
       id="use5937"
       transform="matrix(0.65135294,0,0,0.61659277,840.45299,876.5241)"
       width="100%"
       height="100%" />
    <use
       x="0"
       y="0"
       xlink:href="#use5937"
       id="use5939"
       transform="matrix(0.84445682,0,0,0.79913521,-268.83141,592.24868)"
       width="100%"
       height="100%" />
    <use
       x="0"
       y="0"
       xlink:href="#use5939"
       id="use5941"
       transform="translate(97.499995,-49.999998)"
       width="100%"
       height="100%" />
    <use
       x="0"
       y="0"
       xlink:href="#use5941"
       id="use5943"
       transform="matrix(0.96302455,0,0,1.0006295,93.48588,18.257003)"
       width="100%"
       height="100%" />
    <use
       x="0"
       y="0"
       xlink:href="#use5943"
       id="use5945"
       transform="matrix(1.1456279,0,0,1.2221187,-191.66967,-475.78203)"
       width="100%"
       height="100%" />
    <use
       x="0"
       y="0"
       xlink:href="#use5945"
       id="use5947"
       transform="matrix(1.0638099,0,0,1.0523006,1577.4887,-458.39478)"
       width="100%"
       height="100%" />
    <use
       x="0"
       y="0"
       xlink:href="#use5947"
       id="use5949"
       transform="translate(-92.499996,-27.499999)"
       width="100%"
       height="100%" />
    <use
       x="0"
       y="0"
       xlink:href="#use5949"
       id="use5951"
       transform="translate(207.49999,44.999999)"
       width="100%"
       height="100%" />
    <use
       x="0"
       y="0"
       xlink:href="#use5951"
       id="use5953"
       transform="translate(12.499998,-82.499996)"
       width="100%"
       height="100%" />
    <use
       x="0"
       y="0"
       xlink:href="#use5953"
       id="use5955"
       transform="matrix(0.827051,0,0,0.82725665,48.76766,558.81116)"
       width="100%"
       height="100%" />
    <use
       x="0"
       y="0"
       xlink:href="#use5955"
       id="use5957"
       transform="translate(-80.000001,-15)"
       width="100%"
       height="100%" />
    <use
       x="0"
       y="0"
       xlink:href="#use5951"
       id="use5959"
       transform="matrix(1.201717,0.01168289,-0.01203041,1.2374636,-257.7671,-728.53323)"
       width="100%"
       height="100%" />
    <text
       xml:space="preserve"
       style="font-style:normal;font-variant:normal;font-weight:normal;font-stretch:normal;line-height:0%;font-family:Lavi;-inkscape-font-specification:Lavi;text-align:center;letter-spacing:0px;word-spacing:0px;text-anchor:middle;opacity:0.70200004;fill:url(#linearGradient4203);fill-opacity:1;stroke:#ffffff;stroke-width:2.68882608;stroke-linecap:round;stroke-miterlimit:4;stroke-dasharray:none;stroke-opacity:1;filter:url(#filter4375-4-1-1-1-9-5-8-8-8)"
       x="1276.0023"
       y="286.89603"
       id="text4246-3-8"
       transform="matrix(1.6804587,0,0,1.6667549,-871.15851,-362.88688)"><tspan
         sodipodi:role="line"
         style="font-style:normal;font-variant:normal;font-weight:normal;font-stretch:normal;font-size:91.25513458px;line-height:1.25;font-family:Fondamento;-inkscape-font-specification:Fondamento;letter-spacing:17.77999878px;fill:url(#linearGradient4203);fill-opacity:1;stroke:#ffffff;stroke-width:2.68882608;stroke-linecap:round;stroke-miterlimit:4;stroke-dasharray:none;stroke-opacity:1"
         x="1304.9219"
         y="286.89603"
         id="tspan4252-5-6"> </tspan><tspan
         sodipodi:role="line"
         style="font-style:normal;font-variant:normal;font-weight:normal;font-stretch:normal;font-size:91.25513458px;line-height:1.25;font-family:Combat;-inkscape-font-specification:Combat;letter-spacing:8.96275425px;fill:url(#linearGradient4203);fill-opacity:1;stroke:#ffffff;stroke-width:2.68882608;stroke-linecap:round;stroke-miterlimit:4;stroke-dasharray:none;stroke-opacity:1"
         x="1280.4836"
         y="403.96521"
         id="tspan5535-8">1337</tspan></text>
    <use
       x="0"
       y="0"
       xlink:href="#use5941"
       id="use4405"
       transform="translate(1052.4999,-94.999995)"
       width="100%"
       height="100%" />
    <use
       x="0"
       y="0"
       xlink:href="#use4405"
       id="use4407"
       transform="translate(97.499995,-4.9999997)"
       width="100%"
       height="100%" />
    <use
       x="0"
       y="0"
       xlink:href="#use4407"
       id="use4409"
       transform="translate(-132.49999,214.99999)"
       width="100%"
       height="100%" />
    <use
       x="0"
       y="0"
       xlink:href="#use4409"
       id="use4411"
       transform="translate(144.99999,-7.4999995)"
       width="100%"
       height="100%" />
    <use
       x="0"
       y="0"
       xlink:href="#use4411"
       id="use4413"
       transform="translate(-1457.4999,-67.499997)"
       width="100%"
       height="100%" />
  </g>
  <g
     inkscape:groupmode="layer"
     id="layer4"
     inkscape:label="notes">
    <path
       style="color:#000000;clip-rule:nonzero;display:inline;overflow:visible;visibility:visible;opacity:0.481;isolation:auto;mix-blend-mode:normal;color-interpolation:sRGB;color-interpolation-filters:linearRGB;solid-color:#000000;solid-opacity:1;fill:#ffe680;fill-opacity:1;fill-rule:nonzero;stroke:#565656;stroke-width:1.20000005;stroke-linecap:butt;stroke-linejoin:miter;stroke-miterlimit:4;stroke-dasharray:none;stroke-dashoffset:0;stroke-opacity:1;marker:none;color-rendering:auto;image-rendering:auto;shape-rendering:auto;text-rendering:auto;enable-background:accumulate"
       d="m -468.82553,3026.57 v 189.0351 h 203.83 v -90.9805 h 10 v 15.6308 l 30.9825,-26.9824 -30.9825,-26.9804 v 16.6171 h -10 V 3026.57 Z"
       id="rect4191-6"
       inkscape:connector-curvature="0" />
    <text
       xml:space="preserve"
       style="font-style:normal;font-variant:normal;font-weight:normal;font-stretch:normal;line-height:0%;font-family:Lavi;-inkscape-font-specification:Lavi;letter-spacing:0px;word-spacing:0px;display:inline;fill:#000000;fill-opacity:1;stroke:#000000;stroke-width:0.99236238;stroke-miterlimit:4;stroke-dasharray:none;stroke-opacity:1;filter:url(#filter4375-4-1-1-1-9-6-9-2-1)"
       x="787.65729"
       y="1584.5073"
       id="text4580-1-7-3-6"
       transform="matrix(0.96380061,-0.56217228,-0.1779318,1.4896521,-681.73754,1251.3277)"
       inkscape:transform-center-x="19.337037"
       inkscape:transform-center-y="4.8922757"><tspan
         sodipodi:role="line"
         id="tspan4582-8-5-6-1"
         x="787.65729"
         y="1584.5073"
         style="font-size:70px;line-height:1.25;fill:#ffffff">Klapp</tspan></text>
    <flowRoot
       xml:space="preserve"
       id="flowRoot4212-7"
       style="font-style:normal;font-variant:normal;font-weight:normal;font-stretch:normal;line-height:0.01%;font-family:Lavi;-inkscape-font-specification:'Lavi, Normal';text-align:center;letter-spacing:0px;word-spacing:0px;writing-mode:lr-tb;text-anchor:middle;display:inline;opacity:0.481;fill:#000000;fill-opacity:1;stroke:none;stroke-width:1px;stroke-linecap:butt;stroke-linejoin:miter;stroke-opacity:1"
       transform="translate(-239.21291,2010.678)"><flowRegion
         id="flowRegion4214-5"><rect
           id="rect4216-3"
           width="291.95547"
           height="247.52747"
           x="-275.14545"
           y="1061.6674" /></flowRegion><flowPara
         id="flowPara4218-5"
         style="font-size:25.3241539px;line-height:1.25">Edit this one,</flowPara><flowPara
         id="flowPara4562"
         style="font-size:25.3241539px;line-height:1.25">all others</flowPara><flowPara
         id="flowPara4564"
         style="font-size:25.3241539px;line-height:1.25">are linked</flowPara></flowRoot>  </g>
</svg>
