<?xml version="1.0" encoding="UTF-8" standalone="no"?>
<!-- Created with Inkscape (http://www.inkscape.org/) -->

<svg
   id="svg2"
   version="1.1"
   inkscape:version="1.1 (c68e22c387, 2021-05-23)"
   width="2481"
   height="3503"
   sodipodi:docname="E36P01.svg"
   xmlns:inkscape="http://www.inkscape.org/namespaces/inkscape"
   xmlns:sodipodi="http://sodipodi.sourceforge.net/DTD/sodipodi-0.dtd"
   xmlns:xlink="http://www.w3.org/1999/xlink"
   xmlns="http://www.w3.org/2000/svg"
   xmlns:svg="http://www.w3.org/2000/svg"
   xmlns:rdf="http://www.w3.org/1999/02/22-rdf-syntax-ns#"
   xmlns:cc="http://creativecommons.org/ns#"
   xmlns:dc="http://purl.org/dc/elements/1.1/">
  <metadata
     id="metadata8">
    <rdf:RDF>
      <cc:Work
         rdf:about="">
        <dc:format>image/svg+xml</dc:format>
        <dc:type
           rdf:resource="http://purl.org/dc/dcmitype/StillImage" />
      </cc:Work>
    </rdf:RDF>
  </metadata>
  <defs
     id="defs6" />
  <sodipodi:namedview
     pagecolor="#1e1e1e"
     bordercolor="#111111"
     borderopacity="1"
     objecttolerance="10"
     gridtolerance="10"
     guidetolerance="10"
     inkscape:pageopacity="0"
     inkscape:pageshadow="2"
     inkscape:window-width="1920"
     inkscape:window-height="1017"
     id="namedview4"
     showgrid="false"
     inkscape:zoom="0.26450001"
     inkscape:cx="-28.355386"
     inkscape:cy="2232.5141"
     inkscape:window-x="-8"
     inkscape:window-y="-8"
     inkscape:window-maximized="1"
     inkscape:current-layer="layer1"
     inkscape:pagecheckerboard="0"
     inkscape:snap-global="false" />
  <g
     inkscape:groupmode="layer"
     id="layer2"
     inkscape:label="artwork"
     sodipodi:insensitive="true">
    <image
       xlink:href="../gfx_Pepper-and-Carrot_by-David-Revoy_E36P01.png"
       y="0"
       x="0"
       id="image10"
       height="3503"
       width="2481" />
  </g>
  <g
     inkscape:groupmode="layer"
     id="layer3"
     inkscape:label="speechbubbles"
     style="display:inline">
    <path
       style="display:inline;fill:#ffffff;fill-rule:evenodd;stroke:none;stroke-width:0.790532px;stroke-linecap:butt;stroke-linejoin:miter;stroke-opacity:1"
       d="m 993.45755,1847.5959 c 50.15275,18.6105 78.72065,11.0422 77.85965,-32.2181 23.9276,46.7485 40.5325,57.2039 50.3801,34.1707 31.6785,19.7977 51.4643,14.244 67.1732,0 5.8552,18.3191 15.8079,14.5249 43.4405,-5.7092 -5.1388,10.0936 -10.5326,34.4674 39.5816,3.7392 -23.0821,18.0948 -6.2784,18.4416 22.8112,6.2791 -9.5444,18.5144 26.6604,5.0828 57.5198,-21.8825 -22.155,27.9112 -13.2243,31.7885 6.4959,19.9666 -9.0161,12.7207 -3.8825,20.4672 24.0373,4.4408 -11.7271,23.4798 0.5928,14.092 45.1515,-8.3845 -36.7713,24.7902 -50.727,44.7944 -23.7781,45.4838 -8.3384,2.1213 -27.6331,13.7517 36.6399,25.3834 -15.0417,1.1149 -43.0274,4.0323 -16.4607,14.3005 -16.0384,-3.3575 -23.1569,2.6484 -0.8324,12.4053 -16.064,-1.5599 -34.6842,-5.5525 -9.6215,9.7127 -28.1868,-0.5186 -23.9297,3.0634 -3.2357,15.9405 -40.8185,-16.5183 -37.3888,29.9177 -38.5969,36.5278 -51.1578,-22.5203 -37.4404,-11.1813 -44.3462,-6.4906 -24.9357,0.1753 -51.2775,-37.2176 -76.2132,-12.1028 -6.5303,-15.6207 -19.6225,-0.9052 -74.8063,10.1428 24.2298,-19.8729 -19.388,-2.2747 -45.7879,5.913 14.4572,-24.8258 -9.2788,-22.5923 -55.7461,1.5612 26.0214,-27.4145 -7.3387,-35.1285 -51.1324,-15.6644 16.5464,-26.9322 -10.4015,-39.9566 -74.80679,-41.0047 30.28535,-10.5776 48.80264,-21.9399 16.79341,-43.9327 36.08358,6.4756 46.84688,0.4606 21.37339,-23.4313 39.35739,19.6102 21.46299,-8.8333 6.10674,-35.1466 z"
       id="path4508-2"
       inkscape:connector-curvature="0"
       sodipodi:nodetypes="cccccccccccccccccccccccccccc" />
    <path
       style="display:inline;fill:#ffffff;fill-rule:evenodd;stroke:none;stroke-width:0.763242px;stroke-linecap:butt;stroke-linejoin:miter;stroke-opacity:1"
       d="m 1423.4162,2096.0258 c -46.5128,-20.7786 -78.3382,-24.5605 -67.4839,16.4435 -45.3971,-40.2018 -51.7591,-24.0405 -61.0098,-2.2708 -40.2721,-31.3074 -57.8387,-13.5119 -66.5891,0.7969 -9.0643,-29.2679 -24.0488,-7.0432 -33.698,1.8265 2.5846,-25.712 -8.9337,-28.8203 -40.6086,-0.1936 6.2015,-11.4681 15.7388,-33.0858 -31.826,-8.6255 9.3485,-24.029 -21.6337,-7.8397 -47.9828,13.9979 14.6125,-29.2215 -5.3153,-22.696 -24.6015,-11.3488 8.6552,-12.0652 29.0592,-30.8492 -13.7824,-16.196 20.5436,-17.644 0.4596,-13.8094 -37.81268,4.033 31.79388,-23.0133 60.20618,-40.5163 17.27318,-36.7273 5.8347,-6.9801 27.0873,-13.2553 -36.88526,-23.4274 11.7835,-4.8308 48.25936,1.5856 17.49781,-17.9008 -4.11327,-2.2717 9.44025,-3.8513 -16.6354,-9.6511 15.31702,0.2329 24.66985,-1.3649 10.35501,-10.2219 27.95354,0.1532 17.27464,-9.2128 -3.52565,-21.0727 40.83059,15.0441 36.08149,-13.7855 37.13249,-20.0138 51.2134,20.5637 57.4599,7.6178 64.2013,3.1264 24.7149,-0.4606 48.4928,17.7858 72.6537,-6.1195 6.8207,14.607 21.0087,17.6397 75.4672,6.5993 -23.5776,18.9691 22.5371,5.9751 48.5254,-2.0351 -13.7797,23.5095 17.6529,18.0215 63.1793,-5.2353 -25.1859,26.08 46.4952,11.8995 68.7735,4.14 -2.7321,10.5305 -22.1185,45.6998 41.75,45.9212 -30.3424,9.4977 -40.6477,18.4669 -8.4281,38.7618 -35.9137,-5.6595 -46.4498,0.1227 -20.6672,22.2806 -52.0063,-10.6221 -31.2785,14.5255 -5.2725,33.1125 z"
       id="path4508-2-3"
       inkscape:connector-curvature="0"
       sodipodi:nodetypes="cccccccccccccccccccccccccccc" />
    <path
       style="fill:#ffffff;fill-rule:evenodd;stroke:none;stroke-width:1.01927px;stroke-linecap:butt;stroke-linejoin:miter;stroke-opacity:1"
       d="m 795.85859,2075.6026 c 68.17018,-19.9402 107.76468,-24.6985 129.19825,-26.9041 -9.4626,14.6823 -10.93703,18.8605 -3.60753,19.5618 12.56737,1.2024 323.02739,-38.3324 323.02739,-38.3324 l -134.9102,-3.9965 c 0,0 -88.3447,16.493 -115.60557,20.8649 -27.26123,4.3719 -53.63946,7.3565 -53.63946,7.3565 0,0 11.08456,-17.0097 8.79652,-16.5151 -9.73596,2.1047 -32.55208,-8.0957 -153.2594,37.9649 z"
       id="path891"
       inkscape:connector-curvature="0"
       sodipodi:nodetypes="ccsccscsc" />
    <path
       style="display:inline;fill:#ffffff;fill-rule:evenodd;stroke:none;stroke-width:1.2733px;stroke-linecap:butt;stroke-linejoin:miter;stroke-opacity:1"
       d="m 958.84357,2513.5778 c 35.39383,34.085 53.68403,60.774 1.66179,37.0453 26.01485,21.5205 19.04575,24.8361 -4.42432,30.3589 20.69512,14.4301 50.55316,46.2428 8.0029,56.8178 61.36136,9.4652 28.55073,36.7362 -3.50489,56.6045 93.64415,-22.8067 83.29525,2.8066 62.52105,28.9088 46.4622,-32.7144 48.6272,-23.0057 27.5829,20.5624 30.2714,-31.49 38.3551,-40.6024 37.7743,-4.2266 18.7221,-30.1013 43.1264,-48.797 61.2375,-14.1622 24.4312,-49.7852 51.7836,-6.3705 72.5647,10.8879 5.098,-36.9925 24.2045,-46.6073 58.4695,-9.9254 3.4614,-22.3614 32.4076,-21.735 57.2233,10.2753 -31.047,-62.8774 23.1251,-6.2663 32.1585,-2.5454 -14.7255,-32.3544 19.5342,-37.9013 80.9242,-10.2102 -44.0485,-30.2071 -35.7424,-44.2996 2.6753,-57.0873 -36.9772,-14.0879 -45.7647,-47.6329 15.0808,-49.0658 -76.1186,-21.3847 -19.7098,-55.0924 15.718,-75.3839 -66.5885,12.0524 -120.7392,17.7795 -85.8122,-27.2707 -76.2302,29.1411 -62.4048,12.9296 -52.6853,-1.2147 -50.913,35.4437 -52.0093,2.6573 -50.5957,-7.5248 -68.3953,38.5493 -108.5306,12.8559 -123.851,-15.8395 -17.9619,40.3424 -51.8776,21.0737 -72.7601,0.7332 10.9104,37.9319 -11.106,34.9347 -33.2363,19.3121 5.4451,25.4973 -15.2693,47.5269 -51.2638,11.6075 11.9661,17.7959 10.7236,43.8619 -55.46113,-8.6572 z"
       id="path4289-9"
       inkscape:connector-curvature="0"
       sodipodi:nodetypes="ccccccccccccccccccccccccc" />
    <path
       style="display:inline;fill:#ffffff;fill-rule:evenodd;stroke:none;stroke-width:1px;stroke-linecap:butt;stroke-linejoin:miter;stroke-opacity:1"
       d="m 839.35758,2683.1542 126.85528,-18.3923 -13.09351,-16.3937 103.27445,-9.3803 -13.3725,-26.4414 -117.98262,26.0585 15.22178,19.3955 z"
       id="path4667"
       inkscape:connector-curvature="0"
       sodipodi:nodetypes="cccccccc" />
  </g>
  <g
     inkscape:groupmode="layer"
     id="layer1"
     inkscape:label="txt"
     style="display:inline">
    <text
       xml:space="preserve"
       style="font-style:normal;font-variant:normal;font-weight:normal;font-stretch:normal;font-size:45px;line-height:1.25;font-family:Lavi;-inkscape-font-specification:Lavi;text-align:center;letter-spacing:0px;word-spacing:0px;text-anchor:middle;fill:#000000;fill-opacity:1;stroke:none;stroke-width:0.818387"
       x="1438.4034"
       y="1936.7717"
       id="text4246-3-2-2-6-3-7-9-3-3-56-9-3-20-3-3-2"
       transform="skewX(-7.1285625)"><tspan
         style="font-style:normal;font-variant:normal;font-weight:bold;font-stretch:normal;font-size:45px;font-family:Lavi;-inkscape-font-specification:'Lavi Bold';stroke-width:0.818387"
         sodipodi:role="line"
         x="1438.4034"
         y="1936.7717"
         id="tspan146">¿UNA DISCULPA?</tspan></text>
    <text
       id="text4246-4-2-7"
       y="2012.0223"
       x="1214.7141"
       style="font-style:normal;font-variant:normal;font-weight:normal;font-stretch:normal;line-height:0%;font-family:Lavi;-inkscape-font-specification:Lavi;text-align:center;letter-spacing:0px;word-spacing:0px;text-anchor:middle;fill:#000000;fill-opacity:1;stroke:none"
       xml:space="preserve"
       inkscape:label="pepperB"><tspan
         y="2012.0223"
         x="1214.7141"
         style="font-size:45px;line-height:1.25"
         sodipodi:role="line"
         id="tspan12981">¡No estás hablando</tspan><tspan
         y="2068.2725"
         x="1214.7141"
         style="font-size:45px;line-height:1.25"
         sodipodi:role="line"
         id="tspan12985">en serio!</tspan></text>
    <text
       xml:space="preserve"
       style="font-style:normal;font-variant:normal;font-weight:normal;font-stretch:normal;font-size:45px;line-height:1.25;font-family:Lavi;-inkscape-font-specification:Lavi;text-align:center;letter-spacing:0px;word-spacing:0px;text-anchor:middle;fill:#000000;fill-opacity:1;stroke:none;stroke-width:0.818387"
       x="1540.7991"
       y="2605.0286"
       id="text4246-3-2-2-6-3-7-9-3-3-56-9-3-20-3-3-2-7"
       transform="skewX(-7.1285625)"><tspan
         style="font-style:normal;font-variant:normal;font-weight:bold;font-stretch:normal;font-size:45px;font-family:Lavi;-inkscape-font-specification:'Lavi Bold';stroke-width:0.818387"
         sodipodi:role="line"
         x="1540.7991"
         y="2605.0286"
         id="tspan29437">¡ENCERRADLA</tspan><tspan
         style="font-style:normal;font-variant:normal;font-weight:bold;font-stretch:normal;font-size:45px;font-family:Lavi;-inkscape-font-specification:'Lavi Bold';stroke-width:0.818387"
         sodipodi:role="line"
         x="1540.7991"
         y="2661.2786"
         id="tspan14740">EN EL CALABOZO!</tspan></text>
  </g>
</svg>
