<?xml version="1.0" encoding="UTF-8" standalone="no"?>
<svg
   xmlns:dc="http://purl.org/dc/elements/1.1/"
   xmlns:cc="http://creativecommons.org/ns#"
   xmlns:rdf="http://www.w3.org/1999/02/22-rdf-syntax-ns#"
   xmlns:svg="http://www.w3.org/2000/svg"
   xmlns="http://www.w3.org/2000/svg"
   xmlns:xlink="http://www.w3.org/1999/xlink"
   xmlns:sodipodi="http://sodipodi.sourceforge.net/DTD/sodipodi-0.dtd"
   xmlns:inkscape="http://www.inkscape.org/namespaces/inkscape"
   id="svg2"
   version="1.1"
   inkscape:version="1.0.2 (e86c870879, 2021-01-15)"
   width="2481"
   height="3503"
   sodipodi:docname="E34P08.svg">
  <metadata
     id="metadata8">
    <rdf:RDF>
      <cc:Work
         rdf:about="">
        <dc:format>image/svg+xml</dc:format>
        <dc:type
           rdf:resource="http://purl.org/dc/dcmitype/StillImage" />
        <dc:title />
      </cc:Work>
    </rdf:RDF>
  </metadata>
  <defs
     id="defs6" />
  <sodipodi:namedview
     pagecolor="#ffffff"
     bordercolor="#666666"
     borderopacity="1"
     objecttolerance="10"
     gridtolerance="10"
     guidetolerance="10"
     inkscape:pageopacity="0"
     inkscape:pageshadow="2"
     inkscape:window-width="2560"
     inkscape:window-height="1390"
     id="namedview4"
     showgrid="false"
     inkscape:zoom="0.1358853"
     inkscape:cx="742.16411"
     inkscape:cy="2066.4872"
     inkscape:window-x="0"
     inkscape:window-y="24"
     inkscape:window-maximized="1"
     inkscape:current-layer="layer1"
     inkscape:document-rotation="0"
     inkscape:snap-global="false"
     borderlayer="true"
     showguides="false" />
  <g
     inkscape:groupmode="layer"
     id="layer2"
     inkscape:label="artwork"
     sodipodi:insensitive="true">
    <image
       sodipodi:absref="/home/tirifto/Développement/Pepper &amp; Carrot/webcomics/new-ep34_The-Knighting-of-Shichimi/lang/gfx_Pepper-and-Carrot_by-David-Revoy_E34P08.png"
       xlink:href="../gfx_Pepper-and-Carrot_by-David-Revoy_E34P08.png"
       width="2481"
       height="3503"
       id="image10"
       x="0"
       y="0" />
  </g>
  <g
     inkscape:groupmode="layer"
     id="layer3"
     inkscape:label="speechbubbles"
     style="display:inline">
    <path
       style="color:#000000;display:inline;overflow:visible;visibility:visible;fill:#ffffff;fill-opacity:1;fill-rule:nonzero;stroke:none;stroke-width:0.770224px;marker:none;enable-background:accumulate"
       d="m 1858.8745,2602.7661 c 24.645,-31.5484 88.5186,-58.8546 134.0691,-29.1667 47.5832,1.2392 31.3766,-27.3129 31.3766,-27.3129 -2.2798,-13.3723 -128.0086,-31.4485 -165.4457,56.4796 z"
       id="path3984-7"
       inkscape:connector-curvature="0"
       sodipodi:nodetypes="cccc" />
    <path
       style="display:inline;fill:#ffffff;stroke:none;stroke-width:1.33372"
       d="m 2139.0034,2949.6012 c -41.3736,-1.3849 -83.3594,-12.3767 -117.1882,-36.5972 -54.1764,-40.2965 -80.8656,-113.3823 -64.7151,-178.5073 7.8103,-35.4356 30.563,-67.9782 62.9806,-85.5621 31.5248,-17.478 67.6212,-24.5734 103.1888,-28.5426 52.566,-5.3486 106.2332,0.9547 156.315,17.4788 28.2392,9.9262 51.4045,32.4781 62.2825,60.02 10.7956,26.3836 12.7791,55.2625 12.817,83.4272 -0.8927,43.181 -16.1022,86.0075 -42.7738,120.2361 -12.5652,16.1262 -30.6722,27.8828 -50.6995,32.715 -23.5156,5.645 -47.5875,8.4973 -71.4971,11.9697 -16.8123,2.126 -33.7457,3.6072 -50.7102,3.3624 z"
       id="path3280-8-3"
       inkscape:connector-curvature="0"
       sodipodi:nodetypes="csssc" />
    <path
       style="color:#000000;display:inline;overflow:visible;visibility:visible;fill:#ffffff;fill-opacity:1;fill-rule:nonzero;stroke:none;stroke-width:0.728515px;marker:none;enable-background:accumulate"
       d="m 2152.1088,2472.571 c -41.7584,-0.9701 -84.0784,3.662 -123.2497,17.4105 -14.7151,5.29 -29.2257,12.7608 -38.8403,24.7234 -12.0315,15.1252 -17.9022,34.0355 -18.41,52.7878 -0.1046,18.5638 7.1715,37.6624 21.8731,50.5903 11.7363,10.1785 26.957,15.6751 41.7542,20.7364 27.1244,9.1294 55.5564,14.2904 84.0868,17.5432 18.9775,2.1752 38.0323,3.74 57.1042,4.8757 16.8858,0.6093 33.7178,-1.6169 50.1146,-5.1354 23.7549,-4.5131 47.7514,-10.3879 68.4689,-22.4672 14.7362,-8.7345 27.1907,-21.7633 32.0384,-37.6643 6.5761,-20.4107 1.5862,-43.6413 -12.6138,-60.4231 -11.8436,-15.4162 -25.9168,-29.9854 -43.9326,-39.2111 -15.1977,-7.5829 -32.0986,-11.3046 -48.7019,-15.0934 -22.8853,-4.9277 -46.2523,-7.7894 -69.6919,-8.6728 z"
       id="path3970-3"
       inkscape:connector-curvature="0"
       sodipodi:nodetypes="cccscsc" />
    <path
       style="display:inline;fill:#ffffff;fill-rule:evenodd;stroke:none;stroke-width:1.19769px;stroke-linecap:butt;stroke-linejoin:miter;stroke-opacity:1"
       d="m 149.97784,2639.0252 c 39.86193,27.8955 32.52231,40.0735 -23.67073,35.9837 89.58912,42.8351 52.60569,49.2464 -4.1167,49.9774 38.07751,15.6456 80.20982,30.956 -7.20414,56.9743 50.65722,4.2183 94.79578,10.1746 8.23329,50.977 44.91072,-1.6758 74.04332,-18.7567 19.8773,36.7827 73.51489,-24.9458 140.64956,-17.0906 102.59359,45.1802 36.95129,-18.3388 97.70046,-64.815 76.15825,-13.9936 16.9296,-16.2306 38.47559,-22.3733 77.18751,8.9959 -7.54878,-22.6233 -30.29283,-58.4779 38.07913,-14.9932 -20.6692,-34.0251 -0.84903,-68.3859 68.1897,-17.9249 -10.28467,-25.6552 -78.5565,-35.3843 5.91036,-61.0395 -58.18262,-2.5587 -40.13526,-19.9247 -3.08744,-40.9814 -69.28068,-11.6374 -35.0024,-25.7279 6.17499,-39.982 -42.91247,-5.4331 -76.01888,-14.5828 -8.2334,-61.972 -74.61274,19.6735 -53.02033,-13.6004 -49.40008,-36.9833 -34.43236,18.5673 -73.37075,47.7106 -76.15836,-7.9964 -46.18982,69.1143 -63.67863,16.2752 -89.5375,-0.9995 -26.8957,82.2398 -87.8655,6.4455 -104.97483,0.9995 34.89138,33.6606 40.98338,48.9014 -36.02094,10.9951 z"
       id="path1096"
       inkscape:connector-curvature="0"
       sodipodi:nodetypes="cccccccccccccccccccc" />
    <path
       style="fill:#ffffff;fill-rule:evenodd;stroke:none;stroke-width:1px;stroke-linecap:butt;stroke-linejoin:miter;stroke-opacity:1"
       d="m 276.69249,2637.35 c 22.24357,147.5922 76.16994,294.7462 66.72409,442.7767 39.32721,-7.5351 57.02691,-43.538 110.60404,61.3044 36.13567,-50.5432 43.46402,-9.9468 54.08883,20.3938 25.92501,-21.2619 53.62712,-17.4156 81.20022,-15.3921 -24.07084,-2.6294 -42.56765,-23.176 -74.42406,-0.7793 -0.99204,-50.5675 -24.7242,-64.2967 -53.19608,-40.6932 -22.25284,-65.4923 -46.37098,-77.5206 -92.38131,-54.9383 1.82968,-175.1557 -47.49605,-279.4592 -67.44658,-422.2765 z"
       id="path1313"
       sodipodi:nodetypes="cccccccccc" />
    <path
       style="color:#000000;display:inline;overflow:visible;visibility:visible;fill:#ffffff;fill-opacity:1;fill-rule:nonzero;stroke:none;stroke-width:1.31433px;marker:none;enable-background:accumulate"
       d="m 137.94543,2952.2227 c 2.57481,-42.4765 8.37968,-76.1738 40.31649,-94.8593 31.93682,-18.6853 90.00534,-22.3584 163.67617,-15.008 39.46208,3.9372 95.53388,9.6703 126.98199,27.4197 31.4482,17.7488 38.27248,47.5133 34.95875,109.7344 -3.31371,62.2209 -14.9026,95.3659 -51.27921,110.7925 -36.37663,15.4267 -97.54109,13.1348 -110.85534,14.7045 -34.81312,-4.9421 -101.93998,2.0672 -144.61363,-11.013 -42.67375,-13.0801 -60.89408,-46.2498 -59.18522,-141.7708 z"
       id="path4546-6-0"
       inkscape:connector-curvature="0"
       sodipodi:nodetypes="cssssscsc" />
    <path
       style="fill:#ffffff;fill-rule:evenodd;stroke:none;stroke-width:1.49986px;stroke-linecap:butt;stroke-linejoin:miter;stroke-opacity:1"
       d="m 217.08242,2649.8057 c 36.90709,-50.2257 39.2881,-5.139 58.31878,36.2923 18.49928,-30.6102 5.37016,-37.0801 47.77595,2.3088 8.80076,-60.6152 28.70148,-43.015 52.77387,-10.9502 -8.33465,-42.6242 -8.81213,-62.5771 28.15389,-25.9228 9.37569,-48.4233 28.08772,-13.1777 54.29681,10.3696 -6.36522,-54.7029 -9.43727,-54.5433 44.24189,-44.9322 -37.30857,-48.1984 12.34553,-26.491 50.27471,-20.7394 -56.92936,-37.391 -36.38571,-30.7833 20.1101,-27.6509 -70.09485,-30.9514 -74.25014,-26.6667 -8.04407,-63.9433 -98.70585,11.1753 -89.4022,9.8366 -24.13193,-55.302 -39.18092,5.5174 -140.98295,82.943 -78.42873,13.8262 -53.48141,18.2513 -77.40978,39.2565 -49.37466,-20.9763 l -19.66776,-1.0234 c -20.37926,21.8995 -44.11621,56.4771 -47.59527,11.6299 -29.76644,33.519 -28.07601,39.1189 -42.23077,-3.4564 -19.66696,57.8645 -22.71029,13.0651 -34.18713,-24.1945 -25.83448,34.7634 -26.07555,74.5428 -42.23077,19.0097 -11.24706,56.5135 -34.0037,16.4098 -66.36284,-10.3684 10.09255,61.5083 12.97253,60.8806 -36.19797,22.4662 18.43992,56.1578 -0.12592,44.3678 -52.285671,41.4758 62.451481,49.6039 42.560661,48.1051 -20.110112,82.9544 35.01382,5.5208 97.345683,-28.793 64.351853,17.2813 77.3397,-28.1852 15.08709,45.1113 -4.02196,82.953 69.10198,-57.7667 97.75391,-104.5155 104.57179,-31.1074 z"
       id="path1309"
       inkscape:connector-curvature="0"
       sodipodi:nodetypes="ccccccccccccccccccccccccc" />
    <path
       style="display:inline;fill:#ffffff;stroke:none;stroke-width:0.887071"
       d="m 1985.593,1902.7553 c -40.2755,2.25 -80.0391,9.3463 -115.2913,20.8681 -23.7057,7.7789 -45.3998,17.6473 -62.6304,29.6182 -44.9085,30.3193 -68.2424,69.5819 -66.6469,107.9882 -0.2529,31.9323 14.9783,64.1375 48.4578,89.8451 32.0725,25.1881 77.4026,45.8642 131.3617,55.1847 31.5536,5.5717 64.1373,9.4163 96.9363,12.3743 45.474,2.7044 91.4394,-2.7064 135.3899,-9.8751 39.2121,-6.379 78.3747,-15.5826 108.7139,-31.4069 33.5327,-17.4828 54.975,-40.6217 71.2713,-63.9752 16.5317,-23.3973 25.4374,-48.8464 19.1884,-73.5426 -5.461,-25.2335 -16.3423,-50.6563 -40.9205,-72.1216 -24.0236,-20.8225 -59.9657,-36.9375 -100.747,-46.9898 -53.4712,-13.6347 -113.2582,-18.5999 -172.4484,-19.0995 -17.5382,-0.034 -35.1116,0.2306 -52.6348,1.1321 z"
       id="path3280-5"
       inkscape:connector-curvature="0"
       sodipodi:nodetypes="csssc" />
    <path
       style="color:#000000;display:inline;overflow:visible;visibility:visible;fill:#ffffff;fill-opacity:1;fill-rule:nonzero;stroke:none;stroke-width:0.869755px;marker:none;enable-background:accumulate"
       d="m 631.52816,1840.5303 c 47.24511,-27.3875 115.83444,-55.1086 154.24551,3.9472 23.5574,-4.8627 69.71482,-40.1263 115.42935,17.7336 -47.53609,-35.9834 -78.50267,-15.4767 -118.07887,4.9225 -18.59072,-41.5285 -83.01307,-49.4207 -140.96132,7.1368 -57.94866,56.5566 -38.62415,45.003 -38.62415,45.003 l 10.52452,-62.5977 z"
       id="path5074-8"
       inkscape:connector-curvature="0"
       sodipodi:nodetypes="ccccsccc" />
    <path
       style="display:inline;fill:#ffffff;stroke:none;stroke-width:1.05887"
       d="m 477.36637,1809.6055 c -32.80637,0.6202 -66.328,2.8871 -97.11745,14.1083 -40.54457,15.3776 -71.32362,50.1228 -80.02284,89.4906 -6.24132,26.0118 -5.66181,53.7456 3.90074,79.025 9.16633,23.3857 28.90561,42.7535 53.09835,53.7349 12.16827,5.7353 25.44736,9.0777 38.82569,11.4444 22.16101,4.2459 44.55104,7.586 67.07839,9.6772 50.34236,4.2645 102.65827,0.3106 149.25074,-18.7444 15.77561,-6.5084 31.1843,-14.7612 42.80076,-26.7076 15.97953,-17.5909 23.04019,-40.2604 27.29006,-62.4104 5.17567,-28.9396 1.79863,-60.0042 -14.24865,-85.7743 -16.52663,-26.0108 -45.44898,-44.2053 -76.82984,-52.0684 -31.51828,-8.5105 -64.5361,-10.583 -97.19962,-11.8245 -5.6086,-0.084 -11.21841,-0.064 -16.82633,0.049 z"
       id="path3280-5-9"
       inkscape:connector-curvature="0"
       sodipodi:nodetypes="csssc" />
    <path
       style="color:#000000;display:inline;overflow:visible;visibility:visible;fill:#ffffff;fill-opacity:1;fill-rule:nonzero;stroke:none;stroke-width:1.23214px;marker:none;enable-background:accumulate"
       d="m 1525.8135,284.79422 c 6.7326,-91.29414 78.8886,-157.51007 327.3003,-141.09946 133.063,8.79028 284.1059,14.36031 275.7857,148.09503 -8.3204,133.73448 -225.3587,130.96235 -270.1211,134.22622 -44.762,3.2641 -255.7337,-10.89412 -297.0564,-56.25081 -25.8673,-28.3919 -36.3171,-56.70184 -35.9085,-84.97098 z"
       id="path4546-7"
       inkscape:connector-curvature="0"
       sodipodi:nodetypes="cssssc" />
    <path
       style="fill:#ffffff;fill-rule:evenodd;stroke:none;stroke-width:1px;stroke-linecap:butt;stroke-linejoin:miter;stroke-opacity:1"
       d="m 1583.1971,228.38894 -0.065,25.78758 C 1064.4433,130.64867 897.1794,416.85146 793.5913,670.33743 810.89342,604.71047 848.83107,539.01086 867.11504,495.25305 921.33848,365.48369 1120.9039,126.81475 1583.1971,228.38894 Z"
       id="path1237"
       sodipodi:nodetypes="cccsc" />
    <path
       style="fill:#ffffff;fill-rule:evenodd;stroke:none;stroke-width:1.07745px;stroke-linecap:butt;stroke-linejoin:miter;stroke-opacity:1"
       d="m 831.54655,220.22561 c 25.64625,12.97476 48.82871,21.04152 40.94714,-32.7734 45.39555,73.06177 38.88359,23.02436 46.06554,5.4622 26.9893,51.61057 50.21137,44.25569 70.37791,-10.9244 11.40046,79.59467 35.25686,41.03052 56.30236,29.1319 -0.051,22.38327 -27.618,58.75533 48.6587,16.82898 -17.7559,20.21595 -47.0824,54.06155 6.099,33.79483 -8.6184,5.35959 6.9563,9.60416 0.7538,12.75937 -27.759,14.12075 -32.9341,45.94822 9.1519,57.21953 -29.7398,12.56052 -36.4882,43.98583 -1.4691,80.13352 -44.4705,-24.94281 -37.7521,8.03409 -29.5233,23.94457 -43.6691,-32.71188 -49.779,-19.61526 -46.0655,5.4622 -13.9366,-22.87975 -29.8391,-32.45983 -60.54264,6.55438 6.86795,-23.43417 -26.53753,-22.77173 -57.36474,14.31454 16.23382,-35.68177 -6.68785,-40.48012 -32.20715,-17.95604 -6.73087,-37.9175 -32.00542,-18.66554 -58.86152,5.46231 21.92072,-37.0083 23.50918,-67.92573 -19.19396,-85.57523 41.38292,-21.17144 33.84745,-38.24845 17.91437,-54.62242 15.74137,-15.39734 26.00493,-32.16999 -15.35518,-61.90552 24.18223,4.6228 49.93068,10.58278 24.31237,-27.31132 z"
       id="path4582"
       inkscape:connector-curvature="0"
       sodipodi:nodetypes="cccccccscccccccccccc" />
    <path
       style="fill:#ffffff;fill-rule:evenodd;stroke:none;stroke-width:1.14149px;stroke-linecap:butt;stroke-linejoin:miter;stroke-opacity:1"
       d="m 186.64099,269.10219 c 14.16793,-17.9695 21.6656,-57.67395 -26.96962,-49.84375 39.28832,-24.22773 26.02054,-46.39487 -3.9116,-60.30611 73.97307,21.84758 73.30597,-3.1264 61.65626,-34.98976 47.54155,45.23929 40.41961,-2.73478 35.84699,-20.87523 10.75548,16.73933 13.0223,42.92164 49.60085,2.10678 -0.32028,30.13252 -6.17118,65.92523 62.1714,25.78584 -22.50387,36.76194 -23.29348,63.59943 42.00483,60.23151 -28.38205,11.84018 -67.58994,23.8538 -13.96314,34.38016 -34.61657,-0.92979 -57.61576,1.55757 -42.76886,15.17701 -14.37392,-2.5435 -33.83306,-9.95842 -3.30801,30.50934 -20.80242,-14.97453 -46.52652,-38.26005 -39.11492,-5.59088 -18.23798,-14.68676 -19.40407,6.8976 -15.2404,39.80566 -12.94537,-38.21825 -26.75878,-42.54053 -41.59034,-7.10557 6.55708,-27.98121 3.27152,-63.65454 -44.38626,-25.35425 -12.90735,-2.90399 -11.03497,-2.74842 -20.02718,-3.93075 z"
       id="path1213"
       sodipodi:nodetypes="cccccccccccccccc" />
    <path
       style="fill:#ffffff;fill-rule:evenodd;stroke:none;stroke-width:1.28731px;stroke-linecap:butt;stroke-linejoin:miter;stroke-opacity:1"
       d="M 223.92681,451.40352 C 191.03014,380.78428 162.95416,309.9462 234.75229,234.57441 l -10.34265,-15.32374 c -90.31546,91.35161 -49.21656,162.34365 -0.48283,232.15285 z"
       id="path1217"
       sodipodi:nodetypes="cccc" />
    <path
       style="fill:#ffffff;fill-rule:evenodd;stroke:none;stroke-width:1.08499px;stroke-linecap:butt;stroke-linejoin:miter;stroke-opacity:1"
       d="m 1643.7985,1929.1739 c 96.8015,-46.6867 120.9988,-40.2821 80.5755,28.3512 65.4725,-1.176 123.2483,3.9962 149.8904,34.8462 l 15.5883,-26.0596 c -31.2138,-18.9598 -72.3678,-35.221 -134.1445,-30.1606 20.9177,-34.9284 13.3859,-99.1339 -111.9097,-6.9772 z"
       id="path1284"
       sodipodi:nodetypes="cccccc" />
  </g>
  <g
     inkscape:groupmode="layer"
     id="layer1"
     inkscape:label="txt">
    <text
       xml:space="preserve"
       style="font-style:normal;font-variant:normal;font-weight:normal;font-stretch:normal;font-size:81.3623px;line-height:1.25;font-family:Lavi;-inkscape-font-specification:Lavi;text-align:center;letter-spacing:0px;word-spacing:0px;text-anchor:middle;fill:#000000;fill-opacity:1;stroke:none;stroke-width:1.408;stroke-miterlimit:4;stroke-dasharray:none"
       x="316.34204"
       y="221.56798"
       id="text4246-3-2-2-6-3-7-9-3-3-56-9-3-20"
       transform="matrix(0.93887237,0,-0.13753791,1.0651075,0,0)"><tspan
         style="font-style:normal;font-variant:normal;font-weight:normal;font-stretch:normal;font-size:81.3623px;font-family:Lavi;-inkscape-font-specification:Lavi;stroke:#000000;stroke-width:1.408;stroke-miterlimit:4;stroke-dasharray:none;stroke-opacity:1"
         sodipodi:role="line"
         x="316.34204"
         y="221.56798"
         id="tspan334">?!!</tspan></text>
    <text
       xml:space="preserve"
       style="font-style:normal;font-variant:normal;font-weight:normal;font-stretch:normal;font-size:55.0875px;line-height:1.25;font-family:Lavi;-inkscape-font-specification:Lavi;text-align:center;letter-spacing:0px;word-spacing:0px;text-anchor:middle;fill:#000000;fill-opacity:1;stroke:none;stroke-width:1.22417"
       x="980.52393"
       y="301.34012"
       id="text4246-3-2-2-6-3-7-9-3-3-56-9-3-20-3"
       transform="scale(0.97385246,1.0268496)"><tspan
         style="font-size:55.0875px;stroke-width:1.22417"
         sodipodi:role="line"
         x="980.52393"
         y="301.34012"
         id="tspan880"><tspan
   style="font-style:normal;font-variant:normal;font-weight:bold;font-stretch:normal;font-family:Lavi;-inkscape-font-specification:'Lavi Bold'"
   id="tspan889">Ŝin</tspan> ĝi</tspan><tspan
         style="font-size:55.0875px;stroke-width:1.22417"
         sodipodi:role="line"
         x="980.52393"
         y="370.19949"
         id="tspan888">celis !</tspan></text>
    <text
       xml:space="preserve"
       style="font-style:normal;font-variant:normal;font-weight:normal;font-stretch:normal;font-size:48.8015px;line-height:1.25;font-family:Lavi;-inkscape-font-specification:Lavi;text-align:center;letter-spacing:0px;word-spacing:0px;text-anchor:middle;fill:#000000;fill-opacity:1;stroke:none;stroke-width:1.08448"
       x="1829.2006"
       y="228.50026"
       id="text4246-3-2-2-6-3-7-9-3-3-56-9-3-20-3-7"><tspan
         style="font-size:48.8015px;stroke-width:1.08448"
         sodipodi:role="line"
         x="1829.2006"
         y="228.50026"
         id="tspan880-3">Mi simple nuligis</tspan><tspan
         style="font-size:48.8015px;stroke-width:1.08448"
         sodipodi:role="line"
         x="1829.2006"
         y="289.50214"
         id="tspan900">ŝian <tspan
   style="font-style:italic;font-variant:normal;font-weight:normal;font-stretch:normal;font-family:Lavi;-inkscape-font-specification:'Lavi Italic'"
   id="tspan891">Sorĉon de beleco,</tspan></tspan><tspan
         style="font-size:48.8015px;stroke-width:1.08448"
         sodipodi:role="line"
         x="1829.2006"
         y="350.504"
         id="tspan914">kiu ŝajnigas ŝin juna.</tspan></text>
    <text
       xml:space="preserve"
       style="font-style:normal;font-variant:normal;font-weight:normal;font-stretch:normal;font-size:45px;line-height:1.25;font-family:Lavi;-inkscape-font-specification:Lavi;text-align:center;letter-spacing:0px;word-spacing:0px;text-anchor:middle;fill:#000000;fill-opacity:1;stroke:none"
       x="491.57349"
       y="1897.157"
       id="text4246-3-2-2-6-3-7-9-3-3-56-9-3-20-5"><tspan
         style="font-size:45px"
         sodipodi:role="line"
         x="491.57349"
         y="1897.157"
         id="tspan943">Mi rimarkis</tspan><tspan
         style="font-size:45px"
         sodipodi:role="line"
         x="491.57349"
         y="1953.407"
         id="tspan905">tiun sorĉon tuj </tspan><tspan
         style="font-size:45px"
         sodipodi:role="line"
         x="491.57349"
         y="2009.657"
         id="tspan924">kiam mi venis.</tspan></text>
    <text
       xml:space="preserve"
       style="font-style:normal;font-variant:normal;font-weight:normal;font-stretch:normal;font-size:45px;line-height:1.25;font-family:Lavi;-inkscape-font-specification:Lavi;text-align:center;letter-spacing:0px;word-spacing:0px;text-anchor:middle;fill:#000000;fill-opacity:1;stroke:none"
       x="2050.0312"
       y="1982.6521"
       id="text4246-3-2-2-6-3-7-9-3-3-56-9-3-20-5-9"><tspan
         style="font-size:45px"
         sodipodi:role="line"
         x="2050.0312"
         y="1982.6521"
         id="tspan921">Mi donis al vi do</tspan><tspan
         style="font-size:45px"
         sodipodi:role="line"
         x="2050.0312"
         y="2038.9021"
         id="tspan942">etan parton de tio, kion</tspan><tspan
         style="font-size:45px"
         sodipodi:role="line"
         x="2050.0312"
         y="2095.1521"
         id="tspan946">vi meritas, ĉar vi bataligis</tspan><tspan
         style="font-size:45px"
         sodipodi:role="line"
         x="2050.0312"
         y="2151.4021"
         id="tspan948">Ŝiĉimion kontraŭ mi !</tspan></text>
    <text
       xml:space="preserve"
       style="font-style:normal;font-variant:normal;font-weight:normal;font-stretch:normal;font-size:53.3333px;line-height:1.25;font-family:Lavi;-inkscape-font-specification:Lavi;text-align:center;letter-spacing:2px;word-spacing:0px;text-anchor:middle;fill:#000000;fill-opacity:1;stroke:none;stroke-width:1.32287"
       x="371.23419"
       y="2213.5396"
       id="text4246-3-2-2-6-3-7-9-3-3-56-9-3-20-5-9-0"
       transform="scale(0.860916,1.1615535)"><tspan
         style="font-style:normal;font-variant:normal;font-weight:bold;font-stretch:normal;font-size:53.3333px;font-family:Lavi;-inkscape-font-specification:'Lavi Bold';stroke-width:1.32287"
         sodipodi:role="line"
         x="372.23419"
         y="2213.5396"
         id="tspan992-6">SENRESPEKTE !</tspan></text>
    <text
       xml:space="preserve"
       style="font-style:normal;font-variant:normal;font-weight:normal;font-stretch:normal;font-size:58px;line-height:1.25;font-family:Lavi;-inkscape-font-specification:Lavi;text-align:center;letter-spacing:0px;word-spacing:0px;text-anchor:middle;fill:#000000;fill-opacity:1;stroke:none;stroke-width:1.30553"
       x="323.03574"
       y="2751.8735"
       id="text4246-3-2-2-6-3-7-9-3-3-56-9-3-20-5-2"><tspan
         style="font-size:58px;stroke-width:1.30553"
         sodipodi:role="line"
         x="323.03574"
         y="2751.8735"
         id="tspan1085">Kiel vi<tspan
   style="font-style:normal;font-variant:normal;font-weight:bold;font-stretch:normal;font-family:Lavi;-inkscape-font-specification:'Lavi Bold'"
   id="tspan897" /></tspan><tspan
         style="font-size:58px;stroke-width:1.30553"
         sodipodi:role="line"
         x="323.03574"
         y="2824.3735"
         id="tspan901"><tspan
   style="font-style:normal;font-variant:normal;font-weight:bold;font-stretch:normal;font-family:Lavi;-inkscape-font-specification:'Lavi Bold'"
   id="tspan903">aŭdacas</tspan>,</tspan></text>
    <text
       xml:space="preserve"
       style="font-style:normal;font-variant:normal;font-weight:normal;font-stretch:normal;font-size:50px;line-height:1.25;font-family:Lavi;-inkscape-font-specification:Lavi;text-align:center;letter-spacing:0px;word-spacing:0px;text-anchor:middle;fill:#000000;fill-opacity:1;stroke:none;stroke-width:1.30553"
       x="320.56845"
       y="2934.1201"
       id="text4246-3-2-2-6-3-7-9-3-3-56-9-3-20-5-2-7"><tspan
         style="font-size:50px;stroke-width:1.30553"
         sodipodi:role="line"
         x="320.56845"
         y="2934.1201"
         id="tspan959">kaj eĉ antaŭ</tspan><tspan
         style="font-size:50px;stroke-width:1.30553"
         sodipodi:role="line"
         x="320.56845"
         y="2996.6201"
         id="tspan911">tuta mia</tspan><tspan
         style="font-size:50px;stroke-width:1.30553"
         sodipodi:role="line"
         x="320.56845"
         y="3059.1201"
         id="tspan913">lernejo !</tspan></text>
    <text
       xml:space="preserve"
       style="font-style:normal;font-variant:normal;font-weight:normal;font-stretch:normal;font-size:45px;line-height:1.25;font-family:Lavi;-inkscape-font-specification:Lavi;text-align:center;letter-spacing:0px;word-spacing:0px;text-anchor:middle;fill:#000000;fill-opacity:1;stroke:none"
       x="2149.2981"
       y="2544.0259"
       id="text4246-3-2-2-6-3-7-9-3-3-56-9-3-20-5-9-02"><tspan
         style="font-size:45px"
         sodipodi:role="line"
         x="2149.2981"
         y="2544.0259"
         id="tspan1175">Pensu vin</tspan><tspan
         style="font-size:45px"
         sodipodi:role="line"
         x="2149.2981"
         y="2600.2759"
         id="tspan917">bonŝanca !</tspan></text>
    <text
       xml:space="preserve"
       style="font-style:normal;font-variant:normal;font-weight:normal;font-stretch:normal;font-size:45px;line-height:1.25;font-family:Lavi;-inkscape-font-specification:Lavi;text-align:center;letter-spacing:0px;word-spacing:0px;text-anchor:middle;fill:#000000;fill-opacity:1;stroke:none"
       x="2160.4646"
       y="2721.9202"
       id="text4246-3-2-2-6-3-7-9-3-3-56-9-3-20-5-9-02-2"><tspan
         style="font-size:45px"
         sodipodi:role="line"
         x="2160.4646"
         y="2721.9202"
         id="tspan970">Se mi havus</tspan><tspan
         style="font-size:45px"
         sodipodi:role="line"
         x="2160.4646"
         y="2778.1702"
         id="tspan976">ĉiom de mia Reo, </tspan><tspan
         style="font-size:45px"
         sodipodi:role="line"
         x="2160.4646"
         y="2834.4202"
         id="tspan982">mi ne haltus</tspan><tspan
         style="font-size:45px"
         sodipodi:role="line"
         x="2160.4646"
         y="2890.6702"
         id="tspan922">je tio.</tspan></text>
  </g>
</svg>
