<?xml version="1.0" encoding="UTF-8" standalone="no"?>
<svg
   xmlns:dc="http://purl.org/dc/elements/1.1/"
   xmlns:cc="http://creativecommons.org/ns#"
   xmlns:rdf="http://www.w3.org/1999/02/22-rdf-syntax-ns#"
   xmlns:svg="http://www.w3.org/2000/svg"
   xmlns="http://www.w3.org/2000/svg"
   xmlns:xlink="http://www.w3.org/1999/xlink"
   xmlns:sodipodi="http://sodipodi.sourceforge.net/DTD/sodipodi-0.dtd"
   xmlns:inkscape="http://www.inkscape.org/namespaces/inkscape"
   id="svg2"
   version="1.1"
   inkscape:version="0.92.5 (2060ec1f9f, 2020-04-08)"
   width="2481"
   height="3503"
   sodipodi:docname="E34P03.svg">
  <metadata
     id="metadata8">
    <rdf:RDF>
      <cc:Work
         rdf:about="">
        <dc:format>image/svg+xml</dc:format>
        <dc:type
           rdf:resource="http://purl.org/dc/dcmitype/StillImage" />
        <dc:title />
      </cc:Work>
    </rdf:RDF>
  </metadata>
  <defs
     id="defs6" />
  <sodipodi:namedview
     pagecolor="#ffffff"
     bordercolor="#666666"
     borderopacity="1"
     objecttolerance="10"
     gridtolerance="10"
     guidetolerance="10"
     inkscape:pageopacity="0"
     inkscape:pageshadow="2"
     inkscape:window-width="1366"
     inkscape:window-height="704"
     id="namedview4"
     showgrid="false"
     inkscape:zoom="0.30245748"
     inkscape:cx="1247.9066"
     inkscape:cy="673.30046"
     inkscape:window-x="0"
     inkscape:window-y="27"
     inkscape:window-maximized="1"
     inkscape:current-layer="layer3"
     inkscape:document-rotation="0"
     borderlayer="true" />
  <g
     inkscape:groupmode="layer"
     id="layer2"
     inkscape:label="artwork"
     sodipodi:insensitive="true">
    <image
       sodipodi:absref="/home/juanjo/Comics/lang-ep-34-final/es/../gfx_Pepper-and-Carrot_by-David-Revoy_E34P03.png"
       xlink:href="../gfx_Pepper-and-Carrot_by-David-Revoy_E34P03.png"
       y="0"
       x="0"
       id="image10"
       height="3503"
       width="2481" />
  </g>
  <g
     inkscape:groupmode="layer"
     id="layer3"
     inkscape:label="speechbubbles"
     style="display:inline">
    <path
       style="color:#000000;display:inline;overflow:visible;visibility:visible;fill:#ffffff;fill-opacity:1;fill-rule:nonzero;stroke:none;stroke-width:1.25210369px;marker:none;enable-background:accumulate"
       d="m 1194.1834,2141.2539 c -43.1584,1.3132 -86.2355,4.541 -129.3543,6.7792 -15.5126,0.9289 -31.0456,1.6351 -46.5259,3.0528 -19.83954,2.1939 -40.09803,6.7608 -57.03086,18.4232 -24.78277,17.2635 -40.63781,47.2667 -42.97738,78.3544 -2.52947,23.6353 -1.00757,48.4261 8.54173,70.2692 10.67768,24.195 28.65628,43.9425 48.5766,59.9825 22.97375,18.2002 50.05591,30.1524 78.09791,36.3334 17.5194,4.0753 35.0624,8.1836 52.8799,10.5414 25.4361,3.5184 51.0578,5.5554 76.7003,6.2741 26.0497,0.4672 52.0274,-2.0476 78.0374,-3.0987 20.6329,-1.2836 41.1471,-4.8007 61.0422,-10.7364 24.5206,-6.6034 49.1632,-14.504 70.8546,-28.6116 18.2364,-13.3591 30.9256,-33.5046 39.8131,-54.6589 10.6574,-24.0878 19.4905,-49.7227 20.6777,-76.5183 0.3047,-25.9426 -10.9129,-51.0422 -27.8639,-69.448 -19.084,-21.082 -45.67,-33.9379 -73.0559,-36.823 -26.0823,-3.6366 -52.3774,-5.0727 -78.6167,-6.8292 -26.575,-1.6113 -53.173,-3.0803 -79.7965,-3.2861 z"
       id="path4546-6-08-2"
       inkscape:connector-curvature="0"
       sodipodi:nodetypes="cssssc" />
    <path
       style="color:#000000;display:inline;overflow:visible;visibility:visible;fill:#ffffff;fill-opacity:1;fill-rule:nonzero;stroke:none;stroke-width:0.586403px;marker:none;enable-background:accumulate"
       d="m 786.34677,2123.5123 c 5.02464,-42.62 47.16918,-72.3401 153.25243,-60.2559 56.824,6.4733 121.4295,11.7571 114.7301,74.2181 -6.6996,62.4603 -99.65607,57.3161 -118.91724,58.0513 -19.26129,0.7346 -119.01807,-9.6322 -135.66614,-31.5981 -10.42127,-13.7499 -14.23657,-27.1885 -13.39915,-40.4154 z"
       id="path4546-6-08"
       inkscape:connector-curvature="0"
       sodipodi:nodetypes="cssssc" />
    <path
       style="fill:#ffffff;fill-rule:evenodd;stroke:none;stroke-width:1.25695px;stroke-linecap:butt;stroke-linejoin:miter;stroke-opacity:1"
       d="m 1471.3459,2456.5997 c -67.1764,-16.6519 -104.4231,-46.199 -116.7263,-96.6707 l -26.7459,22.416 c 34.4783,64.0674 88.4565,69.7439 143.4722,74.2547 z"
       id="path1291"
       inkscape:connector-curvature="0"
       sodipodi:nodetypes="cccc" />
    <path
       style="fill:#ffffff;stroke:none;stroke-width:0.90474516"
       d="m 2028.457,293.04297 c -36.9751,1.03415 -73.8429,5.16161 -110.1485,11.96437 -18.9641,4.15086 -37.7792,11.07479 -52.8053,23.29252 -16.1776,13.72188 -25.4804,34.1057 -26.9559,54.69049 -1.091,19.99112 8.1378,39.86555 23.2252,53.38407 11.2898,10.35526 25.6649,17.0757 40.565,21.06796 15.7573,4.5106 31.8943,7.63615 48.0192,10.63201 58.9043,10.20517 119.3911,10.18968 178.6648,2.98327 19.1959,-2.49173 38.7095,-6.12397 55.8279,-15.28813 16.5952,-9.03844 30.471,-23.32436 37.2783,-40.64224 5.8124,-14.86397 4.7248,-31.49662 -0.07,-46.47026 -6.4851,-20.10955 -20.9077,-38.16488 -40.4934,-47.79399 -12.6094,-6.05089 -26.1447,-9.97827 -39.5201,-14.09619 -10.2777,-3.08594 -20.6349,-6.07179 -31.3151,-7.54606 -18.5846,-2.82974 -37.4136,-3.53427 -56.1319,-5.14385 -8.6966,-0.64249 -17.4146,-1.12321 -26.1401,-1.03397 z"
       id="path3100-2-0"
       inkscape:connector-curvature="0" />
    <path
       style="fill:#ffffff;stroke:none;stroke-width:1.0865"
       d="m 2019.5839,253.5565 c -6.366,58.07386 -97.0698,73.80425 -161.6063,73.87191 -109.7496,4.35437 -220.9647,-2.91346 -328.0217,-21.54286 -69.1323,-16.08413 -102.7338,-90.80562 -45.3804,-128.46041 58.8257,-29.32136 134.3857,-26.7993 202.2704,-32.43727 96.0136,-2.96731 195.4627,2.45137 285.3702,29.62082 40.0531,14.78235 53.9309,47.65096 47.3678,78.94781 z"
       id="path3100-2"
       inkscape:connector-curvature="0" />
    <path
       style="color:#000000;display:inline;overflow:visible;visibility:visible;fill:#ffffff;fill-opacity:1;fill-rule:nonzero;stroke:none;stroke-width:1.0387px;marker:none;enable-background:accumulate"
       d="m 954.3418,206.84393 c -45.87505,1.97147 -90.50389,14.77972 -132.65874,31.84492 -15.88073,6.03788 -32.79797,11.09932 -45.81804,22.26685 -14.02348,12.27037 -22.59215,29.24849 -28.17223,46.48683 -8.54435,27.77652 -10.7449,56.92004 -11.54367,85.75642 -0.41844,14.19723 -0.22398,28.48133 2.27607,42.51345 2.82333,16.1977 7.67467,32.14781 15.09561,46.93968 11.30881,21.15608 30.71463,37.29317 52.13963,48.43452 21.39559,11.11852 45.2899,17.07169 69.33549,19.54848 23.84715,2.70147 47.88886,3.61879 71.88735,3.43558 32.30255,-0.61095 64.91303,-4.53788 95.38533,-15.34437 26.8709,-10.46355 48.2885,-31.965 60.4625,-57.20098 13.0838,-25.7763 21.7985,-53.64356 25.7259,-82.1144 3.6767,-28.82749 1.7999,-58.75996 -8.6815,-86.14881 -8.6775,-21.96761 -24.0909,-41.26224 -43.5152,-55.31204 -22.4585,-17.05964 -47.7099,-30.38337 -73.7901,-41.4497 -15.25658,-5.9634 -31.57975,-10.00363 -48.1284,-9.65643 z"
       id="path4040-40"
       inkscape:connector-curvature="0"
       sodipodi:nodetypes="zssssz" />
    <path
       style="fill:#ffffff;stroke:none;stroke-width:1.36939"
       d="m 892.09961,88.826334 c -28.75402,0.336902 -57.83216,3.363847 -85.19428,13.397696 -16.3116,5.96492 -32.41506,13.84832 -45.4192,26.26982 -9.12602,8.95523 -15.8987,20.99968 -17.81839,34.25248 -2.89051,17.39156 1.5927,35.79962 11.34058,49.90043 13.456,20.82892 35.77762,34.44258 59.16006,36.76059 35.76084,5.3918 71.958,4.07814 107.95733,4.28932 28.05868,-0.11683 56.41595,-0.50982 83.90449,-7.2605 18.7707,-4.74747 37.197,-13.23746 51.5197,-27.44646 10.6108,-10.80905 17.6808,-26.23856 17.2066,-42.17946 -0.2887,-19.07421 -9.2063,-37.26922 -22.3777,-49.721 -14.6982,-14.31521 -33.3654,-22.89254 -52.3065,-28.366649 -27.6725,-7.935641 -56.47609,-8.997119 -84.94555,-9.729496 -7.6746,-0.160188 -15.35121,-0.243815 -23.02714,-0.166771 z"
       id="path3280-1"
       inkscape:connector-curvature="0"
       sodipodi:nodetypes="csssc" />
    <path
       style="color:#000000;display:inline;overflow:visible;visibility:visible;fill:#ffffff;fill-opacity:1;fill-rule:nonzero;stroke:none;stroke-width:0.990091px;marker:none;enable-background:accumulate"
       d="m 488.9942,566.25992 c -18.78498,50.92279 -2.84901,105.08842 13.19711,114.63467 -28.06687,-12.75099 -51.50197,-72.60161 -41.41962,-110.56135 11.40195,-31.85325 28.22251,-4.07332 28.22251,-4.07332 z"
       id="path4480-2"
       inkscape:connector-curvature="0"
       sodipodi:nodetypes="cccc"
       inkscape:transform-center-x="54.91025"
       inkscape:transform-center-y="-145.58616" />
    <path
       style="color:#000000;display:inline;overflow:visible;visibility:visible;fill:#ffffff;fill-opacity:1;fill-rule:nonzero;stroke:none;stroke-width:1.03425px;marker:none;enable-background:accumulate"
       d="m 507.48872,345.10617 c -36.28928,0.38871 -72.90871,0.62809 -108.60573,7.70681 -19.98914,4.81035 -38.80809,16.02628 -50.22042,32.93774 -18.10609,24.90098 -26.64101,55.81779 -25.77264,86.14759 1.1851,28.78316 14.35509,57.90606 38.54215,75.31491 17.42093,12.52985 38.66422,18.55933 59.68058,22.51044 34.77321,7.75808 70.65056,10.70576 106.27629,8.89598 30.97837,-0.66374 62.59005,-0.97372 92.40515,-10.14974 20.82014,-6.74558 39.53942,-19.98837 51.51683,-37.95905 13.39822,-19.28477 19.24589,-42.68724 19.7549,-65.74216 1.09598,-29.70679 -6.0491,-60.34467 -23.60679,-85.00881 -12.83542,-16.82836 -32.95076,-28.25541 -54.42608,-30.54413 -28.06494,-4.51394 -56.61527,-2.6804 -84.90928,-4.04776 -6.87789,-0.10101 -13.75657,-0.0656 -20.63496,-0.0618 z"
       id="path4546-6-5-5"
       inkscape:connector-curvature="0"
       sodipodi:nodetypes="cssssc" />
    <path
       style="color:#000000;display:inline;overflow:visible;visibility:visible;fill:#ffffff;fill-opacity:1;fill-rule:nonzero;stroke:none;stroke-width:0.878626px;marker:none;enable-background:accumulate"
       d="m 280.03711,122.38281 c -33.79477,0.68643 -68.02945,4.60046 -99.77231,16.78803 -17.23206,6.90084 -33.18544,18.89121 -41.6431,35.74547 -9.88288,20.64639 -10.45282,45.06065 -3.60005,66.71181 4.53119,13.43431 13.76714,25.42778 26.2788,32.30259 19.49064,11.5596 41.77723,17.42486 64.07206,20.50986 17.17101,2.38165 34.46105,3.75524 51.7079,5.44806 31.56947,2.56675 63.42574,2.91769 94.90088,-1.01693 28.89544,-3.55299 57.83793,-9.01684 84.94654,-19.92043 14.64667,-5.90857 29.0757,-13.59551 39.64678,-25.60571 14.50656,-16.00103 18.89205,-39.42064 14.04417,-60.13619 -3.60016,-15.96647 -12.91349,-30.7211 -26.39467,-40.14017 -16.42622,-11.79649 -36.42107,-16.96784 -55.99513,-20.73869 -30.1949,-5.68926 -60.95953,-7.12509 -91.57175,-8.89364 -18.85659,-0.90071 -37.74247,-1.35513 -56.62012,-1.05406 z"
       id="path4546-6-5-3"
       inkscape:connector-curvature="0"
       sodipodi:nodetypes="cssssc" />
    <path
       id="path1081"
       style="fill:#ffffff;fill-rule:evenodd;stroke:none;stroke-width:1px;stroke-linecap:butt;stroke-linejoin:miter;stroke-opacity:1"
       d="m 293.67188,278.28125 c -10.34602,0.0639 -20.49884,2.27426 -30.72657,3.55078 -2.69982,4.93778 -4.08222,10.48922 -6.23101,15.68234 -5.67931,15.85263 -11.23804,31.88728 -14.15471,48.50943 -1.55744,12.04107 -0.85288,24.84605 5.20433,35.64519 9.1497,17.95023 22.70579,33.83652 27.94646,53.6304 3.09231,10.90551 5.52274,22.36337 4.35032,33.73572 -2.11881,9.59327 -8.21891,17.62309 -11.87847,26.63366 -6.87167,15.32803 -10.49807,32.77889 -6.43519,49.37594 1.01596,4.68537 2.40213,9.28257 3.95804,13.81467 -2.44284,-26.62563 4.52474,-54.43511 21.1636,-75.60842 5.87927,-7.58781 10.3557,-16.41037 11.5087,-26.03213 2.42129,-15.20105 -1.52987,-30.55332 -7.50308,-44.47184 -6.35087,-15.65438 -14.74681,-30.53834 -19.38839,-46.84497 -2.53518,-14.1623 4.48464,-27.52853 11.07638,-39.5497 6.64471,-12.19187 14.72253,-23.64193 20.19033,-36.44305 2.35665,-5.59735 -3.25033,-12.19349 -9.08074,-11.62802 z" />
    <path
       style="color:#000000;display:inline;overflow:visible;visibility:visible;fill:#ffffff;fill-opacity:1;fill-rule:nonzero;stroke:none;stroke-width:0.747612px;marker:none;enable-background:accumulate"
       d="m 899.59119,531.93304 c -2.31202,46.97432 46.46212,99.91514 106.27011,73.88577 -68.51547,11.60614 -80.86302,-50.88993 -74.49691,-77.22915 6.052,-16.0625 -31.7732,3.34338 -31.7732,3.34338 z"
       id="path3978-4"
       inkscape:connector-curvature="0"
       sodipodi:nodetypes="cccc" />
    <path
       style="fill:#ffffff;fill-rule:evenodd;stroke:none;stroke-width:1.17292px;stroke-linecap:butt;stroke-linejoin:miter;stroke-opacity:1"
       d="m 2100.8685,448.51869 c 46.9908,56.36735 25.0644,96.94489 0.9732,119.18809 57.8143,-39.15954 50.7085,-84.22782 24.8731,-138.46075 -6.4903,-8.77797 -25.8463,19.27266 -25.8463,19.27266 z"
       id="path1359"
       inkscape:connector-curvature="0"
       sodipodi:nodetypes="cccc" />
    <path
       style="color:#000000;display:inline;overflow:visible;visibility:visible;fill:#ffffff;fill-opacity:1;fill-rule:nonzero;stroke:none;stroke-width:0.53159px;marker:none;enable-background:accumulate"
       d="m 753.43797,1784.4258 c -21.61908,0.867 -43.64329,5.9216 -62.11716,18.3531 -12.9203,9.5893 -19.93225,26.9834 -18.3262,43.572 0.52192,13.3373 4.75947,27.3028 14.46741,36.2633 10.66519,9.28 24.51001,12.594 37.76342,15.0694 19.19956,3.3542 38.6325,5.3796 58.0923,5.6186 25.93906,-0.1737 51.97567,-5.0256 76.09424,-15.3087 9.98843,-4.6176 19.69787,-11.9976 23.93725,-23.0724 8.94529,-22.3457 0.0224,-50.8982 -19.67455,-63.133 -14.27504,-9.2197 -31.09379,-12.1995 -47.41439,-14.2998 -20.8459,-2.4933 -41.85659,-3.2792 -62.82232,-3.0625 z"
       id="path4546-6-5-3-5"
       inkscape:connector-curvature="0"
       sodipodi:nodetypes="cssssc" />
    <path
       style="color:#000000;display:inline;overflow:visible;visibility:visible;fill:#ffffff;fill-opacity:1;fill-rule:nonzero;stroke:none;stroke-width:0.710537px;marker:none;enable-background:accumulate"
       d="m 849.98651,1849.2956 c 26.9288,18.2447 60.46856,37.1401 111.40082,-0.4118 -51.33263,27.0778 -81.7058,-0.5873 -98.47579,-20.0818 -9.1535,-13.7188 -12.92502,20.4935 -12.92503,20.4936 z"
       id="path3978-4-3"
       inkscape:connector-curvature="0"
       sodipodi:nodetypes="cccc" />
  </g>
  <g
     inkscape:groupmode="layer"
     id="layer1"
     inkscape:label="txt">
    <text
       xml:space="preserve"
       style="font-style:normal;font-variant:normal;font-weight:normal;font-stretch:normal;font-size:45px;line-height:1.25;font-family:Lavi;-inkscape-font-specification:Lavi;text-align:center;letter-spacing:0px;word-spacing:0px;text-anchor:middle;fill:#000000;fill-opacity:1;stroke:none"
       x="328.19693"
       y="194.99399"
       id="text4246-3-2-2-6-3-7-9-3"><tspan
         style="font-size:45px"
         sodipodi:role="line"
         x="335.22818"
         y="194.99399"
         id="tspan850">¿Es una de </tspan><tspan
         style="font-size:45px"
         sodipodi:role="line"
         x="328.19693"
         y="251.24399"
         id="tspan60">tus invitadas?</tspan></text>
    <text
       xml:space="preserve"
       style="font-style:normal;font-variant:normal;font-weight:normal;font-stretch:normal;font-size:45px;line-height:1.25;font-family:Lavi;-inkscape-font-specification:Lavi;text-align:center;letter-spacing:0px;word-spacing:0px;text-anchor:middle;fill:#000000;fill-opacity:1;stroke:none"
       x="514.43018"
       y="421.59866"
       id="text4246-3-2-2-6-3-7-9-3-3"><tspan
         style="font-size:45px"
         sodipodi:role="line"
         x="521.46143"
         y="421.59866"
         id="tspan890">Sí. Es mi </tspan><tspan
         style="font-size:45px"
         sodipodi:role="line"
         x="521.46143"
         y="477.84866"
         id="tspan71">amiga Pimienta. </tspan><tspan
         style="font-size:45px"
         sodipodi:role="line"
         x="514.43018"
         y="534.09863"
         id="tspan73">Tranquila.</tspan></text>
    <text
       xml:space="preserve"
       style="font-style:normal;font-variant:normal;font-weight:normal;font-stretch:normal;font-size:45px;line-height:1.25;font-family:Lavi;-inkscape-font-specification:Lavi;text-align:center;letter-spacing:0px;word-spacing:0px;text-anchor:middle;fill:#000000;fill-opacity:1;stroke:none"
       x="909.74799"
       y="162.51166"
       id="text4246-3-2-2-6-3-7-9-3-3-5"><tspan
         style="font-size:45px"
         sodipodi:role="line"
         x="916.77924"
         y="162.51166"
         id="tspan878">Zanahoria, </tspan><tspan
         style="font-size:45px"
         sodipodi:role="line"
         x="909.74799"
         y="218.76166"
         id="tspan77">¿estás bien?</tspan></text>
    <text
       xml:space="preserve"
       style="font-style:normal;font-variant:normal;font-weight:normal;font-stretch:normal;font-size:40px;line-height:1.25;font-family:Lavi;-inkscape-font-specification:Lavi;text-align:center;letter-spacing:0px;word-spacing:0px;text-anchor:middle;fill:#000000;fill-opacity:1;stroke:none"
       x="932.96515"
       y="303.68555"
       id="text4246-3-2-2-6-3-7-9-3-3-5-9"><tspan
         sodipodi:role="line"
         x="939.21515"
         y="303.68555"
         style="font-size:40px"
         id="tspan897">Perdona, todavía </tspan><tspan
         sodipodi:role="line"
         x="939.21515"
         y="353.68555"
         style="font-size:40px"
         id="tspan123">no controlo bien </tspan><tspan
         sodipodi:role="line"
         x="932.96515"
         y="403.68555"
         style="font-size:40px"
         id="tspan133">el aterrizaje</tspan><tspan
         sodipodi:role="line"
         x="939.21515"
         y="453.68555"
         style="font-size:40px"
         id="tspan125">cuando uso la </tspan><tspan
         sodipodi:role="line"
         x="932.96515"
         y="503.68555"
         style="font-size:40px"
         id="tspan127">hipervelocidad.</tspan></text>
    <text
       xml:space="preserve"
       style="font-style:normal;font-variant:normal;font-weight:normal;font-stretch:normal;font-size:45px;line-height:1.25;font-family:Lavi;-inkscape-font-specification:Lavi;text-align:center;letter-spacing:0px;word-spacing:0px;text-anchor:middle;fill:#000000;fill-opacity:1;stroke:none"
       x="1746.5807"
       y="228.80762"
       id="text4246-3-2-2-6-3-7-9-3-3-5-9-2"><tspan
         style="font-size:45px"
         sodipodi:role="line"
         x="1753.6119"
         y="228.80762"
         id="tspan1045">Y perdón de nuevo por </tspan><tspan
         style="font-size:45px"
         sodipodi:role="line"
         x="1746.5807"
         y="285.05762"
         id="tspan81">todo el jaleo,</tspan></text>
    <text
       xml:space="preserve"
       style="font-style:normal;font-variant:normal;font-weight:normal;font-stretch:normal;font-size:45px;line-height:1.25;font-family:Lavi;-inkscape-font-specification:Lavi;text-align:center;letter-spacing:0px;word-spacing:0px;text-anchor:middle;fill:#000000;fill-opacity:1;stroke:none"
       x="2039.0015"
       y="372.36926"
       id="text4246-3-2-2-6-3-7-9-3-3-5-9-2-6"><tspan
         style="font-size:45px"
         sodipodi:role="line"
         x="2046.0327"
         y="372.36926"
         id="tspan8459">y también por </tspan><tspan
         style="font-size:45px"
         sodipodi:role="line"
         x="2039.0015"
         y="428.61926"
         id="tspan85">mi vestimenta...</tspan></text>
    <text
       xml:space="preserve"
       style="font-style:normal;font-variant:normal;font-weight:normal;font-stretch:normal;font-size:45px;line-height:1.25;font-family:Lavi;-inkscape-font-specification:Lavi;text-align:center;letter-spacing:0px;word-spacing:0px;text-anchor:middle;fill:#000000;fill-opacity:1;stroke:none"
       x="776.10114"
       y="1856.0842"
       id="text4246-3-2-2-6-3-7-9-3-3-5-9-2-6-3"><tspan
         style="font-size:45px"
         sodipodi:role="line"
         x="776.10114"
         y="1856.0842"
         id="tspan8459-7">¡Jijiji!</tspan></text>
    <text
       xml:space="preserve"
       style="font-style:normal;font-variant:normal;font-weight:normal;font-stretch:normal;font-size:45px;line-height:1.25;font-family:Lavi;-inkscape-font-specification:Lavi;text-align:center;letter-spacing:0px;word-spacing:0px;text-anchor:middle;fill:#000000;fill-opacity:1;stroke:none"
       x="922.21698"
       y="2143.4609"
       id="text4246-3-2-2-6-3-7-9-3-3-5-9-2-6-1"><tspan
         style="font-size:45px"
         sodipodi:role="line"
         x="922.21698"
         y="2143.4609"
         id="tspan1077-7">Shichimi,</tspan></text>
    <text
       xml:space="preserve"
       style="font-style:normal;font-variant:normal;font-weight:normal;font-stretch:normal;font-size:45px;line-height:1.25;font-family:Lavi;-inkscape-font-specification:Lavi;text-align:center;letter-spacing:0px;word-spacing:0px;text-anchor:middle;fill:#000000;fill-opacity:1;stroke:none"
       x="1190.3296"
       y="2228.157"
       id="text4246-3-2-2-6-3-7-9-3-3-5-9-2-6-1-9"><tspan
         style="font-size:45px"
         x="1197.3608"
         y="2228.157"
         sodipodi:role="line"
         id="tspan1137">esta joven bruja que </tspan><tspan
         style="font-size:45px"
         x="1197.3608"
         y="2284.407"
         sodipodi:role="line"
         id="tspan97">acaba de llegar, </tspan><tspan
         style="font-size:45px"
         x="1197.3608"
         y="2340.657"
         sodipodi:role="line"
         id="tspan103">¿es <tspan
   style="font-style:italic;font-variant:normal;font-weight:normal;font-stretch:normal;font-family:Lavi;-inkscape-font-specification:'Lavi Italic'"
   id="tspan107">realmente</tspan> una de </tspan><tspan
         style="font-size:45px"
         x="1190.3296"
         y="2396.907"
         sodipodi:role="line"
         id="tspan105">tus amigas?</tspan></text>
  </g>
</svg>
