<?xml version="1.0" encoding="UTF-8" standalone="no"?>
<!-- Created with Inkscape (http://www.inkscape.org/) -->

<svg
   xmlns:dc="http://purl.org/dc/elements/1.1/"
   xmlns:cc="http://creativecommons.org/ns#"
   xmlns:rdf="http://www.w3.org/1999/02/22-rdf-syntax-ns#"
   xmlns:svg="http://www.w3.org/2000/svg"
   xmlns="http://www.w3.org/2000/svg"
   xmlns:xlink="http://www.w3.org/1999/xlink"
   xmlns:sodipodi="http://sodipodi.sourceforge.net/DTD/sodipodi-0.dtd"
   xmlns:inkscape="http://www.inkscape.org/namespaces/inkscape"
   id="svg2"
   version="1.1"
   inkscape:version="0.92.5 (2060ec1f9f, 2020-04-08)"
   width="2481"
   height="3503"
   sodipodi:docname="E24P03.svg">
  <metadata
     id="metadata8">
    <rdf:RDF>
      <cc:Work
         rdf:about="">
        <dc:format>image/svg+xml</dc:format>
        <dc:type
           rdf:resource="http://purl.org/dc/dcmitype/StillImage" />
        <dc:title />
      </cc:Work>
    </rdf:RDF>
  </metadata>
  <defs
     id="defs6">
    <filter
       style="color-interpolation-filters:sRGB"
       id="filter4375-4-1-1-1-9-5-8"
       inkscape:label="Drop Shadow">
      <feFlood
         id="feFlood4377-7-9-0-8-1-7-3"
         flood-opacity="1"
         flood-color="rgb(200,55,55)"
         result="flood" />
      <feComposite
         id="feComposite4379-3-8-8-2-77-4-1"
         in2="SourceGraphic"
         in="flood"
         operator="in"
         result="composite1" />
      <feMorphology
         id="feMorphology4393-1-0-49-8-9-3-0"
         operator="dilate"
         radius="6.2000000000000002"
         result="result3" />
      <feComposite
         id="feComposite4385-9-5-7-0-8-8-7"
         in2="result3"
         in="SourceGraphic"
         operator="over"
         result="fbSourceGraphic" />
      <feColorMatrix
         result="fbSourceGraphicAlpha"
         in="fbSourceGraphic"
         values="0 0 0 -1 0 0 0 0 -1 0 0 0 0 -1 0 0 0 0 1 0"
         id="feColorMatrix4544" />
      <feTurbulence
         id="feTurbulence4546"
         type="fractalNoise"
         numOctaves="3"
         seed="37"
         baseFrequency="0.129 0.0050000000000000001"
         result="turbulence" />
      <feDisplacementMap
         id="feDisplacementMap4548"
         in2="turbulence"
         in="fbSourceGraphic"
         scale="6.6"
         yChannelSelector="G"
         xChannelSelector="R"
         result="fbSourceGraphic" />
      <feColorMatrix
         result="fbSourceGraphicAlpha"
         in="fbSourceGraphic"
         values="0 0 0 -1 0 0 0 0 -1 0 0 0 0 -1 0 0 0 0 1 0"
         id="feColorMatrix4670" />
      <feFlood
         id="feFlood4672"
         flood-opacity="1"
         flood-color="rgb(80,22,22)"
         result="flood"
         in="fbSourceGraphic" />
      <feComposite
         id="feComposite4674"
         in2="fbSourceGraphic"
         in="flood"
         operator="in"
         result="composite1" />
      <feGaussianBlur
         id="feGaussianBlur4676"
         in="composite1"
         stdDeviation="0"
         result="blur" />
      <feOffset
         id="feOffset4678"
         dx="6"
         dy="6"
         result="offset" />
      <feComposite
         id="feComposite4680"
         in2="offset"
         in="fbSourceGraphic"
         operator="over"
         result="composite2" />
    </filter>
    <filter
       inkscape:collect="always"
       style="color-interpolation-filters:sRGB"
       id="filter4210"
       x="-0.0015578248"
       width="1.0031157"
       y="-0.0045528179"
       height="1.0091056">
      <feGaussianBlur
         inkscape:collect="always"
         stdDeviation="0.2079876"
         id="feGaussianBlur4212" />
    </filter>
  </defs>
  <sodipodi:namedview
     pagecolor="#ffffff"
     bordercolor="#666666"
     borderopacity="1"
     objecttolerance="10"
     gridtolerance="10"
     guidetolerance="10"
     inkscape:pageopacity="0"
     inkscape:pageshadow="2"
     inkscape:window-width="1866"
     inkscape:window-height="1016"
     id="namedview4"
     showgrid="false"
     inkscape:zoom="0.38293226"
     inkscape:cx="1021.8446"
     inkscape:cy="532.51531"
     inkscape:window-x="54"
     inkscape:window-y="27"
     inkscape:window-maximized="1"
     inkscape:current-layer="layer1"
     inkscape:snap-global="false" />
  <g
     inkscape:groupmode="layer"
     id="layer2"
     inkscape:label="artwork"
     sodipodi:insensitive="true">
    <image
       sodipodi:absref="/home/user/lojban/webcomics/ep24_The-Unity-Tree/lang/jb/../gfx_Pepper-and-Carrot_by-David-Revoy_E24P03.png"
       xlink:href="../gfx_Pepper-and-Carrot_by-David-Revoy_E24P03.png"
       y="0"
       x="0"
       id="image10"
       height="3503"
       width="2481" />
  </g>
  <g
     inkscape:groupmode="layer"
     id="layer3"
     inkscape:label="speechbubbles"
     style="display:inline">
    <path
       style="color:#000000;display:inline;overflow:visible;visibility:visible;fill:#ffffff;fill-opacity:1;fill-rule:nonzero;stroke:none;stroke-width:1.30458534px;marker:none;enable-background:accumulate"
       d="m 496.24996,1317.3928 c 0.51531,22.9688 -33.72827,42.5512 -195.75404,44.6155 -162.02572,2.0644 -195.53123,-28.9299 -196.57388,-42.2829 17.47156,-43.9619 119.67252,-56.2296 181.70416,-56.0964 40.02421,0.5158 152.97444,4.9457 178.83079,15.6148 25.85624,10.669 33.54946,19.6265 31.79297,38.149 z"
       id="path3365-0"
       inkscape:connector-curvature="0"
       sodipodi:nodetypes="cccccc" />
    <path
       style="color:#000000;display:inline;overflow:visible;visibility:visible;fill:#ffffff;fill-opacity:1;fill-rule:nonzero;stroke:none;stroke-width:0.99999994px;marker:none;enable-background:accumulate"
       d="m 337.41075,1383.9315 c -1.47861,-10.1237 25.13633,-63.4419 115.33152,-56.6927 90.19519,6.7491 107.93853,45.2192 107.19918,58.7175 -0.73932,13.4982 -22.91838,34.4205 -36.22593,37.7952 -13.30745,3.3744 -48.05479,11.4734 -70.23398,8.7738 -22.17907,-2.6998 -90.19514,-16.198 -103.50266,-28.3465 -13.30747,-12.1484 -11.08954,-17.5477 -12.56813,-20.2473 z"
       id="path3365"
       inkscape:connector-curvature="0" />
    <path
       style="fill:#ffffff;fill-opacity:1;fill-rule:evenodd;stroke:#fff6d5;stroke-width:0.9402287px;stroke-linecap:butt;stroke-linejoin:miter;stroke-opacity:1"
       d="m 1768.7708,851.99413 83.4719,-50.64132 159.179,-2.35541 106.7664,4.71082 170.8262,9.42164 64.0599,25.90952 19.412,57.70755 -31.0592,61.24062 -91.2369,35.33117 -147.5317,2.35537 -182.03,1.77947 -130.0096,-23.00389 -59.7336,-49.59467 1.0027,-51.66217 z"
       id="path5098"
       inkscape:connector-curvature="0"
       sodipodi:nodetypes="ccccccccccccccc" />
    <path
       style="color:#000000;display:inline;overflow:visible;visibility:visible;fill:#ffffff;fill-opacity:1;fill-rule:nonzero;stroke:none;stroke-width:1px;marker:none;enable-background:accumulate"
       d="m 165.39445,204.57055 c -25.1607,-12.39782 -33.96692,-23.91004 -31.45075,-30.99455 2.51605,-7.08441 25.16058,-43.39235 52.8372,-47.82016 27.67674,-4.4278 99.38445,-9.74112 115.73893,-5.31331 16.35448,4.42772 62.90162,33.65124 62.90162,48.70567 0,15.05452 -8.80622,44.27795 -33.96691,53.13348 -25.16058,8.8556 -135.86743,14.169 -166.06009,-17.71113 z"
       id="path3349"
       inkscape:connector-curvature="0" />
    <path
       style="fill:#ffffff;fill-rule:evenodd;stroke:none;stroke-width:0.87714607px;stroke-linecap:butt;stroke-linejoin:miter;stroke-opacity:1"
       d="m 118.80883,313.14537 c 9.12095,-22.73839 33.68275,-39.99065 60.41446,-51.50761 12.72146,-5.56024 27.26234,-9.63491 42.14196,-8.56313 14.78205,0.64042 29.22047,4.46391 44.16604,3.13587 18.17338,-0.43866 36.66583,-2.35241 54.63055,0.38217 15.96997,2.98383 32.42362,4.52918 48.90354,4.61879 11.62607,-1.89395 22.26468,3.15403 32.64745,6.17329 9.3211,3.26135 18.84179,6.68302 26.67096,11.72781 7.21302,7.08177 15.84965,13.24278 23.1469,20.26154 4.77478,3.83709 4.31601,9.13715 4.09604,14.04225 -0.62013,10.04463 -1.67029,20.24778 -5.56813,29.92489 -2.33256,6.14366 -10.95412,8.17687 -17.57877,11.00001 -15.67493,5.95962 -32.31967,10.47897 -47.27945,17.49221 -14.82083,3.59105 -30.57127,1.91137 -45.77073,1.36866 -12.73612,-1.06896 -25.54797,-2.55961 -38.39353,-1.3165 -16.34937,0.90969 -32.64909,3.26516 -49.05693,2.96344 -20.55453,-2.07034 -40.24019,-7.16804 -60.15928,-11.2573 -17.871,-3.6043 -34.15897,-10.38184 -49.78769,-17.63212 -8.34827,-4.11716 -17.18592,-8.90273 -20.13215,-16.49015 -2.41519,-5.22461 -2.98428,-10.81887 -3.09124,-16.32412 z"
       id="path4365"
       inkscape:connector-curvature="0" />
    <path
       style="fill:#ffffff;stroke:none;stroke-width:1"
       d="m 255.74611,486.59733 c -23.27266,-23.83534 -20.48879,-35.75842 -16.41183,-49.14873 4.07679,-13.39047 8.97204,-25.16536 5.766,-32.83447 -3.20588,-7.66895 -10.93987,-14.22751 -17.30992,-18.09351 -6.37002,-3.86612 0.37438,-12.96194 1.66184,-22.47971 1.28739,-9.51792 -6.96124,-58.99857 -6.96124,-58.99857 0,0 -18.46628,33.89095 -21.4884,46.01372 -3.02229,12.1226 -4.17691,16.54274 -4.30975,21.64038 -0.13267,5.09782 1.0675,17.51673 6.55388,23.65787 5.48637,6.14113 13.38767,8.34016 18.4974,11.72826 5.10986,3.388 3.10789,14.22244 1.75318,24.94735 -1.3548,10.72489 -0.91888,18.61083 7.73931,32.21546 7.42161,11.66179 24.50953,21.35195 24.50953,21.35195 z"
       id="path3023-2"
       inkscape:connector-curvature="0"
       sodipodi:nodetypes="csssscssssssc" />
    <text
       xml:space="preserve"
       style="font-style:normal;font-variant:normal;font-weight:normal;font-stretch:normal;font-size:10.6579771px;line-height:0.01%;font-family:Arial;-inkscape-font-specification:Arial;letter-spacing:0px;word-spacing:0px;fill:#b8764f;fill-opacity:1;stroke:none;stroke-width:0.99999994"
       x="146.31161"
       y="792.88184"
       id="text969"
       transform="matrix(0.93043638,-0.40475701,0,1.0747645,0,0)"><tspan
         sodipodi:role="line"
         x="146.31161"
         y="792.88184"
         id="tspan967"
         style="fill:#b8764f;fill-opacity:1;stroke-width:0.99999994"><tspan
           x="146.31161"
           y="792.88184"
           style="font-style:normal;font-variant:normal;font-weight:normal;font-stretch:normal;font-size:42.63190842px;line-height:1.25;font-family:Lavi;-inkscape-font-specification:Lavi;fill:#b8764f;fill-opacity:1;stroke-width:0.99999994"
           id="tspan965">.cryr.</tspan></tspan></text>
    <path
       style="fill:#ffffff;fill-rule:evenodd;stroke:none;stroke-width:0.94311893px;stroke-linecap:butt;stroke-linejoin:miter;stroke-opacity:1"
       d="m 370.97128,1565.4993 c 34.54669,1.0637 83.59442,-16.6361 52.12277,-61.7917 56.47337,29.9557 100.13838,21.5345 183.52271,-35.7624 -1.47311,72.9927 37.11457,63.8801 71.27691,47.846 -31.90286,26.4356 29.98768,36.803 62.7871,36.2251 -64.92897,56.9351 -27.27335,71.5653 1.56546,89.8314 -69.13686,-10.6637 -50.31605,18.1745 -57.08491,35.5203 -61.35447,-34.7277 -103.02682,-23.1322 -133.68078,14.395 -19.06347,-18.2774 -27.75576,-57.8848 -87.42715,7.3548 19.50997,-54.4121 -11.17322,-46.9933 -59.48106,-17.8635 6.45489,-18.5222 51.20296,-48.7709 -27.6371,-41.1734 48.01675,-20.1056 56.51496,-43.9691 -5.96395,-74.5816 z"
       id="path4584"
       inkscape:connector-curvature="0"
       sodipodi:nodetypes="cccccccccccc" />
    <path
       style="color:#000000;display:inline;overflow:visible;visibility:visible;fill:#ffffff;fill-opacity:1;fill-rule:nonzero;stroke:none;stroke-width:1px;marker:none;enable-background:accumulate"
       d="m 811.85574,1691.333 c -13.81416,11.4352 -28.07371,23.5268 -45.37048,28.6126 -4.94334,1.3415 -10.13724,2.383 -15.17734,1.997 -5.10914,-1.5938 -7.95117,-6.8567 -8.29553,-12.0924 -1.01963,-7.5052 0.9934,-15.9414 -3.08945,-22.6298 -3.09088,-4.7908 -9.22063,-4.9463 -14.32973,-5.5392 -13.06169,-1.2494 -26.43419,-0.6991 -39.15272,-4.0712 -14.5982,-2.8393 -29.71536,-6.9131 -40.9249,-17.0755 -4.36621,-4.0993 -8.34623,-9.031 -9.60144,-15.1479 -3.92579,-15.5158 0.93662,-33.8932 13.48534,-44.6997 8.61929,-6.1452 22.04985,-4.5663 27.3382,4.6491 2.86475,4.8194 1.99218,10.9537 -0.28824,15.9992 -2.51679,10.0054 0.79504,20.6754 7.64932,27.7427 5.55929,5.9304 12.9599,9.9511 20.86509,11.8157 9.98256,5.4504 21.83723,2.9201 32.79926,2.915 5.00527,0.073 10.31159,0.497 14.65191,3.0035 5.29618,5.1051 4.90278,13.2996 3.78431,20.2236 -0.97364,7.164 -2.89521,15.3934 1.47098,21.6216 2.44167,4.7598 8.43508,2.4997 12.74015,2.4695 13.91862,-1.9388 27.23033,-8.2543 38.53704,-16.9232 1.01948,-0.9054 1.96415,-1.8854 2.90823,-2.8706 z"
       id="path4496"
       inkscape:connector-curvature="0"
       inkscape:transform-center-x="15.738959"
       inkscape:transform-center-y="-33.216744" />
    <text
       xml:space="preserve"
       style="font-style:normal;font-variant:normal;font-weight:normal;font-stretch:normal;font-size:66.33062744px;line-height:0.01%;font-family:Arial;-inkscape-font-specification:Arial;letter-spacing:0.01132977px;word-spacing:0px;display:inline;fill:#ffffff;fill-opacity:1;stroke:#fc5959;stroke-width:3.02600002;stroke-miterlimit:4;stroke-dasharray:none;stroke-opacity:1"
       x="2100.5652"
       y="1099.4115"
       id="text1105"
       transform="matrix(1.0092628,0.17044443,-0.63347357,0.88384115,0,0)"><tspan
         sodipodi:role="line"
         x="2100.5652"
         y="1099.4115"
         id="tspan1103"
         style="font-style:normal;font-variant:normal;font-weight:normal;font-stretch:normal;font-family:Lavi;-inkscape-font-specification:Lavi;fill:#ffffff;fill-opacity:1;stroke:#fc5959;stroke-width:3.02600002;stroke-miterlimit:4;stroke-dasharray:none;stroke-opacity:1">.zving.</tspan></text>
    <path
       style="color:#000000;display:inline;overflow:visible;visibility:visible;fill:#ffffff;fill-opacity:1;fill-rule:nonzero;stroke:none;stroke-width:1px;marker:none;enable-background:accumulate"
       d="m 840.39099,2415.3952 c -69.73645,-6.1112 -169.34955,-17.0892 -190.02994,-62.9999 -20.68034,-45.9109 12.19681,-120.7647 52.25191,-147.1359 40.05497,-26.3711 106.78152,-34.6866 167.26051,-27.4365 60.47903,7.2501 142.00623,3.8059 161.46763,46.905 19.4617,43.0989 47.4562,119.3664 -8.2671,157.6266 -63.50017,43.6 -182.55349,33.2659 -182.68301,33.0407 z"
       id="path3970-1"
       inkscape:connector-curvature="0"
       sodipodi:nodetypes="ccccssc" />
    <path
       style="opacity:1;fill:#ffffff;fill-rule:evenodd;stroke:none;stroke-width:1px;stroke-linecap:butt;stroke-linejoin:miter;stroke-opacity:1"
       d="m 740.99257,2678.9224 c 81.33155,-3.7713 135.73985,-70.9891 126.35903,-170.042 -0.7356,-13.0761 -2.22429,-73.8821 -3.69549,-94.3134 -1.4712,-20.4314 -28.77037,-38.6153 -26.56347,-14.9149 2.2069,23.7004 2.37118,102.019 6.25838,120.7638 11.59073,90.9486 -48.83803,137.4097 -102.35845,158.5065 z"
       id="path4272"
       inkscape:connector-curvature="0"
       sodipodi:nodetypes="ccsscc" />
    <path
       style="fill:#ffffff;fill-opacity:1;stroke:none;stroke-width:0.99999982"
       d="m 1593.4233,2377.398 c 25.098,-90.6375 30.9041,-125.5153 312.3599,-121.5449 246.2087,3.4731 304.5049,48.3761 320.7901,108.3246 16.719,41.2377 52.9928,124.4889 -95.3931,168.667 -148.3863,44.1782 -444.9775,21.0512 -492.2134,-18.5534 -51.731,-45.7684 -44.1765,-106.3673 -45.5435,-136.8933 z"
       id="path3238"
       inkscape:connector-curvature="0"
       sodipodi:nodetypes="cscccc" />
    <path
       style="fill:#ffffff;stroke:none;stroke-width:1"
       d="m 1667.7291,2850.623 c -28.0273,-50.6036 -13.2215,-93.7285 1.8965,-108.2057 15.1178,-14.4771 50.6778,-42.8284 50.9445,-56.9806 0.2668,-14.1522 -15.4826,-50.9134 -21.5889,-63.5846 -7.7887,-16.1627 79.2563,-67.9419 87.5629,-79.9355 8.3067,-11.9938 19.7346,-62.3727 19.7346,-62.3727 0,0 -50.6027,28.0238 -63.2766,41.8377 -12.6739,13.8139 -6.0044,5.2923 -9.6101,12.305 -3.6058,7.0127 -71.1709,62.8269 -66.9634,77.2471 4.2073,14.4202 23.4056,61.9081 28.8814,72.067 5.4761,10.1588 -29.6375,37.3716 -38.8524,50.9878 -9.2149,13.6163 -19.5808,32.142 -19.0015,56.4166 0.5543,23.2298 30.273,60.2179 30.273,60.2179 z"
       id="path3023"
       inkscape:connector-curvature="0"
       sodipodi:nodetypes="csssscssssssc" />
    <path
       style="fill:#ffffff;fill-rule:evenodd;stroke:none;stroke-width:1.06487036px;stroke-linecap:butt;stroke-linejoin:miter;stroke-opacity:1"
       d="m 1635.0236,177.23146 -59.5149,76.91879 13.3578,111.37678 169.0093,30.77218 344.0546,-15.38609 90.5408,-82.05914 24.1442,-97.44521 -63.3786,-94.88087 -430.2916,6.23269 z"
       id="path5054"
       inkscape:connector-curvature="0"
       sodipodi:nodetypes="cccccccccc" />
    <path
       style="color:#000000;display:inline;overflow:visible;visibility:visible;fill:#ffffff;fill-opacity:1;fill-rule:nonzero;stroke:none;stroke-width:1.23743427px;marker:none;enable-background:accumulate"
       d="m 2194.9249,390.7352 c -72.7552,-1.15715 -103.4818,-14.80085 -121.4255,-35.17732 -17.9436,-20.37652 -3.0399,-53.27342 28.485,-64.92189 31.5249,-11.64849 74.177,-12.829 123.5478,-11.28681 89.2103,2.78663 151.0004,11.56823 157.9856,43.16595 6.9357,31.37276 1.3684,48.0176 -64.2081,62.95799 -61.7324,8.59876 -124.3848,5.26208 -124.3848,5.26208 z"
       id="path3970"
       inkscape:connector-curvature="0"
       sodipodi:nodetypes="cccsscc" />
    <path
       style="fill:#ffffff;fill-opacity:1;fill-rule:evenodd;stroke:#fff6d5;stroke-width:1.29908037px;stroke-linecap:butt;stroke-linejoin:miter;stroke-opacity:1"
       d="m 1651.1312,432.26905 -46.5568,89.1167 70.2985,79.97393 341.613,-4.42625 253.8305,-1.99446 133.4847,-34.29391 -3.6479,-137.47357 -108.639,-44.11912 -257.6426,-9.48586 -239.9218,9.97222 z"
       id="path5075"
       inkscape:connector-curvature="0"
       sodipodi:nodetypes="ccccccccccc" />
    <path
       style="color:#000000;display:inline;overflow:visible;visibility:visible;fill:#ffffff;fill-opacity:1;fill-rule:nonzero;stroke:none;stroke-width:1.33823597px;marker:none;enable-background:accumulate"
       d="m 2135.4404,725.14275 c -98.2842,-1.42561 -139.7924,-18.2346 -164.0323,-43.33833 -24.2398,-25.10381 -4.1066,-65.63267 38.48,-79.98355 42.5867,-14.35089 100.2048,-15.80527 166.8992,-13.90531 120.5132,3.43313 203.9848,14.25203 213.421,53.18031 9.3693,38.65111 1.8485,59.15751 -86.738,77.56401 -83.3936,10.59365 -168.0299,6.48287 -168.0299,6.48287 z"
       id="path3970-36"
       inkscape:connector-curvature="0"
       sodipodi:nodetypes="cccsscc" />
    <path
       style="fill:#ffffff;fill-rule:evenodd;stroke:none;stroke-width:1px;stroke-linecap:butt;stroke-linejoin:miter;stroke-opacity:1"
       d="m 1968.3057,729.12617 c 29.3,2.37711 72.2049,-8.86576 48.5171,-44.65472 45.9784,25.3572 83.676,20.93055 158.4669,-18.88537 -6.2152,55.47661 27.2126,50.29343 57.3483,39.64259 -28.9219,18.66829 22.9941,29.36578 50.9203,30.41443 -59.0751,40.37812 -28.0541,53.21963 -4.7766,68.4278 -58.0567,-11.25186 -44.0155,11.54652 -50.9499,24.43851 -49.804,-29.21 -86.0232,-22.27747 -114.6373,4.88772 -14.9656,-14.7732 -19.6631,-45.30676 -74.8327,1.62921 20.2873,-40.51926 -6.3047,-36.26621 -49.3578,-16.29228 6.7475,-13.8014 46.8499,-34.78842 -20.6983,-32.58474 42.1919,-13.12034 51.0396,-30.8935 0,-57.02315 z"
       id="path4584-1"
       inkscape:connector-curvature="0"
       sodipodi:nodetypes="cccccccccccc" />
    <path
       style="fill:#ffffff;fill-opacity:1;fill-rule:evenodd;stroke:none;stroke-width:0.97593004px;stroke-linecap:butt;stroke-linejoin:miter;stroke-opacity:1"
       d="m 2169.2597,1007.1098 122.8004,19.2182 20.4667,63.6602 -64.3914,37.2509 -209.6266,6.0997 -273.1521,0.016 -73.1292,-25.3493 1.5744,-51.6488 85.0156,-39.6375 199.9442,-19.21813 z"
       id="path5161"
       inkscape:connector-curvature="0"
       sodipodi:nodetypes="ccccccccccc" />
    <path
       style="color:#000000;display:inline;overflow:visible;visibility:visible;fill:#ffffff;fill-opacity:1;fill-rule:nonzero;stroke:none;stroke-width:0.88002163px;marker:none;enable-background:accumulate"
       d="m 400.67893,1513.1595 c -53.4639,-1.2061 -76.04317,-15.4271 -89.22906,-36.6656 -13.18576,-21.2386 -2.23385,-55.5273 20.93208,-67.6686 23.16598,-12.1413 54.50869,-13.3717 90.78859,-11.7644 65.55584,2.9046 110.96208,12.0577 116.09511,44.9923 5.09665,32.7001 1.00554,50.0491 -47.18308,65.6216 -45.3638,8.9625 -91.40364,5.4847 -91.40364,5.4847 z"
       id="path3970-36-4"
       inkscape:connector-curvature="0"
       sodipodi:nodetypes="cccsscc" />
    <path
       style="color:#000000;display:inline;overflow:visible;visibility:visible;fill:#ffffff;fill-opacity:1;fill-rule:nonzero;stroke:none;stroke-width:1px;marker:none;enable-background:accumulate"
       d="m 1663.8731,2265.1373 c -3.5165,-25.3235 8.9906,-44.1378 16.0961,-53.122 7.1056,-8.9843 55.3942,-32.6555 73.7381,-34.6185 18.3439,-1.9629 96.0697,8.2236 111.5859,25.0671 29.6665,41.0213 18.474,80.0335 -42.9956,103.2882 -11.6372,4.3293 -45.7148,10.0318 -56.9894,10.2104 -11.2746,0.1784 -99.3687,-8.8986 -101.4351,-50.8252 z"
       id="path3357"
       inkscape:connector-curvature="0"
       sodipodi:nodetypes="ccccccc" />
    <text
       xml:space="preserve"
       style="font-style:normal;font-variant:normal;font-weight:normal;font-stretch:normal;line-height:0%;font-family:Lavi;-inkscape-font-specification:Lavi;text-align:center;letter-spacing:0px;word-spacing:0px;text-anchor:middle;display:inline;opacity:0.35800003;fill:#000000;fill-opacity:1;stroke:none;stroke-width:1.45996165;filter:url(#filter4210)"
       x="1174.0292"
       y="1085.962"
       id="text4246-5"
       transform="matrix(0.59859266,-0.06157078,0.00633293,0.63548918,541.82445,2354.5786)"><tspan
         sodipodi:role="line"
         style="font-style:normal;font-variant:normal;font-weight:normal;font-stretch:normal;font-size:45.00812149px;line-height:1.25;font-family:Fondamento;-inkscape-font-specification:Fondamento;stroke:#000000;stroke-width:4.95442009;stroke-miterlimit:4;stroke-dasharray:none;stroke-opacity:1"
         x="1174.0292"
         y="1085.962"
         id="tspan4209">la .komonan.</tspan></text>
    <path
       style="color:#000000;display:inline;overflow:visible;visibility:visible;fill:#ffffff;fill-opacity:1;fill-rule:nonzero;stroke:none;stroke-width:1px;marker:none;enable-background:accumulate"
       d="m 1589.7943,157.61754 c -8.8614,-24.36709 -33.8637,-38.6263 -43.4322,-37.17458 -9.5684,1.45169 37.9222,-18.88289 66.1459,18.41098 28.2236,37.29379 -9.2438,35.86676 -9.2438,35.86676 z"
       id="path4035-5"
       inkscape:connector-curvature="0" />
    <path
       style="color:#000000;display:inline;overflow:visible;visibility:visible;fill:#ffffff;fill-opacity:1;fill-rule:nonzero;stroke:none;stroke-width:1px;marker:none;enable-background:accumulate"
       d="m 1316.9724,411.08671 c 59.7698,37.7282 26.9131,115.63535 -8.523,127.33445 38.815,-5.69719 107.6543,-77.73022 42.1661,-140.88089 -140.721,-135.6979 -91.9073,-21.1982 -91.9073,-21.1982 z"
       id="path4035"
       inkscape:connector-curvature="0"
       sodipodi:nodetypes="ccscc" />
    <path
       style="color:#000000;display:inline;overflow:visible;visibility:visible;fill:#ffffff;fill-opacity:1;fill-rule:nonzero;stroke:none;stroke-width:1.01792133px;marker:none;enable-background:accumulate"
       d="m 1100.9094,89.58375 c 86.3505,4.792092 351.0183,-8.461992 337.0612,159.67372 -15.8143,190.51029 -51.2567,180.14179 -362.3565,182.83157 C 952.47631,433.1537 705.11924,429.72671 697.10384,330.93521 638.00887,20.507733 979.18054,93.312657 1100.9094,89.58375 Z"
       id="path4546-6"
       inkscape:connector-curvature="0"
       sodipodi:nodetypes="csscc" />
    <path
       style="color:#000000;display:inline;overflow:visible;visibility:visible;fill:#ffffff;fill-opacity:1;fill-rule:nonzero;stroke:none;stroke-width:1.23743439px;marker:none;enable-background:accumulate"
       d="m 1603.1577,218.81569 c -72.2705,4.52699 -82.9245,-16.41582 -77.0834,-44.57794 7.3914,-35.63688 40.8892,-42.89308 85.1879,-41.5388 49.1997,0.26824 73.5251,7.0858 79.0271,22.20114 8.6871,23.86573 9.3102,47.69261 -16.5628,58.46055 -32.9494,8.01405 -70.5688,5.45505 -70.5688,5.45505 z"
       id="path3970-6"
       inkscape:connector-curvature="0"
       sodipodi:nodetypes="cscscc" />
  </g>
  <g
     inkscape:groupmode="layer"
     id="layer1"
     inkscape:label="txt"
     style="display:inline">
    <text
       xml:space="preserve"
       style="font-style:normal;font-variant:normal;font-weight:normal;font-stretch:normal;line-height:0%;font-family:Lavi;-inkscape-font-specification:Lavi;text-align:center;letter-spacing:0px;word-spacing:0px;text-anchor:middle;fill:#000000;fill-opacity:1;stroke:none"
       x="258.49622"
       y="188.50803"
       id="text4246"><tspan
         sodipodi:role="line"
         style="font-size:45px;line-height:1.25"
         x="258.49622"
         y="188.50803"
         id="tspan4252">.i ku'i</tspan></text>
    <text
       xml:space="preserve"
       style="font-style:normal;font-variant:normal;font-weight:normal;font-stretch:normal;line-height:0%;font-family:Lavi;-inkscape-font-specification:Lavi;text-align:center;letter-spacing:0px;word-spacing:0px;text-anchor:middle;fill:#000000;fill-opacity:1;stroke:none"
       x="290.8338"
       y="325.57104"
       id="text4246-3"><tspan
         sodipodi:role="line"
         style="font-size:45px;line-height:1.25"
         x="290.8338"
         y="325.57104"
         id="tspan137">ba'a nai bu'o</tspan></text>
    <text
       xml:space="preserve"
       style="font-style:normal;font-variant:normal;font-weight:normal;font-stretch:normal;line-height:0%;font-family:Lavi;-inkscape-font-specification:Lavi;text-align:center;letter-spacing:0px;word-spacing:0px;text-anchor:middle;fill:#000000;fill-opacity:1;stroke:none"
       x="1066.6111"
       y="158.58156"
       id="text4246-3-7"><tspan
         sodipodi:role="line"
         style="font-size:45px;line-height:1.25"
         x="1066.6111"
         y="158.58156"
         id="tspan874">.i .ie le ckupau be</tspan><tspan
         sodipodi:role="line"
         style="font-size:45px;line-height:1.25"
         x="1066.6111"
         y="214.83156"
         id="tspan4967">la'e la valsi be la nu daspo .i</tspan><tspan
         sodipodi:role="line"
         style="font-size:45px;line-height:1.25"
         x="1066.6111"
         y="271.08154"
         id="tspan153">la .timian. cu stidi le nu pilno le valsi</tspan><tspan
         sodipodi:role="line"
         style="font-size:45px;line-height:1.25"
         x="1066.6111"
         y="327.33154"
         id="tspan782">bu'u le sivni se cimde</tspan><tspan
         sodipodi:role="line"
         style="font-size:45px;line-height:1.25"
         x="1066.6111"
         y="383.58154"
         id="tspan157">.i ku'i ty. xusra le du'u ckape</tspan></text>
    <text
       xml:space="preserve"
       style="font-style:normal;font-variant:normal;font-weight:normal;font-stretch:normal;line-height:0%;font-family:Lavi;-inkscape-font-specification:Lavi;text-align:center;letter-spacing:0px;word-spacing:0px;text-anchor:middle;fill:#000000;fill-opacity:1;stroke:none"
       x="557.37494"
       y="1598.9316"
       id="text4246-3-7-6"><tspan
         sodipodi:role="line"
         style="font-size:45px;line-height:1.25"
         x="557.37494"
         y="1598.9316"
         id="tspan4386">.i .ai gunka</tspan></text>
    <text
       xml:space="preserve"
       style="font-style:normal;font-variant:normal;font-weight:normal;font-stretch:normal;line-height:0%;font-family:Lavi;-inkscape-font-specification:Lavi;text-align:center;letter-spacing:0px;word-spacing:0px;text-anchor:middle;fill:#000000;fill-opacity:1;stroke:none"
       x="852.55774"
       y="2246.0481"
       id="text4246-3-7-6-1"><tspan
         sodipodi:role="line"
         style="font-size:45px;line-height:1.25"
         x="852.55774"
         y="2246.0481"
         id="tspan4390">pe'i la .piper.</tspan><tspan
         sodipodi:role="line"
         style="font-size:45px;line-height:1.25"
         x="852.55774"
         y="2302.2981"
         id="tspan1069">pu zi zbasu</tspan><tspan
         sodipodi:role="line"
         style="font-size:45px;line-height:1.25"
         x="852.55774"
         y="2358.5481"
         id="tspan1067">le sivni se cimde</tspan></text>
    <text
       xml:space="preserve"
       style="font-style:normal;font-variant:normal;font-weight:normal;font-stretch:normal;line-height:0%;font-family:Lavi;-inkscape-font-specification:Lavi;letter-spacing:0px;word-spacing:0px;fill:#ffffff;fill-opacity:1;stroke:#c83737;stroke-width:0.99236238;stroke-miterlimit:4;stroke-dasharray:none;stroke-opacity:1;filter:url(#filter4375-4-1-1-1-9-5-8)"
       x="787.65729"
       y="1584.5073"
       id="text4580-6-0"
       transform="matrix(0.83434398,-0.14790328,-0.40858731,0.88612324,1099.912,885.91633)"><tspan
         sodipodi:role="line"
         id="tspan4582-1-1"
         x="787.65729"
         y="1584.5073"
         style="font-size:70px;line-height:1.25;fill:#ffffff;fill-opacity:1;stroke:#c83737;stroke-opacity:1"><tspan
           style="font-size:93.14950562px;fill:#ffffff;fill-opacity:1;stroke:#c83737;stroke-opacity:1"
           id="tspan4315-8">.cuuuuump.</tspan></tspan></text>
    <text
       xml:space="preserve"
       style="font-style:normal;font-variant:normal;font-weight:normal;font-stretch:normal;line-height:0%;font-family:Lavi;-inkscape-font-specification:Lavi;text-align:center;letter-spacing:0px;word-spacing:0px;text-anchor:middle;fill:#000000;fill-opacity:1;stroke:none"
       x="1775.6528"
       y="2253.0674"
       id="text4246-3-7-6-1-7"><tspan
         sodipodi:role="line"
         style="font-size:45px;line-height:1.25"
         x="1775.6528"
         y="2253.0674"
         id="tspan1274">zabna</tspan></text>
    <text
       xml:space="preserve"
       style="font-style:normal;font-variant:normal;font-weight:normal;font-stretch:normal;line-height:0%;font-family:Lavi;-inkscape-font-specification:Lavi;text-align:center;letter-spacing:0px;word-spacing:0px;text-anchor:middle;fill:#483200;fill-opacity:1;stroke:none;stroke-width:1.79999995;stroke-miterlimit:4;stroke-dasharray:none"
       x="2497.5239"
       y="409.1218"
       id="text4246-3-7-3"
       transform="skewX(-20)"><tspan
         sodipodi:role="line"
         style="font-size:45px;line-height:1.25;fill:#483200;fill-opacity:1;stroke-width:1.79999995;stroke-miterlimit:4;stroke-dasharray:none"
         x="2497.5239"
         y="412.61926"
         id="tspan875-6" /><tspan
         sodipodi:role="line"
         style="font-size:45px;line-height:1.25;text-align:end;text-anchor:end;fill:#080600;fill-opacity:1;stroke-width:1.79999995;stroke-miterlimit:4;stroke-dasharray:none"
         x="2497.5239"
         y="412.61926"
         id="tspan895-2" /><tspan
         sodipodi:role="line"
         style="font-size:45px;line-height:1.25;text-align:end;text-anchor:end;fill:#080600;fill-opacity:1;stroke-width:1.79999995;stroke-miterlimit:4;stroke-dasharray:none"
         x="2497.5239"
         y="412.61926"
         id="tspan4769" /><tspan
         sodipodi:role="line"
         style="font-size:45px;line-height:1.25;text-align:end;text-anchor:end;fill:#080600;fill-opacity:1;stroke-width:1.79999995;stroke-miterlimit:4;stroke-dasharray:none"
         x="2497.5239"
         y="450.36224"
         id="tspan210">.i lu .e'i le se cupra be</tspan><tspan
         sodipodi:role="line"
         style="font-size:45px;line-height:1.25;text-align:end;text-anchor:end;fill:#080600;fill-opacity:1;stroke-width:1.79999995;stroke-miterlimit:4;stroke-dasharray:none"
         x="2497.5239"
         y="506.61224"
         id="tspan214">bu'u le sivni ba'e <tspan
   style="font-weight:bold"
   id="tspan220">na</tspan> co'a zvati</tspan><tspan
         sodipodi:role="line"
         style="font-size:45px;line-height:1.25;text-align:end;text-anchor:end;fill:#080600;fill-opacity:1;stroke-width:1.79999995;stroke-miterlimit:4;stroke-dasharray:none"
         x="2497.5239"
         y="562.86224"
         id="tspan222">le gubni munje .i nu bu ckape li'u</tspan></text>
    <text
       xml:space="preserve"
       style="font-style:normal;font-variant:normal;font-weight:normal;font-stretch:normal;line-height:0%;font-family:Lavi;-inkscape-font-specification:Lavi;text-align:center;letter-spacing:0px;word-spacing:0px;text-anchor:middle;fill:#000000;fill-opacity:1;stroke:none;stroke-width:1.79999995;stroke-miterlimit:4;stroke-dasharray:none"
       x="1988.1534"
       y="134.14406"
       id="text4246-3-7-3-2"
       transform="skewX(-20)"><tspan
         sodipodi:role="line"
         style="font-size:45px;line-height:1.25;fill:#000000;fill-opacity:1;stroke-width:1.79999995;stroke-miterlimit:4;stroke-dasharray:none"
         x="1988.1534"
         y="137.64151"
         id="tspan875-6-6" /><tspan
         sodipodi:role="line"
         style="font-size:45px;line-height:1.25;fill:#000000;fill-opacity:1;stroke-width:1.79999995;stroke-miterlimit:4;stroke-dasharray:none"
         x="1988.1534"
         y="137.64151"
         id="tspan895-2-1" /><tspan
         sodipodi:role="line"
         style="font-size:45px;line-height:1.25;fill:#000000;fill-opacity:1;stroke-width:1.79999995;stroke-miterlimit:4;stroke-dasharray:none"
         x="1988.1534"
         y="137.64151"
         id="tspan4769-8" /><tspan
         sodipodi:role="line"
         style="font-size:45px;line-height:1.25;fill:#000000;fill-opacity:1;stroke-width:1.79999995;stroke-miterlimit:4;stroke-dasharray:none"
         x="1988.1534"
         y="175.38452"
         id="tspan176">lu ca le nu do zbasu</tspan><tspan
         sodipodi:role="line"
         style="font-size:45px;line-height:1.25;fill:#000000;fill-opacity:1;stroke-width:1.79999995;stroke-miterlimit:4;stroke-dasharray:none"
         x="1995.1847"
         y="231.63452"
         id="tspan181">le sivni se cimde vau ko </tspan><tspan
         sodipodi:role="line"
         style="font-size:45px;line-height:1.25;fill:#000000;fill-opacity:1;stroke-width:1.79999995;stroke-miterlimit:4;stroke-dasharray:none"
         x="1988.1534"
         y="287.88452"
         id="tspan4842">ba'e <tspan
   style="font-weight:bold"
   id="tspan159">na</tspan> gasnu le mu'e xaksu</tspan><tspan
         sodipodi:role="line"
         style="font-size:45px;line-height:1.25;fill:#000000;fill-opacity:1;stroke-width:1.79999995;stroke-miterlimit:4;stroke-dasharray:none"
         x="1988.1534"
         y="344.13452"
         id="tspan201">le livla be do li'u</tspan></text>
    <text
       xml:space="preserve"
       style="font-style:normal;font-variant:normal;font-weight:normal;font-stretch:normal;line-height:0%;font-family:Lavi;-inkscape-font-specification:Lavi;text-align:center;letter-spacing:0px;word-spacing:0px;text-anchor:middle;fill:#483200;fill-opacity:1;stroke:none;stroke-width:1.29999995;stroke-miterlimit:4;stroke-dasharray:none"
       x="2382.5906"
       y="843.26971"
       id="text4246-3-7-3-7"
       transform="skewX(-20)"><tspan
         sodipodi:role="line"
         style="font-size:45px;line-height:1.25;fill:#483200;fill-opacity:1;stroke-width:1.29999995;stroke-miterlimit:4;stroke-dasharray:none"
         x="2382.5906"
         y="846.76715"
         id="tspan875-6-5" /><tspan
         sodipodi:role="line"
         style="font-size:45px;line-height:1.25;fill:#483200;fill-opacity:1;stroke-width:1.29999995;stroke-miterlimit:4;stroke-dasharray:none"
         x="2382.5906"
         y="846.76715"
         id="tspan895-2-9" /><tspan
         sodipodi:role="line"
         style="font-size:45px;line-height:1.25;fill:#483200;fill-opacity:1;stroke-width:1.29999995;stroke-miterlimit:4;stroke-dasharray:none"
         x="2382.5906"
         y="846.76715"
         id="tspan4769-2" /><tspan
         sodipodi:role="line"
         style="font-size:45px;line-height:1.25;fill:#000000;fill-opacity:1;stroke-width:1.29999995;stroke-miterlimit:4;stroke-dasharray:none"
         x="2382.5906"
         y="884.51019"
         id="tspan801">lu ca le nu do zvati le sivni</tspan><tspan
         sodipodi:role="line"
         style="font-size:45px;line-height:1.25;fill:#000000;fill-opacity:1;stroke-width:1.29999995;stroke-miterlimit:4;stroke-dasharray:none"
         x="2382.5906"
         y="940.76019"
         id="tspan237">zo'u no drata ka'e sidju do</tspan></text>
    <text
       xml:space="preserve"
       style="font-style:normal;font-variant:normal;font-weight:normal;font-stretch:normal;line-height:0%;font-family:Lavi;-inkscape-font-specification:Lavi;text-align:center;letter-spacing:0px;word-spacing:0px;text-anchor:middle;fill:#000000;fill-opacity:1;stroke:none"
       x="2228.116"
       y="354.75421"
       id="text4246-3-7-61"><tspan
         sodipodi:role="line"
         style="font-size:45px;line-height:1.25"
         x="2228.116"
         y="354.75421"
         id="tspan887-1">.i li'a</tspan></text>
    <text
       xml:space="preserve"
       style="font-style:normal;font-variant:normal;font-weight:normal;font-stretch:normal;line-height:0%;font-family:Lavi;-inkscape-font-specification:Lavi;text-align:center;letter-spacing:0px;word-spacing:0px;text-anchor:middle;fill:#000000;fill-opacity:1;stroke:#000000;stroke-width:0.60000002;stroke-miterlimit:4;stroke-dasharray:none;stroke-opacity:1"
       x="2135.0286"
       y="772.58179"
       id="text4246-3-7-61-9"><tspan
         sodipodi:role="line"
         style="font-size:45px;line-height:1.25;stroke:#000000;stroke-width:0.60000002;stroke-miterlimit:4;stroke-dasharray:none;stroke-opacity:1"
         x="2135.0286"
         y="772.58179"
         id="tspan887-1-4">.i .ua</tspan></text>
    <text
       xml:space="preserve"
       style="font-style:normal;font-variant:normal;font-weight:normal;font-stretch:normal;line-height:0%;font-family:Lavi;-inkscape-font-specification:Lavi;text-align:center;letter-spacing:0px;word-spacing:0px;text-anchor:middle;fill:#000000;fill-opacity:1;stroke:none"
       x="2183.0144"
       y="665.17279"
       id="text4246-3-7-61-7"><tspan
         sodipodi:role="line"
         style="font-weight:normal;font-size:45px;line-height:1.25"
         x="2183.0144"
         y="665.17279"
         id="tspan887-1-8">ckape .a'u nai li'a</tspan></text>
    <text
       xml:space="preserve"
       style="font-style:normal;font-variant:normal;font-weight:normal;font-stretch:normal;line-height:0%;font-family:Lavi;-inkscape-font-specification:Lavi;text-align:center;letter-spacing:0px;word-spacing:0px;text-anchor:middle;fill:#000000;fill-opacity:1;stroke:none"
       x="1611.2759"
       y="186.1888"
       id="text4246-3-7-61-4"><tspan
         sodipodi:role="line"
         style="font-size:45px;line-height:1.25"
         x="1611.2759"
         y="186.1888"
         id="tspan887-1-5">.y.</tspan></text>
    <text
       xml:space="preserve"
       style="font-style:normal;font-variant:normal;font-weight:normal;font-stretch:normal;line-height:0%;font-family:Lavi;-inkscape-font-specification:Lavi;text-align:center;letter-spacing:0px;word-spacing:0px;text-anchor:middle;fill:#483200;fill-opacity:1;stroke:none;stroke-width:1;stroke-miterlimit:4;stroke-dasharray:none;stroke-opacity:1"
       x="2401.5859"
       y="1089.5171"
       id="text4246-3-7-3-7-0"
       transform="skewX(-20)"><tspan
         sodipodi:role="line"
         style="font-weight:normal;font-size:45px;line-height:1.25;fill:#000000;fill-opacity:1;stroke:none;stroke-width:1;stroke-miterlimit:4;stroke-dasharray:none;stroke-opacity:1"
         x="2401.5859"
         y="1089.5171"
         id="tspan5159">.i je no da ka'e viska do li'u</tspan></text>
    <text
       xml:space="preserve"
       style="font-style:normal;font-variant:normal;font-weight:normal;font-stretch:normal;line-height:0%;font-family:Lavi;-inkscape-font-specification:Lavi;text-align:center;letter-spacing:0px;word-spacing:0px;text-anchor:middle;fill:#000000;fill-opacity:1;stroke:none"
       x="1907.6078"
       y="2334.0767"
       id="text4246-3-7-6-1-7-6"><tspan
         sodipodi:role="line"
         style="font-size:45px;line-height:1.25"
         x="1907.6078"
         y="2334.0767"
         id="tspan1274-5">.i .a'o ra morji fi le ckape</tspan><tspan
         sodipodi:role="line"
         style="font-size:45px;line-height:1.25"
         x="1907.6078"
         y="2390.3267"
         id="tspan1080">voi mi pu ciska le jufra be ke'a</tspan><tspan
         sodipodi:role="line"
         style="font-size:45px;line-height:1.25"
         x="1907.6078"
         y="2446.5767"
         id="tspan1082">le ckupau be la'e la valsi be</tspan><tspan
         sodipodi:role="line"
         style="font-size:45px;line-height:1.25"
         x="1914.639"
         y="2502.8267"
         id="tspan1084">la nu daspo </tspan></text>
    <text
       xml:space="preserve"
       style="font-style:normal;font-variant:normal;font-weight:normal;font-stretch:normal;line-height:0%;font-family:Lavi;-inkscape-font-specification:Lavi;text-align:center;letter-spacing:0px;word-spacing:0px;text-anchor:middle;fill:#000000;fill-opacity:1;stroke:none"
       x="422.91153"
       y="1432.7169"
       id="text4246-3-7-61-7-7"><tspan
         sodipodi:role="line"
         style="font-size:45px;line-height:1.25"
         x="422.91153"
         y="1436.2144"
         id="tspan887-1-8-6" /><tspan
         sodipodi:role="line"
         style="font-size:45px;line-height:1.25"
         x="422.91153"
         y="1473.9574"
         id="tspan5199">.i prane</tspan></text>
    <text
       xml:space="preserve"
       style="font-style:normal;font-variant:normal;font-weight:normal;font-stretch:normal;line-height:0%;font-family:Lavi;-inkscape-font-specification:Lavi;text-align:center;letter-spacing:0px;word-spacing:0px;text-anchor:middle;fill:#000000;fill-opacity:1;stroke:#000000;stroke-width:0.89999998;stroke-miterlimit:4;stroke-dasharray:none;stroke-opacity:1"
       x="304.70123"
       y="1329.1586"
       id="text4246-3-7-61-7-7-2"><tspan
         sodipodi:role="line"
         style="font-size:45px;line-height:1.25;stroke:none;stroke-width:0.89999998;stroke-miterlimit:4;stroke-dasharray:none;stroke-opacity:1"
         x="304.70123"
         y="1329.1586"
         id="tspan5199-4">.i ba'e <tspan
   style="font-weight:bold"
   id="tspan1058">no</tspan> xu da</tspan></text>
    <text
       xml:space="preserve"
       style="font-style:normal;font-variant:normal;font-weight:normal;font-stretch:normal;line-height:0%;font-family:Lavi;-inkscape-font-specification:Lavi;text-align:center;letter-spacing:0px;word-spacing:0px;text-anchor:middle;fill:#000000;fill-opacity:1;stroke:none"
       x="447.58618"
       y="1393.7435"
       id="text4246-3-7-61-7-7-7"><tspan
         sodipodi:role="line"
         style="font-size:45px;line-height:1.25"
         x="447.58618"
         y="1393.7435"
         id="tspan5199-43">.i je'u pei</tspan></text>
  </g>
</svg>
