<?xml version="1.0" encoding="UTF-8" standalone="no"?>
<svg
   id="svg2"
   version="1.1"
   inkscape:version="1.3 (0e150ed6c4, 2023-07-21)"
   width="2481"
   height="663"
   sodipodi:docname="E06P00.svg"
   xmlns:inkscape="http://www.inkscape.org/namespaces/inkscape"
   xmlns:sodipodi="http://sodipodi.sourceforge.net/DTD/sodipodi-0.dtd"
   xmlns:xlink="http://www.w3.org/1999/xlink"
   xmlns="http://www.w3.org/2000/svg"
   xmlns:svg="http://www.w3.org/2000/svg"
   xmlns:rdf="http://www.w3.org/1999/02/22-rdf-syntax-ns#"
   xmlns:cc="http://creativecommons.org/ns#"
   xmlns:dc="http://purl.org/dc/elements/1.1/">
  <sodipodi:namedview
     pagecolor="#ffffff"
     bordercolor="#666666"
     inkscape:pageopacity="0"
     inkscape:pageshadow="2"
     inkscape:window-width="1813"
     inkscape:window-height="955"
     id="namedview70"
     showgrid="false"
     inkscape:zoom="0.36091954"
     inkscape:cx="1277.293"
     inkscape:cy="446.0828"
     inkscape:current-layer="layer1"
     inkscape:document-rotation="0"
     inkscape:window-x="43"
     inkscape:window-y="123"
     inkscape:window-maximized="0"
     borderopacity="1.0"
     inkscape:pagecheckerboard="0"
     inkscape:showpageshadow="0"
     inkscape:deskcolor="#d1d1d1" />
  <metadata
     id="metadata8">
    <rdf:RDF>
      <cc:Work
         rdf:about="">
        <dc:format>image/svg+xml</dc:format>
        <dc:type
           rdf:resource="http://purl.org/dc/dcmitype/StillImage" />
        <dc:title />
      </cc:Work>
    </rdf:RDF>
  </metadata>
  <defs
     id="defs6" />
  <sodipodi:namedview
     pagecolor="#ffffff"
     bordercolor="#666666"
     borderopacity="1"
     objecttolerance="10"
     gridtolerance="10"
     guidetolerance="10"
     inkscape:pageopacity="0"
     inkscape:pageshadow="2"
     inkscape:window-width="1920"
     inkscape:window-height="1025"
     id="namedview4"
     showgrid="false"
     inkscape:zoom="0.59209996"
     inkscape:cx="1240.5"
     inkscape:cy="331.5"
     inkscape:window-x="1920"
     inkscape:window-y="26"
     inkscape:window-maximized="1"
     inkscape:current-layer="layer1" />
  <g
     inkscape:groupmode="layer"
     id="layer2"
     inkscape:label="artwork"
     sodipodi:insensitive="true">
    <image
       xlink:href="../gfx_Pepper-and-Carrot_by-David-Revoy_E06P00.png"
       y="0"
       x="0"
       id="image10"
       height="663"
       width="2481" />
  </g>
  <g
     inkscape:groupmode="layer"
     id="layer1"
     inkscape:label="text"
     style="opacity:1">
    <flowRoot
       xml:space="preserve"
       id="episode-title"
       style="opacity:1;font-style:normal;font-variant:normal;font-weight:normal;font-stretch:normal;line-height:0.01%;font-family:Arial;-inkscape-font-specification:Arial;letter-spacing:0px;word-spacing:0px;display:inline;fill:#301b0b;fill-opacity:1;stroke:none"
       transform="matrix(0.77923967,0,0,0.83688944,119.68081,178.64427)"><flowRegion
         id="flowRegion3065"
         style="fill:#301b0b;fill-opacity:1"><rect
           id="rect3067"
           width="2715.5891"
           height="110.01319"
           x="92.642677"
           y="425.30325"
           style="font-size:72px;fill:#301b0b;fill-opacity:1;stroke-width:1" /></flowRegion><flowPara
         id="flowPara3069"
         style="font-style:normal;font-variant:normal;font-weight:normal;font-stretch:normal;font-size:88px;line-height:1.25;font-family:Lavi;-inkscape-font-specification:Lavi;text-align:center;text-anchor:middle;fill:#301b0b;fill-opacity:1">Mon 6: Konkurexey fe Iksir</flowPara></flowRoot>
    <path
       id="path910"
       style="fill:#301b0b;fill-opacity:1;stroke:none;display:inline"
       d="m 610.34961,184.86328 -15.64453,2.91992 -15.64453,2.91797 -8.70117,3.18164 -8.69922,3.17969 -2.36524,2.51758 -2.36328,2.51562 0.16602,5.96485 0.16406,5.96679 2.15039,4.9961 2.14844,4.99609 2.18945,2.04492 2.18945,2.04493 5.63867,2.10156 5.63672,2.10351 2.4375,2.5918 2.4375,2.5918 -0.0586,9.76172 c -0.0321,5.36882 -0.42624,17.02809 -0.875,25.91015 l -0.81641,16.15039 3.39844,4.4375 c 1.86869,2.44084 3.97592,5.21272 4.6836,6.16016 l 1.2871,1.72265 -0.64062,1.66993 -0.64063,1.67187 -2.66406,0.58008 c -1.46538,0.31913 -3.23187,0.75497 -3.92578,0.96875 l -1.26172,0.38867 0.0137,29.04883 0.0156,29.05078 0.74219,1.0332 c 0.40785,0.56795 2.018,1.84449 3.57812,2.83789 l 2.83594,1.80665 -0.3125,2.70703 -0.3125,2.70898 -3.0293,0.51563 -3.02734,0.51562 -0.51758,9.30664 -0.51758,9.30664 -1.71875,1.71875 -1.71679,1.7168 -6.32618,0.74609 -6.32422,0.7461 -2.4082,2.79883 -2.40625,2.79882 0.56641,4.78516 0.5664,4.7832 1.98243,3.85547 1.98242,3.85352 3.00586,2.85547 3.00586,2.85546 3.89843,1.46485 h 0.002 l 3.89843,1.46484 12.11133,-0.5039 12.11133,-0.50391 9.58984,-1.99024 c 10.69436,-2.21951 17.14533,-4.30968 20.44532,-6.62109 l 2.20898,-1.54492 h 3.77735 3.77929 l 3.31445,-1.40625 c 1.823,-0.77345 6.03837,-2.17505 9.36915,-3.11524 3.33077,-0.94017 8.78251,-2.97735 12.11328,-4.52539 3.33078,-1.54805 8.12951,-3.77963 10.66406,-4.95898 2.53457,-1.17936 5.31656,-2.14453 6.18359,-2.14453 h 1.57813 l 1.24609,-1.50195 1.2461,-1.50196 -1.375,-0.49219 c -0.75643,-0.27109 -2.96526,-0.49981 -4.90821,-0.50781 -1.94295,-0.008 -4.89516,-0.0447 -6.56054,-0.082 -6.57892,-0.14746 -27.82667,0.98326 -28.70704,1.52734 l -0.93359,0.57618 -4.35742,-1.51563 -4.35547,-1.51758 -5.17578,-0.0156 -5.17578,-0.0137 -1.26367,-1.52344 -1.26368,-1.52344 -4.11523,-0.6582 -4.11523,-0.6582 -2.31446,-2.31446 -2.31445,-2.31445 v -13.0957 -13.09571 l 1.55859,-1.55859 1.56055,-1.55859 3.73828,-0.96094 c 2.05675,-0.52791 6.69244,-1.69348 10.30078,-2.58985 8.50637,-2.11311 26.57393,-9.34495 42.05664,-16.83593 l 12.28125,-5.94336 7.9043,-5.66992 c 4.348,-3.11862 10.17747,-7.6857 12.95312,-10.1504 2.77564,-2.46469 7.65611,-7.51463 10.84571,-11.2207 l 5.79883,-6.73828 3.94531,-8.07422 3.94726,-8.07422 1.30664,-5.55273 1.30665,-5.55078 -0.0898,-7.57031 -0.0898,-7.56836 -1.69531,-6.56055 -1.69532,-6.5625 -4.83789,-10.0918 -4.83789,-10.09375 -6.40234,-8.92773 -6.40235,-8.92774 -4.57031,-4.02343 c -2.51384,-2.21278 -7.38017,-5.5942 -10.8125,-7.51368 -3.43234,-1.91946 -9.97338,-4.85273 -14.53516,-6.51757 l -8.29296,-3.02735 -9.70508,-0.94336 -9.70703,-0.94531 -18.16797,-0.0215 z m 845.18749,6.5625 -2.0391,0.44727 -3.4082,10.44726 -4.7421,13.35547 -5.4258,16.42188 2.3613,3.11718 -0.7637,2.23243 -4.4414,0.45507 -9.1172,18.60547 4.1309,11.25391 -3.1875,5.95703 -11.8887,-0.88086 -10.25,16.34961 -10.4765,14.24219 -12.793,13.89648 -5.2188,5.94531 -3.1718,0.0488 1.1367,-91.36328 -0.066,-6.01172 -0.3203,-6.08398 -0.8008,-4.21875 -2.0606,-3.41602 -4.7695,-2.98633 -10.0566,-1.25195 -22.7227,0.88867 -7.7363,2.17578 -7.1543,3.59375 -2.7598,2.92383 -2.7851,3.875 -1.1485,4.18946 0.4766,3.64843 5.7754,-1.38476 6.248,-1.07813 6.4844,0.875 8.4883,1.4336 3.6348,2.7832 1.0605,4.14844 -0.5137,42.66601 9.502,-3.70508 1.4707,3.875 -10.9727,17.95118 v 87.88867 l 0.5274,24.64648 0.58,9.7461 0.6739,4.35937 -13.8067,1.83789 -5.791,3.0625 -0.6015,4.36914 -0.1055,10.68946 1.5976,3.64843 6.6016,4.81641 1.416,0.97461 7.127,0.44531 13.8105,0.42969 19.6426,-1.07422 10.6348,-0.69141 5.8066,-1.91406 10.1152,-11.00586 8.6914,-10.9375 4.7637,-6.89062 -1.3144,-2.21485 -5.875,-0.0332 -11.8828,3.65039 -7.2559,1.82031 -5.7207,-0.0918 -4.1231,-4.77735 -3.7675,-11.84765 -1.0176,-18.5625 -6.0938,-6.09961 1.1309,-3.0586 4.5937,0.27735 -0.9296,-14.37891 11.5254,-10.4082 6.9746,-6.17774 2.3261,-0.30859 7.3086,10.20508 6.4102,14.49414 17.3613,46.56445 9.8223,4.27344 1.5508,4.01758 -6.9161,3.66211 6.4727,16.19531 7.4062,13.51172 11.6934,7.81054 14.6191,1.84375 12.1485,-0.81835 10.8496,-5.83204 9.2402,-8.91015 7.3887,-9.73828 3.0898,-8.26953 1.084,-6.66993 -1.7695,-0.61914 -3.0898,6.68946 -5.5235,6.4414 -10.0078,4.88086 -10.0156,3.44141 -9.1719,-1.89649 -7.373,-6.56054 -10.9864,-23.06055 -21.7929,-57.82617 -11.7676,-30.61328 -6.8106,-11.99024 9.2852,-12.17969 10.4199,-18.96679 10.4551,-23.03516 7.4219,-25.8457 3.0957,-19.41602 0.2441,-18.63281 z M 627.07617,214.125 h 2.10156 2.10157 l 3.49609,3.07031 3.49609,3.07031 1.6836,-0.48632 c 0.926,-0.2674 6.10894,-1.02337 11.51758,-1.67969 l 9.83398,-1.19336 7.74609,1.15234 7.74415,1.15039 5.88671,2.64258 5.88477,2.64063 4.13086,4.48047 4.1289,4.48046 2.68555,5.72852 2.68555,5.72852 v 9.08398 l -0.002,9.08398 -2.71485,5.79297 c -3.5139,7.49962 -8.59227,15.10916 -14.89062,22.30664 l -5.04297,5.76172 0.5625,2.80664 0.56055,2.8086 -1.53516,1.27539 -1.53711,1.27539 -2.16797,-1.16016 -2.16602,-1.16015 -1.99218,1.80273 -1.99219,1.80273 0.60742,2.42188 0.60938,2.42188 -1.61914,2.46874 -1.61719,2.47071 -4.36914,-0.65625 -4.36719,-0.6543 -8.94727,3.53516 -8.94726,3.53711 -11.60742,2.45117 -11.60742,2.44922 -1.51368,-0.45313 c -0.8327,-0.24989 -2.08148,-1.16998 -2.77539,-2.04492 l -1.26172,-1.5918 0.0449,-28.82421 0.0469,-28.82618 0.83008,-15.98242 0.83203,-15.98437 1.97656,-2.68946 c 1.08773,-1.47886 3.64538,-3.78685 5.6836,-5.1289 l 3.70703,-2.43946 v -2.41992 c 0,-1.33131 0.47026,-3.29928 1.04492,-4.37305 z m 198.08594,12.55078 -2.01953,0.008 c -1.02122,0.43595 -12.24805,0.54297 -12.24805,0.54297 l -2.45117,0.72656 -1.67969,1.3086 1.73828,0.88672 2.27539,1.70898 1.93555,3.34961 0.53125,9.52344 0.37109,7.2793 -0.0176,9.98828 1.06054,46.70703 0.2168,54.79883 0.006,36.24414 -0.5957,2.28906 -0.59571,2.28711 -5.60351,1.57617 -5.60352,1.57617 -1.99609,1.96094 -1.9961,1.96094 -0.0254,2.80468 -0.0234,2.80274 1.64648,2.50976 c 0.90577,1.38052 2.81459,3.81828 4.24219,5.41797 h 0.002 l 5.16211,0.47071 2.5332,1.68554 7.43555,-0.32617 5.39063,-5.14844 4.32812,0.26563 2.34961,4.30469 c 0,0 3.48052,-0.18033 4.32617,-0.23633 l 9.74024,-0.64649 2.65429,-1.70703 2.6543,-1.70508 2.21094,-3.31054 2.21093,-3.3086 3.28907,-2.11523 c 1.80883,-1.16329 4.80263,-3.56327 6.08789,-5.71875 l 4.98242,-8.35547 -5.27734,0.0215 -10.2793,3.76367 -8.19727,0.22656 c 0,0 -3.44899,-0.0509 -3.76953,-0.17383 -0.71205,-0.27305 -1.94769,-1.78764 -2.74609,-3.36523 l -1.45313,-2.86914 0.0547,-6.16797 0.0527,-6.16992 -0.26954,-16.625 -1.64843,-78.72071 -9.20508,-11.86328 0.3418,-4.79101 8.99414,-1.49219 -1.10547,-27.44531 0.14062,-3.49219 c 0.36179,-0.59057 0.29883,-4.23828 0.29883,-4.23828 l -1.33203,-4.61133 -3.94922,-3.63477 z m 246.00389,0 -2.0195,0.008 c -1.0212,0.43595 -12.2481,0.54297 -12.2481,0.54297 l -2.4511,0.72656 -1.6797,1.3086 1.7402,0.88672 2.2734,1.70898 1.9356,3.34961 0.5312,9.52344 0.3731,7.2793 -0.02,9.98828 0.5625,24.7207 0.1894,8.33984 0.3086,13.64649 0.1445,36.16406 10.0391,10.27148 -0.9668,5.45118 -9,2.91211 v 36.24414 l -0.5957,2.28906 -0.5937,2.28711 -5.6036,1.57617 -5.6054,1.57617 -1.9961,1.96094 -1.9942,1.96094 -0.025,2.80468 -0.023,2.80274 1.6465,2.50976 c 0.9058,1.38052 2.8146,3.81828 4.2422,5.41797 h 0.01 l 5.1622,0.47071 2.5332,1.68554 7.4355,-0.32617 12.0684,-0.57812 c 0,0 3.4786,-0.18033 4.3242,-0.23633 l 9.7422,-0.64649 2.6543,-1.70703 2.6543,-1.70508 2.2109,-3.31054 2.2109,-3.3086 3.2891,-2.11523 c 1.8089,-1.16329 4.8026,-3.56327 6.0879,-5.71875 l 4.9824,-8.35547 -5.2773,0.0215 -10.2793,3.76367 -8.1973,0.22656 c 0,0 -3.449,-0.0509 -3.7695,-0.17383 -0.7121,-0.27305 -1.9477,-1.78764 -2.7461,-3.36523 l -1.4531,-2.86914 0.055,-6.16797 0.057,-6.16992 -0.2715,-16.625 -1.6484,-78.72071 0.1308,-18.14648 -1.1054,-27.44531 0.1406,-3.49219 c 0.3619,-0.59057 0.2988,-4.23828 0.2988,-4.23828 l -1.332,-4.61133 -3.9473,-3.63477 z m 728.0352,29.8418 -1.2012,1.44922 -1.2031,1.44922 1.0722,2.0039 1.0723,2.00586 0.2598,20.51563 0.2578,20.51757 -1.2031,2.09766 -1.2051,2.09766 -5.8242,1.30468 -5.8243,1.30274 -5.9531,3.12109 -5.9551,3.1211 -0.5507,1.43359 -0.5489,1.43359 1.168,1.8711 1.168,1.87304 v 2.57422 2.57617 l 3.9687,4.25196 3.9668,4.25 h 7.2852 7.2832 l 0.789,2.01953 0.7891,2.01758 0.072,26.81445 0.07,26.81445 1.1015,5.95703 1.1016,5.95704 1.877,3.68164 c 1.0332,2.02521 3.0472,5.06927 4.4746,6.76562 l 2.5957,3.08594 5.2207,2.60156 5.2207,2.60156 h 5.6601 5.6602 l 4.4883,-2.90234 c 2.468,-1.59637 6.3954,-4.89004 8.7285,-7.31836 l 4.2422,-4.41406 1.584,-3.8086 1.5859,-3.80859 -1.168,-2.18164 -1.1679,-2.18359 3.1308,-2.79883 3.1328,-2.79883 1.6114,-3.82617 c 0.8864,-2.10484 1.9788,-5.76709 2.4277,-8.13672 l 0.8164,-4.30859 -0.8613,-0.53125 -0.8614,-0.53321 -2.1894,1.17188 c -1.2037,0.64413 -7.3571,6.22827 -13.6758,12.41015 l -11.4883,11.24024 -3.1035,1.49414 -3.1016,1.49414 -2.3418,-2.72266 -2.3417,-2.72265 -0.6543,-5.33203 -0.6543,-5.33203 0.3242,-27.97461 0.3261,-27.97461 1.5137,-1.38086 c 0.8327,-0.75985 5.5236,-2.8988 10.4239,-4.75196 l 8.9082,-3.36914 8.5625,-7.64843 c 4.7088,-4.20624 10.6912,-9.37946 13.2949,-11.4961 2.6039,-2.11665 5.5204,-4.48706 6.4804,-5.26953 l 1.7442,-1.42383 -0.4942,-1.28906 -0.4941,-1.28906 -5.2891,0.10156 -5.2871,0.10352 -3.6777,1.56835 -3.6797,1.56641 -7.9277,0.72852 -7.9297,0.72656 -3.5332,1.74805 c -1.9429,0.96159 -4.7748,2.04732 -6.293,2.41211 l -2.7597,0.66406 -1.875,-1.875 -1.875,-1.875 -0.586,-15.28906 -0.5879,-15.28711 -2.125,-2.98438 -2.125,-2.98242 -5.9062,-3.58789 -5.9063,-3.58789 h -2.0156 z m -795.7364,0.28125 -6.91207,3.81055 -3.625,4.29882 -1.90429,6.56055 1.04883,6.73437 5.25,3.98047 4.42573,4.97071 6.9454,0.20898 7.9355,-3.4043 3.25,-5.15234 0.5156,-9.01953 -1.6347,-6.51758 -4.9414,-4.38476 z m -242.74214,0.29492 -8.38868,1.32422 -7.24609,6.20117 -1.93555,5.28125 0.45313,6.81445 3.28906,5.96875 5.26758,3.74219 6.88672,1.36133 6.59765,-2.17969 6.29297,-5.91211 2.0625,-7.23633 -2.85742,-8.65429 -6.68555,3.17578 -4.3125,-3.09961 z m 476.99214,31.79297 -6.8359,2.60937 1.8008,6.48243 -2.918,4.40625 -6.0019,2.56445 1.8593,5.80273 6.5782,6.19141 6.0429,2.9375 6.5352,-0.9668 8.2519,-6.58984 1.5254,-7.74414 -0.9629,-5.54102 -3.8027,-5.67578 -5.832,-3.52539 z m -43.9238,0.41601 -7.834,2.14649 -4.0957,4.50976 -2.0742,8.79297 0.4785,6.70313 5.3164,6.20117 8.8086,2.08008 7.2832,-1.80469 4.3164,-3.60547 3.0137,-6.1289 0.1367,-6.81446 -2.2968,-5.8789 -5.6778,-4.61719 z m 734.5508,2.74805 -5.1465,0.60938 -5.1465,0.60937 -8.3652,4.01367 -8.3652,4.01368 -4.8125,4.83984 c -6.5764,6.61356 -13.482,15.79071 -17.8184,23.67969 -1.9913,3.62286 -4.7159,9.80387 -6.0527,13.73437 l -2.4297,7.14649 -1.1992,7.42968 -1.1993,7.43164 0.4219,13.58594 0.4219,13.58789 4.4336,11.58985 4.4336,11.58984 4.2558,4.25586 4.2559,4.25586 5.3769,1.51758 c 2.9569,0.83405 6.737,1.69709 8.4024,1.91797 5.8683,0.77832 8.1422,0.65397 15.1113,-0.82227 l 7.0371,-1.49023 8.8594,-4.21094 8.8613,-4.21094 0.094,-1.09375 c 0.052,-0.60185 0.02,-2.96169 -0.068,-5.24414 l -0.1621,-4.15039 1.6543,-1.6543 1.6543,-1.65234 h 2.5078 2.5078 l 2.0352,-4.59961 c 1.1191,-2.52995 2.2774,-6.09685 2.5742,-7.92578 l 0.5391,-3.32617 -1.375,-0.52735 -1.375,-0.52734 -12.1055,7.24219 c -6.6584,3.98346 -15.0177,8.52629 -18.5762,10.0957 l -6.4707,2.85351 -6.1465,0.43946 -6.1464,0.4414 -3.2442,-2.04687 -3.2461,-2.04688 -2.3535,-3.82031 c -1.295,-2.10185 -3.1251,-5.83766 -4.0664,-8.30078 l -1.7109,-4.47852 1.7597,-3.5957 1.7578,-3.5957 4.0372,-1.32422 c 7.5748,-2.48247 42.3732,-11.12494 49.457,-12.2832 l 7.0664,-1.15625 2.2207,-1.43946 2.2207,-1.4414 1.0547,-3.79492 1.0527,-3.79493 0.012,-12.81836 0.012,-12.82031 -1.1348,-5.34766 -1.1348,-5.3496 -2.5176,-4.9961 -2.5156,-4.99609 -5.3594,-5.14844 -5.3593,-5.15039 -5.2364,-2.84961 z m -1033.4961,4.81641 -8.99023,4.04883 c -4.94488,2.22656 -9.28112,4.04882 -9.63672,4.04882 -1.04828,0 -13.7863,8.14377 -16.25781,10.39454 -1.24904,1.13747 -2.27149,2.42421 -2.27149,2.85742 v 0.78711 l 3.28125,0.5 c 1.80417,0.27554 7.04597,1.03575 11.64844,1.68945 l 8.36719,1.18945 1.47265,2.84766 1.47266,2.84765 v 40.86915 40.86718 l -0.98242,0.60938 c -0.54103,0.33437 -4.49585,1.27855 -8.78711,2.09961 l -7.80078,1.49414 -0.78711,1.23828 c -0.4324,0.6815 -0.64215,1.69101 -0.4668,2.24414 l 0.31836,1.00586 3.95508,0.79883 c 2.17493,0.43907 6.33752,1.06502 9.25195,1.39062 l 5.29883,0.5918 v 27.94336 27.94336 l -1.34375,1.83789 -1.34375,1.83594 -4.45898,2.14062 -4.45899,2.14063 -1.35937,2.86132 -1.35742,2.86133 0.62109,3.31055 0.62109,3.31055 2.75586,3.57031 c 1.51557,1.96378 3.89147,4.30389 5.2793,5.20117 l 2.52344,1.63086 5.04492,-0.3418 5.04687,-0.34375 9.8086,-2.66601 9.80859,-2.66602 4.32227,-2.19922 c 2.3773,-1.20986 6.3165,-3.95238 8.7539,-6.09375 l 4.43164,-3.89257 h 1.29493 c 0.7119,-10e-6 2.63965,-1.133 4.28515,-2.51758 l 2.99219,-2.51758 6.42187,-2.78906 c 3.532,-1.53355 7.32604,-3.31827 8.43164,-3.9668 l 2.01172,-1.17969 -0.68945,-0.68945 -0.68945,-0.68945 -5.86328,0.11523 c -3.2245,0.0636 -10.37031,0.12863 -15.87891,0.14453 l -10.01563,0.0293 -5.24023,-1.08789 -5.24219,-1.08789 -2.40625,-2.5625 -2.40625,-2.5625 V 446.6543 425 l 1.51367,-0.95703 c 0.8327,-0.52611 2.49913,-0.96466 3.70313,-0.97266 l 2.18945,-0.0156 12.52735,-4.58594 12.52539,-4.58594 4.96679,-3.24609 4.9668,-3.24414 0.34766,-2.51367 c 0.192,-1.38259 0.82354,-3.09029 1.40234,-3.79493 l 1.05273,-1.28125 3.21876,0.60352 3.21874,0.60352 5.0586,-5.53516 c 2.7827,-3.0447 6.80821,-8.17082 8.94531,-11.39063 l 3.88672,-5.85351 2.95313,-8.57227 2.95507,-8.57031 -0.45117,-7.62305 -0.45312,-7.62304 -2.23828,-5.04688 -2.24024,-5.04687 -3.73437,-3.85743 c -2.0544,-2.12191 -6.74237,-6.09464 -10.41602,-8.82812 l -6.67773,-4.96875 -5.74219,-2.53906 c -3.1573,-1.39633 -8.99952,-3.44316 -12.98242,-4.54688 l -7.24024,-2.00586 -10.11328,-0.0137 c -5.5625,-0.008 -11.13567,-0.28832 -12.38477,-0.62305 l -2.27148,-0.60742 v -2.7539 -2.75391 l -1.76758,-1.60156 c -0.97251,-0.88009 -3.05912,-2.08965 -4.63672,-2.68946 z m 638.9609,2.85351 -7.2636,0.041 -7.2637,0.041 -4.5098,1.60352 c -2.4799,0.88249 -6.3983,2.71145 -8.707,4.06445 -2.3088,1.353 -6.8643,4.6988 -10.125,7.4336 l -5.9297,4.9707 -3.2129,5.4043 c -1.7679,2.97218 -4.4415,8.50091 -5.9394,12.28515 l -2.7227,6.88086 1.2129,1.19336 1.2148,1.19336 2.4258,-3.02734 c 1.3343,-1.66539 3.006,-3.63188 3.7149,-4.36914 0.7089,-0.73725 4.6959,-3.8679 8.8593,-6.95703 l 7.5684,-5.61524 8.0762,-3.92578 8.0742,-3.92578 8.0742,0.28516 8.0742,0.2832 1.8223,3.72851 1.8223,3.72852 1.1132,9.80859 1.1153,9.8086 -2.1192,1.71679 -2.1191,1.7168 -8.8926,2.2168 -8.8906,2.21679 -12.1113,5.9004 -12.1133,5.90039 -5.6367,4.07031 -5.6368,4.06836 -3.7773,5.48437 -3.7773,5.48633 -2.4454,6.73633 -2.4453,6.73633 v 4.81836 4.8164 l 1.5196,5.11914 1.5195,5.11719 3.8945,3.51758 3.8946,3.51758 5.3554,1.77929 5.3555,1.7793 9.1641,-0.57422 9.166,-0.57226 7.8496,-2.5918 c 4.3175,-1.42543 10.6027,-3.75002 13.9668,-5.16602 l 6.1172,-2.57422 1.4238,1.18165 1.4258,1.18359 v 1.75976 1.75782 l 2.039,2.59179 2.0391,2.5918 2.25,0.43555 c 1.238,0.23912 2.5105,0.49666 2.8262,0.57226 0.3156,0.0756 3.0396,-0.58613 6.0547,-1.4707 l 5.4824,-1.60937 5.3398,-3.0293 5.3399,-3.03125 1.6347,-2.4961 1.6348,-2.49609 0.7793,-4.92187 0.7773,-4.91993 4.1075,-6.18359 c 2.2587,-3.40072 4.1054,-6.60522 4.1054,-7.12109 v -0.9375 h -1.1953 c -1.3543,0 -7.6864,2.79967 -16.1582,7.14453 -3.1614,1.62132 -6.2287,2.94922 -6.8144,2.94922 h -1.0645 v -1.90625 -1.9043 l 3.0039,-6.42187 c 1.6522,-3.53189 3.298,-7.89896 3.6582,-9.70313 l 0.6563,-3.2793 h -2.086 -2.0859 l -0.623,1.00977 c -0.3431,0.55513 -1.052,1.00781 -1.5743,1.00781 h -0.9492 l -0.018,-8.83008 c -0.01,-4.85738 -0.4498,-15.23541 -0.9843,-23.06054 l -0.9707,-14.22657 -1.1485,-5.45507 -1.1504,-5.45313 -2.4453,-5.23047 -2.4512,-5.23047 -3.6953,-3.24804 -3.6992,-3.2461 -5.4004,-2.47265 z m 199.9727,4.02539 -7.4824,0.61133 -7.4805,0.60938 -5.5156,2.52539 c -3.0337,1.38882 -8.3659,4.5565 -11.8477,7.04101 l -6.3301,4.51758 -3,3.80664 c -3.7221,4.72333 -8.3483,13.91551 -11.2011,22.25391 l -2.168,6.33594 -0.9805,6.78515 -0.9824,6.78711 -0.019,9.28711 -0.02,9.28516 1.1113,5.34961 1.1113,5.34765 2.9414,6.05664 2.9414,6.05664 3.9571,4.62696 3.957,4.62695 5.3633,3.67187 5.3632,3.67188 5.5508,1.52344 5.5508,1.52539 12.6152,-0.24414 12.6172,-0.2461 5.3887,-2.97461 5.3906,-2.9746 4.7032,-5.1543 c 2.5872,-2.83475 5.6059,-6.83426 6.707,-8.88672 l 2.0019,-3.73047 -1.2461,-1.99414 c -0.6847,-1.09645 -1.2441,-2.69573 -1.2441,-3.55469 v -1.5625 l 3.5078,-2.07031 3.5098,-2.07031 1.0351,-3.69922 c 0.5692,-2.03462 1.7698,-7.5607 2.668,-12.2793 l 1.6328,-8.57812 -0.5644,-9.58985 -0.5645,-9.58789 -1.6074,-6.05664 c -0.884,-3.33077 -3.1825,-9.39887 -5.1094,-13.48437 l -3.5039,-7.42774 -3.1211,-3.93945 -3.1211,-3.93945 -4.2168,-2.47266 -4.2168,-2.4707 -7.0429,-1.65625 z m -86.877,0.13086 -4.289,1.15235 -4.291,1.15039 -7.3496,7.63476 -7.3516,7.63672 -0.8535,-0.92578 c -0.4697,-0.50899 -1.4362,-2.74237 -2.1465,-4.96289 l -1.291,-4.03711 -2.6153,-3.28125 -2.6152,-3.2793 -2.0195,0.0254 c -1.1103,0.0141 -6.3337,1.48926 -11.6074,3.2793 l -9.5879,3.25586 v 1.19141 1.19336 l 3.4785,2.34375 3.4765,2.34375 2.0743,3.52929 2.0722,3.5293 0.3223,36.24219 0.3223,36.24218 -0.5762,2.29297 -0.5742,2.29297 -5.5899,1.625 -5.5898,1.625 -1.9785,1.97852 -1.9805,1.97851 v 2.80469 2.80274 l 1.6699,2.49609 c 0.9178,1.37256 2.8476,3.79369 4.2891,5.38086 l 2.6211,2.88672 9.5879,-0.70899 c 5.2737,-0.38952 13.97,-1.03772 19.3242,-1.43945 l 9.7344,-0.73047 2.6406,-1.72851 2.6387,-1.73047 2.1835,-3.32813 2.1817,-3.32812 3.2695,-2.14453 c 1.7986,-1.17903 4.5151,-3.7761 6.0371,-5.77149 l 2.7676,-3.62695 -0.9121,-0.81836 -0.9121,-0.81641 -12.1113,0.72266 c -6.6616,0.39674 -12.6976,0.50319 -13.4121,0.23633 -0.7144,-0.26688 -1.9632,-1.77125 -2.7754,-3.3418 l -1.4766,-2.85547 v -6.16992 -6.16992 l 2.5234,-16.6211 2.5215,-16.62109 1.3946,-3.25 c 0.7668,-1.78705 2.7924,-5.1487 4.5019,-7.47266 l 3.1094,-4.22656 5.6035,-1.76562 5.6055,-1.76758 1.0195,1.01953 1.0176,1.01758 0.5742,10.33984 0.5742,10.33789 -1.7266,7.04688 -1.7265,7.04687 0.6191,0.61914 0.6211,0.6211 5.9688,-6.1211 5.9707,-6.11914 2.5468,-8.42578 c 1.401,-4.63443 3.0577,-11.30559 3.6836,-14.82422 l 1.1387,-6.39648 -0.664,-3.19141 c -0.3652,-1.7551 -1.7492,-5.07766 -3.0743,-7.38281 l -2.4082,-4.19141 -4.2832,-3.14844 -4.2832,-3.15039 -3.8066,-1.02539 z m -888.00191,2.79883 -2.01953,0.008 c -1.02122,0.43595 -12.24805,0.54297 -12.24805,0.54297 l -2.45312,0.72656 -1.67969,1.3086 1.74023,0.88672 2.27344,1.70898 1.9375,3.34961 -0.24023,10.42188 -0.26953,6.38086 4.23047,3.41406 -0.41797,4.45312 -4.23438,2.1211 -0.90625,21.50586 0.004,36.24414 -0.59375,2.28906 -0.59571,2.28711 -5.60351,1.57617 -5.60352,1.57617 -1.99609,1.96094 -1.99609,1.96094 -0.0254,2.80468 -0.0234,2.80274 1.64648,2.50976 c 0.90577,1.38052 2.81459,3.81828 4.24219,5.41797 l 2.5957,2.91016 9.59375,-0.625 c 5.27692,-0.34349 13.97844,-0.91454 19.33594,-1.26953 l 9.74219,-0.64649 2.65429,-1.70703 2.6543,-1.70508 2.21094,-3.31054 2.21094,-3.3086 3.28906,-2.11523 c 1.80883,-1.16329 4.54854,-3.73673 6.08789,-5.71875 l 2.79883,-3.60352 -0.90625,-0.82421 -0.9043,-0.82422 -11.5625,0.68164 -1.98437,4.19336 -3.31641,-0.11524 -2.89648,-3.85156 c -10e-6,0 -3.45095,-0.0509 -3.77149,-0.17383 -0.71205,-0.27305 -1.94769,-1.78764 -2.74609,-3.36523 l -1.45118,-2.86914 0.0547,-6.16797 0.0527,-6.16992 -0.27149,-16.625 0.30078,-16.9961 1.07813,-27.3164 0.13867,-3.49219 c 0.36179,-0.59057 0.29883,-4.23828 0.29883,-4.23828 l -1.33008,-4.61133 -3.94922,-3.63477 z m 241.33201,0.44336 -9.78318,0.30469 -3.94922,1.83789 3.76367,1.84766 2.9961,4.19921 -0.14258,21.15625 -0.30274,41.37696 -0.11914,15.58984 -0.50586,7.2168 -1.66211,2.76562 -12.32422,6.41992 -1.96484,3.07032 -0.30078,6.63086 1.61523,4.86914 1.67774,1.86523 2.82422,0.51367 20.28511,-1.54101 13.8672,0.25586 4.5118,-0.70508 7.7265,-4.38867 5.75,-4.63672 5.3789,-5.67578 1.7988,-5.90625 2.5665,-4.10938 -1.2833,-0.1914 -5.1347,0.70507 -4.5918,1.61914 -8.3027,1.20508 -8.2168,-0.76953 -0.7715,-5.90625 -2.127,-7.4414 -0.9531,-8.99219 -6.4199,-1.79883 1.0801,-2.52344 5.8535,-2.61133 0.2558,-14.38086 -0.5136,-22.85351 -0.2012,-23.22656 -1.3399,-3.48047 -4.0195,-1.79492 z m 928.3965,4.15625 2.3828,0.59766 2.3828,0.59961 1.6289,4.0664 1.627,4.06641 V 331.25 341.89258 l -1.0957,2.04883 -1.0957,2.04687 -4.2031,1.83008 -4.2032,1.83008 -16.5957,3.73242 c -9.1272,2.05263 -17.1423,3.94203 -17.8125,4.19922 l -1.2187,0.4668 -0.7149,-1.15626 -0.7168,-1.1582 4.2774,-8.24804 c 2.3526,-4.53637 5.8258,-10.37757 7.7187,-12.98047 1.8928,-2.60289 6.8366,-7.90181 10.9844,-11.77539 l 7.541,-7.04102 4.5567,-2.20703 z m -200.0351,9.83789 h 3.3085 3.3106 l 5.3711,4.375 c 2.9544,2.40637 6.5981,5.17964 8.0976,6.16211 l 2.7266,1.78711 -0.041,4.6875 c -0.023,2.57881 0.2616,11.07135 0.6308,18.87109 l 0.67,14.18164 -1.1114,7.16797 -1.1132,7.16992 -1.961,4.57618 -1.9629,4.57617 -3.8613,3.84961 -3.8613,3.84765 -5.5664,1.26172 c -3.0616,0.69391 -7.1417,1.22001 -9.0684,1.16993 -4.8703,-0.12656 -9.9616,-1.71699 -13.4531,-4.20313 l -2.959,-2.10742 -4.3633,-9.21094 -4.3633,-9.21094 -0.6933,-5.90039 -0.6934,-5.89844 -1.8633,-1.5957 -1.8613,-1.59375 v -1.56055 -1.56054 l 3.9824,-4.82031 c 2.1909,-2.65133 4.1964,-5.59613 4.4551,-6.54297 0.2586,-0.94684 0.7472,-3.37141 1.0859,-5.38672 l 0.6153,-3.66406 3.8379,-5.93946 3.8398,-5.93945 3.252,-2.73438 3.25,-2.73632 5.1816,-1.53907 z m -792.68169,9.9043 7.57031,1.60156 7.57031,1.60156 4.03711,2.8086 4.03711,2.80859 1.82617,3.50586 1.82618,3.50781 -0.51172,4.75 -0.51172,4.75 -2.82813,5.83399 -2.82812,5.83398 -7.06641,7.49024 -7.06445,7.49023 -7.31641,5.43164 -7.3164,5.43164 -7.29102,3.49414 c -4.0097,1.92159 -8.04184,3.49219 -8.96094,3.49219 h -1.67187 l -1.38477,-1.66602 -1.38476,-1.66797 -0.29688,-28.50585 -0.29492,-28.50391 2.31445,-2.61328 2.31446,-2.61328 6.05664,-1.54492 c 3.3308,-0.84974 9.00683,-1.8089 12.61523,-2.13086 z m 252.09379,9.54687 -7.7403,1.24219 -2.8261,1.24609 2.6777,1.66797 2.1074,3.14844 0.9805,5.47852 0.1387,13.17187 -1.7754,70.19141 5.0761,8.72851 -1.9121,3.17774 -6.4687,0.22656 -1.7559,4.46484 -2.8633,3.26172 -4.4726,1.33203 -4.5684,-0.45312 -4.5449,-2.47852 -3.0547,-4.50195 -2.2266,-5.47656 -0.9023,-7.07227 0.025,-5.59961 0.3476,-5.03125 -1.0253,-0.37304 -3.0235,3.11328 -2.1054,4.5332 -1.6954,8.07422 -0.7304,9.64453 1.8183,7.69727 2.8457,5.54492 4.3321,5.41015 6.2988,3.54297 9.2344,1.01953 7.789,-1.20703 6.6035,-2.44531 6.6504,-4.62891 7.1524,-7.95507 4.6797,-10.45118 1.582,-10.71875 0.4141,-40.05078 0.2832,-27.32226 -0.3985,-15.81055 -0.7207,-8.90234 -2.7051,-3.45118 -5.2226,-1.86523 z m 49.2519,0.33789 -7.1601,0.0879 -6.9629,1.48243 -2.9043,1.59961 2.6543,1.05664 2.0468,3.47656 0.9883,6.17187 0.037,17.10352 -0.5117,19.35156 -0.6055,1.29492 -0.7695,14.63868 -3.9473,0.58984 -4.9746,2.24219 -4.2949,3.27539 -0.9121,1.61914 0.5684,2.33008 2.0156,3.07226 3.0898,3.30664 7.0606,1.34375 11.293,-0.18945 15.8046,-0.17188 7.7832,-2.01367 4.4903,-5.53711 1.9765,-6.27343 1.2832,-7.18946 -1.8769,-0.82031 -4.4981,1.4082 -5.3984,0.22071 -5.582,0.47461 -0.7696,-9.40625 0.092,-17.31055 0.2559,-8.2168 -0.666,-21.30664 -1.3438,-4.3125 -3.2246,-2.57226 z m 293.8692,27.14454 1.5156,2.27148 1.5176,2.27148 h 1.9414 1.9414 l 2.4785,2.47657 2.4765,2.47851 v 4.21485 4.21679 l -2.0136,3.25977 -2.0156,3.25976 -3.7891,2.61329 c -2.0842,1.43763 -6.3585,3.78487 -9.4981,5.21679 l -5.707,2.60352 -7.7539,1.48437 -7.7539,1.48242 h -5.4395 -5.4394 l -1.6211,-2.47265 -1.6211,-2.47461 0.6895,-2.32031 c 0.3791,-1.27622 1.7957,-3.95861 3.1484,-5.96094 l 2.459,-3.64063 4.7578,-3.35546 c 2.6164,-1.84558 6.4319,-4.83551 8.4785,-6.64454 l 3.7207,-3.28906 6.832,-2.11133 6.8321,-2.10937 1.9316,-1.73438 z" />
  </g>
</svg>
