<?xml version="1.0" encoding="UTF-8" standalone="no"?>
<!-- Created With Inkscape (http://www.inkscape.org/) -->

<svg
   xmlns:dc="http://purl.org/dc/elements/1.1/"
   xmlns:cc="http://creativecommons.org/ns#"
   xmlns:rdf="http://www.w3.org/1999/02/22-rdf-syntax-ns#"
   xmlns:svg="http://www.w3.org/2000/svg"
   xmlns="http://www.w3.org/2000/svg"
   xmlns:xlink="http://www.w3.org/1999/xlink"
   xmlns:sodipodi="http://sodipodi.sourceforge.net/DTD/sodipodi-0.dtd"
   xmlns:inkscape="http://www.inkscape.org/namespaces/inkscape"
   id="svg2"
   version="1.1"
   inkscape:version="0.92.4 5da689c313, 2019-01-14"
   width="2481"
   height="3503"
   sodipodi:docname="E19P02.svg">
  <metadata
     id="metadata8">
    <rdf:RDF>
      <cc:Work
         rdf:about="">
        <dc:format>image/svg+xml</dc:format>
        <dc:type
           rdf:resource="http://purl.org/dc/dcmitype/StillImage" />
        <dc:title />
      </cc:Work>
    </rdf:RDF>
  </metadata>
  <defs
     id="defs6">
    <filter
       inkscape:collect="always"
       style="color-interpolation-filters:sRGB"
       id="filter5236-4-16-3"
       x="-0.0089085409"
       width="1.0178171"
       y="-0.027928527"
       height="1.0558571">
      <feGaussianBlur
         inkscape:collect="always"
         stdDeviation="0.49168068"
         id="feGaussianBlur5238-0-4-6" />
    </filter>
    <filter
       inkscape:collect="always"
       style="color-interpolation-filters:sRGB"
       id="filter5236-4-16"
       x="-0.0089085409"
       width="1.0178171"
       y="-0.027928527"
       height="1.0558571">
      <feGaussianBlur
         inkscape:collect="always"
         stdDeviation="0.49168068"
         id="feGaussianBlur5238-0-4" />
    </filter>
  </defs>
  <sodipodi:namedview
     pagecolor="#ffffff"
     bordercolor="#666666"
     borderopacity="1"
     objecttolerance="10"
     gridtolerance="10"
     guidetolerance="10"
     inkscape:pageopacity="0"
     inkscape:pageshadow="2"
     inkscape:window-width="1438"
     inkscape:window-height="840"
     id="namedview4"
     showgrid="false"
     inkscape:zoom="0.60185973"
     inkscape:cx="1817.1105"
     inkscape:cy="275.34261"
     inkscape:window-x="0"
     inkscape:window-y="0"
     inkscape:window-maximized="1"
     inkscape:current-layer="layer1" />
  <g
     inkscape:groupmode="layer"
     id="layer2"
     inkscape:label="artwork"
     sodipodi:insensitive="true">
    <image
       sodipodi:absref="/home/tirifto/Développement/Pepper &amp; Carrot/webcomics/ep19_Pollution/lang/eo/../gfx_Pepper-and-Carrot_by-David-Revoy_E19P02.png"
       xlink:href="../gfx_Pepper-and-Carrot_by-David-Revoy_E19P02.png"
       width="2481"
       height="3503"
       id="image10"
       x="0"
       y="0" />
  </g>
  <g
     inkscape:groupmode="layer"
     id="layer4"
     inkscape:label="translatornotes"
     sodipodi:insensitive="true">
    <path
       inkscape:connector-curvature="0"
       id="path3446"
       d="m 2763.8482,1498.4924 0,-189.0352 -203.8301,0 0,90.9805 -10,0 0,-15.6308 -30.9824,26.9824 30.9824,26.9804 0,-16.6171 10,0 0,76.3398 203.8301,0 z"
       style="color:#000000;clip-rule:nonzero;display:inline;overflow:visible;visibility:visible;opacity:0.481;isolation:auto;mix-blend-mode:normal;color-interpolation:sRGB;color-interpolation-filters:linearRGB;solid-color:#000000;solid-opacity:1;fill:#ffe680;fill-opacity:1;fill-rule:nonzero;stroke:#565656;stroke-width:1.20000005;stroke-linecap:butt;stroke-linejoin:miter;stroke-miterlimit:4;stroke-dasharray:none;stroke-dashoffset:0;stroke-opacity:1;marker:none;color-rendering:auto;image-rendering:auto;shape-rendering:auto;text-rendering:auto;enable-background:accumulate" />
    <flowRoot
       transform="translate(2793.4167,295.2096)"
       style="font-style:normal;font-variant:normal;font-weight:normal;font-stretch:normal;line-height:0.01%;font-family:Lavi;-inkscape-font-specification:'Lavi, Normal';text-align:center;letter-spacing:0px;word-spacing:0px;writing-mode:lr-tb;text-anchor:middle;display:inline;opacity:0.481;fill:#000000;fill-opacity:1;stroke:none;stroke-width:1px;stroke-linecap:butt;stroke-linejoin:miter;stroke-opacity:1"
       id="flowRoot3448"
       xml:space="preserve"><flowRegion
         id="flowRegion3450"><rect
           y="1061.6674"
           x="-275.14545"
           height="247.52747"
           width="291.95547"
           id="rect3452" /></flowRegion><flowPara
         id="flowPara3473"
         style="font-size:25.3241539px;line-height:1.25">labels</flowPara><flowPara
         id="flowPara4255"
         style="font-size:25.3241539px;line-height:1.25">in the </flowPara><flowPara
         id="flowPara4257"
         style="font-size:25.3241539px;line-height:1.25">garden :-)</flowPara></flowRoot>  </g>
  <g
     inkscape:groupmode="layer"
     id="layer3"
     inkscape:label="speechbubbles"
     style="display:inline">
    <path
       style="color:#000000;display:inline;overflow:visible;visibility:visible;fill:#ffffff;fill-opacity:1;fill-rule:nonzero;stroke:none;stroke-width:1px;marker:none;enable-background:accumulate"
       d="m 1006.4791,200.36725 c 25.7979,-33.00508 283.437,-52.95808 359.3591,1.28361 63.3708,45.27477 55.4722,158.02515 7.6594,183.99506 -47.8128,25.97 -218.4032,22.95568 -294.5177,11.18158 -72.4717,-11.21059 -88.7637,-45.04841 -101.04782,-113.18065 -5.01372,-27.80742 2.74885,-50.27443 28.54702,-83.2796 z"
       id="path4040-4"
       inkscape:connector-curvature="0"
       sodipodi:nodetypes="zssssz" />
    <path
       style="color:#000000;display:inline;overflow:visible;visibility:visible;fill:#ffffff;fill-opacity:1;fill-rule:nonzero;stroke:none;stroke-width:1px;marker:none;enable-background:accumulate"
       d="m 1199.3219,476.56228 c 7.7691,-83.26194 85.4157,-142.52218 284.1731,-122.24973 106.4653,10.85894 227.4308,19.15821 217.2869,141.15955 -10.1441,122.00121 -184.0993,114.85538 -220.0754,116.88586 -35.9764,2.03061 -222.8425,-15.08851 -254.7987,-57.40395 -20.0039,-26.48834 -27.6475,-52.57412 -26.5859,-78.39173 z"
       id="path4546-6"
       inkscape:connector-curvature="0"
       sodipodi:nodetypes="cssssc" />
    <path
       style="color:#000000;display:inline;overflow:visible;visibility:visible;fill:#ffffff;fill-opacity:1;fill-rule:nonzero;stroke:none;stroke-width:1px;marker:none;enable-background:accumulate"
       d="m 1378.4767,598.26455 c 48.012,-57.29908 299.5741,-45.02411 388.6558,-32.13918 132.2509,19.12903 126.6011,72.13437 130.6424,87.30504 4.0409,15.17055 -6.0619,85.50694 -50.5155,99.29851 -44.4535,13.79144 -171.7522,20.68715 -216.2057,20.68715 -44.4535,0 -186.3591,-8.77821 -222.2682,-28.96211 -34.3505,-19.30803 -78.3211,-88.89045 -30.3088,-146.18941 z"
       id="path3330"
       inkscape:connector-curvature="0"
       sodipodi:nodetypes="zsssssz" />
    <path
       style="color:#000000;display:inline;overflow:visible;visibility:visible;fill:#ffffff;fill-opacity:1;fill-rule:nonzero;stroke:none;stroke-width:1px;marker:none;enable-background:accumulate"
       d="m 1537.5273,696.39507 c -4.748,19.68499 -0.6503,33.38997 2.5742,37.35036 3.2245,3.96027 2.3513,12.12365 5.2378,17.57337 2.3614,4.51862 3.5729,10.81257 -0.8434,12.64306 -4.4163,1.83058 -29.4289,3.69855 -33.6755,16.66121 -4.2467,12.96272 3.9771,24.00648 14.1454,30.32451 10.1684,6.31815 24.4145,10.44127 22.2717,20.40102 -2.1427,9.95976 -9.8422,13.23017 -15.8741,13.66024 -6.0318,0.43007 -42.6593,-1.86158 -51.9545,1.56498 -9.295,3.4266 -34.8875,18.35716 -31.0179,31.36521 11.9004,-13.15184 18.3151,-19.01847 27.1348,-20.36055 8.8198,-1.34212 24.7212,-5.09072 34.6744,-1.78852 9.9534,3.30225 30.2251,7.01956 38.1327,2.88942 7.9077,-4.13 22.6869,-13.91278 22.9796,-24.81049 0.2928,-10.89767 -5.2053,-22.98724 -21.3925,-31.19418 -10.1682,-6.31811 -14.5522,-10.2849 -13.6078,-13.29434 0.9444,-3.00939 11.8681,-7.35452 23.4562,-6.13032 11.5882,1.22424 17.0469,-9.49086 18.0108,-15.97871 0.9638,-6.48781 -2.7884,-15.67273 -3.2186,-21.7046 -0.4301,-6.03183 -6.7045,-40.19004 -6.7045,-40.19004 z"
       id="path5058"
       inkscape:connector-curvature="0"
       sodipodi:nodetypes="cscsssssscssssccscccc" />
    <path
       style="color:#000000;display:inline;overflow:visible;visibility:visible;fill:#ffffff;fill-opacity:1;fill-rule:nonzero;stroke:none;stroke-width:1px;marker:none;enable-background:accumulate"
       d="m 1386.1881,1850.679 c 6.9079,-72.8146 44.795,-99.1263 128.0819,-102.9449 41.3518,-1.896 191.1218,-8.4705 251.8318,4.7034 60.71,13.1739 112.6774,53.5217 108.0722,106.8774 -4.6052,53.3556 -10.0524,94.6842 -76.3541,109.7874 -66.3016,15.1032 -193.4576,3.9809 -206.6978,4.6086 -26.4802,1.2554 -163.6253,-16.4555 -186.5129,-53.9834 -14.3271,-23.4915 -19.5724,-46.4506 -18.4211,-69.0485 z"
       id="path4546-6-3"
       inkscape:connector-curvature="0"
       sodipodi:nodetypes="cssssssc" />
    <path
       style="color:#000000;display:inline;overflow:visible;visibility:visible;fill:#ffffff;fill-opacity:1;fill-rule:nonzero;stroke:none;stroke-width:1px;marker:none;enable-background:accumulate"
       d="m 1740.1362,1983.0096 c -2.6779,-13.9006 26.6831,-72.4119 190.0368,-63.1448 163.3536,9.2671 180.4155,20.9339 187.8691,70.8244 2.7548,18.4386 -22.6661,45.3021 -46.7675,49.9356 -24.1013,4.6335 -94.5694,17.7137 -134.7383,14.007 -40.1689,-3.7069 -99.4639,-2.8275 -158.5645,-22.2636 -35.6703,-11.7307 -35.1577,-45.6518 -37.8356,-49.3586 z"
       id="path3365"
       inkscape:connector-curvature="0"
       sodipodi:nodetypes="csssssc" />
    <path
       style="fill:#ffffff;fill-opacity:1;stroke:none"
       d="m 1772.3537,2174.102 c -7.4663,-125.6982 71.6761,-167.1213 279.2383,-161.4077 207.5622,5.7134 290.5595,43.6546 297.2101,118.5531 14.8713,167.4797 -113.6858,205.7235 -182.2513,214.2661 -136.9573,17.0635 -332.9738,-27.1444 -359.8524,-62.8541 -26.8785,-35.7098 -32.8515,-75.7046 -34.3447,-108.5574 z"
       id="path3238"
       inkscape:connector-curvature="0"
       sodipodi:nodetypes="cssssc" />
    <path
       style="color:#000000;display:inline;overflow:visible;visibility:visible;fill:#ffffff;fill-opacity:1;fill-rule:nonzero;stroke:none;stroke-width:1px;marker:none;enable-background:accumulate"
       d="m 1882.8016,2295.7967 c -30.6436,39.5697 -91.823,73.3362 -171.3605,30.1552 76.0815,26.4581 119.8575,-5.9599 145.0149,-45.5895 21.7184,-34.2122 33.4899,-49.0683 33.4899,-49.0683 z"
       id="path4440"
       inkscape:connector-curvature="0"
       sodipodi:nodetypes="ccscc" />
    <path
       style="color:#000000;display:inline;overflow:visible;visibility:visible;fill:#ffffff;fill-opacity:1;fill-rule:nonzero;stroke:none;stroke-width:1px;marker:none;enable-background:accumulate"
       d="m 85.474655,2756.9074 c 32.805905,-10.9597 48.355215,-18.5558 0.573061,-34.3247 9.810744,-0.1198 64.560054,-2.1442 12.214558,-32.9366 17.257966,3.9749 44.855466,14.5291 13.790186,-36.5871 18.67875,8.1494 44.58772,34.2072 21.86077,-14.0742 24.61164,16.3179 57.0368,6.0013 50.39913,-2.5708 19.80754,10.4052 58.70742,9.5448 55.37529,0.7154 14.5631,9.6323 54.01491,12.4562 50.91891,-3.6881 12.10067,11.0973 49.65521,9.9541 45.97358,0.5253 31.72629,11.2241 77.59301,18.1422 94.92758,2.4934 14.80162,14.8098 83.65232,10.3376 141.39783,0.2295 0.90454,10.4538 65.17558,12.2889 117.55601,-4.7288 0.79279,15.8808 19.69479,21.2619 42.79255,9.5749 8.24829,6.5186 6.04685,10.3103 38.46085,-5.1216 -1.54745,10.6121 4.22212,20.4024 26.80601,10.2432 3.93416,6.5649 -10.46252,23.5801 46.61938,-1.2805 0.37736,9.2802 -13.0217,27.5037 36.1299,5.1216 -39.87277,55.1372 -17.77377,49.2359 9.3238,38.4113 -21.09863,32.5259 -48.3109,72.8685 5.30875,71.3855 -41.98467,7.514 -41.25071,18.687 -35.61121,36.1663 -52.62043,-35.1981 -58.80311,-8.4487 -81.5838,-3.8411 -24.04937,-5.8556 -46.20494,-27.3135 -74.59066,2.5608 -43.48548,-12.2937 -52.10695,-1.0176 -66.43254,6.402 -75.97248,-23.5924 -74.17789,-4.468 -108.38989,-5.1217 -20.22742,-29.1834 -65.87346,-7.1717 -99.06602,-10.2429 -41.9572,-23.9307 -104.39138,-2.9536 -137.05413,6.2711 15.96401,-14.9487 -23.34876,-28.2936 -60.73549,4.1237 18.56548,-27.3926 -11.89497,-36.628 -68.76342,-1.3493 26.72396,-32.458 -10.23553,-27.285 -51.62318,-6.4848 40.50617,-31.5409 -2.29714,-34.2446 -26.577805,-31.8718 z"
       id="path3557"
       inkscape:connector-curvature="0"
       sodipodi:nodetypes="cccccccccccccccccccccccccccccc" />
    <path
       style="color:#000000;display:inline;overflow:visible;visibility:visible;fill:#ffffff;fill-opacity:1;fill-rule:nonzero;stroke:none;stroke-width:1px;marker:none;enable-background:accumulate"
       d="m 261.83032,2839.4096 c 10.60717,-70.6242 99.57519,-119.8728 323.5194,-99.848 119.95659,10.7263 256.34032,19.4825 242.19748,122.9836 -14.14297,103.5009 -210.37585,94.9774 -251.03681,96.195 -40.66095,1.2177 -251.24981,-15.9605 -286.39412,-52.3594 -21.99952,-22.7848 -30.05379,-45.0533 -28.28595,-66.9712 z"
       id="path4546"
       inkscape:connector-curvature="0"
       sodipodi:nodetypes="cssssc" />
    <path
       style="fill:#ffffff;stroke:none"
       d="m 1673.2028,2765.6805 c 6.2622,-60.4636 44.031,-85.0538 61.1688,-93.079 17.1375,-8.0252 89.0828,-18.3199 136.0791,-16.548 46.9964,1.7719 163.4992,10.4999 183.092,13.4066 19.5928,2.9066 71.8624,48.234 71.3017,87.2344 -0.5606,39.0001 -11.041,64.619 -39.5982,87.3886 -28.5575,22.7698 -198.9282,27.1856 -209.425,24.6219 -10.497,-2.5636 -150.6789,-23.0237 -159.4287,-29.8572 -8.7501,-6.8334 -44.2115,-25.5131 -43.1897,-73.1673 z"
       id="path3278"
       inkscape:connector-curvature="0" />
    <path
       style="color:#000000;display:inline;overflow:visible;visibility:visible;fill:#ffffff;fill-opacity:1;fill-rule:nonzero;stroke:none;stroke-width:1px;marker:none;enable-background:accumulate"
       d="m 1760.3433,2888.0086 c 39.3626,-49.8864 371.627,-104.0352 488.406,-1.2296 87.6353,77.1491 21.8615,240.6453 -21.0586,265.4252 -67.2517,38.8278 -264.1886,82.2444 -354.1657,48.599 -89.9772,-33.6454 -160.0639,-83.9389 -164.6393,-186.9191 -1.8674,-42.0305 12.095,-75.9888 51.4576,-125.8755 z"
       id="path4040"
       inkscape:connector-curvature="0"
       sodipodi:nodetypes="zssssz" />
    <path
       style="display:inline;fill:#ffffff;fill-rule:evenodd;stroke:none;stroke-width:1px;stroke-linecap:butt;stroke-linejoin:miter;stroke-opacity:1"
       d="m 1789.1805,3131.4386 c 54.9337,28.2241 86.225,16.7466 85.2819,-48.8597 26.2087,70.8955 44.3961,86.7514 55.1826,51.8209 34.6985,30.0242 56.3705,21.6022 73.5768,0 6.413,27.7819 20.1663,16.571 32.069,15.191 3.9201,6.2854 -9.5441,21.9013 44.8521,1.0955 3.5235,8.3195 8.27,15.4839 40.1326,-2.9612 8.2546,33.7678 34.7391,-1.8715 61.8714,-39.9761 -16.9042,46.8464 -9.8947,53.463 11.7056,35.5342 -9.8756,19.2917 -15.7821,34.2256 21.7383,1.4807 -12.845,35.6085 13.864,21.912 59.1863,-20.7008 -27.2091,37.8046 -83.2991,82.246 -35.7754,76.9633 -6.6274,11.1449 -30.2672,20.8552 40.1327,38.4954 -13.1428,7.5627 -53.267,-3.4886 -19.7963,28.532 4.4845,3.7431 -10.5282,6.0287 18.124,15.8858 -16.9138,-0.6706 -27.2865,1.725 -11.7053,16.2866 -30.874,-0.7874 -19.3223,14.5241 3.3444,34.0535 -44.7097,-25.0506 -47.1703,-15.9462 -48.4939,-5.9223 -56.0344,-34.1526 -59.3236,-23.3999 -66.8878,-16.2866 -27.3125,0.2665 -54.6251,-4.0344 -81.9378,34.0536 -7.1528,-23.6896 -21.4933,-41.9245 -81.9375,-25.1699 26.5396,-30.1375 -11.2164,-10.9368 -40.1327,1.4805 15.8351,-37.6493 -24.3522,-12.9401 -75.2491,23.6894 28.5019,-41.5752 -3.8695,-26.5572 -51.8382,2.9613 18.1241,-40.8436 -11.3925,-60.596 -81.9376,-62.185 33.765,-14.7327 53.455,-33.2734 18.3944,-66.6266 39.5232,9.8209 51.3125,0.6986 23.4107,-35.5343 43.1094,29.7397 23.5091,-13.3962 6.6888,-53.3012 z"
       id="path4508"
       inkscape:connector-curvature="0"
       sodipodi:nodetypes="cccccccccccccccccccccccccccc" />
    <path
       style="color:#000000;display:inline;overflow:visible;visibility:visible;fill:#ffffff;fill-opacity:1;fill-rule:nonzero;stroke:none;stroke-width:1px;marker:none;enable-background:accumulate"
       d="m 1490.4164,2866.2226 c 36.6716,-30.7338 78.1642,-56.332 109.2346,-93.0329 l -8.5001,41.4633 c 17.679,-7.3977 29.5108,-24.339 43.3282,-38.0398 l -1.0152,26.2988 c 41.5356,-17.9715 69.9349,-49.3371 104.6834,-74.2288 l -5.4459,45.8738 c -37.8988,21.0955 -78.4597,35.8216 -113.3641,64.0815 l -1.6444,-25.6614 c -13.3358,8.0961 -26.3965,16.7337 -38.2287,27.7896 l 0.8284,-32.5393 z"
       id="path4032"
       inkscape:connector-curvature="0"
       sodipodi:nodetypes="cccccccccccc" />
    <path
       style="color:#000000;display:inline;overflow:visible;visibility:visible;fill:#ffffff;fill-opacity:1;fill-rule:nonzero;stroke:none;stroke-width:1px;marker:none;enable-background:accumulate"
       d="m 990.3039,2942.0433 c -39.7219,-30.7338 -84.6659,-56.332 -118.3207,-93.0329 l 9.2071,41.4633 c -19.1495,-7.3977 -31.9655,-24.339 -46.9322,-38.0398 l 1.0996,26.2988 c -44.9905,-17.9715 -75.7521,-49.3371 -113.3909,-74.2288 l 5.8989,45.8738 c 41.0512,21.0955 84.9859,35.8216 122.7937,64.0815 l 1.7812,-25.6614 c 14.445,8.0961 28.5921,16.7337 41.4085,27.7896 l -0.8973,-32.5393 z"
       id="path4032-6"
       inkscape:connector-curvature="0"
       sodipodi:nodetypes="cccccccccccc" />
  </g>
  <g
     inkscape:groupmode="layer"
     id="layer1"
     inkscape:label="txt">
    <text
       xml:space="preserve"
       style="font-style:normal;font-variant:normal;font-weight:normal;font-stretch:normal;line-height:0%;font-family:Lavi;-inkscape-font-specification:Lavi;text-align:center;letter-spacing:0px;word-spacing:0px;text-anchor:middle;fill:#000000;fill-opacity:1;stroke:none"
       x="1200.2822"
       y="238.21387"
       id="text4246"><tspan
         sodipodi:role="line"
         style="font-size:45px;line-height:1.25"
         x="1200.2822"
         y="238.21387"
         id="tspan4252">Emm... nu,</tspan><tspan
         sodipodi:role="line"
         style="font-size:45px;line-height:1.25"
         x="1200.2822"
         y="294.46387"
         id="tspan4601">mi kompreneble</tspan><tspan
         sodipodi:role="line"
         style="font-size:45px;line-height:1.25"
         x="1200.2822"
         y="350.71387"
         id="tspan4603">ne estas spertulo…</tspan></text>
    <text
       xml:space="preserve"
       style="font-style:normal;font-variant:normal;font-weight:normal;font-stretch:normal;line-height:0%;font-family:Lavi;-inkscape-font-specification:Lavi;text-align:center;letter-spacing:0px;word-spacing:0px;text-anchor:middle;fill:#000000;fill-opacity:1;stroke:none"
       x="1447.9285"
       y="436.54028"
       id="text4246-3-7"><tspan
         sodipodi:role="line"
         style="font-size:45px;line-height:1.25"
         x="1447.9285"
         y="436.54028"
         id="tspan4164-5">Sed ĉijare</tspan><tspan
         sodipodi:role="line"
         style="font-size:45px;line-height:1.25"
         x="1454.9597"
         y="492.79028"
         id="tspan4013">nia fruktoĝardeno </tspan><tspan
         sodipodi:role="line"
         style="font-size:45px;line-height:1.25"
         x="1447.9285"
         y="549.04028"
         id="tspan4199">estas tre stranga...</tspan></text>
    <text
       xml:space="preserve"
       style="font-style:normal;font-variant:normal;font-weight:normal;font-stretch:normal;line-height:0%;font-family:Lavi;-inkscape-font-specification:Lavi;text-align:center;letter-spacing:0px;word-spacing:0px;text-anchor:middle;fill:#000000;fill-opacity:1;stroke:none"
       x="1626.9537"
       y="632.80298"
       id="text4246-3-7-6"><tspan
         sodipodi:role="line"
         style="font-size:45px;line-height:1.25"
         x="1626.9537"
         y="632.80298"
         id="tspan4199-1">...kaj tio okazas ankaŭ</tspan><tspan
         sodipodi:role="line"
         style="font-size:45px;line-height:1.25"
         x="1626.9537"
         y="689.05298"
         id="tspan4021">al multaj kreskaĵoj ĉirkaŭ</tspan><tspan
         sodipodi:role="line"
         style="font-size:45px;line-height:1.25"
         x="1626.9537"
         y="745.30298"
         id="tspan4232">la domo.</tspan></text>
    <text
       xml:space="preserve"
       style="font-style:normal;font-variant:normal;font-weight:normal;font-stretch:normal;line-height:0%;font-family:Lavi;-inkscape-font-specification:Lavi;text-align:center;letter-spacing:0px;word-spacing:0px;text-anchor:middle;fill:#000000;fill-opacity:1;stroke:none"
       x="1633.0944"
       y="1813.2041"
       id="text4246-3-2"><tspan
         sodipodi:role="line"
         style="font-size:45px;line-height:1.25"
         x="1640.1256"
         y="1813.2041"
         id="tspan4164-0">Same pri la </tspan><tspan
         sodipodi:role="line"
         style="font-size:45px;line-height:1.25"
         x="1633.0944"
         y="1869.4541"
         id="tspan4257">formikoj. Ili ja faras</tspan><tspan
         sodipodi:role="line"
         style="font-size:45px;line-height:1.25"
         x="1633.0944"
         y="1925.7041"
         id="tspan4259">strangajn aferojn.</tspan></text>
    <text
       xml:space="preserve"
       style="font-style:normal;font-variant:normal;font-weight:normal;font-stretch:normal;line-height:0%;font-family:Lavi;-inkscape-font-specification:Lavi;text-align:center;letter-spacing:0px;word-spacing:0px;text-anchor:middle;fill:#000000;fill-opacity:1;stroke:none"
       x="1931.2098"
       y="2001.7357"
       id="text4246-3-2-9"><tspan
         sodipodi:role="line"
         style="font-size:45px;line-height:1.25"
         x="1931.2098"
         y="2001.7357"
         id="tspan4259-0">Tial, nu...</tspan></text>
    <text
       xml:space="preserve"
       style="font-style:normal;font-variant:normal;font-weight:normal;font-stretch:normal;line-height:0%;font-family:Lavi;-inkscape-font-specification:Lavi;text-align:center;letter-spacing:0px;word-spacing:0px;text-anchor:middle;fill:#000000;fill-opacity:1;stroke:none"
       x="2055.186"
       y="2108.1831"
       id="text4246-3-2-9-6"><tspan
         sodipodi:role="line"
         style="font-size:45px;line-height:1.25"
         x="2055.186"
         y="2108.1831"
         id="tspan4259-0-2">Mi pensis, ke eble ni</tspan><tspan
         sodipodi:role="line"
         style="font-size:45px;line-height:1.25"
         x="2062.2173"
         y="2164.4331"
         id="tspan4047">havas problemon pri </tspan><tspan
         sodipodi:role="line"
         style="font-size:45px;line-height:1.25"
         x="2062.2173"
         y="2220.6831"
         id="tspan4326">poluo, kaj ni devus </tspan><tspan
         sodipodi:role="line"
         style="font-size:45px;line-height:1.25"
         x="2055.186"
         y="2276.9331"
         id="tspan4063">purigi ĉion tion...</tspan></text>
    <text
       xml:space="preserve"
       style="font-style:normal;font-variant:normal;font-weight:normal;font-stretch:normal;line-height:0%;font-family:Lavi;-inkscape-font-specification:Lavi;text-align:center;letter-spacing:0px;word-spacing:0px;text-anchor:middle;fill:#000000;fill-opacity:1;stroke:none;stroke-width:0.40000001;stroke-miterlimit:4;stroke-dasharray:none"
       x="487.68701"
       y="2584.3889"
       id="text4246-3-2-9-6-6"><tspan
         sodipodi:role="line"
         style="font-size:45px;line-height:1.25;stroke-width:0.40000001;stroke-miterlimit:4;stroke-dasharray:none"
         x="494.71826"
         y="2584.3889"
         id="tspan4326-2"> </tspan><tspan
         sodipodi:role="line"
         style="font-size:45px;line-height:1.25;stroke-width:0.40000001;stroke-miterlimit:4;stroke-dasharray:none"
         x="494.71826"
         y="2640.6389"
         id="tspan4217"> </tspan><tspan
         sodipodi:role="line"
         style="font-size:45px;line-height:1.25;stroke-width:0.40000001;stroke-miterlimit:4;stroke-dasharray:none"
         x="487.68701"
         y="2696.8889"
         id="tspan4219">Aŭskultu, fraŭlino</tspan><tspan
         sodipodi:role="line"
         style="font-size:40px;line-height:1.25;stroke:#000000;stroke-width:0.40000001;stroke-miterlimit:4;stroke-dasharray:none;stroke-opacity:1"
         x="487.68701"
         y="2748.5566"
         id="tspan4376">« Detruas-Ĉiujn-Siajn-Sorĉotrinkaĵojn » :</tspan><tspan
         sodipodi:role="line"
         style="font-size:45px;line-height:1.25;stroke-width:0.40000001;stroke-miterlimit:4;stroke-dasharray:none"
         x="494.71826"
         y="2803.1389"
         id="tspan4378"> </tspan></text>
    <text
       xml:space="preserve"
       style="font-style:normal;font-variant:normal;font-weight:normal;font-stretch:normal;line-height:0%;font-family:Lavi;-inkscape-font-specification:Lavi;text-align:center;letter-spacing:0px;word-spacing:0px;text-anchor:middle;fill:#000000;fill-opacity:1;stroke:none"
       x="1897.0891"
       y="2720.126"
       id="text4246-3-2-9-6-6-0"><tspan
         sodipodi:role="line"
         style="font-size:45px;line-height:1.25"
         x="1897.0891"
         y="2720.126"
         id="tspan4414">En Ĥaosao ni</tspan><tspan
         sodipodi:role="line"
         style="font-size:45px;line-height:1.25"
         x="1904.1204"
         y="2776.376"
         id="tspan4585">enfosas niajn </tspan><tspan
         sodipodi:role="line"
         style="font-size:45px;line-height:1.25"
         x="1904.1204"
         y="2832.626"
         id="tspan4378-7">erarojn ! </tspan></text>
    <text
       xml:space="preserve"
       style="font-style:normal;font-variant:normal;font-weight:normal;font-stretch:normal;line-height:0%;font-family:Lavi;-inkscape-font-specification:Lavi;text-align:center;letter-spacing:0px;word-spacing:0px;text-anchor:middle;fill:#000000;fill-opacity:1;stroke:none;stroke-width:2.79999995;stroke-miterlimit:4;stroke-dasharray:none"
       x="2002.6411"
       y="2917.0608"
       id="text4246-3-2-9-6-6-0-5"><tspan
         sodipodi:role="line"
         style="font-size:45px;line-height:1.25;stroke-width:2.79999995;stroke-miterlimit:4;stroke-dasharray:none"
         x="2002.6411"
         y="2917.0608"
         id="tspan4424-2">Tio estas la tradicio</tspan><tspan
         sodipodi:role="line"
         style="font-size:45px;line-height:1.25;stroke-width:2.79999995;stroke-miterlimit:4;stroke-dasharray:none"
         x="2002.6411"
         y="2973.3108"
         id="tspan3422">ekde la eko de tempo kaj</tspan><tspan
         sodipodi:role="line"
         style="font-size:45px;line-height:1.25;stroke-width:2.79999995;stroke-miterlimit:4;stroke-dasharray:none"
         x="2002.6411"
         y="3029.5608"
         id="tspan3433">ni ne zorgas tion, kion</tspan><tspan
         sodipodi:role="line"
         style="font-size:45px;line-height:1.25;stroke-width:2.79999995;stroke-miterlimit:4;stroke-dasharray:none"
         x="2002.6411"
         y="3085.8108"
         id="tspan4613">pensas pri ĝi la</tspan><tspan
         sodipodi:role="line"
         style="font-size:45px;line-height:1.25;stroke:#000000;stroke-width:2.79999995;stroke-miterlimit:4;stroke-dasharray:none;stroke-opacity:1"
         x="2002.6411"
         y="3142.0608"
         id="tspan4378-7-6">PANJO NATURO !</tspan></text>
    <text
       xml:space="preserve"
       style="font-style:normal;font-variant:normal;font-weight:normal;font-stretch:normal;line-height:0%;font-family:Lavi;-inkscape-font-specification:Lavi;text-align:center;letter-spacing:0px;word-spacing:0px;text-anchor:middle;fill:#000000;fill-opacity:1;stroke:none;stroke-width:2.79999995;stroke-miterlimit:4;stroke-dasharray:none"
       x="2003.8004"
       y="3227.8743"
       id="text4246-3-2-9-6-6-0-5-1"><tspan
         sodipodi:role="line"
         style="font-size:45px;line-height:1.25;stroke-width:2.79999995;stroke-miterlimit:4;stroke-dasharray:none"
         x="2010.8317"
         y="3227.8743"
         id="tspan4414-3-9">Tial fermu la buŝon </tspan><tspan
         sodipodi:role="line"
         style="font-size:45px;line-height:1.25;stroke-width:2.79999995;stroke-miterlimit:4;stroke-dasharray:none"
         x="2010.8317"
         y="3284.1243"
         id="tspan4544"><tspan
   style="stroke:#000000;stroke-width:2.79999995;stroke-miterlimit:4;stroke-dasharray:none;stroke-opacity:1"
   id="tspan4225">KAJ FOSU !!</tspan> </tspan><tspan
         sodipodi:role="line"
         style="font-size:45px;line-height:1.25;stroke-width:2.79999995;stroke-miterlimit:4;stroke-dasharray:none"
         x="2010.8317"
         y="3340.3743"
         id="tspan4378-7-6-4"> </tspan></text>
    <text
       xml:space="preserve"
       style="font-style:normal;font-variant:normal;font-weight:normal;font-stretch:normal;line-height:0%;font-family:Lavi;-inkscape-font-specification:Lavi;text-align:center;letter-spacing:0px;word-spacing:0px;text-anchor:middle;fill:#000000;fill-opacity:1;stroke:none"
       x="550.41406"
       y="2834.6135"
       id="text4246-3-2-9-6-6-7"><tspan
         sodipodi:role="line"
         style="font-size:45px;line-height:1.25"
         x="550.41406"
         y="2834.6135"
         id="tspan4376-4">via Hipiaha kostumo vin</tspan><tspan
         sodipodi:role="line"
         style="font-size:45px;line-height:1.25"
         x="550.41406"
         y="2890.8635"
         id="tspan4378-5">verŝajne igis aroganta !</tspan></text>
    <text
       id="text4178-6-5-9-0-7-0-4"
       style="font-style:normal;font-variant:normal;font-weight:normal;font-stretch:normal;line-height:0%;font-family:Lavi;-inkscape-font-specification:Lavi;text-align:center;letter-spacing:0px;word-spacing:0px;text-anchor:middle;opacity:0.63300003;fill:#ffffff;fill-opacity:1;stroke:none;filter:url(#filter5236-4-16)"
       xml:space="preserve"
       y="3129.8394"
       x="1318.7137"
       transform="matrix(0.68593226,-0.05743026,-0.10983858,0.78011257,180.17523,-972.47418)"><tspan
         y="3129.8394"
         x="1318.7137"
         style="font-style:normal;font-variant:normal;font-weight:normal;font-stretch:normal;font-size:40.67671585px;line-height:1.25;font-family:Fondamento;-inkscape-font-specification:Fondamento;fill:#ffffff;fill-opacity:1"
         sodipodi:role="line"
         id="tspan4293-1-6-3-5-0-2">Tomatoj</tspan></text>
    <text
       id="text4178-6-5-9-0-7-0-4-7"
       style="font-style:normal;font-variant:normal;font-weight:normal;font-stretch:normal;line-height:0%;font-family:Lavi;-inkscape-font-specification:Lavi;text-align:center;letter-spacing:0px;word-spacing:0px;text-anchor:middle;opacity:0.63300003;fill:#ffffff;fill-opacity:1;stroke:none;filter:url(#filter5236-4-16-3)"
       xml:space="preserve"
       y="3129.8394"
       x="1318.7137"
       transform="matrix(0.58613284,0.07817086,-0.38371304,0.70980255,2152.23,-969.61056)"><tspan
         y="3129.8394"
         x="1318.7137"
         style="font-style:normal;font-variant:normal;font-weight:normal;font-stretch:normal;font-size:40.67671585px;line-height:1.25;font-family:Fondamento;-inkscape-font-specification:Fondamento;fill:#ffffff;fill-opacity:1"
         sodipodi:role="line"
         id="tspan4293-1-6-3-5-0-2-5">Melongenoj</tspan></text>
  </g>
</svg>
