<?xml version="1.0" encoding="UTF-8" standalone="no"?>
<svg
   xmlns:dc="http://purl.org/dc/elements/1.1/"
   xmlns:cc="http://creativecommons.org/ns#"
   xmlns:rdf="http://www.w3.org/1999/02/22-rdf-syntax-ns#"
   xmlns:svg="http://www.w3.org/2000/svg"
   xmlns="http://www.w3.org/2000/svg"
   xmlns:xlink="http://www.w3.org/1999/xlink"
   xmlns:sodipodi="http://sodipodi.sourceforge.net/DTD/sodipodi-0.dtd"
   xmlns:inkscape="http://www.inkscape.org/namespaces/inkscape"
   id="svg2"
   version="1.1"
   inkscape:version="1.0.2-2 (e86c870879, 2021-01-15)"
   width="2481"
   height="3503"
   sodipodi:docname="E24P03.svg">
  <metadata
     id="metadata8">
    <rdf:RDF>
      <cc:Work
         rdf:about="">
        <dc:format>image/svg+xml</dc:format>
        <dc:type
           rdf:resource="http://purl.org/dc/dcmitype/StillImage" />
        <dc:title />
      </cc:Work>
    </rdf:RDF>
  </metadata>
  <defs
     id="defs6">
    <filter
       style="color-interpolation-filters:sRGB"
       id="filter4375-4-1-1-1-9-5-8"
       inkscape:label="Drop Shadow">
      <feFlood
         id="feFlood4377-7-9-0-8-1-7-3"
         flood-opacity="1"
         flood-color="rgb(200,55,55)"
         result="flood" />
      <feComposite
         id="feComposite4379-3-8-8-2-77-4-1"
         in2="SourceGraphic"
         in="flood"
         operator="in"
         result="composite1" />
      <feMorphology
         id="feMorphology4393-1-0-49-8-9-3-0"
         operator="dilate"
         radius="6.2000000000000002"
         result="result3" />
      <feComposite
         id="feComposite4385-9-5-7-0-8-8-7"
         in2="result3"
         in="SourceGraphic"
         operator="over"
         result="fbSourceGraphic" />
      <feColorMatrix
         result="fbSourceGraphicAlpha"
         in="fbSourceGraphic"
         values="0 0 0 -1 0 0 0 0 -1 0 0 0 0 -1 0 0 0 0 1 0"
         id="feColorMatrix4544" />
      <feTurbulence
         id="feTurbulence4546"
         type="fractalNoise"
         numOctaves="3"
         seed="37"
         baseFrequency="0.129 0.0050000000000000001"
         result="turbulence" />
      <feDisplacementMap
         id="feDisplacementMap4548"
         in2="turbulence"
         in="fbSourceGraphic"
         scale="6.6"
         yChannelSelector="G"
         xChannelSelector="R"
         result="fbSourceGraphic" />
      <feColorMatrix
         result="fbSourceGraphicAlpha"
         in="fbSourceGraphic"
         values="0 0 0 -1 0 0 0 0 -1 0 0 0 0 -1 0 0 0 0 1 0"
         id="feColorMatrix4670" />
      <feFlood
         id="feFlood4672"
         flood-opacity="1"
         flood-color="rgb(80,22,22)"
         result="flood"
         in="fbSourceGraphic" />
      <feComposite
         id="feComposite4674"
         in2="fbSourceGraphic"
         in="flood"
         operator="in"
         result="composite1" />
      <feGaussianBlur
         id="feGaussianBlur4676"
         in="composite1"
         stdDeviation="0"
         result="blur" />
      <feOffset
         id="feOffset4678"
         dx="6"
         dy="6"
         result="offset" />
      <feComposite
         id="feComposite4680"
         in2="offset"
         in="fbSourceGraphic"
         operator="over"
         result="composite2" />
    </filter>
    <filter
       inkscape:collect="always"
       style="color-interpolation-filters:sRGB"
       id="filter4210"
       x="-0.0015578248"
       width="1.0031157"
       y="-0.0045528179"
       height="1.0091056">
      <feGaussianBlur
         inkscape:collect="always"
         stdDeviation="0.2079876"
         id="feGaussianBlur4212" />
    </filter>
  </defs>
  <sodipodi:namedview
     pagecolor="#ffffff"
     bordercolor="#666666"
     borderopacity="1"
     objecttolerance="10"
     gridtolerance="10"
     guidetolerance="10"
     inkscape:pageopacity="0"
     inkscape:pageshadow="2"
     inkscape:window-width="1920"
     inkscape:window-height="1057"
     id="namedview4"
     showgrid="false"
     inkscape:zoom="0.541548"
     inkscape:cx="1315.924"
     inkscape:cy="2504.0706"
     inkscape:window-x="1358"
     inkscape:window-y="-8"
     inkscape:window-maximized="1"
     inkscape:current-layer="layer1"
     inkscape:snap-global="false"
     inkscape:document-rotation="0" />
  <g
     inkscape:groupmode="layer"
     id="layer2"
     inkscape:label="artwork"
     sodipodi:insensitive="true">
    <image
       sodipodi:absref="C:\Users\quentinlipeck\Downloads\webcomics-master-ec7d62e6553c2c63bb1cf2e799ee31f9cb9ce5e2\webcomics-master-ec7d62e6553c2c63bb1cf2e799ee31f9cb9ce5e2\ep24_The-Unity-Tree\lang\gfx_Pepper-and-Carrot_by-David-Revoy_E24P03.png"
       xlink:href="../gfx_Pepper-and-Carrot_by-David-Revoy_E24P03.png"
       y="0"
       x="0"
       id="image10"
       height="3503"
       width="2481" />
  </g>
  <g
     inkscape:groupmode="layer"
     id="layer3"
     inkscape:label="speechbubbles"
     style="display:inline">
    <path
       style="color:#000000;display:inline;overflow:visible;visibility:visible;fill:#ffffff;fill-opacity:1;fill-rule:nonzero;stroke:none;stroke-width:1px;marker:none;enable-background:accumulate"
       d="m 496.34824,1317.3928 c 0.30278,22.9688 -19.81751,42.5512 -115.01798,44.6155 -95.20044,2.0644 -114.88706,-28.9299 -115.49969,-42.2829 10.26566,-43.9619 70.31524,-56.2296 106.76278,-56.0964 23.51678,0.5158 89.88224,4.9457 105.07449,15.6148 15.19219,10.669 19.71245,19.6265 18.6804,38.149 z"
       id="path3365-0"
       inkscape:connector-curvature="0"
       sodipodi:nodetypes="cccccc" />
    <path
       style="color:#000000;display:inline;overflow:visible;visibility:visible;fill:#ffffff;fill-opacity:1;fill-rule:nonzero;stroke:none;stroke-width:1.18521px;marker:none;enable-background:accumulate"
       d="m 298.2627,1383.9315 c -2.07703,-10.1237 35.30944,-63.4419 162.00822,-56.6927 126.69876,6.7491 151.62314,45.2192 150.58456,58.7175 -1.03853,13.4982 -32.19384,34.4205 -50.8872,37.7952 -18.69321,3.3744 -67.50341,11.4734 -98.6589,8.7738 -31.15533,-2.6998 -126.6987,-16.198 -145.39201,-28.3465 -18.69324,-12.1484 -15.57767,-17.5477 -17.65467,-20.2473 z"
       id="path3365"
       inkscape:connector-curvature="0" />
    <path
       style="fill:#ffffff;fill-opacity:1;fill-rule:evenodd;stroke:#fff6d5;stroke-width:1px;stroke-linecap:butt;stroke-linejoin:miter;stroke-opacity:1"
       d="m 1768.7976,858.98151 83.464,-57.29006 159.1639,-2.66465 106.7563,5.32931 170.81,10.65861 64.0538,29.3112 19.4102,65.28401 -31.0563,69.28094 -91.2282,39.96983 -147.5177,2.6646 -182.0128,2.0131 -129.9972,-26.02408 -59.728,-56.10599 1.0026,-58.44493 z"
       id="path5098"
       inkscape:connector-curvature="0"
       sodipodi:nodetypes="ccccccccccccccc" />
    <path
       style="color:#000000;display:inline;overflow:visible;visibility:visible;fill:#ffffff;fill-opacity:1;fill-rule:nonzero;stroke:none;stroke-width:1px;marker:none;enable-background:accumulate"
       d="m 165.39445,204.57055 c -25.1607,-12.39782 -33.96692,-23.91004 -31.45075,-30.99455 2.51605,-7.08441 25.16058,-43.39235 52.8372,-47.82016 27.67674,-4.4278 99.38445,-9.74112 115.73893,-5.31331 16.35448,4.42772 62.90162,33.65124 62.90162,48.70567 0,15.05452 -8.80622,44.27795 -33.96691,53.13348 -25.16058,8.8556 -135.86743,14.169 -166.06009,-17.71113 z"
       id="path3349"
       inkscape:connector-curvature="0" />
    <path
       style="fill:#ffffff;fill-rule:evenodd;stroke:none;stroke-width:1px;stroke-linecap:butt;stroke-linejoin:miter;stroke-opacity:1"
       d="m 118.80883,294.64242 c 9.12095,-29.55397 33.68275,-51.97741 60.41446,-66.94645 12.72146,-7.22687 27.26234,-12.52288 42.14196,-11.12984 14.78205,0.83238 29.22047,5.80192 44.16604,4.07581 18.17338,-0.57014 36.66583,-3.05751 54.63055,0.49673 15.96997,3.87819 32.42362,5.88675 48.90354,6.00321 11.62607,-2.46164 22.26468,4.09942 32.64745,8.02367 9.3211,4.2389 18.84179,8.68618 26.67096,15.24309 7.21302,9.20446 15.84965,17.21217 23.1469,26.33472 4.77478,4.98722 4.31601,11.87591 4.09604,18.25126 -0.62013,13.0554 -1.67029,26.31683 -5.56813,38.89455 -2.33256,7.98516 -10.95412,10.6278 -17.57877,14.29714 -15.67493,7.74595 -32.31967,13.61993 -47.27945,22.73531 -14.82083,4.66743 -30.57127,2.48428 -45.77073,1.77891 -12.73612,-1.38937 -25.54797,-3.32683 -38.39353,-1.71111 -16.34937,1.18236 -32.64909,4.24385 -49.05693,3.8517 -20.55453,-2.6909 -40.24019,-9.31658 -60.15928,-14.63155 -17.871,-4.68465 -34.15897,-13.49369 -49.78769,-22.91716 -8.34827,-5.35124 -17.18592,-11.57123 -20.13215,-21.4329 -2.41519,-6.79062 -2.98428,-14.0617 -3.09124,-21.21709 z"
       id="path4365"
       inkscape:connector-curvature="0" />
    <path
       style="fill:#ffffff;stroke:none;stroke-width:1"
       d="m 255.74611,486.59733 c -23.27266,-23.83534 -20.48879,-35.75842 -16.41183,-49.14873 4.07679,-13.39047 8.97204,-25.16536 5.766,-32.83447 -3.20588,-7.66895 -10.93987,-14.22751 -17.30992,-18.09351 -6.37002,-3.86612 0.37438,-12.96194 1.66184,-22.47971 1.28739,-9.51792 -6.96124,-58.99857 -6.96124,-58.99857 0,0 -18.46628,33.89095 -21.4884,46.01372 -3.02229,12.1226 -4.17691,16.54274 -4.30975,21.64038 -0.13267,5.09782 1.0675,17.51673 6.55388,23.65787 5.48637,6.14113 13.38767,8.34016 18.4974,11.72826 5.10986,3.388 3.10789,14.22244 1.75318,24.94735 -1.3548,10.72489 -0.91888,18.61083 7.73931,32.21546 7.42161,11.66179 24.50953,21.35195 24.50953,21.35195 z"
       id="path3023-2"
       inkscape:connector-curvature="0"
       sodipodi:nodetypes="csssscssssssc" />
    <text
       xml:space="preserve"
       style="font-style:normal;font-variant:normal;font-weight:normal;font-stretch:normal;font-size:10.658px;line-height:0.01%;font-family:Arial;-inkscape-font-specification:Arial;letter-spacing:0px;word-spacing:0px;fill:#b8764f;fill-opacity:1;stroke:none;stroke-width:1"
       x="146.31161"
       y="792.88184"
       id="text969"
       transform="matrix(0.93043638,-0.40475701,0,1.0747645,0,0)"><tspan
         sodipodi:role="line"
         x="146.31161"
         y="792.88184"
         id="tspan967"
         style="fill:#b8764f;fill-opacity:1;stroke-width:1"><tspan
           x="146.31161"
           y="792.88184"
           style="font-style:normal;font-variant:normal;font-weight:normal;font-stretch:normal;font-size:42.6319px;line-height:1.25;font-family:Lavi;-inkscape-font-specification:Lavi;fill:#b8764f;fill-opacity:1;stroke-width:1"
           id="tspan965">Seli</tspan></tspan></text>
    <path
       style="fill:#ffffff;fill-rule:evenodd;stroke:none;stroke-width:0.896134px;stroke-linecap:butt;stroke-linejoin:miter;stroke-opacity:1"
       d="m 444.09126,1548.8957 c 27.74297,1.1959 67.13109,-18.7033 41.85756,-69.4699 45.35134,33.678 80.41683,24.2103 147.37921,-40.2063 -1.18299,82.0628 29.80511,71.8179 57.23942,53.7914 -25.61981,29.7205 24.08182,41.3762 50.42162,40.7264 -52.14166,64.01 -21.90205,80.4581 1.25716,100.994 -55.52084,-11.9888 -40.40666,20.4329 -45.84244,39.934 -49.27114,-39.0429 -82.73641,-26.0066 -107.3533,16.1838 -15.30905,-20.5486 -22.28945,-65.0776 -70.20899,8.2687 15.66762,-61.1734 -8.97272,-52.8327 -47.76668,-20.0832 5.18365,-20.8238 41.1189,-54.8312 -22.19417,-46.2897 38.56019,-22.6039 45.38474,-49.4327 -4.78939,-83.8492 z"
       id="path4584"
       inkscape:connector-curvature="0"
       sodipodi:nodetypes="cccccccccccc" />
    <path
       style="color:#000000;display:inline;overflow:visible;visibility:visible;fill:#ffffff;fill-opacity:1;fill-rule:nonzero;stroke:none;stroke-width:1px;marker:none;enable-background:accumulate"
       d="m 811.85574,1691.333 c -13.81416,11.4352 -28.07371,23.5268 -45.37048,28.6126 -4.94334,1.3415 -10.13724,2.383 -15.17734,1.997 -5.10914,-1.5938 -7.95117,-6.8567 -8.29553,-12.0924 -1.01963,-7.5052 0.9934,-15.9414 -3.08945,-22.6298 -3.09088,-4.7908 -9.22063,-4.9463 -14.32973,-5.5392 -13.06169,-1.2494 -26.43419,-0.6991 -39.15272,-4.0712 -14.5982,-2.8393 -29.71536,-6.9131 -40.9249,-17.0755 -4.36621,-4.0993 -8.34623,-9.031 -9.60144,-15.1479 -3.92579,-15.5158 0.93662,-33.8932 13.48534,-44.6997 8.61929,-6.1452 22.04985,-4.5663 27.3382,4.6491 2.86475,4.8194 1.99218,10.9537 -0.28824,15.9992 -2.51679,10.0054 0.79504,20.6754 7.64932,27.7427 5.55929,5.9304 12.9599,9.9511 20.86509,11.8157 9.98256,5.4504 21.83723,2.9201 32.79926,2.915 5.00527,0.073 10.31159,0.497 14.65191,3.0035 5.29618,5.1051 4.90278,13.2996 3.78431,20.2236 -0.97364,7.164 -2.89521,15.3934 1.47098,21.6216 2.44167,4.7598 8.43508,2.4997 12.74015,2.4695 13.91862,-1.9388 27.23033,-8.2543 38.53704,-16.9232 1.01948,-0.9054 1.96415,-1.8854 2.90823,-2.8706 z"
       id="path4496"
       inkscape:connector-curvature="0"
       inkscape:transform-center-x="15.738959"
       inkscape:transform-center-y="-33.216744" />
    <text
       xml:space="preserve"
       style="font-style:normal;font-variant:normal;font-weight:normal;font-stretch:normal;font-size:66.3306px;line-height:0.01%;font-family:Arial;-inkscape-font-specification:Arial;letter-spacing:0.0113298px;word-spacing:0px;display:inline;fill:#ffffff;fill-opacity:1;stroke:#fc5959;stroke-width:3.026;stroke-miterlimit:4;stroke-dasharray:none;stroke-opacity:1"
       x="2100.5652"
       y="1099.4115"
       id="text1105"
       transform="matrix(1.0092628,0.17044443,-0.63347357,0.88384115,0,0)"><tspan
         sodipodi:role="line"
         x="2127.418"
         y="1099.4115"
         id="tspan1103"
         style="font-style:normal;font-variant:normal;font-weight:normal;font-stretch:normal;font-family:Lavi;-inkscape-font-specification:Lavi;fill:#ffffff;fill-opacity:1;stroke:#fc5959;stroke-width:3.026;stroke-miterlimit:4;stroke-dasharray:none;stroke-opacity:1"><tspan
           x="2127.418"
           y="1099.4115"
           style="font-style:normal;font-variant:normal;font-weight:normal;font-stretch:normal;font-size:54.7739px;font-family:Lavi;-inkscape-font-specification:Lavi;fill:#ffffff;fill-opacity:1;stroke:#fc5959;stroke-width:3.026;stroke-miterlimit:4;stroke-dasharray:none;stroke-opacity:1"
           id="tspan1095">SuuNNNOO</tspan></tspan></text>
    <path
       style="color:#000000;display:inline;overflow:visible;visibility:visible;fill:#ffffff;fill-opacity:1;fill-rule:nonzero;stroke:none;stroke-width:1px;marker:none;enable-background:accumulate"
       d="m 840.39099,2415.3952 c -69.73645,-6.1112 -169.34955,-17.0892 -190.02994,-62.9999 -20.68034,-45.9109 12.19681,-120.7647 52.25191,-147.1359 40.05497,-26.3711 106.78152,-34.6866 167.26051,-27.4365 60.47903,7.2501 142.00623,3.8059 161.46763,46.905 19.4617,43.0989 47.4562,119.3664 -8.2671,157.6266 -63.50017,43.6 -182.55349,33.2659 -182.68301,33.0407 z"
       id="path3970-1"
       inkscape:connector-curvature="0"
       sodipodi:nodetypes="ccccssc" />
    <path
       style="opacity:1;fill:#ffffff;fill-rule:evenodd;stroke:none;stroke-width:1px;stroke-linecap:butt;stroke-linejoin:miter;stroke-opacity:1"
       d="m 740.99257,2678.9224 c 81.33155,-3.7713 135.73985,-70.9891 126.35903,-170.042 -0.7356,-13.0761 -2.22429,-73.8821 -3.69549,-94.3134 -1.4712,-20.4314 -28.77037,-38.6153 -26.56347,-14.9149 2.2069,23.7004 2.37118,102.019 6.25838,120.7638 11.59073,90.9486 -48.83803,137.4097 -102.35845,158.5065 z"
       id="path4272"
       inkscape:connector-curvature="0"
       sodipodi:nodetypes="ccsscc" />
    <path
       style="fill:#ffffff;fill-opacity:1;stroke:none;stroke-width:1"
       d="m 1593.4233,2377.398 c 25.098,-90.6375 30.9041,-125.5153 312.3599,-121.5449 246.2087,3.4731 304.5049,48.3761 320.7901,108.3246 16.719,41.2377 52.9928,124.4889 -95.3931,168.667 -148.3863,44.1782 -444.9775,21.0512 -492.2134,-18.5534 -51.731,-45.7684 -44.1765,-106.3673 -45.5435,-136.8933 z"
       id="path3238"
       inkscape:connector-curvature="0"
       sodipodi:nodetypes="cscccc" />
    <path
       style="fill:#ffffff;stroke:none;stroke-width:1"
       d="m 1667.7291,2850.623 c -28.0273,-50.6036 -13.2215,-93.7285 1.8965,-108.2057 15.1178,-14.4771 50.6778,-42.8284 50.9445,-56.9806 0.2668,-14.1522 -15.4826,-50.9134 -21.5889,-63.5846 -7.7887,-16.1627 79.2563,-67.9419 87.5629,-79.9355 8.3067,-11.9938 19.7346,-62.3727 19.7346,-62.3727 0,0 -50.6027,28.0238 -63.2766,41.8377 -12.6739,13.8139 -6.0044,5.2923 -9.6101,12.305 -3.6058,7.0127 -71.1709,62.8269 -66.9634,77.2471 4.2073,14.4202 23.4056,61.9081 28.8814,72.067 5.4761,10.1588 -29.6375,37.3716 -38.8524,50.9878 -9.2149,13.6163 -19.5808,32.142 -19.0015,56.4166 0.5543,23.2298 30.273,60.2179 30.273,60.2179 z"
       id="path3023"
       inkscape:connector-curvature="0"
       sodipodi:nodetypes="csssscssssssc" />
    <path
       style="fill:#ffffff;fill-rule:evenodd;stroke:none;stroke-width:0.893541px;stroke-linecap:butt;stroke-linejoin:miter;stroke-opacity:1"
       d="m 1674.2354,162.89485 -52.5627,61.32191 11.7974,88.79284 149.2668,24.53248 303.8645,-12.26624 79.9645,-65.41995 21.3238,-77.68618 -55.9751,-75.64181 -380.028,4.96888 z"
       id="path5054"
       inkscape:connector-curvature="0"
       sodipodi:nodetypes="cccccccccc" />
    <path
       style="color:#000000;display:inline;overflow:visible;visibility:visible;fill:#ffffff;fill-opacity:1;fill-rule:nonzero;stroke:none;stroke-width:1.23743px;marker:none;enable-background:accumulate"
       d="m 2194.9249,390.7352 c -72.7552,-1.15715 -103.4818,-14.80085 -121.4255,-35.17732 -17.9436,-20.37652 -3.0399,-53.27342 28.485,-64.92189 31.5249,-11.64849 74.177,-12.829 123.5478,-11.28681 89.2103,2.78663 151.0004,11.56823 157.9856,43.16595 6.9357,31.37276 1.3684,48.0176 -64.2081,62.95799 -61.7324,8.59876 -124.3848,5.26208 -124.3848,5.26208 z"
       id="path3970"
       inkscape:connector-curvature="0"
       sodipodi:nodetypes="cccsscc" />
    <path
       style="fill:#ffffff;fill-opacity:1;fill-rule:evenodd;stroke:none;stroke-width:1px;stroke-linecap:butt;stroke-linejoin:miter;stroke-opacity:1"
       d="m 1953.4724,434.10372 -27.8644,88.23056 42.074,79.17869 204.4572,-4.38223 151.9189,-1.97462 79.8913,-33.95291 -2.1833,-136.10658 -65.021,-43.68042 -154.2005,-9.39154 -143.5945,9.87307 z"
       id="path5075"
       inkscape:connector-curvature="0"
       sodipodi:nodetypes="ccccccccccc" />
    <path
       style="color:#000000;display:inline;overflow:visible;visibility:visible;fill:#ffffff;fill-opacity:1;fill-rule:nonzero;stroke:none;stroke-width:1.23743px;marker:none;enable-background:accumulate"
       d="m 2172.822,725.14275 c -84.0355,-1.42561 -119.526,-18.2346 -140.2518,-43.33833 -20.7256,-25.10381 -3.5112,-65.63267 32.9014,-79.98355 36.4127,-14.35089 85.6777,-15.80527 142.7031,-13.90531 103.0418,3.43313 174.4121,14.25203 182.4803,53.18031 8.011,38.65111 1.5805,59.15751 -74.1632,77.56401 -71.3036,10.59365 -143.6698,6.48287 -143.6698,6.48287 z"
       id="path3970-36"
       inkscape:connector-curvature="0"
       sodipodi:nodetypes="cccsscc" />
    <path
       style="fill:#ffffff;fill-rule:evenodd;stroke:none;stroke-width:1px;stroke-linecap:butt;stroke-linejoin:miter;stroke-opacity:1"
       d="m 1968.3057,729.12617 c 29.3,2.37711 72.2049,-8.86576 48.5171,-44.65472 45.9784,25.3572 83.676,20.93055 158.4669,-18.88537 -6.2152,55.47661 27.2126,50.29343 57.3483,39.64259 -28.9219,18.66829 22.9941,29.36578 50.9203,30.41443 -59.0751,40.37812 -28.0541,53.21963 -4.7766,68.4278 -58.0567,-11.25186 -44.0155,11.54652 -50.9499,24.43851 -49.804,-29.21 -86.0232,-22.27747 -114.6373,4.88772 -14.9656,-14.7732 -19.6631,-45.30676 -74.8327,1.62921 20.2873,-40.51926 -6.3047,-36.26621 -49.3578,-16.29228 6.7475,-13.8014 46.8499,-34.78842 -20.6983,-32.58474 42.1919,-13.12034 51.0396,-30.8935 0,-57.02315 z"
       id="path4584-1"
       inkscape:connector-curvature="0"
       sodipodi:nodetypes="cccccccccccc" />
    <path
       style="fill:#ffffff;fill-opacity:1;fill-rule:evenodd;stroke:none;stroke-width:1px;stroke-linecap:butt;stroke-linejoin:miter;stroke-opacity:1"
       d="m 2192.1793,975.56231 103.155,24.0207 17.1925,79.56829 -54.0902,46.5596 -176.0909,7.6239 -229.4538,0.02 -61.4301,-31.6838 1.3225,-64.5554 71.415,-49.54259 167.9575,-24.0205 z"
       id="path5161"
       inkscape:connector-curvature="0"
       sodipodi:nodetypes="ccccccccccc" />
    <path
       style="color:#000000;display:inline;overflow:visible;visibility:visible;fill:#ffffff;fill-opacity:1;fill-rule:nonzero;stroke:none;stroke-width:1.15861px;marker:none;enable-background:accumulate"
       d="m 466.38266,1531.336 c -80.18026,-1.394 -114.04258,-17.8307 -133.81756,-42.3783 -19.7748,-24.5477 -3.35012,-64.1787 31.392,-78.2117 34.74222,-14.033 81.74713,-15.4551 136.15641,-13.5974 98.31463,3.3572 166.41072,13.9364 174.10879,52.0024 7.64348,37.7949 1.50799,57.847 -70.76087,75.8458 -68.03246,10.3589 -137.07877,6.3392 -137.07877,6.3392 z"
       id="path3970-36-4"
       inkscape:connector-curvature="0"
       sodipodi:nodetypes="cccsscc" />
    <path
       style="color:#000000;display:inline;overflow:visible;visibility:visible;fill:#ffffff;fill-opacity:1;fill-rule:nonzero;stroke:none;stroke-width:1px;marker:none;enable-background:accumulate"
       d="m 1663.8731,2265.1373 c -3.5165,-25.3235 8.9906,-44.1378 16.0961,-53.122 7.1056,-8.9843 55.3942,-32.6555 73.7381,-34.6185 18.3439,-1.9629 96.0697,8.2236 111.5859,25.0671 29.6665,41.0213 18.474,80.0335 -42.9956,103.2882 -11.6372,4.3293 -45.7148,10.0318 -56.9894,10.2104 -11.2746,0.1784 -99.3687,-8.8986 -101.4351,-50.8252 z"
       id="path3357"
       inkscape:connector-curvature="0"
       sodipodi:nodetypes="ccccccc" />
    <text
       xml:space="preserve"
       style="font-style:normal;font-variant:normal;font-weight:normal;font-stretch:normal;line-height:0%;font-family:Lavi;-inkscape-font-specification:Lavi;text-align:center;letter-spacing:0px;word-spacing:0px;text-anchor:middle;display:inline;opacity:0.358;fill:#000000;fill-opacity:1;stroke:none;stroke-width:1.45996;filter:url(#filter4210)"
       x="1174.0292"
       y="1085.962"
       id="text4246-5"
       transform="matrix(0.59859266,-0.06157078,0.00633293,0.63548918,541.82445,2358.5786)"><tspan
         sodipodi:role="line"
         style="font-style:normal;font-variant:normal;font-weight:normal;font-stretch:normal;font-size:45.0081px;line-height:1.25;font-family:Fondamento;-inkscape-font-specification:Fondamento;stroke:#000000;stroke-width:4.95442;stroke-miterlimit:4;stroke-dasharray:none;stroke-opacity:1"
         x="1174.0292"
         y="1085.962"
         id="tspan4217">lipu KOMONA</tspan><tspan
         sodipodi:role="line"
         style="font-style:normal;font-variant:normal;font-weight:normal;font-stretch:normal;font-size:45.0081px;line-height:1.25;font-family:Fondamento;-inkscape-font-specification:Fondamento;stroke:#000000;stroke-width:4.95442;stroke-miterlimit:4;stroke-dasharray:none;stroke-opacity:1"
         x="1174.0292"
         y="1142.2222"
         id="tspan4207"> </tspan><tspan
         sodipodi:role="line"
         style="font-style:normal;font-variant:normal;font-weight:normal;font-stretch:normal;font-size:45.0081px;line-height:1.25;font-family:Fondamento;-inkscape-font-specification:Fondamento;stroke:#000000;stroke-width:4.95442;stroke-miterlimit:4;stroke-dasharray:none;stroke-opacity:1"
         x="1179.5233"
         y="1198.4823"
         id="tspan4209"> </tspan></text>
    <path
       style="color:#000000;display:inline;overflow:visible;visibility:visible;fill:#ffffff;fill-opacity:1;fill-rule:nonzero;stroke:none;stroke-width:1px;marker:none;enable-background:accumulate"
       d="m 1589.7943,157.61754 c -8.8614,-24.36709 -33.8637,-38.6263 -43.4322,-37.17458 -9.5684,1.45169 37.9222,-18.88289 66.1459,18.41098 28.2236,37.29379 -9.2438,35.86676 -9.2438,35.86676 z"
       id="path4035-5"
       inkscape:connector-curvature="0" />
    <path
       style="color:#000000;display:inline;overflow:visible;visibility:visible;fill:#ffffff;fill-opacity:1;fill-rule:nonzero;stroke:none;stroke-width:1px;marker:none;enable-background:accumulate"
       d="m 1316.9724,411.08671 c 59.7698,37.7282 26.9131,115.63535 -8.523,127.33445 38.815,-5.69719 107.6543,-77.73022 42.1661,-140.88089 -140.721,-135.6979 -91.9073,-21.1982 -91.9073,-21.1982 z"
       id="path4035"
       inkscape:connector-curvature="0"
       sodipodi:nodetypes="ccscc" />
    <path
       style="color:#000000;display:inline;overflow:visible;visibility:visible;fill:#ffffff;fill-opacity:1;fill-rule:nonzero;stroke:none;stroke-width:1px;marker:none;enable-background:accumulate"
       d="m 1112.6921,89.58375 c 83.3367,4.792092 338.767,-8.461992 325.2971,159.67372 -15.2624,190.51029 -49.4678,180.14179 -349.7095,182.83157 C 969.43963,433.1537 730.71584,429.72671 722.98019,330.93521 665.94776,20.507733 995.21183,93.312657 1112.6921,89.58375 Z"
       id="path4546-6"
       inkscape:connector-curvature="0"
       sodipodi:nodetypes="csscc" />
    <path
       style="color:#000000;display:inline;overflow:visible;visibility:visible;fill:#ffffff;fill-opacity:1;fill-rule:nonzero;stroke:none;stroke-width:1.23743px;marker:none;enable-background:accumulate"
       d="m 1603.1577,218.81569 c -72.2705,4.52699 -82.9245,-16.41582 -77.0834,-44.57794 7.3914,-35.63688 40.8892,-42.89308 85.1879,-41.5388 49.1997,0.26824 73.5251,7.0858 79.0271,22.20114 8.6871,23.86573 9.3102,47.69261 -16.5628,58.46055 -32.9494,8.01405 -70.5688,5.45505 -70.5688,5.45505 z"
       id="path3970-6"
       inkscape:connector-curvature="0"
       sodipodi:nodetypes="cscscc" />
  </g>
  <g
     inkscape:groupmode="layer"
     id="layer1"
     inkscape:label="txt"
     style="display:inline">
    <text
       xml:space="preserve"
       style="font-style:normal;font-variant:normal;font-weight:normal;font-stretch:normal;line-height:0%;font-family:Lavi;-inkscape-font-specification:Lavi;text-align:center;letter-spacing:0px;word-spacing:0px;text-anchor:middle;fill:#000000;fill-opacity:1;stroke:none"
       x="258.49622"
       y="188.50803"
       id="text4246"><tspan
         sodipodi:role="line"
         style="font-size:45px;line-height:1.25"
         x="258.49622"
         y="188.50803"
         id="tspan4252">ken la...</tspan></text>
    <text
       xml:space="preserve"
       style="font-style:normal;font-variant:normal;font-weight:normal;font-stretch:normal;line-height:0%;font-family:Lavi;-inkscape-font-specification:Lavi;text-align:center;letter-spacing:0px;word-spacing:0px;text-anchor:middle;fill:#000000;fill-opacity:1;stroke:none"
       x="290.8338"
       y="279.57104"
       id="text4246-3"><tspan
         sodipodi:role="line"
         style="font-size:45px;line-height:1.25"
         x="290.8338"
         y="279.57104"
         id="tspan137">sona mi li </tspan><tspan
         sodipodi:role="line"
         style="font-size:45px;line-height:1.25"
         x="290.8338"
         y="335.82104"
         id="tspan129">kama...</tspan></text>
    <text
       xml:space="preserve"
       style="font-style:normal;font-variant:normal;font-weight:normal;font-stretch:normal;line-height:0%;font-family:Lavi;-inkscape-font-specification:Lavi;text-align:center;letter-spacing:0px;word-spacing:0px;text-anchor:middle;fill:#000000;fill-opacity:1;stroke:none"
       x="1072.6111"
       y="158.58156"
       id="text4246-3-7"><tspan
         sodipodi:role="line"
         style="font-size:45px;line-height:1.25"
         x="1072.6111"
         y="158.58156"
         id="tspan140">pona a! lipu pi </tspan><tspan
         sodipodi:role="line"
         style="font-size:45px;line-height:1.25"
         x="1072.6111"
         y="214.83156"
         id="tspan144">&quot;wawa pakala&quot; la, jan Tume li </tspan><tspan
         sodipodi:role="line"
         style="font-size:45px;line-height:1.25"
         x="1072.6111"
         y="271.08154"
         id="tspan148">toki e ni: ma poki lili li pona </tspan><tspan
         sodipodi:role="line"
         style="font-size:45px;line-height:1.25"
         x="1072.6111"
         y="327.33154"
         id="tspan782">tawa ona. taso o lukin e </tspan><tspan
         sodipodi:role="line"
         style="font-size:45px;line-height:1.25"
         x="1072.6111"
         y="383.58154"
         id="tspan156">toki ni pi ike ken:</tspan></text>
    <text
       xml:space="preserve"
       style="font-style:normal;font-variant:normal;font-weight:normal;font-stretch:normal;line-height:0%;font-family:Lavi;-inkscape-font-specification:Lavi;text-align:center;letter-spacing:0px;word-spacing:0px;text-anchor:middle;fill:#000000;fill-opacity:1;stroke:none"
       x="595.37494"
       y="1564.9316"
       id="text4246-3-7-6"><tspan
         sodipodi:role="line"
         style="font-size:45px;line-height:1.25"
         x="595.37494"
         y="1564.9316"
         id="tspan4386">mi o</tspan><tspan
         sodipodi:role="line"
         style="font-size:45px;line-height:1.25"
         x="595.37494"
         y="1621.1816"
         id="tspan125">pali!</tspan></text>
    <text
       xml:space="preserve"
       style="font-style:normal;font-variant:normal;font-weight:normal;font-stretch:normal;line-height:0%;font-family:Lavi;-inkscape-font-specification:Lavi;text-align:center;letter-spacing:0px;word-spacing:0px;text-anchor:middle;fill:#000000;fill-opacity:1;stroke:none"
       x="852.55774"
       y="2246.0481"
       id="text4246-3-7-6-1"><tspan
         sodipodi:role="line"
         style="font-size:45px;line-height:1.25"
         x="852.55774"
         y="2246.0481"
         id="tspan4390">seme? </tspan><tspan
         sodipodi:role="line"
         style="font-size:45px;line-height:1.25"
         x="852.55774"
         y="2302.2981"
         id="tspan1063">jan Pepa li pali ala </tspan><tspan
         sodipodi:role="line"
         style="font-size:45px;line-height:1.25"
         x="852.55774"
         y="2358.5481"
         id="tspan1067">pali e ma poki?</tspan></text>
    <text
       xml:space="preserve"
       style="font-style:normal;font-variant:normal;font-weight:normal;font-stretch:normal;line-height:0%;font-family:Lavi;-inkscape-font-specification:Lavi;letter-spacing:0px;word-spacing:0px;fill:#ffffff;fill-opacity:1;stroke:#c83737;stroke-width:0.992362;stroke-miterlimit:4;stroke-dasharray:none;stroke-opacity:1;filter:url(#filter4375-4-1-1-1-9-5-8)"
       x="787.65729"
       y="1584.5073"
       id="text4580-6-0"
       transform="matrix(0.83434398,-0.14790328,-0.40858731,0.88612324,1164.5415,879.45338)"><tspan
         sodipodi:role="line"
         id="tspan4582-1-1"
         x="787.65729"
         y="1584.5073"
         style="font-size:70px;line-height:1.25;fill:#ffffff;fill-opacity:1;stroke:#c83737;stroke-opacity:1"><tspan
           style="font-size:93.1495px;fill:#ffffff;fill-opacity:1;stroke:#c83737;stroke-opacity:1"
           id="tspan4315-8">Selllooo!</tspan><tspan
           style="font-size:114.732px;fill:#ffffff;fill-opacity:1;stroke:#c83737;stroke-opacity:1"
           id="tspan4313-2">!</tspan></tspan></text>
    <text
       xml:space="preserve"
       style="font-style:normal;font-variant:normal;font-weight:normal;font-stretch:normal;line-height:0%;font-family:Lavi;-inkscape-font-specification:Lavi;text-align:center;letter-spacing:0px;word-spacing:0px;text-anchor:middle;fill:#000000;fill-opacity:1;stroke:none"
       x="1775.6528"
       y="2253.0674"
       id="text4246-3-7-6-1-7"><tspan
         sodipodi:role="line"
         style="font-size:45px;line-height:1.25"
         x="1775.6528"
         y="2253.0674"
         id="tspan1274">pona!</tspan></text>
    <text
       xml:space="preserve"
       style="font-style:normal;font-variant:normal;font-weight:normal;font-stretch:normal;line-height:0%;font-family:Lavi;-inkscape-font-specification:Lavi;text-align:center;letter-spacing:0px;word-spacing:0px;text-anchor:middle;fill:#483200;fill-opacity:1;stroke:none;stroke-width:1.8;stroke-miterlimit:4;stroke-dasharray:none"
       x="2363.615"
       y="450.32605"
       id="text4246-3-7-3"
       transform="skewX(-20)"><tspan
         sodipodi:role="line"
         style="font-size:45px;line-height:1.25;fill:#080600;fill-opacity:1;stroke-width:1.8;stroke-miterlimit:4;stroke-dasharray:none"
         x="2363.615"
         y="450.32605"
         id="tspan175">“<tspan
   style="fill:#080600;fill-opacity:1;stroke:#000000;stroke-width:1.8;stroke-miterlimit:4;stroke-dasharray:none;stroke-opacity:1"
   id="tspan1025">O TAWA ALA</tspan> e </tspan><tspan
         sodipodi:role="line"
         style="font-size:45px;line-height:1.25;fill:#080600;fill-opacity:1;stroke-width:1.8;stroke-miterlimit:4;stroke-dasharray:none"
         x="2363.615"
         y="506.57605"
         id="tspan181">ijo pali lon ma ante. </tspan><tspan
         sodipodi:role="line"
         style="font-size:45px;line-height:1.25;fill:#080600;fill-opacity:1;stroke-width:1.8;stroke-miterlimit:4;stroke-dasharray:none"
         x="2363.615"
         y="562.82605"
         id="tspan887-7">ike li kama tan ni.</tspan></text>
    <text
       xml:space="preserve"
       style="font-style:normal;font-variant:normal;font-weight:normal;font-stretch:normal;line-height:0%;font-family:Lavi;-inkscape-font-specification:Lavi;text-align:center;letter-spacing:0px;word-spacing:0px;text-anchor:middle;fill:#000000;fill-opacity:1;stroke:none;stroke-width:1.8;stroke-miterlimit:4;stroke-dasharray:none"
       x="1992.1534"
       y="175.34833"
       id="text4246-3-7-3-2"
       transform="skewX(-20)"><tspan
         sodipodi:role="line"
         style="font-size:45px;line-height:1.25;fill:#000000;fill-opacity:1;stroke-width:1.8;stroke-miterlimit:4;stroke-dasharray:none"
         x="1992.1534"
         y="175.34833"
         id="tspan887-7-2">“<tspan
   style="fill:#000000;fill-opacity:1;stroke:#000000;stroke-width:1.8;stroke-miterlimit:4;stroke-dasharray:none;stroke-opacity:1"
   id="tspan1025-9">O PANA ALA</tspan> e</tspan><tspan
         sodipodi:role="line"
         style="font-size:45px;line-height:1.25;fill:#000000;fill-opacity:1;stroke-width:1.8;stroke-miterlimit:4;stroke-dasharray:none"
         x="1992.1534"
         y="231.59833"
         id="tspan4838">wawa Lonaa sina ale</tspan><tspan
         sodipodi:role="line"
         style="font-size:45px;line-height:1.25;fill:#000000;fill-opacity:1;stroke-width:1.8;stroke-miterlimit:4;stroke-dasharray:none"
         x="1992.1534"
         y="287.84833"
         id="tspan4842">tawa pali pi ma poki.”</tspan></text>
    <text
       xml:space="preserve"
       style="font-style:normal;font-variant:normal;font-weight:normal;font-stretch:normal;line-height:0%;font-family:Lavi;-inkscape-font-specification:Lavi;text-align:center;letter-spacing:0px;word-spacing:0px;text-anchor:middle;fill:#483200;fill-opacity:1;stroke:none;stroke-width:1.3;stroke-miterlimit:4;stroke-dasharray:none"
       x="2390.0383"
       y="866.474"
       id="text4246-3-7-3-7"
       transform="skewX(-20)"><tspan
         sodipodi:role="line"
         style="font-size:45px;line-height:1.25;fill:#000000;fill-opacity:1;stroke-width:1.3;stroke-miterlimit:4;stroke-dasharray:none"
         x="2390.0383"
         y="866.474"
         id="tspan1038">“jan ante li <tspan
   style="fill:#000000;fill-opacity:1;stroke:#000000;stroke-width:1.3;stroke-miterlimit:4;stroke-dasharray:none;stroke-opacity:1"
   id="tspan1025-8">KEN ALA</tspan> </tspan><tspan
         sodipodi:role="line"
         style="font-size:45px;line-height:1.25;fill:#000000;fill-opacity:1;stroke-width:1.3;stroke-miterlimit:4;stroke-dasharray:none"
         x="2390.0383"
         y="922.724"
         id="tspan1050">pana e pona tan insa ala pi </tspan><tspan
         sodipodi:role="line"
         style="font-size:45px;line-height:1.25;fill:#000000;fill-opacity:1;stroke-width:1.3;stroke-miterlimit:4;stroke-dasharray:none"
         x="2390.0383"
         y="978.974"
         id="tspan1054">ma poki...</tspan></text>
    <text
       xml:space="preserve"
       style="font-style:normal;font-variant:normal;font-weight:normal;font-stretch:normal;line-height:0%;font-family:Lavi;-inkscape-font-specification:Lavi;text-align:center;letter-spacing:0px;word-spacing:0px;text-anchor:middle;fill:#000000;fill-opacity:1;stroke:none"
       x="2228.116"
       y="354.75421"
       id="text4246-3-7-61"><tspan
         sodipodi:role="line"
         style="font-size:45px;line-height:1.25"
         x="2228.116"
         y="354.75421"
         id="tspan887-1">mi sona.</tspan></text>
    <text
       xml:space="preserve"
       style="font-style:normal;font-variant:normal;font-weight:normal;font-stretch:normal;line-height:0%;font-family:Lavi;-inkscape-font-specification:Lavi;text-align:center;letter-spacing:0px;word-spacing:0px;text-anchor:middle;fill:#000000;fill-opacity:1;stroke:#000000;stroke-width:0.6;stroke-miterlimit:4;stroke-dasharray:none;stroke-opacity:1"
       x="2135.0286"
       y="772.58179"
       id="text4246-3-7-61-9"><tspan
         sodipodi:role="line"
         style="font-size:45px;line-height:1.25;stroke:#000000;stroke-width:0.6;stroke-miterlimit:4;stroke-dasharray:none;stroke-opacity:1"
         x="2135.0286"
         y="772.58179"
         id="tspan887-1-4">ni li pona!</tspan></text>
    <text
       xml:space="preserve"
       style="font-style:normal;font-variant:normal;font-weight:normal;font-stretch:normal;line-height:0%;font-family:Lavi;-inkscape-font-specification:Lavi;text-align:center;letter-spacing:0px;word-spacing:0px;text-anchor:middle;fill:#000000;fill-opacity:1;stroke:none"
       x="2213.0144"
       y="675.17279"
       id="text4246-3-7-61-7"><tspan
         sodipodi:role="line"
         style="font-weight:bold;font-size:45px;line-height:1.25"
         x="2213.0144"
         y="675.17279"
         id="tspan887-1-8">a a... mi sona!</tspan></text>
    <text
       xml:space="preserve"
       style="font-style:normal;font-variant:normal;font-weight:normal;font-stretch:normal;line-height:0%;font-family:Lavi;-inkscape-font-specification:Lavi;text-align:center;letter-spacing:0px;word-spacing:0px;text-anchor:middle;fill:#000000;fill-opacity:1;stroke:none"
       x="1611.2759"
       y="186.1888"
       id="text4246-3-7-61-4"><tspan
         sodipodi:role="line"
         style="font-size:45px;line-height:1.25"
         x="1611.2759"
         y="186.1888"
         id="tspan887-1-5">a...</tspan></text>
    <text
       xml:space="preserve"
       style="font-style:normal;font-variant:normal;font-weight:normal;font-stretch:normal;line-height:0%;font-family:Lavi;-inkscape-font-specification:Lavi;text-align:center;letter-spacing:0px;word-spacing:0px;text-anchor:middle;fill:#483200;fill-opacity:1;stroke:#483200;stroke-width:1.3;stroke-miterlimit:4;stroke-dasharray:none;stroke-opacity:1"
       x="2443.8313"
       y="1039.4984"
       id="text4246-3-7-3-7-0"
       transform="skewX(-20)"><tspan
         sodipodi:role="line"
         style="font-size:45px;line-height:1.25;fill:#000000;fill-opacity:1;stroke:#000000;stroke-width:1.3;stroke-miterlimit:4;stroke-dasharray:none;stroke-opacity:1"
         x="2443.8313"
         y="1039.4984"
         id="tspan1015">...jan ala li ken lukin </tspan><tspan
         sodipodi:role="line"
         style="font-size:45px;line-height:1.25;fill:#000000;fill-opacity:1;stroke:#000000;stroke-width:1.3;stroke-miterlimit:4;stroke-dasharray:none;stroke-opacity:1"
         x="2443.8313"
         y="1095.7484"
         id="tspan1020">e sina lon insa<tspan
   style="letter-spacing:0.76px"
   id="tspan135">!</tspan>”</tspan></text>
    <text
       xml:space="preserve"
       style="font-style:normal;font-variant:normal;font-weight:normal;font-stretch:normal;line-height:0%;font-family:Lavi;-inkscape-font-specification:Lavi;text-align:center;letter-spacing:0px;word-spacing:0px;text-anchor:middle;fill:#000000;fill-opacity:1;stroke:none"
       x="1907.6078"
       y="2334.0767"
       id="text4246-3-7-6-1-7-6"><tspan
         sodipodi:role="line"
         style="font-size:45px;line-height:1.25"
         x="1907.6078"
         y="2334.0767"
         id="tspan1274-5">taso ona o lukin mute e </tspan><tspan
         sodipodi:role="line"
         style="font-size:45px;line-height:1.25"
         x="1907.6078"
         y="2390.3267"
         id="tspan1078">pona e sitelen ale mi </tspan><tspan
         sodipodi:role="line"
         style="font-size:45px;line-height:1.25"
         x="1907.6078"
         y="2446.5767"
         id="tspan1080">lon lipu mi pi wawa pakala.</tspan></text>
    <text
       xml:space="preserve"
       style="font-style:normal;font-variant:normal;font-weight:normal;font-stretch:normal;line-height:0%;font-family:Lavi;-inkscape-font-specification:Lavi;text-align:center;letter-spacing:0px;word-spacing:0px;text-anchor:middle;fill:#000000;fill-opacity:1;stroke:none"
       x="496.91153"
       y="1473.9211"
       id="text4246-3-7-61-7-7"><tspan
         sodipodi:role="line"
         style="font-size:45px;line-height:1.25"
         x="496.91153"
         y="1473.9211"
         id="tspan5199">ni li pona a!</tspan></text>
    <text
       xml:space="preserve"
       style="font-style:normal;font-variant:normal;font-weight:normal;font-stretch:normal;line-height:0%;font-family:Lavi;-inkscape-font-specification:Lavi;text-align:center;letter-spacing:0px;word-spacing:0px;text-anchor:middle;fill:#000000;fill-opacity:1;stroke:#000000;stroke-width:0.9;stroke-miterlimit:4;stroke-dasharray:none;stroke-opacity:1"
       x="378.70123"
       y="1327.1586"
       id="text4246-3-7-61-7-7-2"><tspan
         sodipodi:role="line"
         style="font-size:45px;line-height:1.25;stroke:#000000;stroke-width:0.9;stroke-miterlimit:4;stroke-dasharray:none;stroke-opacity:1"
         x="378.70123"
         y="1327.1586"
         id="tspan5199-4">jan ala</tspan></text>
    <text
       xml:space="preserve"
       style="font-style:normal;font-variant:normal;font-weight:normal;font-stretch:normal;line-height:0%;font-family:Lavi;-inkscape-font-specification:Lavi;text-align:center;letter-spacing:0px;word-spacing:0px;text-anchor:middle;fill:#000000;fill-opacity:1;stroke:none"
       x="447.58618"
       y="1393.7435"
       id="text4246-3-7-61-7-7-7"><tspan
         sodipodi:role="line"
         style="font-size:45px;line-height:1.25"
         x="447.58618"
         y="1393.7435"
         id="tspan5199-43">anu seme!?</tspan></text>
  </g>
</svg>
